{
  "page": 5,
  "totalPages": 5,
  "total": 89,
  "data": [
    {
      "id": 1045,
      "post_uuid": "0196d379-5a51-4bf9-7d39-95ead4d1e23f",
      "title_ko": null,
      "title_zh": null,
      "content_ko": "EDAM에서 오늘 밤 12시에 케익 대박으로 준비해줬을 거 같아?",
      "content_zh": "EDAM今晚12点应该准备了大蛋糕吧？",
      "post_time": "2025-05-15 10:24:27",
      "image_count": 0,
      "image_urls": null,
      "local_image_paths": null,
      "likes": 0,
      "comments": 0,
      "views": 0,
      "board": "Free",
      "members_only": 0,
      "author_username": "지은의딸기우유",
      "author_avatar": null,
      "author_local_avatar": null,
      "fan_comments": [],
      "direct_iu_replies": [
        {
          "id": 1879,
          "content_ko": "어제 해줬어 😊",
          "content_zh": "昨天做了 😊",
          "image_count": 0,
          "image_urls": null,
          "local_image_paths": null,
          "replied_at": "2025-05-15 11:16:49"
        }
      ]
    },
    {
      "id": 1051,
      "post_uuid": "0196d334-053c-916f-6e9f-50e03f5b5faa",
      "title_ko": null,
      "title_zh": null,
      "content_ko": "요 눈사람☃️ 8기 상징 같은데\n언니는 항상 멀리 보고 계셨군요! 너무 좋아요🤍",
      "content_zh": "哟，雪人☃️ 这不是第八季的象征吗\n姐姐总是看得那么远呢！太喜欢了🤍",
      "post_time": "2025-05-15 09:08:43",
      "image_count": 1,
      "image_urls": "https://dearimage.iu101.org/images/posts/post_1051_860529076.jpeg",
      "local_image_paths": "https://dearimage.iu101.org/images/posts/post_1051_860529076.jpeg",
      "likes": 0,
      "comments": 0,
      "views": 0,
      "board": "Free",
      "members_only": 0,
      "author_username": "수림",
      "author_avatar": null,
      "author_local_avatar": null,
      "fan_comments": [],
      "direct_iu_replies": [
        {
          "id": 1885,
          "content_ko": "이거 뱀의 탈을 쓴 럭77ㅣ인뎅..🤫",
          "content_zh": "这个是蛇脱皮的luck77..🤫",
          "image_count": 0,
          "image_urls": null,
          "local_image_paths": null,
          "replied_at": "2025-05-15 09:41:27"
        }
      ]
    },
    {
      "id": 1053,
      "post_uuid": "0196d314-8a4e-47b7-173d-6568685ec31a",
      "title_ko": null,
      "title_zh": null,
      "content_ko": "금명이 운전씬 그거 운전면허 있어야 할수 있는 씬인거 같은데 근데 운전면허 없으신데 어케 촬영 한거에요??",
      "content_zh": "金明的开车场景那个好像需要驾照才能拍的镜头，但是没有驾照是怎么拍的？",
      "post_time": "2025-05-15 08:34:20",
      "image_count": 0,
      "image_urls": null,
      "local_image_paths": null,
      "likes": 0,
      "comments": 0,
      "views": 0,
      "board": "Free",
      "members_only": 0,
      "author_username": "뮈푀",
      "author_avatar": null,
      "author_local_avatar": null,
      "fan_comments": [],
      "direct_iu_replies": [
        {
          "id": 1887,
          "content_ko": "세트장에서 씨지로!! 면허 여부 상관 없이 요즘엔 촬영장에서 많이들 그렇게 하는 추세래요!",
          "content_zh": "在摄影棚里开CG!!听说现在不管有没有驾照，片场都流行这样开",
          "image_count": 0,
          "image_urls": null,
          "local_image_paths": null,
          "replied_at": "2025-05-15 08:45:55"
        }
      ]
    },
    {
      "id": 1052,
      "post_uuid": "0196d310-616a-cfc3-1a9e-be0c28341748",
      "title_ko": null,
      "title_zh": null,
      "content_ko": "오늘 광고 촬영은 끝났는가 궁금해요..🙄",
      "content_zh": "想知道今天的广告拍摄结束了吗..🙄",
      "post_time": "2025-05-15 08:29:48",
      "image_count": 0,
      "image_urls": null,
      "local_image_paths": null,
      "likes": 0,
      "comments": 0,
      "views": 0,
      "board": "Free",
      "members_only": 0,
      "author_username": "고구바",
      "author_avatar": null,
      "author_local_avatar": null,
      "fan_comments": [],
      "direct_iu_replies": [
        {
          "id": 1886,
          "content_ko": "아직 촬영 중~.~",
          "content_zh": "还在拍摄中~.~",
          "image_count": 0,
          "image_urls": null,
          "local_image_paths": null,
          "replied_at": "2025-05-15 08:47:56"
        }
      ]
    },
    {
      "id": 1054,
      "post_uuid": "0196d2f7-174a-f9c7-9158-f62cd523ada2",
      "title_ko": null,
      "title_zh": null,
      "content_ko": "궁금했던 건데 시간의 바깥에서\n기억하지 않아도~~ 다음에 나오는 허밍은 가사가 뭐예요???",
      "content_zh": "一直很好奇，在时间之外  \n即使不记得~~ 下次出现的哼唱歌词是什么呀？？？",
      "post_time": "2025-05-15 08:02:10",
      "image_count": 0,
      "image_urls": null,
      "local_image_paths": null,
      "likes": 0,
      "comments": 0,
      "views": 0,
      "board": "Free",
      "members_only": 0,
      "author_username": "긍우",
      "author_avatar": null,
      "author_local_avatar": null,
      "fan_comments": [],
      "direct_iu_replies": [
        {
          "id": 1888,
          "content_ko": "하~미야~이야~미야",
          "content_zh": "哈~米亚~呀~米亚",
          "image_count": 0,
          "image_urls": null,
          "local_image_paths": null,
          "replied_at": "2025-05-15 08:20:52"
        }
      ]
    },
    {
      "id": 1056,
      "post_uuid": "0196d258-c259-8d02-8a71-13598b8dbc79",
      "title_ko": null,
      "title_zh": null,
      "content_ko": "Today is my birthday can you wish me a happy birthday ",
      "content_zh": "Today is my birthday can you wish me a happy birthday",
      "post_time": "2025-05-15 05:09:14",
      "image_count": 0,
      "image_urls": null,
      "local_image_paths": null,
      "likes": 0,
      "comments": 0,
      "views": 0,
      "board": "Free",
      "members_only": 0,
      "author_username": "lixun",
      "author_avatar": null,
      "author_local_avatar": null,
      "fan_comments": [],
      "direct_iu_replies": [
        {
          "id": 1890,
          "content_ko": "HAPPY BIRTHDAY🤸‍♀️🫶",
          "content_zh": "HAPPY BIRTHDAY🤸‍♀️🫶",
          "image_count": 0,
          "image_urls": null,
          "local_image_paths": null,
          "replied_at": "2025-05-15 07:01:39"
        }
      ]
    },
    {
      "id": 1055,
      "post_uuid": "0196d257-0b6e-6f57-2391-81358353c439",
      "title_ko": null,
      "title_zh": null,
      "content_ko": "언니야 인스타에 올려준 사진이랑 생카 포카 사진이랑 똑같은 거 고도의 스포였나요 !?!?! 🫣🫣",
      "content_zh": "姐姐Instagram上传的照片和生卡拍立得照片是一样的，是高难度剧透吗！？！？！ 🫣🫣",
      "post_time": "2025-05-15 05:07:22",
      "image_count": 1,
      "image_urls": "https://dearimage.iu101.org/images/posts/post_1055_517455262.jpg",
      "local_image_paths": "https://dearimage.iu101.org/images/posts/post_1055_517455262.jpg",
      "likes": 0,
      "comments": 0,
      "views": 0,
      "board": "Free",
      "members_only": 0,
      "author_username": "초콩빈",
      "author_avatar": "https://dearimage.iu101.org/images/avatars/avatar_132.jpg",
      "author_local_avatar": "https://dearimage.iu101.org/images/avatars/avatar_132.jpg",
      "fan_comments": [],
      "direct_iu_replies": [
        {
          "id": 1889,
          "content_ko": "옹 인스타는 그래서 크롭버젼으로 😌",
          "content_zh": "哦Instagram所以是裁剪版 😌",
          "image_count": 0,
          "image_urls": null,
          "local_image_paths": null,
          "replied_at": "2025-05-15 07:02:42"
        }
      ]
    },
    {
      "id": 1057,
      "post_uuid": "0196d22b-ce5c-f520-04e9-8ff7e87c7438",
      "title_ko": null,
      "title_zh": null,
      "content_ko": "Hello iu, i am from the philippines. How’s the weather there?",
      "content_zh": "Hello iu, i am from the philippines. How's the weather there?",
      "post_time": "2025-05-15 04:20:08",
      "image_count": 0,
      "image_urls": null,
      "local_image_paths": null,
      "likes": 0,
      "comments": 0,
      "views": 0,
      "board": "Free",
      "members_only": 0,
      "author_username": "dangthelion",
      "author_avatar": null,
      "author_local_avatar": null,
      "fan_comments": [],
      "direct_iu_replies": [
        {
          "id": 1891,
          "content_ko": "Cloudy ☕️",
          "content_zh": "Cloudy ☕️",
          "image_count": 0,
          "image_urls": null,
          "local_image_paths": null,
          "replied_at": "2025-05-15 04:27:22"
        }
      ]
    },
    {
      "id": 1063,
      "post_uuid": "0196cef4-e1fe-a1fc-9722-1bf060a0a980",
      "title_ko": null,
      "title_zh": null,
      "content_ko": "언니 솔직히 말해봐요 고양이 사진 찍는거 100장정도 찍었죠!!\nㅋㅋㅋㅋㅋㅋㅋㅋ",
      "content_zh": "姐姐说实话，拍猫照片拍了大概100张吧！！",
      "post_time": "2025-05-14 13:21:17",
      "image_count": 0,
      "image_urls": null,
      "local_image_paths": null,
      "likes": 0,
      "comments": 0,
      "views": 0,
      "board": "Free",
      "members_only": 0,
      "author_username": "현정•___________•",
      "author_avatar": null,
      "author_local_avatar": null,
      "fan_comments": [],
      "direct_iu_replies": [
        {
          "id": 1897,
          "content_ko": "옆구리에 담 왔어요",
          "content_zh": "腰侧疼起来了",
          "image_count": 0,
          "image_urls": null,
          "local_image_paths": null,
          "replied_at": "2025-05-14 13:21:55"
        }
      ]
    }
  ]
}