{
  "page": 3,
  "totalPages": 5,
  "total": 89,
  "data": [
    {
      "id": 955,
      "post_uuid": "0196e42e-3519-68ca-a815-aa49fcb9f882",
      "title_ko": null,
      "title_zh": null,
      "content_ko": "언니한테 잘자라든가 좋은 아침이라고 듣고 싶어요~",
      "content_zh": "想听到欧尼说晚安或者早安~",
      "post_time": "2025-05-18 16:15:55",
      "image_count": 0,
      "image_urls": null,
      "local_image_paths": null,
      "likes": 0,
      "comments": 0,
      "views": 0,
      "board": "Free",
      "members_only": 0,
      "author_username": "♡李知金사랑IU的CuiCui",
      "author_avatar": "https://dearimage.iu101.org/images/avatars/avatar_309.jpeg",
      "author_local_avatar": "https://dearimage.iu101.org/images/avatars/avatar_309.jpeg",
      "fan_comments": [],
      "direct_iu_replies": [
        {
          "id": 1787,
          "content_ko": "잘 자 cuicui🫶",
          "content_zh": "晚安cuicui🫶",
          "image_count": 0,
          "image_urls": null,
          "local_image_paths": null,
          "replied_at": "2025-05-18 16:16:41"
        }
      ]
    },
    {
      "id": 954,
      "post_uuid": "0196e42d-f80a-d839-8d67-2b42392f69ad",
      "title_ko": null,
      "title_zh": null,
      "content_ko": "언니혹시 이책알아용?\n제가최근에 다읽은책인데\n페이지마다 가슴을울리는 글들이라,,,ㅎ\n언니랑 유애나들에게 추천하고싶어용 💓🐥",
      "content_zh": "姐姐，你看过这本书吗？\n我最近刚读完，\n每一页都让人感动到流泪，，，哈哈\n想推荐给姐姐和有爱的朋友们 💓🐥",
      "post_time": "2025-05-18 16:15:40",
      "image_count": 2,
      "image_urls": "https://dearimage.iu101.org/images/posts/post_954_903949151.jpeg",
      "local_image_paths": "https://dearimage.iu101.org/images/posts/post_954_899695013.jpeg|https://dearimage.iu101.org/images/posts/post_954_903949151.jpeg",
      "likes": 0,
      "comments": 0,
      "views": 0,
      "board": "Free",
      "members_only": 0,
      "author_username": "또지금",
      "author_avatar": null,
      "author_local_avatar": null,
      "fan_comments": [],
      "direct_iu_replies": [
        {
          "id": 1786,
          "content_ko": "난 아직 어른이 덜 됐나...🥹",
          "content_zh": "我还是不够成熟吗...🥹",
          "image_count": 0,
          "image_urls": null,
          "local_image_paths": null,
          "replied_at": "2025-05-18 16:17:21"
        }
      ]
    },
    {
      "id": 953,
      "post_uuid": "0196e42c-6fed-db5c-de2b-32bb7a314d91",
      "title_ko": null,
      "title_zh": null,
      "content_ko": "📞\n임종환의 [그냥 걸었어]🤔",
      "content_zh": "📞",
      "post_time": "2025-05-18 16:13:59",
      "image_count": 0,
      "image_urls": null,
      "local_image_paths": null,
      "likes": 0,
      "comments": 0,
      "views": 0,
      "board": "Free",
      "members_only": 0,
      "author_username": "레레봄",
      "author_avatar": null,
      "author_local_avatar": null,
      "fan_comments": [],
      "direct_iu_replies": [
        {
          "id": 1785,
          "content_ko": "아 정말 좋은 곡... 🥹 ",
          "content_zh": "啊真的好听的歌...🥹",
          "image_count": 0,
          "image_urls": null,
          "local_image_paths": null,
          "replied_at": "2025-05-18 16:18:17"
        }
      ]
    },
    {
      "id": 952,
      "post_uuid": "0196e429-624a-dc51-f667-3db6021d862c",
      "title_ko": null,
      "title_zh": null,
      "content_ko": "이번 웃생파 참여했던 \"빙봉\" 입니다! 🐘💗\n덕분에 저도 재밌게 놀다갑니다!\n10년 유애나 생활 중 가장 행복했고 절대 잊지못할거에요! ㅠㅠ 😭😭\n전 평생 노잼인간인줄 알았는데\n아이유님이 저보고 많이 웃어주셔서 행복했습니다 \n\n아이유님생일 다시한번 축하드려요! 🎂🎉💜💜\n\n로켓을 타고 소리쳐~ \n모든일이 최고야~ \n함께 노랠 불러줘~ \n빙봉~빙봉~!!! 💗🐘💜",
      "content_zh": "这次参加IU生日派对的\"冰棒\"来啦！🐘💗  \n多亏了大家，我也玩得很开心！  \n这是十年来最幸福的时光，绝对无法忘记！ㅠㅠ 😭😭  \n我一直以为自己是个很无趣的人，  \n但IU让我笑得那么开心，真的很幸福。  \n\n再次祝IU生日快乐！🎂🎉💜💜  \n\n乘着火箭大声呼喊～  \n所有的事情都最棒～  \n一起唱起这首歌～  \n冰棒～冰棒～！！！💗🐘💜",
      "post_time": "2025-05-18 16:10:39",
      "image_count": 0,
      "image_urls": null,
      "local_image_paths": null,
      "likes": 0,
      "comments": 0,
      "views": 0,
      "board": "Free",
      "members_only": 0,
      "author_username": "데비드",
      "author_avatar": "https://dearimage.iu101.org/images/avatars/avatar_189.webp",
      "author_local_avatar": "https://dearimage.iu101.org/images/avatars/avatar_189.webp",
      "fan_comments": [],
      "direct_iu_replies": [
        {
          "id": 1784,
          "content_ko": "빙봉빙봉!! 💗",
          "content_zh": "冰棒冰棒！！💗",
          "image_count": 0,
          "image_urls": null,
          "local_image_paths": null,
          "replied_at": "2025-05-18 16:23:42"
        }
      ]
    },
    {
      "id": 951,
      "post_uuid": "0196e428-77ce-dbb5-94cf-795a667c2bb3",
      "title_ko": null,
      "title_zh": null,
      "content_ko": "나는 한국 팬들이 한국어를 빨리 칠 수 있다는 것이 부럽다. 하지만 나는 외국인이다. 매번 번역기를 여 러 개 사용해서 한국어로 번역해서 보내야 한다. 그 것은 지은에게 답장을 받기 위해서이다. 내가 보낸 한국어가 무슨 뜻인지 너는 이해할 수 있을지 모르겠 지만, 나는 너를 정말 사랑한다.🫶🏻",
      "content_zh": "我很羡慕韩国粉丝们能快速打出韩文。但我是外国人，每次都要用好几个翻译软件把韩文翻译过来发送。这是为了收到智恩的回复。虽然你可能不太明白我发的韩文是什么意思，但我真的很爱你。🫶🏻",
      "post_time": "2025-05-18 16:09:39",
      "image_count": 0,
      "image_urls": null,
      "local_image_paths": null,
      "likes": 0,
      "comments": 0,
      "views": 0,
      "board": "Free",
      "members_only": 0,
      "author_username": "Lovepoemai",
      "author_avatar": null,
      "author_local_avatar": null,
      "fan_comments": [],
      "direct_iu_replies": [
        {
          "id": 1783,
          "content_ko": "You don't need to translate\nBerriz will do it 🫐😉",
          "content_zh": "You don't need to translate",
          "image_count": 0,
          "image_urls": null,
          "local_image_paths": null,
          "replied_at": "2025-05-18 16:25:40"
        }
      ]
    },
    {
      "id": 985,
      "post_uuid": "0196e40d-3e59-c821-3ea9-3139d61af908",
      "title_ko": null,
      "title_zh": null,
      "content_ko": "8곡이 나올까요? 어쨌든 언니는 8이라는 숫자를 좋아해",
      "content_zh": "会出8首歌吗？反正姐姐喜欢数字8",
      "post_time": "2025-05-18 15:39:55",
      "image_count": 0,
      "image_urls": null,
      "local_image_paths": null,
      "likes": 0,
      "comments": 0,
      "views": 0,
      "board": "Free",
      "members_only": 0,
      "author_username": "♡아이유가제일좋아하는츄츄♡",
      "author_avatar": "https://dearimage.iu101.org/images/avatars/avatar_10.jpeg",
      "author_local_avatar": "https://dearimage.iu101.org/images/avatars/avatar_10.jpeg",
      "fan_comments": [],
      "direct_iu_replies": [
        {
          "id": 1819,
          "content_ko": "그것은 아닙니다 🙅🏻‍♀️",
          "content_zh": "그것은 아닙니다 🙅🏻‍♀️",
          "image_count": 0,
          "image_urls": null,
          "local_image_paths": null,
          "replied_at": "2025-05-18 15:41:03"
        }
      ]
    },
    {
      "id": 984,
      "post_uuid": "0196e40d-3040-d943-4eb7-0302b1ba6771",
      "title_ko": null,
      "title_zh": null,
      "content_ko": "아 그래서 언니가 제 게시물에 답장을 안 하는 거예요.😔",
      "content_zh": "啊所以姐姐才没有回复我的帖子。😔",
      "post_time": "2025-05-18 15:39:51",
      "image_count": 1,
      "image_urls": "https://dearimage.iu101.org/images/posts/post_984_1209597488.jpg",
      "local_image_paths": "https://dearimage.iu101.org/images/posts/post_984_1209597488.jpg",
      "likes": 0,
      "comments": 0,
      "views": 0,
      "board": "Free",
      "members_only": 0,
      "author_username": "아이유의사라",
      "author_avatar": null,
      "author_local_avatar": null,
      "fan_comments": [],
      "direct_iu_replies": [
        {
          "id": 1818,
          "content_ko": "더 마음에 드는 빨간 운동화 이모티콘을 찾지 못 했다..🙃",
          "content_zh": "没找到更喜欢的红色运动鞋表情符号..🙃",
          "image_count": 0,
          "image_urls": null,
          "local_image_paths": null,
          "replied_at": "2025-05-18 15:41:44"
        }
      ]
    },
    {
      "id": 983,
      "post_uuid": "0196e40c-f207-d4c2-e326-6534cf56168f",
      "title_ko": null,
      "title_zh": null,
      "content_ko": "누나 스토리 직접 올리는 건가요??",
      "content_zh": "姐姐是亲自发故事吗？？",
      "post_time": "2025-05-18 15:39:35",
      "image_count": 0,
      "image_urls": null,
      "local_image_paths": null,
      "likes": 0,
      "comments": 0,
      "views": 0,
      "board": "Free",
      "members_only": 0,
      "author_username": "멜론",
      "author_avatar": "https://dearimage.iu101.org/images/avatars/avatar_164.jpeg",
      "author_local_avatar": "https://dearimage.iu101.org/images/avatars/avatar_164.jpeg",
      "fan_comments": [],
      "direct_iu_replies": [
        {
          "id": 1817,
          "content_ko": "그럼! 😗",
          "content_zh": "그럼! 😗",
          "image_count": 0,
          "image_urls": null,
          "local_image_paths": null,
          "replied_at": "2025-05-18 15:42:28"
        }
      ]
    },
    {
      "id": 982,
      "post_uuid": "0196e40c-a09c-ba8a-2da6-94324621dd26",
      "title_ko": null,
      "title_zh": null,
      "content_ko": "언니, 네 생일날 대학을 졸업했어! 언니 생일 축하해요! 저를 축복해 주실 수 있나요? 언니 감사합니다. 사랑해요. 언니가 어느 것이 나인지 알아맞힐 수 있을까? 나야?",
      "content_zh": "姐姐，你生日那天大学毕业了！祝姐姐生日快乐！能为我祝福一下吗？谢谢姐姐，我爱你。姐姐能猜出哪个是我吗？是我吗？",
      "post_time": "2025-05-18 15:39:14",
      "image_count": 1,
      "image_urls": "https://dearimage.iu101.org/images/posts/post_982_1755715034.png",
      "local_image_paths": "https://dearimage.iu101.org/images/posts/post_982_1755715034.png",
      "likes": 0,
      "comments": 0,
      "views": 0,
      "board": "Free",
      "members_only": 0,
      "author_username": "远远知恩",
      "author_avatar": null,
      "author_local_avatar": null,
      "fan_comments": [],
      "direct_iu_replies": [
        {
          "id": 1816,
          "content_ko": "정답 왼쪽에서 네 번째!! 꽃무늬 치마 🌸\n졸업을 축하해요 🫶",
          "content_zh": "正确答案是左边第四个!! 花纹裙子 🌸 祝贺毕业 🫶",
          "image_count": 0,
          "image_urls": null,
          "local_image_paths": null,
          "replied_at": "2025-05-18 15:43:40"
        }
      ]
    },
    {
      "id": 981,
      "post_uuid": "0196e40c-59e1-1cd0-0c25-0f441243f4c9",
      "title_ko": null,
      "title_zh": null,
      "content_ko": "어케 앉아 있는거에요??ㅠㅠ",
      "content_zh": "怎么还坐着不动啊？？ㅠㅠ",
      "post_time": "2025-05-18 15:38:56",
      "image_count": 1,
      "image_urls": "https://dearimage.iu101.org/images/posts/post_981_43798544.jpg",
      "local_image_paths": "https://dearimage.iu101.org/images/posts/post_981_43798544.jpg",
      "likes": 0,
      "comments": 0,
      "views": 0,
      "board": "Free",
      "members_only": 0,
      "author_username": "뮈푀",
      "author_avatar": null,
      "author_local_avatar": null,
      "fan_comments": [],
      "direct_iu_replies": [
        {
          "id": 1815,
          "content_ko": "다음에 함 보여쥬까 😗",
          "content_zh": "下次给你看看一次 😗",
          "image_count": 0,
          "image_urls": null,
          "local_image_paths": null,
          "replied_at": "2025-05-18 15:44:19"
        }
      ]
    },
    {
      "id": 986,
      "post_uuid": "0196e403-c83a-a731-e95b-7da2a0302b03",
      "title_ko": null,
      "title_zh": null,
      "content_ko": "이번에 뮤비 몇개에요???",
      "content_zh": "这次有几个MV？？？",
      "post_time": "2025-05-18 15:29:35",
      "image_count": 0,
      "image_urls": null,
      "local_image_paths": null,
      "likes": 0,
      "comments": 0,
      "views": 0,
      "board": "Free",
      "members_only": 0,
      "author_username": "프란시스으",
      "author_avatar": "https://dearimage.iu101.org/images/avatars/avatar_226.jpg",
      "author_local_avatar": "https://dearimage.iu101.org/images/avatars/avatar_226.jpg",
      "fan_comments": [],
      "direct_iu_replies": [
        {
          "id": 1820,
          "content_ko": "가르쳐 줄까나 말까나 😛",
          "content_zh": "要不要教给你呢 😛",
          "image_count": 0,
          "image_urls": null,
          "local_image_paths": null,
          "replied_at": "2025-05-18 15:32:41"
        }
      ]
    },
    {
      "id": 999,
      "post_uuid": "0196dc8e-5e4a-7619-cc30-559e7213b510",
      "title_ko": null,
      "title_zh": null,
      "content_ko": "흙먼지 모르는 꽃 같은 아이유 언니. 생일 축하해! 사랑해! (구글 번역을 쓰고 있어서 한국어로 이상하게 나오지 않았으면 좋겠어. ㅋㅋㅋ)",
      "content_zh": "不食人间烟火的花朵般的孩子IU姐姐，生日快乐！爱你！（用了谷歌翻译，希望没有出现奇怪的韩语表达。哈哈）",
      "post_time": "2025-05-17 04:43:59",
      "image_count": 0,
      "image_urls": null,
      "local_image_paths": null,
      "likes": 0,
      "comments": 0,
      "views": 0,
      "board": "Free",
      "members_only": 0,
      "author_username": "ley",
      "author_avatar": null,
      "author_local_avatar": null,
      "fan_comments": [],
      "direct_iu_replies": [
        {
          "id": 1833,
          "content_ko": "한국어로 특이하게 번역됐는데 묘하게 로맨틱해!!",
          "content_zh": "韩语翻译得奇特但莫名浪漫!!",
          "image_count": 0,
          "image_urls": null,
          "local_image_paths": null,
          "replied_at": "2025-05-17 04:46:13"
        }
      ]
    },
    {
      "id": 998,
      "post_uuid": "0196dc8c-e40a-1cfe-8572-ed14c894652f",
      "title_ko": null,
      "title_zh": null,
      "content_ko": "언니 오늘은 머해??",
      "content_zh": "姐姐今天干什么？？",
      "post_time": "2025-05-17 04:42:23",
      "image_count": 0,
      "image_urls": null,
      "local_image_paths": null,
      "likes": 0,
      "comments": 0,
      "views": 0,
      "board": "Free",
      "members_only": 0,
      "author_username": "짱유진",
      "author_avatar": "https://dearimage.iu101.org/images/avatars/avatar_281.jpg",
      "author_local_avatar": "https://dearimage.iu101.org/images/avatars/avatar_281.jpg",
      "fan_comments": [],
      "direct_iu_replies": [
        {
          "id": 1832,
          "content_ko": "그룹 리딩 하러 가고 있어어 🤸🏻",
          "content_zh": "正在去做群组朗读 🤸🏻",
          "image_count": 0,
          "image_urls": null,
          "local_image_paths": null,
          "replied_at": "2025-05-17 04:47:39"
        }
      ]
    },
    {
      "id": 997,
      "post_uuid": "0196dc8c-4416-5d7b-d4f7-13850ecd6ab4",
      "title_ko": null,
      "title_zh": null,
      "content_ko": "제 여동생의 생일은 5월 21일이에요. 그녀에게 생일 축하 인사를 전할 수 있을까요?",
      "content_zh": "我妹妹的生日是5月21日。能替我向她道声生日快乐吗？",
      "post_time": "2025-05-17 04:41:42",
      "image_count": 1,
      "image_urls": "https://dearimage.iu101.org/images/posts/post_997_1381441634.jpeg",
      "local_image_paths": "https://dearimage.iu101.org/images/posts/post_997_1381441634.jpeg",
      "likes": 0,
      "comments": 0,
      "views": 0,
      "board": "Free",
      "members_only": 0,
      "author_username": "Chowchiwai",
      "author_avatar": null,
      "author_local_avatar": null,
      "fan_comments": [],
      "direct_iu_replies": [
        {
          "id": 1831,
          "content_ko": "여동생아 생일 축하해🌸",
          "content_zh": "妹妹生日快乐🌸",
          "image_count": 0,
          "image_urls": null,
          "local_image_paths": null,
          "replied_at": "2025-05-17 04:48:39"
        }
      ]
    },
    {
      "id": 996,
      "post_uuid": "0196dc6f-68d4-9e1d-6d36-39f5d51d2523",
      "title_ko": null,
      "title_zh": null,
      "content_ko": "애나님들! 이번 앨범 추측 노래 리스트\n댓글로 써주실 수 있나요 ?! 🥹❤️\n문제시 삭제하겠습니당..!!",
      "content_zh": "各位爱娜！这次专辑的猜测歌单能写在评论里吗？🥹❤️ 如有不当会删除的..!!",
      "post_time": "2025-05-17 04:10:11",
      "image_count": 1,
      "image_urls": "https://dearimage.iu101.org/images/posts/post_996_1209514715.jpeg",
      "local_image_paths": "https://dearimage.iu101.org/images/posts/post_996_1209514715.jpeg",
      "likes": 0,
      "comments": 0,
      "views": 0,
      "board": "Free",
      "members_only": 0,
      "author_username": "조각집",
      "author_avatar": null,
      "author_local_avatar": null,
      "fan_comments": [],
      "direct_iu_replies": [
        {
          "id": 1830,
          "content_ko": "오 ㅏ우 👏👏👏👏",
          "content_zh": "오 ㅏ우 👏👏👏👏",
          "image_count": 0,
          "image_urls": null,
          "local_image_paths": null,
          "replied_at": "2025-05-17 04:50:31"
        }
      ]
    },
    {
      "id": 1014,
      "post_uuid": "0196d76f-4308-e87e-e930-62d8d00c9d60",
      "title_ko": null,
      "title_zh": null,
      "content_ko": "언니 여기는 타이베이 시먼딩이에요~~\n예쁘죠?",
      "content_zh": "姐姐，这里是台北西门町~~漂亮吧？",
      "post_time": "2025-05-16 04:51:55",
      "image_count": 2,
      "image_urls": "https://dearimage.iu101.org/images/posts/post_1014_1924939511.jpg",
      "local_image_paths": "https://dearimage.iu101.org/images/posts/post_1014_1914610675.jpg|https://dearimage.iu101.org/images/posts/post_1014_1924939511.jpg",
      "likes": 0,
      "comments": 0,
      "views": 0,
      "board": "Free",
      "members_only": 0,
      "author_username": "아이유의해바라기~이신",
      "author_avatar": "https://dearimage.iu101.org/images/avatars/avatar_174.jpg",
      "author_local_avatar": "https://dearimage.iu101.org/images/avatars/avatar_174.jpg",
      "fan_comments": [],
      "direct_iu_replies": [
        {
          "id": 1848,
          "content_ko": "😍🥹🫶",
          "content_zh": "😍🥹🫶",
          "image_count": 0,
          "image_urls": null,
          "local_image_paths": null,
          "replied_at": "2025-05-16 04:55:37"
        }
      ]
    },
    {
      "id": 1013,
      "post_uuid": "0196d76f-3234-4ea2-cfcd-8cacff502b7c",
      "title_ko": null,
      "title_zh": null,
      "content_ko": "어떻게 해야 언니가 나를 볼 수 있을까! 언니 나 좀 봐!🥹🥹🥹 언니의 답장을 받고 싶어요🫶🫶🫶",
      "content_zh": "怎样才能让姐姐看到我！姐姐看看我！🥹🥹🥹 想收到姐姐的回复🫶🫶🫶",
      "post_time": "2025-05-16 04:51:50",
      "image_count": 0,
      "image_urls": null,
      "local_image_paths": null,
      "likes": 0,
      "comments": 0,
      "views": 0,
      "board": "Free",
      "members_only": 0,
      "author_username": "YU^Q^",
      "author_avatar": null,
      "author_local_avatar": null,
      "fan_comments": [],
      "direct_iu_replies": [
        {
          "id": 1847,
          "content_ko": "보고 있어!!",
          "content_zh": "在看!!",
          "image_count": 0,
          "image_urls": null,
          "local_image_paths": null,
          "replied_at": "2025-05-16 04:55:49"
        }
      ]
    },
    {
      "id": 1012,
      "post_uuid": "0196d76e-b8e9-b591-a49b-78c146b4e584",
      "title_ko": null,
      "title_zh": null,
      "content_ko": "누나, 광고 촬영 힘들진 않아요?🥺\n오늘 비 온다는데 누나가 있는곳은 비 안오나요?😭",
      "content_zh": "姐姐，拍广告辛苦吗？🥺\n今天说要下雨，但姐姐那边没下雨吗？😭",
      "post_time": "2025-05-16 04:51:19",
      "image_count": 0,
      "image_urls": null,
      "local_image_paths": null,
      "likes": 0,
      "comments": 0,
      "views": 0,
      "board": "Free",
      "members_only": 0,
      "author_username": "영훈스윗",
      "author_avatar": null,
      "author_local_avatar": null,
      "fan_comments": [],
      "direct_iu_replies": [
        {
          "id": 1846,
          "content_ko": "비 와서 습도 딱 좋아요 😌",
          "content_zh": "下雨了湿度正好 😌",
          "image_count": 0,
          "image_urls": null,
          "local_image_paths": null,
          "replied_at": "2025-05-16 04:56:32"
        }
      ]
    },
    {
      "id": 1011,
      "post_uuid": "0196d76e-273b-344e-9039-c1e58706b4a6",
      "title_ko": null,
      "title_zh": null,
      "content_ko": "아이유에게 답장을 받는 행복한 어린 소녀가 되었으면 좋겠습니다🐣",
      "content_zh": "希望能成为收到IU回复的幸福小女孩🐣",
      "post_time": "2025-05-16 04:50:42",
      "image_count": 0,
      "image_urls": null,
      "local_image_paths": null,
      "likes": 0,
      "comments": 0,
      "views": 0,
      "board": "Free",
      "members_only": 0,
      "author_username": "MyCelebrity",
      "author_avatar": null,
      "author_local_avatar": null,
      "fan_comments": [],
      "direct_iu_replies": [
        {
          "id": 1845,
          "content_ko": "소녀여 행복하라 💗",
          "content_zh": "少女啊 幸福吧 💗",
          "image_count": 0,
          "image_urls": null,
          "local_image_paths": null,
          "replied_at": "2025-05-16 04:57:09"
        }
      ]
    },
    {
      "id": 1010,
      "post_uuid": "0196d76e-1f6b-1c03-8b3c-62785567028f",
      "title_ko": null,
      "title_zh": null,
      "content_ko": "언니~저 요즘 김치볶음밥에 푹 빠져있어서 김치볶음밥만 먹어요ㅋㅋㅋ 어제 점심, 저녁, 오늘 점심 다 김치볶음밥 먹고 있어요! 언니 생일 다가온다구 김치 좋아하는 언니가 무의식에 떠올랐나~???ㅎㅎ\n\n사실 요즘 요리하기 귀찮아서 사먹었는데 그래도 제가 직접 만드는 김치볶음밥이 제일 맛있는 것 같아요! 나중에 제가 요리한 거 사진 올려줄게요ㅋㅋㅋ\n\n오늘 사진은 언니 생일 축하하러 카페 왔다가 근처에서 사먹은 스팸김치볶음밥~! 언니도 밥 잘 챙겨먹어야 해요💜 사랑해요😍 그리고 생일 축하해요💐🎂",
      "content_zh": "姐姐~我最近迷上了韩式炒饭，一直在吃韩式炒饭呢哈哈。昨天午饭、晚饭，今天午饭都吃了韩式炒饭！是不是因为姐姐生日快到了，所以爱吃泡菜的姐姐就浮现在我脑海里了？？？哈哈\n\n其实最近懒得做饭就出去买了，不过还是觉得我自己做的韩式炒饭最好吃！等会儿给你看我做的饭菜照片哈哈。\n\n今天这张照片是来咖啡厅给姐姐庆祝生日，在附近买的韩式炒饭！姐姐也要好好吃饭哦💜 爱你😍 生日快乐💐🎂",
      "post_time": "2025-05-16 04:50:40",
      "image_count": 1,
      "image_urls": "https://dearimage.iu101.org/images/posts/post_1010_366429662.jpg",
      "local_image_paths": "https://dearimage.iu101.org/images/posts/post_1010_366429662.jpg",
      "likes": 0,
      "comments": 0,
      "views": 0,
      "board": "Free",
      "members_only": 0,
      "author_username": "히차",
      "author_avatar": null,
      "author_local_avatar": null,
      "fan_comments": [],
      "direct_iu_replies": [
        {
          "id": 1844,
          "content_ko": "햄 파구나! 나는 참치 파!",
          "content_zh": "火腿派! 我是金枪鱼派!",
          "image_count": 0,
          "image_urls": null,
          "local_image_paths": null,
          "replied_at": "2025-05-16 04:57:55"
        }
      ]
    }
  ]
}