{
  "page": 2,
  "totalPages": 5,
  "total": 89,
  "data": [
    {
      "id": 919,
      "post_uuid": "0196e7d3-1397-0374-b7c3-94a09364b1d2",
      "title_ko": null,
      "title_zh": null,
      "content_ko": "현재 개를 산책시키고 있습니다！！\n언니, 지금 뭐 하고 있어?🫶🏻🫶🏻🫶🏻",
      "content_zh": "现在正在遛狗呢！！\n姐姐，你现在在做什么呀？🫶🏻🫶🏻🫶🏻",
      "post_time": "2025-05-19 09:14:52",
      "image_count": 2,
      "image_urls": "https://dearimage.iu101.org/images/posts/post_919_640423435.jpeg",
      "local_image_paths": "https://dearimage.iu101.org/images/posts/post_919_639166681.jpeg|https://dearimage.iu101.org/images/posts/post_919_640423435.jpeg",
      "likes": 0,
      "comments": 0,
      "views": 0,
      "board": "Free",
      "members_only": 0,
      "author_username": "LiLi^_^",
      "author_avatar": null,
      "author_local_avatar": null,
      "fan_comments": [],
      "direct_iu_replies": [
        {
          "id": 1751,
          "content_ko": "지금은 염색 마치고 테스트 메이크업 받는 중이얌",
          "content_zh": "现在染发结束，正在做测试化妆中",
          "image_count": 0,
          "image_urls": null,
          "local_image_paths": null,
          "replied_at": "2025-05-19 09:24:12"
        }
      ]
    },
    {
      "id": 918,
      "post_uuid": "0196e7d2-904a-b433-702c-c93300a2d3c0",
      "title_ko": null,
      "title_zh": null,
      "content_ko": "DAY 2 of asking IU what's her TMI for today??? ",
      "content_zh": "DAY 2 of asking IU what's her TMI for today???",
      "post_time": "2025-05-19 09:14:18",
      "image_count": 1,
      "image_urls": "https://dearimage.iu101.org/images/posts/post_918_62258539.jpeg",
      "local_image_paths": "https://dearimage.iu101.org/images/posts/post_918_62258539.jpeg",
      "likes": 0,
      "comments": 0,
      "views": 0,
      "board": "Free",
      "members_only": 0,
      "author_username": "joieeyyy",
      "author_avatar": null,
      "author_local_avatar": null,
      "fan_comments": [],
      "direct_iu_replies": [
        {
          "id": 1750,
          "content_ko": "I took allergy medicine today so I'm very sleepy all day 😴",
          "content_zh": "I took allergy medicine today so I'm very sleepy all day 😴",
          "image_count": 0,
          "image_urls": null,
          "local_image_paths": null,
          "replied_at": "2025-05-19 09:25:37"
        }
      ]
    },
    {
      "id": 927,
      "post_uuid": "0196e7aa-15ae-8e69-14ce-6b431fb66a87",
      "title_ko": null,
      "title_zh": null,
      "content_ko": "요즘 자주 집어먹는 간식 있어?",
      "content_zh": "最近经常买零食吃吗？",
      "post_time": "2025-05-19 08:30:05",
      "image_count": 0,
      "image_urls": null,
      "local_image_paths": null,
      "likes": 0,
      "comments": 0,
      "views": 0,
      "board": "Free",
      "members_only": 0,
      "author_username": "paulabianca",
      "author_avatar": "https://dearimage.iu101.org/images/avatars/avatar_74.jpeg",
      "author_local_avatar": "https://dearimage.iu101.org/images/avatars/avatar_74.jpeg",
      "fan_comments": [],
      "direct_iu_replies": [
        {
          "id": 1759,
          "content_ko": "난 요즘 바나나킥이랑 참깨스틱을 자주 집어먹엉 🤤",
          "content_zh": "最近我经常吃香蕉片和芝麻条 🤤",
          "image_count": 0,
          "image_urls": null,
          "local_image_paths": null,
          "replied_at": "2025-05-19 08:34:16"
        }
      ]
    },
    {
      "id": 926,
      "post_uuid": "0196e7a5-6d3d-839f-b69a-df6aefc1ade1",
      "title_ko": null,
      "title_zh": null,
      "content_ko": "진심 한나누나가 찍어주는 아이유님 사진은 뭔가가 있어. 진심으로 아이유님 베리즈 프사 바꾸시면 한나누나가 찍은 사진으로 바꿔요",
      "content_zh": "真心Hanana拍的IU老师照片就是有那种感觉。真心建议IU老师把头像换成Hanana拍的照片",
      "post_time": "2025-05-19 08:25:00",
      "image_count": 1,
      "image_urls": "https://dearimage.iu101.org/images/posts/post_926_33467380.jpg",
      "local_image_paths": "https://dearimage.iu101.org/images/posts/post_926_33467380.jpg",
      "likes": 0,
      "comments": 0,
      "views": 0,
      "board": "Free",
      "members_only": 0,
      "author_username": "미니언",
      "author_avatar": "https://dearimage.iu101.org/images/avatars/avatar_89.gif",
      "author_local_avatar": "https://dearimage.iu101.org/images/avatars/avatar_89.gif",
      "fan_comments": [],
      "direct_iu_replies": [
        {
          "id": 1758,
          "content_ko": "베리즈 프사 아직 못 바꾼대!!",
          "content_zh": "Berriz头像还没换完！！",
          "image_count": 0,
          "image_urls": null,
          "local_image_paths": null,
          "replied_at": "2025-05-19 08:35:21"
        }
      ]
    },
    {
      "id": 925,
      "post_uuid": "0196e7a2-ec08-eff6-f7ed-ba9df7ff2535",
      "title_ko": null,
      "title_zh": null,
      "content_ko": "언니, 저는 중국 항저우에서 커피숍을 열었어요. 언니가 커피를 안 마시는 건 알지만, 만약 언니가 정말로 커피숍에 온다면 어떤 음료를 시킬까요?",
      "content_zh": "姐姐，我在杭州开了一家咖啡店。虽然我知道姐姐不喝咖啡，但如果姐姐真的来咖啡店的话，会点什么饮料呢？",
      "post_time": "2025-05-19 08:22:16",
      "image_count": 1,
      "image_urls": "https://dearimage.iu101.org/images/posts/post_925_782185076.jpg",
      "local_image_paths": "https://dearimage.iu101.org/images/posts/post_925_782185076.jpg",
      "likes": 0,
      "comments": 0,
      "views": 0,
      "board": "Free",
      "members_only": 0,
      "author_username": "yuluCafe.lulu",
      "author_avatar": null,
      "author_local_avatar": null,
      "fan_comments": [],
      "direct_iu_replies": [
        {
          "id": 1757,
          "content_ko": "미숫가루나 밤라떼 아이스초코?!",
          "content_zh": "芝麻粉还是栗子拿铁冰巧克力？！",
          "image_count": 0,
          "image_urls": null,
          "local_image_paths": null,
          "replied_at": "2025-05-19 08:36:58"
        }
      ]
    },
    {
      "id": 924,
      "post_uuid": "0196e7a2-acb7-546c-1f59-700165b1fee3",
      "title_ko": null,
      "title_zh": null,
      "content_ko": "마미뮤님 만념",
      "content_zh": "妈妈缪的心情",
      "post_time": "2025-05-19 08:22:00",
      "image_count": 1,
      "image_urls": "https://dearimage.iu101.org/images/posts/post_924_656207734.jpg",
      "local_image_paths": "https://dearimage.iu101.org/images/posts/post_924_656207734.jpg",
      "likes": 0,
      "comments": 0,
      "views": 0,
      "board": "Free",
      "members_only": 0,
      "author_username": "미니언",
      "author_avatar": "https://dearimage.iu101.org/images/avatars/avatar_89.gif",
      "author_local_avatar": "https://dearimage.iu101.org/images/avatars/avatar_89.gif",
      "fan_comments": [],
      "direct_iu_replies": [
        {
          "id": 1756,
          "content_ko": "만념 만념 나는 마미뮤먀",
          "content_zh": "万念万念我是妈妈缪喵",
          "image_count": 0,
          "image_urls": null,
          "local_image_paths": null,
          "replied_at": "2025-05-19 08:37:37"
        }
      ]
    },
    {
      "id": 923,
      "post_uuid": "0196e79f-f029-f4cf-44da-374d42062da4",
      "title_ko": null,
      "title_zh": null,
      "content_ko": "지은언니 나는 이제 산을 다 올랐어\n언니 오늘 운동할 계획 있어요?\n먹고있어?\n보고싶어 사랑해요 🫶🏻\nMissing you in Malaysia🥹🤍\nWhen can we meet up?\n",
      "content_zh": "智恩姐姐，我现在已经爬到山顶了\n姐姐今天有运动计划吗？\n在吃饭吗？\n好想你，爱你🫶🏻\n在马来西亚想念你🥹🤍\n我们什么时候能见面？",
      "post_time": "2025-05-19 08:19:00",
      "image_count": 1,
      "image_urls": "https://dearimage.iu101.org/images/posts/post_923_1203688781.jpg",
      "local_image_paths": "https://dearimage.iu101.org/images/posts/post_923_1203688781.jpg",
      "likes": 0,
      "comments": 0,
      "views": 0,
      "board": "Free",
      "members_only": 0,
      "author_username": "ㅠㅠㅠ",
      "author_avatar": null,
      "author_local_avatar": null,
      "fan_comments": [],
      "direct_iu_replies": [
        {
          "id": 1755,
          "content_ko": "어? 나랑 손 닮았어! 😍",
          "content_zh": "啊？我和你的手很像！😍",
          "image_count": 0,
          "image_urls": null,
          "local_image_paths": null,
          "replied_at": "2025-05-19 08:39:18"
        }
      ]
    },
    {
      "id": 946,
      "post_uuid": "0196e74d-468e-b878-c0d2-5917a313f69f",
      "title_ko": null,
      "title_zh": null,
      "content_ko": "이담에 일 잘하는 신입 직원으로 유애나가 들어간 게 아닐까..? 왜케 애나들 맘에 쏙 드는 결과물들이 챡챡 나오지\n아님 이지동 대리님이 큰 몫 하셨나아~~~? 🐥🐥🐥💗",
      "content_zh": "难道是因为宜嫣作为工作能力强的新员工加入进来了吗？为什么现在出来的成果都这么合大家心意呢？\n还是说李智东代理贡献很大呢~~~？🐤🐤🐤💗",
      "post_time": "2025-05-19 06:48:43",
      "image_count": 0,
      "image_urls": null,
      "local_image_paths": null,
      "likes": 0,
      "comments": 0,
      "views": 0,
      "board": "Free",
      "members_only": 0,
      "author_username": "말랑찹쌀떡",
      "author_avatar": "https://dearimage.iu101.org/images/avatars/avatar_29.jpeg",
      "author_local_avatar": "https://dearimage.iu101.org/images/avatars/avatar_29.jpeg",
      "fan_comments": [],
      "direct_iu_replies": [
        {
          "id": 1778,
          "content_ko": "직원분들이 많이 들어오시긴 함 🙂‍↕️",
          "content_zh": "员工们确实进来了很多 🙂‍↕️",
          "image_count": 0,
          "image_urls": null,
          "local_image_paths": null,
          "replied_at": "2025-05-19 06:50:59"
        }
      ]
    },
    {
      "id": 945,
      "post_uuid": "0196e74a-3d35-a129-9aea-22f302aa9b96",
      "title_ko": null,
      "title_zh": null,
      "content_ko": "周一虽然要上挺多课，但是，因为姐姐，所以是笑着过周一的！！！！哈哈哈哈哈✨",
      "content_zh": "虽然周一要上很多课，但是因为有姐姐，所以笑着度过周一的！！！！哈哈哈✨",
      "post_time": "2025-05-19 06:45:24",
      "image_count": 0,
      "image_urls": null,
      "local_image_paths": null,
      "likes": 0,
      "comments": 0,
      "views": 0,
      "board": "Free",
      "members_only": 0,
      "author_username": "springuuuu",
      "author_avatar": null,
      "author_local_avatar": null,
      "fan_comments": [],
      "direct_iu_replies": [
        {
          "id": 1777,
          "content_ko": "하하하하하하 😆",
          "content_zh": "哈哈哈哈哈 😆",
          "image_count": 0,
          "image_urls": null,
          "local_image_paths": null,
          "replied_at": "2025-05-19 06:51:32"
        }
      ]
    },
    {
      "id": 944,
      "post_uuid": "0196e747-18f8-5dac-e7b6-8eaf63822000",
      "title_ko": null,
      "title_zh": null,
      "content_ko": "누나, 나 지금 심리수업 중인데 선생님이 우리에게 사랑이 뭐냐고 물으셨어요?",
      "content_zh": "欧尼，我现在在上心理课，老师问我们什么是爱？",
      "post_time": "2025-05-19 06:41:58",
      "image_count": 0,
      "image_urls": null,
      "local_image_paths": null,
      "likes": 0,
      "comments": 0,
      "views": 0,
      "board": "Free",
      "members_only": 0,
      "author_username": "복숭아나무susu^‥^",
      "author_avatar": "https://dearimage.iu101.org/images/avatars/avatar_504.jpg",
      "author_local_avatar": "https://dearimage.iu101.org/images/avatars/avatar_504.jpg",
      "fan_comments": [],
      "direct_iu_replies": [
        {
          "id": 1776,
          "content_ko": "뭐라고 했을까아 그래서?",
          "content_zh": "说了什么所以？",
          "image_count": 0,
          "image_urls": null,
          "local_image_paths": null,
          "replied_at": "2025-05-19 06:52:36"
        }
      ]
    },
    {
      "id": 943,
      "post_uuid": "0196e746-c767-f91d-c9a2-1dac8bd5c082",
      "title_ko": null,
      "title_zh": null,
      "content_ko": "지은아, 네가 온다고 해서 내가 지금 일에 집중할 수가 없는데 어떡하지?🤯🤯",
      "content_zh": "智恩啊，听说你要来，我现在都没法专心工作怎么办？🤯🤯",
      "post_time": "2025-05-19 06:41:37",
      "image_count": 0,
      "image_urls": null,
      "local_image_paths": null,
      "likes": 0,
      "comments": 0,
      "views": 0,
      "board": "Free",
      "members_only": 0,
      "author_username": "灰大猪",
      "author_avatar": null,
      "author_local_avatar": null,
      "fan_comments": [],
      "direct_iu_replies": [
        {
          "id": 1775,
          "content_ko": "일단은 일을 하자!! 🔥😀",
          "content_zh": "总之先工作吧！！🔥😀",
          "image_count": 0,
          "image_urls": null,
          "local_image_paths": null,
          "replied_at": "2025-05-19 06:52:56"
        }
      ]
    },
    {
      "id": 942,
      "post_uuid": "0196e746-2cfd-95ae-499e-edb49435c7bd",
      "title_ko": null,
      "title_zh": null,
      "content_ko": "월요일은 좀 재수없네... 언니가 너무 보고 싶어🙁",
      "content_zh": "星期一真是倒霉...好想见欧尼🙁",
      "post_time": "2025-05-19 06:40:58",
      "image_count": 0,
      "image_urls": null,
      "local_image_paths": null,
      "likes": 0,
      "comments": 0,
      "views": 0,
      "board": "Free",
      "members_only": 0,
      "author_username": "ubuoy",
      "author_avatar": null,
      "author_local_avatar": null,
      "fan_comments": [],
      "direct_iu_replies": [
        {
          "id": 1774,
          "content_ko": "ㅋㅋㅋㅋㅋㅋㅋㅋ 쿨한 애나 발견!!",
          "content_zh": "ㅋㅋㅋㅋㅋㅋㅋㅋ发现酷酷的孩子！！",
          "image_count": 0,
          "image_urls": null,
          "local_image_paths": null,
          "replied_at": "2025-05-19 06:53:12"
        }
      ]
    },
    {
      "id": 941,
      "post_uuid": "0196e745-eddb-0e10-278e-96d8c27b5356",
      "title_ko": null,
      "title_zh": null,
      "content_ko": "언니는 밥 먹었어?🥺",
      "content_zh": "欧尼吃饭了吗？🥺",
      "post_time": "2025-05-19 06:40:41",
      "image_count": 0,
      "image_urls": null,
      "local_image_paths": null,
      "likes": 0,
      "comments": 0,
      "views": 0,
      "board": "Free",
      "members_only": 0,
      "author_username": "Olivia",
      "author_avatar": null,
      "author_local_avatar": null,
      "fan_comments": [],
      "direct_iu_replies": [
        {
          "id": 1773,
          "content_ko": "아직 😆 Olivia는 뭐 먹었어?",
          "content_zh": "还是 😆 Olivia吃了什么？",
          "image_count": 0,
          "image_urls": null,
          "local_image_paths": null,
          "replied_at": "2025-05-19 06:56:29"
        }
      ]
    },
    {
      "id": 940,
      "post_uuid": "0196e740-4518-bf97-5362-28677b867d3a",
      "title_ko": null,
      "title_zh": null,
      "content_ko": "언니 집에 모자 몇 개 있어요? 516개 정도..? ",
      "content_zh": "欧尼家里有几个帽子？大概516个..？",
      "post_time": "2025-05-19 06:34:31",
      "image_count": 0,
      "image_urls": null,
      "local_image_paths": null,
      "likes": 0,
      "comments": 0,
      "views": 0,
      "board": "Free",
      "members_only": 0,
      "author_username": "말랑찹쌀떡",
      "author_avatar": "https://dearimage.iu101.org/images/avatars/avatar_29.jpeg",
      "author_local_avatar": "https://dearimage.iu101.org/images/avatars/avatar_29.jpeg",
      "fan_comments": [],
      "direct_iu_replies": [
        {
          "id": 1772,
          "content_ko": "의류 중에 모자가 제일 많긴 해😀",
          "content_zh": "衣物中帽子最多倒是真的😀",
          "image_count": 0,
          "image_urls": null,
          "local_image_paths": null,
          "replied_at": "2025-05-19 06:57:17"
        }
      ]
    },
    {
      "id": 939,
      "post_uuid": "0196e73b-d4f3-c4bd-790a-40e993de3c57",
      "title_ko": null,
      "title_zh": null,
      "content_ko": "언니, 우리 맞나요?🤗",
      "content_zh": "欧尼，我们是对的吗？🤗",
      "post_time": "2025-05-19 06:29:40",
      "image_count": 1,
      "image_urls": "https://dearimage.iu101.org/images/posts/post_939_213464636.jpeg",
      "local_image_paths": "https://dearimage.iu101.org/images/posts/post_939_213464636.jpeg",
      "likes": 0,
      "comments": 0,
      "views": 0,
      "board": "Free",
      "members_only": 0,
      "author_username": "♡아이유가제일좋아하는츄츄♡",
      "author_avatar": "https://dearimage.iu101.org/images/avatars/avatar_10.jpeg",
      "author_local_avatar": "https://dearimage.iu101.org/images/avatars/avatar_10.jpeg",
      "fan_comments": [],
      "direct_iu_replies": [
        {
          "id": 1771,
          "content_ko": "🙄",
          "content_zh": "🙄",
          "image_count": 0,
          "image_urls": null,
          "local_image_paths": null,
          "replied_at": "2025-05-19 06:57:48"
        }
      ]
    },
    {
      "id": 938,
      "post_uuid": "0196e731-c956-3855-6687-30e11b35cf55",
      "title_ko": null,
      "title_zh": null,
      "content_ko": "언니, 1부터 38 사이에서 숫자 6개만 골라줄 수 있어요?",
      "content_zh": "欧尼，能在1到38之间选6个数字给我吗？",
      "post_time": "2025-05-19 06:18:41",
      "image_count": 0,
      "image_urls": null,
      "local_image_paths": null,
      "likes": 0,
      "comments": 0,
      "views": 0,
      "board": "Free",
      "members_only": 0,
      "author_username": "융융",
      "author_avatar": null,
      "author_local_avatar": null,
      "fan_comments": [],
      "direct_iu_replies": [
        {
          "id": 1770,
          "content_ko": "로또인가? 3.16.15.38.26",
          "content_zh": "彩票吗？3.16.15.38.26",
          "image_count": 0,
          "image_urls": null,
          "local_image_paths": null,
          "replied_at": "2025-05-19 06:59:07"
        }
      ]
    },
    {
      "id": 937,
      "post_uuid": "0196e72f-1978-5999-17c6-01733841eab1",
      "title_ko": null,
      "title_zh": null,
      "content_ko": "💌사랑하는 우리의 행운의 여신 지은 언니께\n오늘은 집에서 푹 쉬셨나요? 저는 중국에서 온 유애나, Amy라고 해요! 지금은 대학교 2학년이에요~ (⁎˃ᴗ˂⁎)\n언니는 제가 언제부터 유애나가 되었는지 아세요? 바로 2018년, ‘삐삐’를 듣고 나서예요!\n한국어는 잘 몰랐지만, 언니 목소리와 멜로디에 완전 반해버렸어요 (*≧▽≦)♡\n당시 공부 스트레스로 힘들었는데, 언니의 노래가 큰 힘이 되었고… 덕분에 좋은 고등학교에도 진학했어요! 정말 고마워요 언니~!\n그 후로 언니의 음악은 항상 제 곁에 있었어요.\n수술로 입원했을 땐 ‘에잇’, 우울할 땐 ‘블루밍’, 답답할 땐 ‘무릎’을 들으며 위로를 받았어요.\n언니의 음악은 제게 에너지 같아요! 초콜릿처럼 달콤하고 힘이 되는 그런 존재예요 (´∀｀)\n그리고 진짜 신기하게도… 언니가 노래를 낼 때마다 좋은 일이 생기기도 했어요! 역시 언니는 제 행운의 여신✨\n대학교에 들어간 후엔 오사카에서 열린 ‘히어라이브’ 콘서트에 갔어요!\n추첨제라 큰 기대는 안 했는데, 좋은 자리에 당첨됐고… 테이프도 두 개나 받았어요!!\n언니를 직접 본 그 순간… 정말 꿈만 같았어요 (இωஇ )♡\n언니는 제 행운의 여신이라는 걸 다시 한 번 느꼈답니다!\n그리고 며칠 전엔 ‘베리즈’에서 언니가 제 글에 댓글도 달아주셨어요!!\n너무 행복해서… 잠이 안 오더라고요 ㅠㅠ (´；ω；`)\n요즘은 언니 말씀을 더 잘 알아듣고 싶어서 열심히 한국어 공부 중이에요! 꼭 응원해주세요~ 파이팅!\n마지막으로, 제가 가장 사랑하는 언니가 언제나 건강하시길 바래요!\n소처럼 열심히 일하시더라도, 건강은 꼭 챙기셔야 해요!!\n저는 언제까지나 영원히 유애나일 거예요!\n지은 언니도 언제까지나 제 행운의 여신이 되어주실 거죠?\n사랑해요~~!!! (⁄ ⁄>⁄ ▽ ⁄<⁄ ⁄)\n我爱你！！！💜",
      "content_zh": "💌亲爱的我们的幸运女神智恩姐姐\n今天在家好好休息了吗？我是来自中国的粉丝유애나，也可以叫我Amy！现在是大学二年级学生~ (⁎˃ᴗ˂⁎)\n姐姐知道我从什么时候开始成为유애나的吗？就是2018年听了《삐삐》之后！\n虽然当时不太懂韩语，但完全被姐姐的声音和旋律迷住了(*≧▽≦)♡\n当时因为学习压力很辛苦，姐姐的歌给了我很大的力量…也因此考上了好的高中！真的谢谢姐姐~！\n从那以后，姐姐的音乐一直陪伴着我。\n手术住院时听《에잇》，沮丧时听《블루밍》，郁闷时听《무릎》，从中得到安慰。\n姐姐的音乐对我来说就像能量一样！像巧克力一样甜蜜又给我力量的存在(´∀｀)\n而且真的很神奇的是…姐姐每次发新歌都会发生好事！果然姐姐是我的幸运女神✨\n上大学后去了大阪举办的《히어라이브》演唱会！\n因为是抽签制本来没抱太大期望，却抽到了好位置…还得到了两张贴纸！！\n亲眼见到姐姐的那一刻…真的像做梦一样(இωஇ )♡\n再次感受到了姐姐真的是我的幸运女神！\n还有几天前在《베리즈》里，姐姐还给我的留言回复了评论！！\n太幸福了…都睡不着觉ㅠㅠ (´；ω；`)\n最近为了能更好地理解姐姐的话正在努力学习韩语！一定要为我加油哦~加油！\n最后，希望我最爱的姐姐永远健康！\n即使像牛一样努力工作，也一定要照顾好身体！！\n我会永远永远都是유애나！\n智恩姐姐也会永远做我的幸运女神对吧？\n爱您~~!!! (⁄ ⁄>⁄ ▽ ⁄<⁄ ⁄)\n我爱你！！！💜",
      "post_time": "2025-05-19 06:15:45",
      "image_count": 0,
      "image_urls": null,
      "local_image_paths": null,
      "likes": 0,
      "comments": 0,
      "views": 0,
      "board": "Free",
      "members_only": 0,
      "author_username": "지은의딸기우유",
      "author_avatar": null,
      "author_local_avatar": null,
      "fan_comments": [],
      "direct_iu_replies": [
        {
          "id": 1769,
          "content_ko": "한국말 너무 잘해요....😍 나두 사랑해요 🧚",
          "content_zh": "韩语说得太好了....😍我也爱你🧚",
          "image_count": 0,
          "image_urls": null,
          "local_image_paths": null,
          "replied_at": "2025-05-19 07:00:23"
        }
      ]
    },
    {
      "id": 936,
      "post_uuid": "0196e71d-b88c-c2b9-e9a8-69258a4c30a3",
      "title_ko": null,
      "title_zh": null,
      "content_ko": "언니, 수박 좋아해요? 저는 수박이 사과보다 백 배 더 맛있다고 생각합니다!",
      "content_zh": "欧尼喜欢西瓜吗？我觉得西瓜比苹果好吃一百倍！",
      "post_time": "2025-05-19 05:56:46",
      "image_count": 1,
      "image_urls": "https://dearimage.iu101.org/images/posts/post_936_543110202.jpg",
      "local_image_paths": "https://dearimage.iu101.org/images/posts/post_936_543110202.jpg",
      "likes": 0,
      "comments": 0,
      "views": 0,
      "board": "Free",
      "members_only": 0,
      "author_username": "Zeng",
      "author_avatar": null,
      "author_local_avatar": null,
      "fan_comments": [],
      "direct_iu_replies": [
        {
          "id": 1768,
          "content_ko": "벌써 수박의 계절이 다가오나.. 수박 맛있지! 그래도 저는 사과 😆",
          "content_zh": "西瓜的季节已经来了吗..西瓜真好吃！不过我还是喜欢苹果😆",
          "image_count": 0,
          "image_urls": null,
          "local_image_paths": null,
          "replied_at": "2025-05-19 07:02:32"
        }
      ]
    },
    {
      "id": 935,
      "post_uuid": "0196e714-72cc-3dcc-76ce-a47123058dcc",
      "title_ko": null,
      "title_zh": null,
      "content_ko": "오랜만에 쉬는 날인 것 같은데, 야무지게 쉬는 계획이 있나요!!!?? 🐥🐥",
      "content_zh": "好像很久没休息的日子，有好好休息的计划吗！！？ 🐥🐥",
      "post_time": "2025-05-19 05:46:39",
      "image_count": 0,
      "image_urls": null,
      "local_image_paths": null,
      "likes": 0,
      "comments": 0,
      "views": 0,
      "board": "Free",
      "members_only": 0,
      "author_username": "말랑찹쌀떡",
      "author_avatar": "https://dearimage.iu101.org/images/avatars/avatar_29.jpeg",
      "author_local_avatar": "https://dearimage.iu101.org/images/avatars/avatar_29.jpeg",
      "fan_comments": [],
      "direct_iu_replies": [
        {
          "id": 1767,
          "content_ko": "살짝 톤다운 염색하는 중!! ",
          "content_zh": "正在稍微低调染发中！！",
          "image_count": 0,
          "image_urls": null,
          "local_image_paths": null,
          "replied_at": "2025-05-19 07:03:14"
        }
      ]
    },
    {
      "id": 934,
      "post_uuid": "0196e710-eef9-29c3-2292-e8c20396cfa6",
      "title_ko": null,
      "title_zh": null,
      "content_ko": "빨리 다음8기 이미지 나왔음좋겠어요~^^\n완전 기대중~",
      "content_zh": "希望下一期8期生图片快点出来~^^",
      "post_time": "2025-05-19 05:42:48",
      "image_count": 1,
      "image_urls": "https://dearimage.iu101.org/images/posts/post_934_1929696649.png",
      "local_image_paths": "https://dearimage.iu101.org/images/posts/post_934_1929696649.png",
      "likes": 0,
      "comments": 0,
      "views": 0,
      "board": "Free",
      "members_only": 0,
      "author_username": "밤바커플",
      "author_avatar": null,
      "author_local_avatar": null,
      "fan_comments": [],
      "direct_iu_replies": [
        {
          "id": 1766,
          "content_ko": "저는 살짝 먼저 봤거든요? 진짜 귀여워 🥹",
          "content_zh": "我稍微提前看到了？真的好可爱 🥹",
          "image_count": 0,
          "image_urls": null,
          "local_image_paths": null,
          "replied_at": "2025-05-19 07:03:47"
        }
      ]
    }
  ]
}