{
  "page": 4,
  "totalPages": 5,
  "total": 89,
  "data": [
    {
      "id": 1009,
      "post_uuid": "0196d76c-5903-7950-4069-c889d3738d8e",
      "title_ko": null,
      "title_zh": null,
      "content_ko": "언니 광고 찍으면서 쉬다가 베리즈 온 거예요?",
      "content_zh": "姐姐拍广告休息期间上了Vlive？",
      "post_time": "2025-05-16 04:48:44",
      "image_count": 0,
      "image_urls": null,
      "local_image_paths": null,
      "likes": 0,
      "comments": 0,
      "views": 0,
      "board": "Free",
      "members_only": 0,
      "author_username": "BluemingIU",
      "author_avatar": "https://dearimage.iu101.org/images/avatars/avatar_577.jpeg",
      "author_local_avatar": "https://dearimage.iu101.org/images/avatars/avatar_577.jpeg",
      "fan_comments": [],
      "direct_iu_replies": [
        {
          "id": 1843,
          "content_ko": "넹 열심히 찍고 있어요!!",
          "content_zh": "嗯 正在努力拍摄!!",
          "image_count": 0,
          "image_urls": null,
          "local_image_paths": null,
          "replied_at": "2025-05-16 05:06:59"
        }
      ]
    },
    {
      "id": 1008,
      "post_uuid": "0196d76c-13e6-b0d8-b3a8-031b0e808306",
      "title_ko": null,
      "title_zh": null,
      "content_ko": "언니 나도！나도！나도！네 친구인데！ 왜 답장이 없어！\n저도 알림에 제 아이디가 뜨는 걸 보고 싶어요.\n다음은 나일까?🥺😢😫😩☹️🥲🥹😭",
      "content_zh": "姐姐我也！我也！我也！是你的朋友啊！为什么没有回复！\n我也想看到通知里显示我的ID。\n下一个会是我吗？🥺😢😫😩☹️🥲🥹😭",
      "post_time": "2025-05-16 04:48:26",
      "image_count": 1,
      "image_urls": "https://dearimage.iu101.org/images/posts/post_1008_2007143730.png",
      "local_image_paths": "https://dearimage.iu101.org/images/posts/post_1008_2007143730.png",
      "likes": 0,
      "comments": 0,
      "views": 0,
      "board": "Free",
      "members_only": 0,
      "author_username": "圈圈圈",
      "author_avatar": null,
      "author_local_avatar": null,
      "fan_comments": [],
      "direct_iu_replies": [
        {
          "id": 1842,
          "content_ko": "ㅋㅋ😂 물론 Next is you!! 🫶",
          "content_zh": "哈哈😂 当然 Next is you!! 🫶",
          "image_count": 0,
          "image_urls": null,
          "local_image_paths": null,
          "replied_at": "2025-05-16 05:07:49"
        }
      ]
    },
    {
      "id": 1007,
      "post_uuid": "0196d76b-6b80-185c-9b27-cbd3820ff5a4",
      "title_ko": null,
      "title_zh": null,
      "content_ko": "恩骑Eunknight",
      "content_zh": "恩骑Eunknight",
      "post_time": "2025-05-16 04:47:43",
      "image_count": 1,
      "image_urls": "https://dearimage.iu101.org/images/posts/post_1007_1817554291.jpg",
      "local_image_paths": "https://dearimage.iu101.org/images/posts/post_1007_1817554291.jpg",
      "likes": 0,
      "comments": 0,
      "views": 0,
      "board": "Free",
      "members_only": 0,
      "author_username": "Yael",
      "author_avatar": null,
      "author_local_avatar": null,
      "fan_comments": [],
      "direct_iu_replies": [
        {
          "id": 1841,
          "content_ko": "Eunknight 🥹⚔️🤍",
          "content_zh": "Eunknight 🥹⚔️🤍",
          "image_count": 0,
          "image_urls": null,
          "local_image_paths": null,
          "replied_at": "2025-05-16 05:08:58"
        }
      ]
    },
    {
      "id": 1006,
      "post_uuid": "0196d76b-4e2a-c912-6319-64ee7eb17010",
      "title_ko": null,
      "title_zh": null,
      "content_ko": "진짜 궁금한건데 징짱이 부른 모든 노래 다 기억해?!! 막 제목만 보면 음이 생각나?!! 가사가 떠올라?!!",
      "content_zh": "真的很好奇智恩是不是记得所有唱过的歌？！只要看到歌名就能想起旋律？！能想起歌词？！",
      "post_time": "2025-05-16 04:47:35",
      "image_count": 0,
      "image_urls": null,
      "local_image_paths": null,
      "likes": 0,
      "comments": 0,
      "views": 0,
      "board": "Free",
      "members_only": 0,
      "author_username": "오애순",
      "author_avatar": null,
      "author_local_avatar": null,
      "fan_comments": [],
      "direct_iu_replies": [
        {
          "id": 1840,
          "content_ko": "아뉘 다는 아니야 🙄",
          "content_zh": "不 不是全部 🙄",
          "image_count": 0,
          "image_urls": null,
          "local_image_paths": null,
          "replied_at": "2025-05-16 05:09:34"
        }
      ]
    },
    {
      "id": 1005,
      "post_uuid": "0196d76b-1eb6-5f03-024e-2df3bbf1807f",
      "title_ko": null,
      "title_zh": null,
      "content_ko": "저는 아이유에 의해 차단되었습니다.",
      "content_zh": "我被IU屏蔽了。",
      "post_time": "2025-05-16 04:47:23",
      "image_count": 1,
      "image_urls": "https://dearimage.iu101.org/images/posts/post_1005_854682673.jpeg",
      "local_image_paths": "https://dearimage.iu101.org/images/posts/post_1005_854682673.jpeg",
      "likes": 0,
      "comments": 0,
      "views": 0,
      "board": "Free",
      "members_only": 0,
      "author_username": "Qingran❀",
      "author_avatar": null,
      "author_local_avatar": null,
      "fan_comments": [],
      "direct_iu_replies": [
        {
          "id": 1839,
          "content_ko": "차단 해제!",
          "content_zh": "解除屏蔽!",
          "image_count": 0,
          "image_urls": null,
          "local_image_paths": null,
          "replied_at": "2025-05-16 05:09:50"
        }
      ]
    },
    {
      "id": 1004,
      "post_uuid": "0196d76b-0001-9a85-6a68-cf8f22274a29",
      "title_ko": null,
      "title_zh": null,
      "content_ko": "happy birthday my angel princess!! thank you for always being such a lovely role model throughout my life. 💖 I love you so much and I hope you're having a day as beautiful as you are 🎉🌸🌻 I'll love you and support you forever and ever ok? ",
      "content_zh": "happy birthday my angel princess!! thank you for always being such a lovely role model throughout my life. 💖 I love you so much and I hope you're having a day as beautiful as you are 🎉🌸🌻 I'll love you and support you forever and ever ok?",
      "post_time": "2025-05-16 04:47:15",
      "image_count": 0,
      "image_urls": null,
      "local_image_paths": null,
      "likes": 0,
      "comments": 0,
      "views": 0,
      "board": "Free",
      "members_only": 0,
      "author_username": "neri",
      "author_avatar": null,
      "author_local_avatar": null,
      "fan_comments": [],
      "direct_iu_replies": [
        {
          "id": 1838,
          "content_ko": "Ok!! Thank you for your sweet words💗",
          "content_zh": "Ok!! Thank you for your sweet words💗",
          "image_count": 0,
          "image_urls": null,
          "local_image_paths": null,
          "replied_at": "2025-05-16 05:10:29"
        }
      ]
    },
    {
      "id": 1003,
      "post_uuid": "0196d76a-e0f5-a0d2-7b9f-89a320918500",
      "title_ko": null,
      "title_zh": null,
      "content_ko": "언니 미역국 먹었어요?!",
      "content_zh": "姐姐吃海带汤了吗？！",
      "post_time": "2025-05-16 04:47:08",
      "image_count": 0,
      "image_urls": null,
      "local_image_paths": null,
      "likes": 0,
      "comments": 0,
      "views": 0,
      "board": "Free",
      "members_only": 0,
      "author_username": "아구리",
      "author_avatar": "https://statics.berriz.in/cdn/profile/image/ae/me/uw/tf/cx/an/717701482.jpeg",
      "author_local_avatar": null,
      "fan_comments": [],
      "direct_iu_replies": [
        {
          "id": 1837,
          "content_ko": "아직! 근데 엄마가 보내주셨어요 💗",
          "content_zh": "还没有! 但是妈妈寄给我了 💗",
          "image_count": 0,
          "image_urls": null,
          "local_image_paths": null,
          "replied_at": "2025-05-16 05:11:17"
        }
      ]
    },
    {
      "id": 1002,
      "post_uuid": "0196d767-443c-4e92-25ea-232f8f4e09b9",
      "title_ko": null,
      "title_zh": null,
      "content_ko": "태방이 살찐 것 같지 않아요?",
      "content_zh": "泰防看起来没胖吗？",
      "post_time": "2025-05-16 04:43:11",
      "image_count": 1,
      "image_urls": "https://dearimage.iu101.org/images/posts/post_1002_1609170657.jpeg",
      "local_image_paths": "https://dearimage.iu101.org/images/posts/post_1002_1609170657.jpeg",
      "likes": 0,
      "comments": 0,
      "views": 0,
      "board": "Free",
      "members_only": 0,
      "author_username": "큐레스♡",
      "author_avatar": null,
      "author_local_avatar": null,
      "fan_comments": [],
      "direct_iu_replies": [
        {
          "id": 1836,
          "content_ko": "뭐가 살쨔!!",
          "content_zh": "什么会好啊!!",
          "image_count": 0,
          "image_urls": null,
          "local_image_paths": null,
          "replied_at": "2025-05-16 05:12:54"
        }
      ]
    },
    {
      "id": 1021,
      "post_uuid": "0196d737-ea29-1c51-4c12-73153526938c",
      "title_ko": null,
      "title_zh": null,
      "content_ko": "오늘도 아직 광고 촬영 중..??",
      "content_zh": "今天也还在拍广告吗？？",
      "post_time": "2025-05-16 03:51:28",
      "image_count": 0,
      "image_urls": null,
      "local_image_paths": null,
      "likes": 0,
      "comments": 0,
      "views": 0,
      "board": "Free",
      "members_only": 0,
      "author_username": "유애나홀씨",
      "author_avatar": null,
      "author_local_avatar": null,
      "fan_comments": [],
      "direct_iu_replies": [
        {
          "id": 1855,
          "content_ko": "예스 😆",
          "content_zh": "是的 😆",
          "image_count": 0,
          "image_urls": null,
          "local_image_paths": null,
          "replied_at": "2025-05-16 03:51:43"
        }
      ]
    },
    {
      "id": 1020,
      "post_uuid": "0196d737-bfba-4fb0-681f-b6ca7309f0c9",
      "title_ko": null,
      "title_zh": null,
      "content_ko": "언니 난 스프카레 먹으러왔어욤\n먹구 생카 갈거에영!!!!!!🌱🌱🌱🌱",
      "content_zh": "姐姐我来吃舒芙蕾了",
      "post_time": "2025-05-16 03:51:17",
      "image_count": 0,
      "image_urls": null,
      "local_image_paths": null,
      "likes": 0,
      "comments": 0,
      "views": 0,
      "board": "Free",
      "members_only": 0,
      "author_username": "응띠유",
      "author_avatar": null,
      "author_local_avatar": null,
      "fan_comments": [],
      "direct_iu_replies": [
        {
          "id": 1854,
          "content_ko": "우산 잘 챙기구 빗길 조심하구🫶",
          "content_zh": "伞带好，雨天路滑小心点🫶",
          "image_count": 0,
          "image_urls": null,
          "local_image_paths": null,
          "replied_at": "2025-05-16 03:52:24"
        }
      ]
    },
    {
      "id": 1019,
      "post_uuid": "0196d736-c666-abad-66ee-dbebebcb7e22",
      "title_ko": null,
      "title_zh": null,
      "content_ko": "언니 오늘 5시에 웃안생파 영상 올라와요!! 바로 보실 거예요?!",
      "content_zh": "姐姐今天5点会上线生日派对视频！！会马上看吗？！",
      "post_time": "2025-05-16 03:50:13",
      "image_count": 0,
      "image_urls": null,
      "local_image_paths": null,
      "likes": 0,
      "comments": 0,
      "views": 0,
      "board": "Free",
      "members_only": 0,
      "author_username": "삐약아현",
      "author_avatar": "https://dearimage.iu101.org/images/avatars/avatar_111.gif",
      "author_local_avatar": "https://dearimage.iu101.org/images/avatars/avatar_111.gif",
      "fan_comments": [],
      "direct_iu_replies": [
        {
          "id": 1853,
          "content_ko": "촬영 중이라 못 볼 듯 ㅜㅜ 먼저 보구 재밌었는지 얘기해 줘요🐥",
          "content_zh": "拍摄中应该看不到 ㅜㅜ 先看了告诉我好不好笑🐥",
          "image_count": 0,
          "image_urls": null,
          "local_image_paths": null,
          "replied_at": "2025-05-16 03:53:22"
        }
      ]
    },
    {
      "id": 1018,
      "post_uuid": "0196d736-6340-4f45-ce1b-87b4bffd5f4c",
      "title_ko": null,
      "title_zh": null,
      "content_ko": "IU，我喜歡你已經第九年了，慢慢地成為了我人生中無可替代的位置，我的人生歌手IU，祝你生日快樂！！慢慢一起走到老吧👭🏻👯",
      "content_zh": "IU，我喜欢你已经第九年了，慢慢地成为了我人生中无可替代的位置，我的人生歌手IU，祝你生日快乐！！慢慢一起走到老吧👭🏻👯",
      "post_time": "2025-05-16 03:49:47",
      "image_count": 0,
      "image_urls": null,
      "local_image_paths": null,
      "likes": 0,
      "comments": 0,
      "views": 0,
      "board": "Free",
      "members_only": 0,
      "author_username": "Stellai",
      "author_avatar": null,
      "author_local_avatar": null,
      "fan_comments": [],
      "direct_iu_replies": [
        {
          "id": 1852,
          "content_ko": "좋아 우리 머리카락이 다 하얘질 때까지 함께 😌",
          "content_zh": "好 我们的头发都变白之前一起 😌",
          "image_count": 0,
          "image_urls": null,
          "local_image_paths": null,
          "replied_at": "2025-05-16 03:54:51"
        }
      ]
    },
    {
      "id": 1017,
      "post_uuid": "0196d734-e807-99cf-4490-2ca74fe681a7",
      "title_ko": null,
      "title_zh": null,
      "content_ko": "아이뉴 누나의 선행에 감동받아 저도 기부를 시작한지 2년차입니다.\n적은 금액이지만 앞으로도 꾸준히 이어가려고 합니다. ",
      "content_zh": "受到艾纽姐姐善行的感动，我也开始了捐赠，已经是第二年了。虽然金额不多，但今后也会持续下去。",
      "post_time": "2025-05-16 03:48:10",
      "image_count": 1,
      "image_urls": "https://dearimage.iu101.org/images/posts/post_1017_408721818.jpeg",
      "local_image_paths": "https://dearimage.iu101.org/images/posts/post_1017_408721818.jpeg",
      "likes": 0,
      "comments": 0,
      "views": 0,
      "board": "Free",
      "members_only": 0,
      "author_username": "범블비",
      "author_avatar": null,
      "author_local_avatar": null,
      "fan_comments": [],
      "direct_iu_replies": [
        {
          "id": 1851,
          "content_ko": "멋지다 블비야!!!🫶",
          "content_zh": "真帅气 踔智呀!!!🫶",
          "image_count": 0,
          "image_urls": null,
          "local_image_paths": null,
          "replied_at": "2025-05-16 03:56:20"
        }
      ]
    },
    {
      "id": 1016,
      "post_uuid": "0196d733-d5f7-2eca-c941-3c3f74666f6f",
      "title_ko": null,
      "title_zh": null,
      "content_ko": "언니, 뭐 하는 거야, 과일이 너무 맛없어, 언니가 무슨 과일을 좋아해",
      "content_zh": "姐姐，你在干什么呀，水果太难吃了，姐姐喜欢什么水果",
      "post_time": "2025-05-16 03:47:00",
      "image_count": 0,
      "image_urls": null,
      "local_image_paths": null,
      "likes": 0,
      "comments": 0,
      "views": 0,
      "board": "Free",
      "members_only": 0,
      "author_username": "IU의큰보물",
      "author_avatar": null,
      "author_local_avatar": null,
      "fan_comments": [],
      "direct_iu_replies": [
        {
          "id": 1850,
          "content_ko": "ㅋㅋㅋ과일이 맛 없어?! 뭘 먹은 거야!!",
          "content_zh": "ㅋㅋㅋ水果不好吃？！你吃了什么!!",
          "image_count": 0,
          "image_urls": null,
          "local_image_paths": null,
          "replied_at": "2025-05-16 03:56:50"
        }
      ]
    },
    {
      "id": 1015,
      "post_uuid": "0196d72e-01d2-301b-aae8-1de210d3e332",
      "title_ko": null,
      "title_zh": null,
      "content_ko": "점심시간, 맛없는 회사 도시락.",
      "content_zh": "午休时间，难吃的公司便当。",
      "post_time": "2025-05-16 03:40:38",
      "image_count": 1,
      "image_urls": "https://dearimage.iu101.org/images/posts/post_1015_1314068595.jpg",
      "local_image_paths": "https://dearimage.iu101.org/images/posts/post_1015_1314068595.jpg",
      "likes": 0,
      "comments": 0,
      "views": 0,
      "board": "Free",
      "members_only": 0,
      "author_username": "arefu",
      "author_avatar": null,
      "author_local_avatar": null,
      "fan_comments": [],
      "direct_iu_replies": [
        {
          "id": 1849,
          "content_ko": "내 눈에만 맛있어 보이는 걸까? 🤤",
          "content_zh": "只有在我眼里看起来好吃吗？ 🤤",
          "image_count": 0,
          "image_urls": null,
          "local_image_paths": null,
          "replied_at": "2025-05-16 03:58:15"
        }
      ]
    },
    {
      "id": 1050,
      "post_uuid": "0196d39e-7b22-87f0-8c62-3ed0db4e8719",
      "title_ko": null,
      "title_zh": null,
      "content_ko": "언니!! 중애나 will put up advertisement on the big screens of OVER 100 shopping malls in China tomorrow! to celebrate IU DAY! 💜🥰🥰",
      "content_zh": "姐姐！！ 中爱将在明天在中国超过100家购物中心的大屏幕上投放广告！来庆祝IU DAY！💜🥰🥰",
      "post_time": "2025-05-15 11:05:00",
      "image_count": 1,
      "image_urls": "https://dearimage.iu101.org/images/posts/post_1050_715755562.jpg",
      "local_image_paths": "https://dearimage.iu101.org/images/posts/post_1050_715755562.jpg",
      "likes": 0,
      "comments": 0,
      "views": 0,
      "board": "Free",
      "members_only": 0,
      "author_username": "쿠키기Gao",
      "author_avatar": null,
      "author_local_avatar": null,
      "fan_comments": [],
      "direct_iu_replies": [
        {
          "id": 1884,
          "content_ko": "😱🤯🥹💗🙏🫶",
          "content_zh": "😱🤯🥹💗🙏🫶",
          "image_count": 0,
          "image_urls": null,
          "local_image_paths": null,
          "replied_at": "2025-05-15 11:09:45"
        }
      ]
    },
    {
      "id": 1049,
      "post_uuid": "0196d39c-a1b8-9192-5498-5a1d4f7d951a",
      "title_ko": null,
      "title_zh": null,
      "content_ko": "언니는 퇴근했어요?",
      "content_zh": "姐姐下班了吗？",
      "post_time": "2025-05-15 11:02:59",
      "image_count": 0,
      "image_urls": null,
      "local_image_paths": null,
      "likes": 0,
      "comments": 0,
      "views": 0,
      "board": "Free",
      "members_only": 0,
      "author_username": "注销的用户",
      "author_avatar": null,
      "author_local_avatar": null,
      "fan_comments": [],
      "direct_iu_replies": [
        {
          "id": 1883,
          "content_ko": "아직 😆",
          "content_zh": "还早 😆",
          "image_count": 0,
          "image_urls": null,
          "local_image_paths": null,
          "replied_at": "2025-05-15 11:10:13"
        }
      ]
    },
    {
      "id": 1048,
      "post_uuid": "0196d37d-e029-0c08-33f8-3af1badfdcc1",
      "title_ko": null,
      "title_zh": null,
      "content_ko": "이번엔 깜빡하고 아들 아이디 유애나 가입을 못했어요.\n\n티켓팅 할 수 있을까요? ㅠㅠ",
      "content_zh": "这次疏忽了，儿子的账号没能注册尤爱娜。",
      "post_time": "2025-05-15 10:29:24",
      "image_count": 1,
      "image_urls": "https://dearimage.iu101.org/images/posts/post_1048_1541158722.jpg",
      "local_image_paths": "https://dearimage.iu101.org/images/posts/post_1048_1541158722.jpg",
      "likes": 0,
      "comments": 0,
      "views": 0,
      "board": "Free",
      "members_only": 0,
      "author_username": "개미",
      "author_avatar": null,
      "author_local_avatar": null,
      "fan_comments": [],
      "direct_iu_replies": [
        {
          "id": 1882,
          "content_ko": "아부지만 하신 거예요? 🥹",
          "content_zh": "是爸爸做的吗? 🥹",
          "image_count": 0,
          "image_urls": null,
          "local_image_paths": null,
          "replied_at": "2025-05-15 11:14:26"
        }
      ]
    },
    {
      "id": 1047,
      "post_uuid": "0196d37d-7c5f-b006-7fe4-b46de3834c96",
      "title_ko": null,
      "title_zh": null,
      "content_ko": "2012년 용산 전쟁기념관  콘서트에 아빠손에 끌려 왔던 딸이 이지금은 아빠 손을 끌고 콘서트로 갑니다 ",
      "content_zh": "2012年被爸爸拉着来到龙山战争纪念馆演唱会的女儿，现在是拉着爸爸的手去演唱会",
      "post_time": "2025-05-15 10:28:58",
      "image_count": 4,
      "image_urls": "https://dearimage.iu101.org/images/posts/post_1047_243106131.jpeg",
      "local_image_paths": "https://dearimage.iu101.org/images/posts/post_1047_243106131.jpeg|https://dearimage.iu101.org/images/posts/post_1047_241853195.jpeg|https://dearimage.iu101.org/images/posts/post_1047_1087102550.jpeg|https://dearimage.iu101.org/images/posts/post_1047_1087416112.jpeg",
      "likes": 0,
      "comments": 0,
      "views": 0,
      "board": "Free",
      "members_only": 0,
      "author_username": "동미니",
      "author_avatar": null,
      "author_local_avatar": null,
      "fan_comments": [],
      "direct_iu_replies": [
        {
          "id": 1881,
          "content_ko": "아부지 나이스! 🤸‍♀️😆",
          "content_zh": "爸爸厉害! 🤸‍♀️😆",
          "image_count": 0,
          "image_urls": null,
          "local_image_paths": null,
          "replied_at": "2025-05-15 11:15:02"
        }
      ]
    },
    {
      "id": 1046,
      "post_uuid": "0196d37c-9abc-2614-5920-00b0ab5b3240",
      "title_ko": null,
      "title_zh": null,
      "content_ko": "언니 아직도 꽃 중에 백합이 가장 좋아요??",
      "content_zh": "姐姐还是最喜欢花中的百合吗？？",
      "post_time": "2025-05-15 10:28:00",
      "image_count": 0,
      "image_urls": null,
      "local_image_paths": null,
      "likes": 0,
      "comments": 0,
      "views": 0,
      "board": "Free",
      "members_only": 0,
      "author_username": "짱유진",
      "author_avatar": "https://dearimage.iu101.org/images/avatars/avatar_281.jpg",
      "author_local_avatar": "https://dearimage.iu101.org/images/avatars/avatar_281.jpg",
      "fan_comments": [],
      "direct_iu_replies": [
        {
          "id": 1880,
          "content_ko": "제비꽃으로 바뀐 지 좀 됐는데애😆",
          "content_zh": "改成紫罗兰已经有一段时间了😆",
          "image_count": 0,
          "image_urls": null,
          "local_image_paths": null,
          "replied_at": "2025-05-15 11:15:35"
        }
      ]
    }
  ]
}