{
  "page": 1,
  "totalPages": 5,
  "total": 89,
  "data": [
    {
      "id": 82,
      "post_uuid": "019b2acd-f503-9e45-e955-91d3fd08857a",
      "title_ko": null,
      "title_zh": null,
      "content_ko": "언니, 이 드레스 무슨 색이에요? 많은 유애나들이 호기심이 많아요 ㅋㅋㅋ",
      "content_zh": "姐姐，这条裙子是什么颜色？很多IU粉丝都很好奇 ㅋㅋㅋ",
      "post_time": "2025-12-17 05:34:59",
      "image_count": 1,
      "image_urls": "https://dearimage.iu101.org/images/remote/post_82_0.jpg",
      "local_image_paths": "https://dearimage.iu101.org/images/posts/post_82_1251709944.jpg",
      "likes": 0,
      "comments": 0,
      "views": 0,
      "board": "Free",
      "members_only": 0,
      "author_username": "candyy478_",
      "author_avatar": null,
      "author_local_avatar": null,
      "fan_comments": [],
      "direct_iu_replies": [
        {
          "id": 429,
          "content_ko": "이거 실제 색깔은 왼쪽에 가까워!",
          "content_zh": "这个实际颜色更接近左边！",
          "image_count": 0,
          "image_urls": null,
          "local_image_paths": null,
          "replied_at": "2025-12-17 05:42:45"
        }
      ]
    },
    {
      "id": 172,
      "post_uuid": "01989120-6618-c30d-2fbb-fb48cc755084",
      "title_ko": null,
      "title_zh": null,
      "content_ko": "궁금한게있는데 팬미팅계획은 그전부터했던거죠? 체조대관같은거는할려면 이미그전에했을꺼같아서",
      "content_zh": "有个问题，粉丝见面会计划是之前就定好的吗？像体操馆这样的场地如果要做的话应该早就准备好了吧",
      "post_time": "2025-08-09 23:17:56",
      "image_count": 0,
      "image_urls": null,
      "local_image_paths": null,
      "likes": 0,
      "comments": 0,
      "views": 0,
      "board": "Free",
      "members_only": 0,
      "author_username": "유애나좋아",
      "author_avatar": null,
      "author_local_avatar": null,
      "fan_comments": [],
      "direct_iu_replies": [
        {
          "id": 835,
          "content_ko": "그죠 대관이슈가 6개월 정도는\n걸리니까!",
          "content_zh": "是啊因为场地问题大概要6个月左右！",
          "image_count": 0,
          "image_urls": null,
          "local_image_paths": null,
          "replied_at": "2025-08-09 23:20:12"
        }
      ]
    },
    {
      "id": 171,
      "post_uuid": "0198911c-533b-c922-bacd-570e7d7502df",
      "title_ko": null,
      "title_zh": null,
      "content_ko": "언니\n좋아하는 사람이 너무 힘든일이 생겼는데\n내가 뭔갈 해주고 싶어도\n도와주지도 해결해주지도 못하는 일이라\n가끔 얘기나 들어주는게 다라서\n너무 미안하고 속상한데\n언니는 이럴때 있었어요?\n그럴때는 어떻게 했어요?\n그 사람이 힘들어하니까 너무 속상해요...",
      "content_zh": "姐姐\n我喜欢的人遇到了很困难的事\n虽然我想为他做点什么\n但那件事我既帮不上忙也解决不了\n只能偶尔听听他说说心里话\n觉得很对不起他，心里很难受\n姐姐你也有过这种情况吗？\n那时候你是怎么做的？\n看到他这么难过，我心里真的好难受...",
      "post_time": "2025-08-09 23:13:29",
      "image_count": 0,
      "image_urls": null,
      "local_image_paths": null,
      "likes": 0,
      "comments": 0,
      "views": 0,
      "board": "Free",
      "members_only": 0,
      "author_username": "아이유의연하녀",
      "author_avatar": null,
      "author_local_avatar": null,
      "fan_comments": [],
      "direct_iu_replies": [
        {
          "id": 834,
          "content_ko": "내가 도와줄 건 없어? 하고 물어봐요!",
          "content_zh": "没有我能帮忙的吗？这样问",
          "image_count": 0,
          "image_urls": null,
          "local_image_paths": null,
          "replied_at": "2025-08-09 23:23:53"
        }
      ]
    },
    {
      "id": 180,
      "post_uuid": "01988f85-fe6e-7a51-b27b-20a877c5c344",
      "title_ko": null,
      "title_zh": null,
      "content_ko": "일하기 싫으면 어떡하지",
      "content_zh": "不想工作怎么办",
      "post_time": "2025-08-09 15:49:40",
      "image_count": 0,
      "image_urls": null,
      "local_image_paths": null,
      "likes": 0,
      "comments": 0,
      "views": 0,
      "board": "Free",
      "members_only": 0,
      "author_username": "yinggg",
      "author_avatar": null,
      "author_local_avatar": null,
      "fan_comments": [],
      "direct_iu_replies": [
        {
          "id": 843,
          "content_ko": "그래도 일단은 해야지... 힘내자자자자자잣!!!! ♥️♥️♥️♥️♥️",
          "content_zh": "不过总之得做...加油加油加油加油加油！！！♥️♥️♥️♥️♥️",
          "image_count": 0,
          "image_urls": null,
          "local_image_paths": null,
          "replied_at": "2025-08-09 23:02:49"
        }
      ]
    },
    {
      "id": 179,
      "post_uuid": "01988f3a-7cc4-b5ae-3528-3383fba668d5",
      "title_ko": null,
      "title_zh": null,
      "content_ko": "언니 쉬는 하루는 뭐해요? 잘 자고 있어요?🥺🥺",
      "content_zh": "姐姐休息日都做什么？睡得好吗？🥺🥺",
      "post_time": "2025-08-09 14:27:11",
      "image_count": 0,
      "image_urls": null,
      "local_image_paths": null,
      "likes": 0,
      "comments": 0,
      "views": 0,
      "board": "Free",
      "members_only": 0,
      "author_username": "Lulu~",
      "author_avatar": null,
      "author_local_avatar": null,
      "fan_comments": [],
      "direct_iu_replies": [
        {
          "id": 842,
          "content_ko": "가자가자 일하러 가보자!!!",
          "content_zh": "走走走我们去工作吧！！！",
          "image_count": 0,
          "image_urls": null,
          "local_image_paths": null,
          "replied_at": "2025-08-09 23:04:10"
        }
      ]
    },
    {
      "id": 178,
      "post_uuid": "01988eef-f199-6c24-8ff6-8c7d5240db82",
      "title_ko": null,
      "title_zh": null,
      "content_ko": "언니 내일은 내 10대 마지막 생일이야 ",
      "content_zh": "姐姐，明天是我十代最后的生日",
      "post_time": "2025-08-09 13:05:46",
      "image_count": 0,
      "image_urls": null,
      "local_image_paths": null,
      "likes": 0,
      "comments": 0,
      "views": 0,
      "board": "Free",
      "members_only": 0,
      "author_username": "유진_",
      "author_avatar": null,
      "author_local_avatar": null,
      "fan_comments": [],
      "direct_iu_replies": [
        {
          "id": 841,
          "content_ko": "미리 축하해 유진아 ♥️\n십 대 때의 기억들이 행복한 추억으로 남길!",
          "content_zh": "提前祝贺知恩♥️ 十几岁时的记忆成为幸福的回忆！",
          "image_count": 0,
          "image_urls": null,
          "local_image_paths": null,
          "replied_at": "2025-08-09 23:05:56"
        }
      ]
    },
    {
      "id": 176,
      "post_uuid": "01988e8e-ff26-104a-06b5-5bf17207c64a",
      "title_ko": null,
      "title_zh": null,
      "content_ko": "중국 대학생들은 어려워요. 1월이랑 2월만 쉬고 3월에 콘서트 하면 못 가요.😭😭😭",
      "content_zh": "中国大学生很辛苦。只有一月二月休息，三月办演唱会的话去不了。😭😭😭",
      "post_time": "2025-08-09 11:19:52",
      "image_count": 0,
      "image_urls": null,
      "local_image_paths": null,
      "likes": 0,
      "comments": 0,
      "views": 0,
      "board": "Free",
      "members_only": 0,
      "author_username": "평온을유지하다",
      "author_avatar": null,
      "author_local_avatar": null,
      "fan_comments": [],
      "direct_iu_replies": [
        {
          "id": 839,
          "content_ko": "3월에 콘서트 안 할게!",
          "content_zh": "3月不办演唱会！",
          "image_count": 0,
          "image_urls": null,
          "local_image_paths": null,
          "replied_at": "2025-08-09 23:09:20"
        }
      ]
    },
    {
      "id": 175,
      "post_uuid": "01988e4f-3ca6-79df-0869-9be774763a7d",
      "title_ko": null,
      "title_zh": null,
      "content_ko": "지은아, 팬미팅은 해외에서도 할 거야? 한국 거는 내가 가기가 좀 어렵네.",
      "content_zh": "知恩，粉丝见面会会在海外也举办吗？韩国场我去不了。",
      "post_time": "2025-08-09 10:10:14",
      "image_count": 0,
      "image_urls": null,
      "local_image_paths": null,
      "likes": 0,
      "comments": 0,
      "views": 0,
      "board": "Free",
      "members_only": 0,
      "author_username": "ttongsin",
      "author_avatar": null,
      "author_local_avatar": null,
      "fan_comments": [],
      "direct_iu_replies": [
        {
          "id": 838,
          "content_ko": "아니 드라마 촬영 때문에 그건 좀 어려울 것 같아 그치만 곧 네가 있는 곳으로 만나러 갈게! ",
          "content_zh": "不因为拍电视剧那个有点困难但很快会去你所在的地方见你！",
          "image_count": 0,
          "image_urls": null,
          "local_image_paths": null,
          "replied_at": "2025-08-09 23:10:44"
        }
      ]
    },
    {
      "id": 174,
      "post_uuid": "01988d4d-d114-2000-0cfe-28d311af8cd4",
      "title_ko": null,
      "title_zh": null,
      "content_ko": "엉니 나 진짜로 팬미팅 너무 가고 싶은데... 돈 없는 거지인데다가 그때 수능이 두달밖에 남지 않을 비운의 고3이라 못가게 됐어 ㅠㅠ 내년에 꼭 갈거니까 내 자리 비워줘야해 알았찌 나 언니의 수능 응원 영상만 기다리며 열신히 공부할 테니까😘",
      "content_zh": "啊尼，我真的超级想去粉丝见面会...可是没钱，而且那时候距离高考只剩两个月了，作为不幸的高三生去不了了ㅠㅠ明年一定要去，所以你们要给我留着位置哦知道啦我会努力学习，只等着姐姐的高考加油视频😘",
      "post_time": "2025-08-09 05:29:04",
      "image_count": 0,
      "image_urls": null,
      "local_image_paths": null,
      "likes": 0,
      "comments": 0,
      "views": 0,
      "board": "Free",
      "members_only": 0,
      "author_username": "챱챱챱",
      "author_avatar": null,
      "author_local_avatar": null,
      "fan_comments": [],
      "direct_iu_replies": [
        {
          "id": 837,
          "content_ko": "응 그럼!! 이번이 마지막 오프가 아니니까\n당장 더 중요한 일을 하고 만나면 반가움이 두 배 >.<",
          "content_zh": "嗯那当然！！这次不是最后一次off所以 现在先做更重要的事见面的话喜悦翻倍>.<",
          "image_count": 0,
          "image_urls": null,
          "local_image_paths": null,
          "replied_at": "2025-08-09 23:12:23"
        }
      ]
    },
    {
      "id": 764,
      "post_uuid": "0197313e-5689-e090-e98b-e2e6677fd714",
      "title_ko": null,
      "title_zh": null,
      "content_ko": "지은 언니~ 만약 우애나가 언니가 가장 좋아하는 초콜릿을 먹었다면... 화내실 거예요? ㅋㅋ (사실 그 초콜릿은 이미 우애나들 마음속에 ‘지은이 사랑’으로 녹아버렸다구요! 🍫💘",
      "content_zh": "知恩欧尼~ 如果乌雅娜欧尼吃了你最喜欢的巧克力的话...会生气吗？ㅋㅋ （其实那块巧克力早已在乌雅娜心里融化成了\"对知恩的爱\"啦！🍫💘",
      "post_time": "2025-06-02 15:24:18",
      "image_count": 2,
      "image_urls": "https://dearimage.iu101.org/images/posts/post_764_1757714516.jpeg",
      "local_image_paths": "https://dearimage.iu101.org/images/posts/post_764_1755457632.jpeg|https://dearimage.iu101.org/images/posts/post_764_1757714516.jpeg",
      "likes": 0,
      "comments": 0,
      "views": 0,
      "board": "Free",
      "members_only": 0,
      "author_username": "uaenacandy",
      "author_avatar": null,
      "author_local_avatar": null,
      "fan_comments": [],
      "direct_iu_replies": [
        {
          "id": 1594,
          "content_ko": "아니 그거 좋아했어? 말을 하지 내가 선물해 줄게! 나두 그거 최앤데 우리 취향 똑같다 😛",
          "content_zh": "啊你喜欢那个？说句话我送你！我也最喜欢那个我们品味一样😛",
          "image_count": 0,
          "image_urls": null,
          "local_image_paths": null,
          "replied_at": "2025-06-02 15:29:33"
        }
      ]
    },
    {
      "id": 884,
      "post_uuid": "01970ffc-fa38-04d4-1e2e-7bf8c47c00ce",
      "title_ko": null,
      "title_zh": null,
      "content_ko": "내가 다 두근거려 어떠케어떠케!!!!!!!!!!!!!!!!!!!!!!!!!!!!!!!!!!!!!!!!!!!!!!!!!!!!!!!!!!!!!!!!!!!!!!!!!!!!!!!!!!!!!!!!!!!!!!!!!!!!!!!!!!!!!!!!!!!!!!!!!!!!!!!!!!!!!!!!!!!!!!!!!!!!!!!!!!!!!!!!!!!!!!!!!!!!!!!!!!!!!!!!!!!!!!!!!!!!!!!!!!!!!!!!!!!!!!!!!!!!!!!!",
      "content_zh": "我的心跳个不停怎么办怎么办!!!!!!!!!!!!!!!!!!!!!!!!!!!!!!!!!!!!!!!!!!!!!!!!!!!!!!!!!!!!!!!!!!!!!!!!!!!!!!!!!!!!!!!!!!!!!!!!!!!!!!!!!!!!!!!!!!!!!!!!!!!!!!!!!!!!!!!!!!!!!!!!!!!!!!!!!!!!!!!!!!!!!!!!!!!!!!!!!!!!!!!!!!!!!!!!!!!!!!!!!!!!!!!!!!!!!!!!!!!!!!!!",
      "post_time": "2025-05-27 04:25:26",
      "image_count": 0,
      "image_urls": null,
      "local_image_paths": null,
      "likes": 0,
      "comments": 0,
      "views": 0,
      "board": "Free",
      "members_only": 0,
      "author_username": "슬기로운유애나생활",
      "author_avatar": null,
      "author_local_avatar": null,
      "fan_comments": [],
      "direct_iu_replies": [
        {
          "id": 1716,
          "content_ko": "귀여워......",
          "content_zh": "귀여워......",
          "image_count": 0,
          "image_urls": null,
          "local_image_paths": null,
          "replied_at": "2025-05-27 07:01:57"
        }
      ]
    },
    {
      "id": 883,
      "post_uuid": "01970ff1-94aa-80fa-7192-41dfbb839a6c",
      "title_ko": null,
      "title_zh": null,
      "content_ko": "언니야 나 속상해 우울해,,",
      "content_zh": "姐姐我心情不好，很沮丧，，",
      "post_time": "2025-05-27 04:12:59",
      "image_count": 0,
      "image_urls": null,
      "local_image_paths": null,
      "likes": 0,
      "comments": 0,
      "views": 0,
      "board": "Free",
      "members_only": 0,
      "author_username": "우김치유",
      "author_avatar": null,
      "author_local_avatar": null,
      "fan_comments": [],
      "direct_iu_replies": [
        {
          "id": 1715,
          "content_ko": "누가 그랬어?!? 😠",
          "content_zh": "谁这么说的？！😠",
          "image_count": 0,
          "image_urls": null,
          "local_image_paths": null,
          "replied_at": "2025-05-27 07:02:19"
        }
      ]
    },
    {
      "id": 882,
      "post_uuid": "01970f62-b925-8b35-2ad9-f9b9c6c70255",
      "title_ko": null,
      "title_zh": null,
      "content_ko": "열스숨스해요 유애나\n멜론이 가장 중요해요🔥",
      "content_zh": "Melon最重要了🔥",
      "post_time": "2025-05-27 01:36:57",
      "image_count": 1,
      "image_urls": "https://dearimage.iu101.org/images/posts/post_882_1090593320.jpg",
      "local_image_paths": "https://dearimage.iu101.org/images/posts/post_882_1090593320.jpg",
      "likes": 0,
      "comments": 0,
      "views": 0,
      "board": "Free",
      "members_only": 0,
      "author_username": "지으니여자친구",
      "author_avatar": null,
      "author_local_avatar": null,
      "fan_comments": [],
      "direct_iu_replies": [
        {
          "id": 1714,
          "content_ko": "와 네버엔딩스토리는 세 번이나 있잖아아! 😮",
          "content_zh": "哇《Never Ending Story》竟然有三场! 😮",
          "image_count": 0,
          "image_urls": null,
          "local_image_paths": null,
          "replied_at": "2025-05-27 07:04:05"
        }
      ]
    },
    {
      "id": 908,
      "post_uuid": "0196eb53-f43e-6e02-1f6b-9271d1554e98",
      "title_ko": null,
      "title_zh": null,
      "content_ko": "오늘 너무 피곤한 하루..12시에 언니 목소리 들으려구 전화 걸었는데 연결이 안되서 오늘 아침에 일어나자마자 다 들었다구!내 노력 칭찬해줘여..(사진첨부가 안되서..무려 110통이나 걸었써)",
      "content_zh": "今天真是疲惫的一天...本来想在12点听姐姐的声音打电话过去，但是一直打不通，所以今天早上一醒来就全部都听了！要夸奖我的努力啊..（因为不能上传照片...我竟然打了110通电话）",
      "post_time": "2025-05-20 01:34:29",
      "image_count": 0,
      "image_urls": null,
      "local_image_paths": null,
      "likes": 0,
      "comments": 0,
      "views": 0,
      "board": "Free",
      "members_only": 0,
      "author_username": "윤리",
      "author_avatar": null,
      "author_local_avatar": null,
      "fan_comments": [],
      "direct_iu_replies": [
        {
          "id": 1740,
          "content_ko": "아 나도 유애나랑 밤새 통화했더니 오늘은 진챠 졸리다 🫠",
          "content_zh": "啊我也跟尤爱娜通宵通话，今天真的困 🫠",
          "image_count": 0,
          "image_urls": null,
          "local_image_paths": null,
          "replied_at": "2025-05-20 01:43:00"
        }
      ]
    },
    {
      "id": 914,
      "post_uuid": "0196e80d-eac7-c51e-8a4c-07c297a572cf",
      "title_ko": null,
      "title_zh": null,
      "content_ko": "처음 보는 착장인데.. 네모의 꿈도 뮤비가 있나봐요 ~? 제법 예리했죠👻",
      "content_zh": "第一次看到这样的造型呢..IU的梦想也有MV吗~？还挺有感觉的呢👻",
      "post_time": "2025-05-19 10:19:08",
      "image_count": 1,
      "image_urls": "https://dearimage.iu101.org/images/posts/post_914_199600215.jpeg",
      "local_image_paths": "https://dearimage.iu101.org/images/posts/post_914_199600215.jpeg",
      "likes": 0,
      "comments": 0,
      "views": 0,
      "board": "Free",
      "members_only": 0,
      "author_username": "김지현",
      "author_avatar": "https://dearimage.iu101.org/images/avatars/avatar_310.jpeg",
      "author_local_avatar": "https://dearimage.iu101.org/images/avatars/avatar_310.jpeg",
      "fan_comments": [],
      "direct_iu_replies": [
        {
          "id": 1746,
          "content_ko": "와 네모의 꿈 어릴 때 진짜 많이 들었는데 ^^! 지현님 메세지에 저도 오랜만에 떠오르네요~~*",
          "content_zh": "哇《海绵的梦想》小时候真的经常听 ^^! 看到智贤的信息我也久违地想起来~~*",
          "image_count": 0,
          "image_urls": null,
          "local_image_paths": null,
          "replied_at": "2025-05-19 10:25:11"
        }
      ]
    },
    {
      "id": 913,
      "post_uuid": "0196e80c-ca34-0b29-8af0-779c48967ee8",
      "title_ko": null,
      "title_zh": null,
      "content_ko": "언니 빨간 운동화 녹음하면서 가장 재밌던 가사 부분이 어디에요?\n홀ㄷ미홀ㄷ미 인열 아이ㅈ~ 부분일까..?\n난 자꾸 언니가 그 부분 부르는 게 상상가고\n막 귀에 자꾸 들려서 빨리 듣고 싶은데\n27일은 왤케 먼 것 같지? 시간이 너무 안 가!!!\n빨간 운동화 들으면서 귀 기울일 포인트 부분이 있는지도 궁금!!🤔",
      "content_zh": "姐姐，《红运动鞋》录音时最有意思的歌词部分是哪里呀？\n是\"홀ㄷ미홀ㄷ미 인열 아이ㅈ~\"这部分吗？\n我总是忍不住想象姐姐唱那部分的样子，\n耳朵里一直回响着，好想快点听到啊！\n怎么感觉27号还那么远？时间过得也太慢了吧！！\n听《红运动鞋》的时候，也很想知道有哪些值得关注的重点部分！！🤔",
      "post_time": "2025-05-19 10:17:54",
      "image_count": 0,
      "image_urls": null,
      "local_image_paths": null,
      "likes": 0,
      "comments": 0,
      "views": 0,
      "board": "Free",
      "members_only": 0,
      "author_username": "영아",
      "author_avatar": "https://dearimage.iu101.org/images/avatars/avatar_88.jpg",
      "author_local_avatar": "https://dearimage.iu101.org/images/avatars/avatar_88.jpg",
      "fan_comments": [],
      "direct_iu_replies": [
        {
          "id": 1745,
          "content_ko": "오~ ",
          "content_zh": "오~",
          "image_count": 0,
          "image_urls": null,
          "local_image_paths": null,
          "replied_at": "2025-05-19 10:27:12"
        }
      ]
    },
    {
      "id": 912,
      "post_uuid": "0196e80c-7008-17fb-1296-0a1c036a42b1",
      "title_ko": null,
      "title_zh": null,
      "content_ko": "언니 밥 먹었어요?뭐 먹을지 추천해 주시겠어요?🥹😋",
      "content_zh": "姐姐吃饭了吗？推荐一下吃什么？🥹😋",
      "post_time": "2025-05-19 10:17:31",
      "image_count": 0,
      "image_urls": null,
      "local_image_paths": null,
      "likes": 0,
      "comments": 0,
      "views": 0,
      "board": "Free",
      "members_only": 0,
      "author_username": "Lovepoemai",
      "author_avatar": null,
      "author_local_avatar": null,
      "fan_comments": [],
      "direct_iu_replies": [
        {
          "id": 1744,
          "content_ko": "나는 김밥 먹었어어 😀 국물이 좋지 않을까? 국수라든지.. 국밥? ",
          "content_zh": "我吃了紫菜包饭 😀 汤会不会不错呢？ 比如汤面.. 汤饭？",
          "image_count": 0,
          "image_urls": null,
          "local_image_paths": null,
          "replied_at": "2025-05-19 10:28:39"
        }
      ]
    },
    {
      "id": 911,
      "post_uuid": "0196e80b-5e62-dd91-a2ce-83621070bc2f",
      "title_ko": null,
      "title_zh": null,
      "content_ko": "언니! 헐콘 엠디로 나온 잠옷 실제로도 입어요?",
      "content_zh": "姐姐！睡衣作为赫尔康MD真的穿吗？",
      "post_time": "2025-05-19 10:16:21",
      "image_count": 0,
      "image_urls": null,
      "local_image_paths": null,
      "likes": 0,
      "comments": 0,
      "views": 0,
      "board": "Free",
      "members_only": 0,
      "author_username": "꽃잎",
      "author_avatar": null,
      "author_local_avatar": null,
      "fan_comments": [],
      "direct_iu_replies": [
        {
          "id": 1743,
          "content_ko": "당근임!! 지금 날씨에 입기 좋음!!",
          "content_zh": "那是当然!! 现在这个天气穿很适合!!",
          "image_count": 0,
          "image_urls": null,
          "local_image_paths": null,
          "replied_at": "2025-05-19 10:31:43"
        }
      ]
    },
    {
      "id": 910,
      "post_uuid": "0196e80a-ec25-fe20-fc91-eee5c76d5a25",
      "title_ko": null,
      "title_zh": null,
      "content_ko": "모기한테 물렸어요ㅠㅠ",
      "content_zh": "被蚊子咬了ㅠㅠ",
      "post_time": "2025-05-19 10:15:52",
      "image_count": 1,
      "image_urls": "https://dearimage.iu101.org/images/posts/post_910_1219209449.jpg",
      "local_image_paths": "https://dearimage.iu101.org/images/posts/post_910_1219209449.jpg",
      "likes": 0,
      "comments": 0,
      "views": 0,
      "board": "Free",
      "members_only": 0,
      "author_username": "지은아kisskiss",
      "author_avatar": null,
      "author_local_avatar": null,
      "fan_comments": [],
      "direct_iu_replies": [
        {
          "id": 1742,
          "content_ko": "부어오름을 보니까 보통놈이 아니네....",
          "content_zh": "看浮出来的样子就不是普通人....",
          "image_count": 0,
          "image_urls": null,
          "local_image_paths": null,
          "replied_at": "2025-05-19 10:32:24"
        }
      ]
    },
    {
      "id": 920,
      "post_uuid": "0196e7d4-9b31-3a68-c168-5075cac63899",
      "title_ko": null,
      "title_zh": null,
      "content_ko": "언니 내일 스케줄 있어요？🥺\n（말해줄 수 없으면 괜찮아요！❤️）",
      "content_zh": "欧尼明天有行程吗？🥺",
      "post_time": "2025-05-19 09:16:32",
      "image_count": 0,
      "image_urls": null,
      "local_image_paths": null,
      "likes": 0,
      "comments": 0,
      "views": 0,
      "board": "Free",
      "members_only": 0,
      "author_username": "시나(•ө•)♡",
      "author_avatar": "https://dearimage.iu101.org/images/avatars/avatar_439.jpeg",
      "author_local_avatar": "https://dearimage.iu101.org/images/avatars/avatar_439.jpeg",
      "fan_comments": [],
      "direct_iu_replies": [
        {
          "id": 1752,
          "content_ko": "있어요! 내일은 긴 하루가 될 듯! 🔥🐥🔥",
          "content_zh": "有! 明天会是漫长的一天! 🔥🐥🔥",
          "image_count": 0,
          "image_urls": null,
          "local_image_paths": null,
          "replied_at": "2025-05-19 09:22:30"
        }
      ]
    }
  ]
}