{
  "page": 30,
  "totalPages": 45,
  "total": 895,
  "data": [
    {
      "id": 661,
      "post_uuid": "01975b9c-9dae-f3cb-ec28-df8268fd7d3a",
      "title_ko": null,
      "title_zh": null,
      "content_ko": "언니는 좋은 아침입니다. 매일 이 시점에서 깨어나서 인사드립니다. 당신은 촬영이 끝났습니까? 밥 먹었어",
      "content_zh": "姐姐早上好。每天在这个时间点醒来向你问好。你拍摄结束了吗？吃饭了吗？",
      "post_time": "2025-06-10 20:51:20",
      "image_count": 0,
      "image_urls": null,
      "local_image_paths": null,
      "likes": 0,
      "comments": 0,
      "views": 0,
      "board": "Dear. IU",
      "members_only": 0,
      "author_username": "iu绝世小可爱",
      "author_avatar": null,
      "author_local_avatar": null,
      "fan_comments": [],
      "direct_iu_replies": [
        {
          "id": 1489,
          "content_ko": "난 오늘은 이제 촬영 가는 중이야! ㅋㅋ 아직 밪은 못 먹었다 ㅠㅡㅠ",
          "content_zh": "我今天正要去拍摄！kk 还没吃拌饭呢ㅠㅡㅠ",
          "image_count": 0,
          "image_urls": null,
          "local_image_paths": null,
          "replied_at": "2025-06-10 20:55:26"
        }
      ]
    },
    {
      "id": 660,
      "post_uuid": "01975b99-69e0-a926-2978-191d8bd48d8b",
      "title_ko": null,
      "title_zh": null,
      "content_ko": "지은씨 궁금해요..?\n게시물에 댓글을 달면 가끔 저희 프로필도 방문하시나요?🫶🏻 ",
      "content_zh": "知恩啊，好奇怪...？在帖子下评论的话，有时候也会来访问我们的个人主页吗？🫶🏻",
      "post_time": "2025-06-10 20:47:50",
      "image_count": 1,
      "image_urls": "https://dearimage.iu101.org/images/posts/post_660_499456028.png",
      "local_image_paths": "https://dearimage.iu101.org/images/posts/post_660_499456028.png",
      "likes": 0,
      "comments": 0,
      "views": 0,
      "board": "Dear. IU",
      "members_only": 0,
      "author_username": "재닌쓰",
      "author_avatar": null,
      "author_local_avatar": null,
      "fan_comments": [],
      "direct_iu_replies": [
        {
          "id": 1488,
          "content_ko": "지금 해봤는데... 일단 별게 없오 😃",
          "content_zh": "现在试了一下...反正没什么特别的😃",
          "image_count": 0,
          "image_urls": null,
          "local_image_paths": null,
          "replied_at": "2025-06-10 20:56:45"
        }
      ]
    },
    {
      "id": 659,
      "post_uuid": "01975b77-913e-9d3e-c818-9e86ff6c2c6a",
      "title_ko": null,
      "title_zh": null,
      "content_ko": "지은아~ ෆ\n얼마전에 마인크래프트 시작했는데 지은이 생일 라이브 듣고 웃으면서 산굴안에 쇠 찾는기억도 아직 생생인데 어떻게 딱 마침 지은이가 마인크래프트...!! 우리 이거 바로 운명아닌가요?! 🥹\n이거 제가 강속에 만든 적은 집이얌! 유리창 밖에 물고기도 볼수있거든요. 보라색으로 쓴 아이유도 있어요! 잘했쮸? \n지은이 오늘도 건강하고 행복한 하루 보낼수있길 바래! \n고맙고, 사랑해! 💗",
      "content_zh": "知恩啊~ \n前不久刚开始玩我的世界，还记得之前听知恩生日直播的时候，在山洞里挖铁矿石一边笑一边玩的情景现在还历历在目，没想到知恩居然也开始玩我的世界了...!! 这难道不是命中注定吗？！🥹\n这个是我建在河里的房子哦！透过玻璃窗还能看到水里的鱼呢。还有用紫色写的IU！我厉害吧？ \n希望知恩今天也能健康快乐地度过每一天！ \n谢谢你，爱你！💗",
      "post_time": "2025-06-10 20:10:52",
      "image_count": 1,
      "image_urls": "https://dearimage.iu101.org/images/posts/post_659_1944884414.jpeg",
      "local_image_paths": "https://dearimage.iu101.org/images/posts/post_659_1944884414.jpeg",
      "likes": 0,
      "comments": 0,
      "views": 0,
      "board": "Dear. IU",
      "members_only": 0,
      "author_username": "옌루",
      "author_avatar": null,
      "author_local_avatar": null,
      "fan_comments": [],
      "direct_iu_replies": [
        {
          "id": 1487,
          "content_ko": "우와 너무 가보고 싶은 집이다",
          "content_zh": "哇好想去的房子啊。",
          "image_count": 0,
          "image_urls": null,
          "local_image_paths": null,
          "replied_at": "2025-06-10 20:59:31"
        }
      ]
    },
    {
      "id": 658,
      "post_uuid": "01975b74-5819-7de7-3276-79536b7f03b8",
      "title_ko": null,
      "title_zh": null,
      "content_ko": "촉왔다⚡\n아이유님은 오늘 아침 촬영이 있어서 샵으로 출근중일거야\n오늘도 화이팅👏👏",
      "content_zh": "到达了⚡ IU今天早上有拍摄，正在去造型室的路上 今天也加油👏👏",
      "post_time": "2025-06-10 20:07:20",
      "image_count": 0,
      "image_urls": null,
      "local_image_paths": null,
      "likes": 0,
      "comments": 0,
      "views": 0,
      "board": "Dear. IU",
      "members_only": 0,
      "author_username": "미니언",
      "author_avatar": "https://dearimage.iu101.org/images/avatars/avatar_89.gif",
      "author_local_avatar": "https://dearimage.iu101.org/images/avatars/avatar_89.gif",
      "fan_comments": [],
      "direct_iu_replies": [
        {
          "id": 1486,
          "content_ko": "띵동댕!!!",
          "content_zh": "叮咚叮咚！！！",
          "image_count": 0,
          "image_urls": null,
          "local_image_paths": null,
          "replied_at": "2025-06-10 21:00:27"
        }
      ]
    },
    {
      "id": 657,
      "post_uuid": "01975b6d-07f4-7351-d536-b3e7bc9014e6",
      "title_ko": null,
      "title_zh": null,
      "content_ko": "고마워🥰",
      "content_zh": "谢谢🥰",
      "post_time": "2025-06-10 19:59:21",
      "image_count": 0,
      "image_urls": null,
      "local_image_paths": null,
      "likes": 0,
      "comments": 0,
      "views": 0,
      "board": "Dear. IU",
      "members_only": 0,
      "author_username": "Rich",
      "author_avatar": null,
      "author_local_avatar": null,
      "fan_comments": [],
      "direct_iu_replies": [
        {
          "id": 1485,
          "content_ko": "어머님께서 꼭 회복하실 거야 이렇게 간절한 마음을 하늘도 알아 주실 거야",
          "content_zh": "妈妈一定会康复的，这么诚恳的心意连老天爷都会知道的。",
          "image_count": 0,
          "image_urls": null,
          "local_image_paths": null,
          "replied_at": "2025-06-10 21:44:13"
        }
      ]
    },
    {
      "id": 666,
      "post_uuid": "0197571e-0a5f-fb73-0892-5e989ab5d8d8",
      "title_ko": null,
      "title_zh": null,
      "content_ko": "언니~ 나 진짜 배고파 죽을 것 같아! 😭🍽️",
      "content_zh": "姐姐~我真饿得快死了！😭🍽️",
      "post_time": "2025-06-09 23:54:36",
      "image_count": 1,
      "image_urls": "https://dearimage.iu101.org/images/posts/post_666_1462079534.jpeg",
      "local_image_paths": "https://dearimage.iu101.org/images/posts/post_666_1462079534.jpeg",
      "likes": 0,
      "comments": 0,
      "views": 0,
      "board": "Dear. IU",
      "members_only": 0,
      "author_username": "기유Chiyu",
      "author_avatar": null,
      "author_local_avatar": null,
      "fan_comments": [],
      "direct_iu_replies": [
        {
          "id": 1494,
          "content_ko": "에헤이 씨디피는 빼자 그럼 뉴발티도 꼭 사고 싶으면 한 장만 사고 맛난 거 먹자!!",
          "content_zh": "诶嘿CDP就算了，如果真想买New Balance就只买一双然后吃点好吃的吧！！",
          "image_count": 0,
          "image_urls": null,
          "local_image_paths": null,
          "replied_at": "2025-06-09 23:59:07"
        }
      ]
    },
    {
      "id": 665,
      "post_uuid": "01975717-b670-6fd4-18d8-bf2052bbefde",
      "title_ko": null,
      "title_zh": null,
      "content_ko": "마인크래프트 영상보고  눈물나게 웃었어요 ㅋㅋㅋ 고마워요 \n담에 다른 게임도 도전해봤음 좋겠어요",
      "content_zh": "看了Minecraft视频笑到流泪了 ㅋㅋㅋ 谢谢你下次也希望挑战其他游戏",
      "post_time": "2025-06-09 23:47:41",
      "image_count": 0,
      "image_urls": null,
      "local_image_paths": null,
      "likes": 0,
      "comments": 0,
      "views": 0,
      "board": "Dear. IU",
      "members_only": 0,
      "author_username": "아이유는다잘해",
      "author_avatar": null,
      "author_local_avatar": null,
      "fan_comments": [],
      "direct_iu_replies": [
        {
          "id": 1493,
          "content_ko": "수요가.. 있을까요..?",
          "content_zh": "会有需求吗..？",
          "image_count": 0,
          "image_urls": null,
          "local_image_paths": null,
          "replied_at": "2025-06-09 23:59:54"
        }
      ]
    },
    {
      "id": 664,
      "post_uuid": "01975716-a834-59a3-39f4-237ddc8a402e",
      "title_ko": null,
      "title_zh": null,
      "content_ko": "언니 지금 머하구 있어요??촬영 아님 오늘은 쉬는날??",
      "content_zh": "姐姐现在在做什么？不是拍摄的话今天是休息日吗？？",
      "post_time": "2025-06-09 23:46:32",
      "image_count": 0,
      "image_urls": null,
      "local_image_paths": null,
      "likes": 0,
      "comments": 0,
      "views": 0,
      "board": "Dear. IU",
      "members_only": 0,
      "author_username": "백시아",
      "author_avatar": null,
      "author_local_avatar": null,
      "fan_comments": [],
      "direct_iu_replies": [
        {
          "id": 1492,
          "content_ko": "난 사실 병원에 왔어 오늘 면역치료 받는 날! 🥰",
          "content_zh": "其实我今天去医院了，是打免疫治疗的日子！🥰",
          "image_count": 0,
          "image_urls": null,
          "local_image_paths": null,
          "replied_at": "2025-06-10 00:00:34"
        }
      ]
    },
    {
      "id": 663,
      "post_uuid": "01975715-6395-451b-4bfd-368407dcc1ad",
      "title_ko": null,
      "title_zh": null,
      "content_ko": "언니 토킹 asmr 저도 좋아하는데 그럼 언니는 단어반복 이런걸 좋아해요 아니면 진짜 말하는 롤플레잉 이런거 많이 들어요?? 전 롤플레잉을 더 많이 듣는 것 같아요 ㅎㅎ!!\n그리고 듣는 분꺼 계속 듣는 편이에요?? 아니면 다양하게 찾아보는 편!?\n\n그리고 asmr 듣는 목적이 잠들고 싶어서에요!? 아니면 그 자체가 좋아서?? 저는 잘때는 사실 안듣고 자기 전에 영상보듯 듣다가 자거든요 💗💗\n",
      "content_zh": "姐姐也喜欢听ASMR吗？那姐姐是更喜欢单词重复的那种，还是更喜欢真的在说话的角色扮演那种呢？我好像更多听角色扮演的哈哈！\n还有就是会一直听同一个主播的，还是会找各种不同的听呢？\n\n另外听ASMR是为了助眠吗？还是单纯喜欢听？其实我不太会在睡觉时听，而是在睡前像看视频一样听着ASMR入睡 💗💗",
      "post_time": "2025-06-09 23:45:09",
      "image_count": 0,
      "image_urls": null,
      "local_image_paths": null,
      "likes": 0,
      "comments": 0,
      "views": 0,
      "board": "Dear. IU",
      "members_only": 0,
      "author_username": "마은이",
      "author_avatar": "https://dearimage.iu101.org/images/avatars/avatar_99.jpeg",
      "author_local_avatar": "https://dearimage.iu101.org/images/avatars/avatar_99.jpeg",
      "fan_comments": [],
      "direct_iu_replies": [
        {
          "id": 1491,
          "content_ko": "저는\n롤플레잉이 좋아요 단어반복은 뭔가 더 집중하게 돼! ㅋㅋㅋ",
          "content_zh": "我喜欢角色扮演，单词重复更能集中注意力！kkk",
          "image_count": 0,
          "image_urls": null,
          "local_image_paths": null,
          "replied_at": "2025-06-10 00:01:33"
        }
      ]
    },
    {
      "id": 662,
      "post_uuid": "019756fa-73d8-08e6-222c-2972968451ba",
      "title_ko": null,
      "title_zh": null,
      "content_ko": "언니 묵은지참치김밥을 이길수있는건 없는거야??",
      "content_zh": "姐姐，有什么能胜过泡菜金枪鱼紫菜包饭的吗？？",
      "post_time": "2025-06-09 23:15:43",
      "image_count": 0,
      "image_urls": null,
      "local_image_paths": null,
      "likes": 0,
      "comments": 0,
      "views": 0,
      "board": "Dear. IU",
      "members_only": 0,
      "author_username": "뮤먀",
      "author_avatar": null,
      "author_local_avatar": null,
      "fan_comments": [],
      "direct_iu_replies": [
        {
          "id": 1490,
          "content_ko": "그럼 김치 볶음밥으로 가야 헤",
          "content_zh": "那就该吃韩式炒饭了吧。",
          "image_count": 0,
          "image_urls": null,
          "local_image_paths": null,
          "replied_at": "2025-06-10 00:18:32"
        }
      ]
    },
    {
      "id": 673,
      "post_uuid": "0197568c-f6d1-fd1d-7bf0-5c4e2a315daa",
      "title_ko": null,
      "title_zh": null,
      "content_ko": "누나 낼 중요한 면접이 있는데 합격 기운 부탁드릴께요...",
      "content_zh": "欧尼明天有重要面试，请给我合格的运气...",
      "post_time": "2025-06-09 21:16:08",
      "image_count": 0,
      "image_urls": null,
      "local_image_paths": null,
      "likes": 0,
      "comments": 0,
      "views": 0,
      "board": "Dear. IU",
      "members_only": 0,
      "author_username": "광염",
      "author_avatar": null,
      "author_local_avatar": null,
      "fan_comments": [],
      "direct_iu_replies": [
        {
          "id": 1501,
          "content_ko": "이미 붙음🔥",
          "content_zh": "已经贴上了🔥",
          "image_count": 0,
          "image_urls": null,
          "local_image_paths": null,
          "replied_at": "2025-06-09 21:16:34"
        }
      ]
    },
    {
      "id": 672,
      "post_uuid": "0197568c-250b-70e7-8ee9-8e97d06e2254",
      "title_ko": null,
      "title_zh": null,
      "content_ko": "아이유 〈꽃갈피3〉 감상평 – 시간 위를 걷는 아이유의 목소리\n아이유가 <꽃갈피 3>로 또 한 번 증명했어요. 좋은 음악은 시대를 뛰어넘고, 좋은 가수는 그 시간을 연결해준다는 걸요.‘꽃갈피3’는 아이유가 자신의 감성과 기억, 그리고 음악적 고향을 우리에게 건네는 일기장이에요. 익숙하지만 새롭고, 잊고 있었지만 다시 꺼내보고 싶은 이야기들. 그래서 더 따뜻하고, 그래서 더 아이유다운 앨범이에요.\n첫 곡 〈빨간 운동화〉는 봄날 오후, 추억 속 골목길을 걷는 기분을 줘요. 맑고 발랄한 노래로 첫 시작을 힘낼수있게 해줍니다.\n타이틀곡 〈Never Ending Story〉는 단순한 리메이크가 아니라, 영원에 대한 고백이 되고 말았달까요. 듣고 있으면 마음 한 켠이 뭉클해져요. 변하지 않는 사랑처럼 마음 깊이 울림을 줘요.\n〈10월 4일〉은 계절의 끝자락에서 듣기 좋은 곡이에요. 담백하게 읊조리는 목소리 속에서 몽환적인 느낌도 들었어요.\n네 번째 트랙 〈Last Scene〉에서는 롤러코스터 원곡 특유의 레트로 감성에, 아이유의 감성은 더 섬세하고 깊어졌어요. 제목처럼, 이 곡은 한 편의 영화 마지막 장면처럼 오래도록 마음에 남아요.\n다섯 번째 곡 〈미인〉은 바밍타이거와 함께한 이 트랙은 약간 실험적이면서도 세련돼요. 이번 앨범에서 가장 의외였지만, 그래서 더 인상 깊은 트랙이기도 했어요.\n그리고 마지막 〈네모의 꿈〉. 화이트의 동심 가득한 곡을 아이유가 부를 때, 우리는 진짜 꿈 속에 있는 것처럼 느껴져요. 잊고 지낸 순수함, 투명함, 그리고 마음속 작은 소망들이 하나씩 떠올랐어요.\n‘꽃갈피3’는 시간과 기억을 음악으로 꾹꾹 눌러 담은 앨범이에요. 꽃갈피3’는 시간과 기억을 음악으로 꾹꾹 눌러 담은 앨범이에요. 아이유는 이 곡들을 통해 우리에게 말해요. “지나간 것들도, 여전히 아름답다”고.그 목소리는 언제 들어도 변하지 않는 위로가 되고, 오래도록 기억될 노래가 돼요.\n“아이유가 시간 속에서 건져 올린 보석 같은 순간들” 그걸 우리가 함께 듣고, 추억하고, 감동하는 것이죠. 언제나 응원해요 사랑합니다💓",
      "content_zh": "IU《花书签3》听后感——在时光上漫步的IU声音\n\nIU用《花书签3》再次证明了好的音乐能够超越时代，好的歌手能将那些时光连接起来。《花书签3》是IU将她的感性、记忆以及音乐故乡传递给我们的日记本。熟悉却新鲜，曾被遗忘却又想重新翻开的故事。因此更加温暖，也更像IU的专辑。\n\n第一首《红运动鞋》让人感觉像是春天午后走在回忆中的小巷里。清澈活泼的歌曲为开头注入了活力。\n\n主打歌《Never Ending Story》不是简单的翻唱，而是对永恒的告白。听着的时候心里某个角落会变得温热。如同不变的爱情一般，在心底深处引起共鸣。\n\n《10月4日》是在季节末尾聆听的好歌曲。在淡然吟唱的声音中也能感受到梦幻的感觉。\n\n第四首《Last Scene》中，IU在原曲《Roller Coaster》特有的复古感性基础上，增添了更为细腻深沉的情感。如歌名所示，这首歌就像电影的最后一幕，长久地留在心中。\n\n第五首《美人》与Babymonster合作的这首歌曲略带实验性却很精致。是这张专辑中最出人意料，也因此印象最深刻的曲目之一。\n\n最后的《正方形的梦》。当IU演唱White充满童心的歌曲时，我们仿佛真的置身于梦境之中。被遗忘的纯真、透明，以及心中的小小愿望一个个浮现出来。\n\n《花书签3》是一张将时间和记忆用力压入音乐中的专辑。IU通过这些歌曲告诉我们：\"逝去的一切，依然美丽。\"她的声音无论何时听都是不变的慰藉，成为值得长久铭记的歌曲。\n\n\"IU从时光中打捞起的宝石般瞬间\"，我们一起聆听、回忆、感动。永远支持你，爱你💓",
      "post_time": "2025-06-09 21:15:14",
      "image_count": 0,
      "image_urls": null,
      "local_image_paths": null,
      "likes": 0,
      "comments": 0,
      "views": 0,
      "board": "Dear. IU",
      "members_only": 0,
      "author_username": "judi",
      "author_avatar": "https://dearimage.iu101.org/images/avatars/avatar_212.jpeg",
      "author_local_avatar": "https://dearimage.iu101.org/images/avatars/avatar_212.jpeg",
      "fan_comments": [],
      "direct_iu_replies": [
        {
          "id": 1500,
          "content_ko": "와 글 진짜 잘 쓰신다 🫠\n한 자 한 자 너무 고마워요💗",
          "content_zh": "哇文章写得真好🫠 一字一句都很感谢💗",
          "image_count": 0,
          "image_urls": null,
          "local_image_paths": null,
          "replied_at": "2025-06-09 21:19:05"
        }
      ]
    },
    {
      "id": 671,
      "post_uuid": "0197568c-2080-7163-4e8b-04af87f6101c",
      "title_ko": null,
      "title_zh": null,
      "content_ko": "jieun, já que você traduz os comentários do berriz. que tal mandar um \"oi\" para o brasil?",
      "content_zh": "iezun，既然你在翻译Berriz的评论，要不要给巴西打个招呼？",
      "post_time": "2025-06-09 21:15:13",
      "image_count": 0,
      "image_urls": null,
      "local_image_paths": null,
      "likes": 0,
      "comments": 0,
      "views": 0,
      "board": "Dear. IU",
      "members_only": 0,
      "author_username": "fran",
      "author_avatar": null,
      "author_local_avatar": null,
      "fan_comments": [],
      "direct_iu_replies": [
        {
          "id": 1499,
          "content_ko": "OI BRASIL 🫰🙂‍↕️🫰",
          "content_zh": "OI BRASIL 🫰🙂‍↕️🫰",
          "image_count": 0,
          "image_urls": null,
          "local_image_paths": null,
          "replied_at": "2025-06-09 21:19:58"
        }
      ]
    },
    {
      "id": 670,
      "post_uuid": "0197568b-965d-2942-5cd8-5d08f68dcf78",
      "title_ko": null,
      "title_zh": null,
      "content_ko": "모기물렸어 혼내줘ㅠㅠㅠㅠㅠ",
      "content_zh": "被蚊子咬了教训我一下ㅠㅠㅠㅠㅠ",
      "post_time": "2025-06-09 21:14:38",
      "image_count": 0,
      "image_urls": null,
      "local_image_paths": null,
      "likes": 0,
      "comments": 0,
      "views": 0,
      "board": "Dear. IU",
      "members_only": 0,
      "author_username": "judi",
      "author_avatar": "https://dearimage.iu101.org/images/avatars/avatar_212.jpeg",
      "author_local_avatar": "https://dearimage.iu101.org/images/avatars/avatar_212.jpeg",
      "fan_comments": [],
      "direct_iu_replies": [
        {
          "id": 1498,
          "content_ko": "👏 ",
          "content_zh": "👏",
          "image_count": 0,
          "image_urls": null,
          "local_image_paths": null,
          "replied_at": "2025-06-09 21:21:03"
        }
      ]
    },
    {
      "id": 669,
      "post_uuid": "0197568b-5201-b59a-aff7-0180a7a94ccb",
      "title_ko": null,
      "title_zh": null,
      "content_ko": "출근하기시러ㅠㅠㅠ",
      "content_zh": "不想去上班ㅠㅠㅠ",
      "post_time": "2025-06-09 21:14:20",
      "image_count": 0,
      "image_urls": null,
      "local_image_paths": null,
      "likes": 0,
      "comments": 0,
      "views": 0,
      "board": "Dear. IU",
      "members_only": 0,
      "author_username": "율맹그",
      "author_avatar": null,
      "author_local_avatar": null,
      "fan_comments": [],
      "direct_iu_replies": [
        {
          "id": 1497,
          "content_ko": "맹그야 힘내 ㅠㅠㅠㅠ",
          "content_zh": "忙格加油ㅠㅠㅠㅠ",
          "image_count": 0,
          "image_urls": null,
          "local_image_paths": null,
          "replied_at": "2025-06-09 21:22:01"
        }
      ]
    },
    {
      "id": 668,
      "post_uuid": "0197568a-ce34-45af-62ac-39f34d3c760c",
      "title_ko": null,
      "title_zh": null,
      "content_ko": "Onnie! Đây là ảnh bọn em chụp khi cùng nhau xem The Winning Concert Movie ở Việt Nam đó! Uaena Việt Nam luôn chờ và yêu thương, ủng hộ chị trên mọi chặng đường💗 사랑해요! ",
      "content_zh": "欧尼！这是我们在越南一起观看《The Winning Concert Movie》时拍的照片！越南的Uaena一直等待着、爱着、支持着姐姐的每一步旅程💗 我爱你！",
      "post_time": "2025-06-09 21:13:46",
      "image_count": 2,
      "image_urls": "https://dearimage.iu101.org/images/posts/post_668_172235531.jpeg",
      "local_image_paths": "https://dearimage.iu101.org/images/posts/post_668_172235531.jpeg|https://dearimage.iu101.org/images/posts/post_668_172124253.jpeg",
      "likes": 0,
      "comments": 0,
      "views": 0,
      "board": "Dear. IU",
      "members_only": 0,
      "author_username": "지은바리기",
      "author_avatar": null,
      "author_local_avatar": null,
      "fan_comments": [],
      "direct_iu_replies": [
        {
          "id": 1496,
          "content_ko": "🫶",
          "content_zh": "🫶",
          "image_count": 0,
          "image_urls": null,
          "local_image_paths": null,
          "replied_at": "2025-06-09 21:23:05"
        }
      ]
    },
    {
      "id": 667,
      "post_uuid": "0197568a-36f8-bd78-42e2-e74d6f76c7aa",
      "title_ko": null,
      "title_zh": null,
      "content_ko": "언니~ 오늘 아침 뭐 먹을까~? 언니가 추천해주는 거 먹고 싶어~!\n",
      "content_zh": "姐姐~今天早上吃什么好呢~？想吃姐姐推荐的东西~！",
      "post_time": "2025-06-09 21:13:08",
      "image_count": 0,
      "image_urls": null,
      "local_image_paths": null,
      "likes": 0,
      "comments": 0,
      "views": 0,
      "board": "Dear. IU",
      "members_only": 0,
      "author_username": "ziziu",
      "author_avatar": null,
      "author_local_avatar": null,
      "fan_comments": [],
      "direct_iu_replies": [
        {
          "id": 1495,
          "content_ko": "참치김밥 오때?",
          "content_zh": "金枪鱼紫菜包饭什么时候？",
          "image_count": 0,
          "image_urls": null,
          "local_image_paths": null,
          "replied_at": "2025-06-09 21:24:10"
        }
      ]
    },
    {
      "id": 688,
      "post_uuid": "0197566f-954c-4200-6fad-7ca591999641",
      "title_ko": null,
      "title_zh": null,
      "content_ko": "언니!!! 난 오늘부터 시험 봐 ㅜ.ㅜ\n각자의 자리에서 오늘도 힘내자 사랑해 😽\n\n+ 잘하고 올게!!! 💗",
      "content_zh": "姐姐！！！我从今天开始要考试了 ㅜ.ㅜ\n各自在自己的位置上今天也要加油哦 爱你们 😽\n\n+ 我会好好考完回来的！！！ 💗",
      "post_time": "2025-06-09 20:44:02",
      "image_count": 0,
      "image_urls": null,
      "local_image_paths": null,
      "likes": 0,
      "comments": 0,
      "views": 0,
      "board": "Dear. IU",
      "members_only": 0,
      "author_username": "15년만에",
      "author_avatar": null,
      "author_local_avatar": null,
      "fan_comments": [],
      "direct_iu_replies": [
        {
          "id": 1516,
          "content_ko": "응원해 주려고 오늘 이 시간까지 깨어있었나 싶네 잘하고 오라!!! 💗😆",
          "content_zh": "想到你们为了应援今天一直醒到现在真好啊，好好回来！！💗😆",
          "image_count": 0,
          "image_urls": null,
          "local_image_paths": null,
          "replied_at": "2025-06-09 20:46:20"
        }
      ]
    },
    {
      "id": 687,
      "post_uuid": "0197566f-917c-d482-1148-4a4687b1df1a",
      "title_ko": null,
      "title_zh": null,
      "content_ko": "I watched your new video about minecraft. Why I felt so happy to know that it's not only me who is not good at it? 😅",
      "content_zh": "我看了你关于我的世界的新视频。为什么知道不只是我一个人玩得不好时，我会感到这么开心呢？😅",
      "post_time": "2025-06-09 20:44:01",
      "image_count": 0,
      "image_urls": null,
      "local_image_paths": null,
      "likes": 0,
      "comments": 0,
      "views": 0,
      "board": "Dear. IU",
      "members_only": 0,
      "author_username": "MoonChaser",
      "author_avatar": null,
      "author_local_avatar": null,
      "fan_comments": [],
      "direct_iu_replies": [
        {
          "id": 1515,
          "content_ko": "I think only few people are good at it!! That's a game of geniuses 🤷🏻‍♀️",
          "content_zh": "I think only few people are good at it!! That's a game of geniuses 🤷🏻‍♀️",
          "image_count": 0,
          "image_urls": null,
          "local_image_paths": null,
          "replied_at": "2025-06-09 20:48:22"
        }
      ]
    },
    {
      "id": 686,
      "post_uuid": "0197566f-7e6a-66f4-ebc1-0626fa6631b2",
      "title_ko": null,
      "title_zh": null,
      "content_ko": "언니 집 가면 바로 코오~ 잘거양?? 🐥🌙💛💜\n아꼬운 징니 폭싹 속았수다~🍊🧡🌼💛\n소랑햄수다💗💗💗💗🌸🌸🌸💗💗💗💗\n",
      "content_zh": "姐姐家去了的话就马上呼呼睡啦？🐥🌙💛💜\n可爱的小金被骗惨了~🍊🧡🌼💛\n想念小金金💗💗💗💗🌸🌸🌸💗💗💗💗",
      "post_time": "2025-06-09 20:43:56",
      "image_count": 3,
      "image_urls": "https://dearimage.iu101.org/images/posts/post_686_912187273.jpeg",
      "local_image_paths": "https://dearimage.iu101.org/images/posts/post_686_911536283.jpeg|https://dearimage.iu101.org/images/posts/post_686_910780137.jpeg|https://dearimage.iu101.org/images/posts/post_686_912187273.jpeg",
      "likes": 0,
      "comments": 0,
      "views": 0,
      "board": "Dear. IU",
      "members_only": 0,
      "author_username": "♥ㅏ꼬운유애나아효밍♥",
      "author_avatar": "https://dearimage.iu101.org/images/avatars/avatar_197.gif",
      "author_local_avatar": "https://dearimage.iu101.org/images/avatars/avatar_197.gif",
      "fan_comments": [],
      "direct_iu_replies": [
        {
          "id": 1514,
          "content_ko": "화장 지우고 씻는 데만 한 세월~~~🥰💃🕺🪩",
          "content_zh": "光是卸妆洗脸就要花很长时间~~~🥰💃🕺🪩",
          "image_count": 0,
          "image_urls": null,
          "local_image_paths": null,
          "replied_at": "2025-06-09 20:49:15"
        }
      ]
    }
  ]
}