{
  "page": 24,
  "totalPages": 45,
  "total": 895,
  "data": [
    {
      "id": 542,
      "post_uuid": "01978032-d292-1591-160f-727f5b9a2e3c",
      "title_ko": null,
      "title_zh": null,
      "content_ko": "IU, you sing to me every night.. but you never message me back 😭",
      "content_zh": "IU，你每晚都为我唱歌.. 但从来不回我消息 😭",
      "post_time": "2025-06-17 23:21:43",
      "image_count": 0,
      "image_urls": null,
      "local_image_paths": null,
      "likes": 0,
      "comments": 0,
      "views": 0,
      "board": "Dear. IU",
      "members_only": 0,
      "author_username": "아메드",
      "author_avatar": null,
      "author_local_avatar": null,
      "fan_comments": [],
      "direct_iu_replies": [
        {
          "id": 1368,
          "content_ko": "No way\nI'm here right now",
          "content_zh": "No way I'm here right now",
          "image_count": 0,
          "image_urls": null,
          "local_image_paths": null,
          "replied_at": "2025-06-17 23:22:48"
        }
      ]
    },
    {
      "id": 541,
      "post_uuid": "01978032-6ed8-31ef-7671-b5fef8833750",
      "title_ko": null,
      "title_zh": null,
      "content_ko": "미지의 서울 어디까지 봤어요?\n나중에 미지가 어떻게 되냐면~~~~~~\n",
      "content_zh": "哇姐姐闹钟响的时间过了！！！！！！没迟到吧？ 🐥",
      "post_time": "2025-06-17 23:21:18",
      "image_count": 0,
      "image_urls": null,
      "local_image_paths": null,
      "likes": 0,
      "comments": 0,
      "views": 0,
      "board": "Dear. IU",
      "members_only": 0,
      "author_username": "09승주",
      "author_avatar": null,
      "author_local_avatar": null,
      "fan_comments": [],
      "direct_iu_replies": [
        {
          "id": 1367,
          "content_ko": "나 최근 회차까지 다 봤는데! 🥸",
          "content_zh": "我看了最近的集数！ 🥸",
          "image_count": 0,
          "image_urls": null,
          "local_image_paths": null,
          "replied_at": "2025-06-17 23:24:58"
        }
      ]
    },
    {
      "id": 540,
      "post_uuid": "01978032-3472-a1a6-f751-af8a950bc921",
      "title_ko": null,
      "title_zh": null,
      "content_ko": "언니도 미지의 서울 보는구나 !! 내용이 완전 좋더라구요",
      "content_zh": "像我这样的大叔粉丝应该叫IU什么呢？",
      "post_time": "2025-06-17 23:21:03",
      "image_count": 0,
      "image_urls": null,
      "local_image_paths": null,
      "likes": 0,
      "comments": 0,
      "views": 0,
      "board": "Dear. IU",
      "members_only": 0,
      "author_username": "수림잉",
      "author_avatar": "https://dearimage.iu101.org/images/avatars/avatar_180.jpeg",
      "author_local_avatar": "https://dearimage.iu101.org/images/avatars/avatar_180.jpeg",
      "fan_comments": [],
      "direct_iu_replies": [
        {
          "id": 1366,
          "content_ko": "응 어느새 눈물 나🫠",
          "content_zh": "嗯 不知不觉流泪了🫠",
          "image_count": 0,
          "image_urls": null,
          "local_image_paths": null,
          "replied_at": "2025-06-17 23:26:01"
        }
      ]
    },
    {
      "id": 538,
      "post_uuid": "01978032-17ea-8d01-07bd-6eb9f8739192",
      "title_ko": null,
      "title_zh": null,
      "content_ko": "헉 언니 알람 울릴 시간 지났다!!!!!!!!!!!!!!!! 안 늦었어요? 🐥",
      "content_zh": "姐姐最近还在听ESSEM吗？",
      "post_time": "2025-06-17 23:20:56",
      "image_count": 0,
      "image_urls": null,
      "local_image_paths": null,
      "likes": 0,
      "comments": 0,
      "views": 0,
      "board": "Dear. IU",
      "members_only": 0,
      "author_username": "말랑찹쌀떡",
      "author_avatar": "https://dearimage.iu101.org/images/avatars/avatar_29.jpeg",
      "author_local_avatar": "https://dearimage.iu101.org/images/avatars/avatar_29.jpeg",
      "fan_comments": [],
      "direct_iu_replies": [
        {
          "id": 1364,
          "content_ko": "내가 착각해서 한 시간 일찍 일어난 거였어 \n덕분에 30분 더 놀았잖아 냥이득 😽",
          "content_zh": "原来是我搞错了 提前一小时起床了 多玩了30分钟 猫收益 😽",
          "image_count": 0,
          "image_urls": null,
          "local_image_paths": null,
          "replied_at": "2025-06-17 23:27:45"
        }
      ]
    },
    {
      "id": 537,
      "post_uuid": "01978032-16ef-930f-9f46-f352ea3aab0b",
      "title_ko": null,
      "title_zh": null,
      "content_ko": "나같은 삼촌 유애나는 아이유를 어떻게 불러야하죠?\n어려워서 여기 글 남길때마다 고민돼",
      "content_zh": "姐姐，我太喜欢这张照片了！姐姐觉得怎么样？",
      "post_time": "2025-06-17 23:20:55",
      "image_count": 0,
      "image_urls": null,
      "local_image_paths": null,
      "likes": 0,
      "comments": 0,
      "views": 0,
      "board": "Dear. IU",
      "members_only": 0,
      "author_username": "IU5.16IU",
      "author_avatar": null,
      "author_local_avatar": null,
      "fan_comments": [],
      "direct_iu_replies": [
        {
          "id": 1363,
          "content_ko": "여어~\n헤이~\n즨아~\n유야~",
          "content_zh": "你好~",
          "image_count": 0,
          "image_urls": null,
          "local_image_paths": null,
          "replied_at": "2025-06-17 23:28:34"
        }
      ]
    },
    {
      "id": 536,
      "post_uuid": "01978031-f6be-c8a1-254f-3f06adc74631",
      "title_ko": null,
      "title_zh": null,
      "content_ko": "언니 요즘에도 에셈알 들어?",
      "content_zh": "每天都做梦，最近做的梦太现实了",
      "post_time": "2025-06-17 23:20:47",
      "image_count": 0,
      "image_urls": null,
      "local_image_paths": null,
      "likes": 0,
      "comments": 0,
      "views": 0,
      "board": "Dear. IU",
      "members_only": 0,
      "author_username": "묵묵히사랑해",
      "author_avatar": null,
      "author_local_avatar": null,
      "fan_comments": [],
      "direct_iu_replies": [
        {
          "id": 1362,
          "content_ko": "응 완전 많이 들어!",
          "content_zh": "嗯 经常听很多！",
          "image_count": 0,
          "image_urls": null,
          "local_image_paths": null,
          "replied_at": "2025-06-17 23:29:02"
        }
      ]
    },
    {
      "id": 535,
      "post_uuid": "01978031-eee1-ab65-f792-d6d451a1c104",
      "title_ko": null,
      "title_zh": null,
      "content_ko": "언니, 나 이 사진 너무 좋아! 언니는 어떻게 생각해?",
      "content_zh": "你好姐姐，这是个好像能开启美好一天的早晨！",
      "post_time": "2025-06-17 23:20:45",
      "image_count": 1,
      "image_urls": "https://dearimage.iu101.org/images/posts/post_535_92018967.jpeg",
      "local_image_paths": "https://dearimage.iu101.org/images/posts/post_535_92018967.jpeg",
      "likes": 0,
      "comments": 0,
      "views": 0,
      "board": "Dear. IU",
      "members_only": 0,
      "author_username": "나슈",
      "author_avatar": null,
      "author_local_avatar": null,
      "fan_comments": [],
      "direct_iu_replies": [
        {
          "id": 1361,
          "content_ko": "원래는 큰 생각 없었는데 지금 좋아졌어 🫰",
          "content_zh": "本来没什么想法 现在变喜欢了 🫰",
          "image_count": 0,
          "image_urls": null,
          "local_image_paths": null,
          "replied_at": "2025-06-17 23:29:35"
        }
      ]
    },
    {
      "id": 534,
      "post_uuid": "01978031-ea93-cde6-205f-daac0a4b6f9c",
      "title_ko": null,
      "title_zh": null,
      "content_ko": "매일 꿈을 꾸는데 요즘 너무 현실같은 꿈을 꾸어서\n마치 내가 두 세계를 살아가는 것 같아요\n더군다나 꿈을 기억해서 문제야 ㅠㅠ \n진짜 현실 살면서도 문득 문득 생각나요 ㅠ \n꿈 안 꾸는 방법 알아요 언니? ",
      "content_zh": "最近总是做很真实的梦，感觉就像生活在两个世界里一样。\n而且还能记住梦里的内容，真是问题啊 ㅠㅠ\n现实中也会时不时地想起那些梦境 ㅠ\n姐姐，你知道怎样才能不做梦吗？",
      "post_time": "2025-06-17 23:20:44",
      "image_count": 0,
      "image_urls": null,
      "local_image_paths": null,
      "likes": 0,
      "comments": 0,
      "views": 0,
      "board": "Dear. IU",
      "members_only": 0,
      "author_username": "별이",
      "author_avatar": null,
      "author_local_avatar": null,
      "fan_comments": [],
      "direct_iu_replies": [
        {
          "id": 1360,
          "content_ko": "헐!! 나도 그런데! ",
          "content_zh": "哇!!我也这样！",
          "image_count": 0,
          "image_urls": null,
          "local_image_paths": null,
          "replied_at": "2025-06-17 23:29:54"
        }
      ]
    },
    {
      "id": 570,
      "post_uuid": "01978003-19d0-a1bb-d5b3-5122fe497164",
      "title_ko": null,
      "title_zh": null,
      "content_ko": "언니 나 오늘도 시험 보러 간다잉💨📒\n\n오늘은 교양으로 듣는 한국 역사랑 중국어 시험이얌!!\n일본에서 온 유학생이 이 과목 시험 보는거 진짜 맞나…ㅜㅜ\n긴장돼!!!!!!!🥹🫶\n밥먹으면 힘들 것 같아서 오렌지 주스 먹고 가야징!\n언니도 먹엉🍊\n\n언니 오늘 하루 잘보냈으면 좋겠다🫶🫶🫶🫶\nだいすき‼︎",
      "content_zh": "姐姐，我今天也要去考试💨📒\n\n今天考的是选修课韩国历史和中文！！\n从日本来的交换生考这些科目真的对吗...ㅜㅜ\n好紧张！！！🥹🫶\n感觉吃饭会不舒服，所以要喝橙汁再去！\n姐姐也吃点哦🍊\n\n希望姐姐今天过得愉快🫶🫶🫶🫶\n最喜欢了‼︎",
      "post_time": "2025-06-17 22:29:36",
      "image_count": 1,
      "image_urls": "https://dearimage.iu101.org/images/posts/post_570_2018155180.jpeg",
      "local_image_paths": "https://dearimage.iu101.org/images/posts/post_570_2018155180.jpeg",
      "likes": 0,
      "comments": 0,
      "views": 0,
      "board": "Dear. IU",
      "members_only": 0,
      "author_username": "ぼみ보밍밍",
      "author_avatar": null,
      "author_local_avatar": null,
      "fan_comments": [],
      "direct_iu_replies": [
        {
          "id": 1397,
          "content_ko": "오늘 시험데이구나 잘 할 거야 💗 손에서 투지가 느껴지네 걱정 없다!! 파이팅!!",
          "content_zh": "今天考试日会考好的 💗从手中感受到斗志不用担心！！加油！！",
          "image_count": 0,
          "image_urls": null,
          "local_image_paths": null,
          "replied_at": "2025-06-17 22:33:36"
        }
      ]
    },
    {
      "id": 569,
      "post_uuid": "01978001-a75e-bfd1-cfef-cbcdfcaa1e5a",
      "title_ko": null,
      "title_zh": null,
      "content_ko": "저랑 가위 바위 보할래요?\n지는 사람이 매점 사는거에요\n그럼 시작합니다\n가위 바위 보!!!\n전 가위를 냈습니다.\n당신은 무엇을 내셨죠?",
      "content_zh": "要和我玩剪刀石头布吗？输的人请买零食哦。那么开始吧，剪刀石头布！！我出的是剪刀。你出了什么呢？",
      "post_time": "2025-06-17 22:28:01",
      "image_count": 0,
      "image_urls": null,
      "local_image_paths": null,
      "likes": 0,
      "comments": 0,
      "views": 0,
      "board": "Dear. IU",
      "members_only": 0,
      "author_username": "지나가던시민",
      "author_avatar": null,
      "author_local_avatar": null,
      "fan_comments": [],
      "direct_iu_replies": [
        {
          "id": 1396,
          "content_ko": "아 미안.. 주먹 냈어.. 매점에 뭐 팔아?",
          "content_zh": "啊 对不起..出拳了..便利店卖什么？",
          "image_count": 0,
          "image_urls": null,
          "local_image_paths": null,
          "replied_at": "2025-06-17 22:34:24"
        }
      ]
    },
    {
      "id": 568,
      "post_uuid": "01978001-38dc-2754-f52e-6fbb7bb0e1f7",
      "title_ko": null,
      "title_zh": null,
      "content_ko": "언니!! 우리 아기가 이제 7개월인데… 첫 단어가 ‘엄마’도 ‘맘마’도 아니고… ‘아빠’였어요!! 😭\n저는 뭐죠…? 엄마는 언제 불러줄까요 ㅋㅋㅋ",
      "content_zh": "姐姐！！我们的宝宝现在7个月了…第一个词不是\"妈妈\"也不是\"嘛嘛\"…而是\"爸爸\"！！😭我算什么…？什么时候才会叫妈妈呢 ㅋㅋㅋ",
      "post_time": "2025-06-17 22:27:33",
      "image_count": 0,
      "image_urls": null,
      "local_image_paths": null,
      "likes": 0,
      "comments": 0,
      "views": 0,
      "board": "Dear. IU",
      "members_only": 0,
      "author_username": "Keila",
      "author_avatar": "https://dearimage.iu101.org/images/avatars/avatar_259.jpeg",
      "author_local_avatar": "https://dearimage.iu101.org/images/avatars/avatar_259.jpeg",
      "fan_comments": [],
      "direct_iu_replies": [
        {
          "id": 1395,
          "content_ko": "며칠 후에 ‘엄마’ 건너뛰고 바로 ‘어머니 낳아주셔서 감사합니다’ 하면서 절하려고 그러나 보다!\n아기는 다 계획이 있었어 🤫",
          "content_zh": "几天后就跳过\"妈妈\"直接说\"谢谢您生了我\"然后要下跪的样子！\n宝宝都是有计划的 🤫",
          "image_count": 0,
          "image_urls": null,
          "local_image_paths": null,
          "replied_at": "2025-06-17 22:36:18"
        }
      ]
    },
    {
      "id": 567,
      "post_uuid": "01978000-5c05-7895-fb2c-e2c96ed0135c",
      "title_ko": null,
      "title_zh": null,
      "content_ko": "아이유 언니!! 어젯밤에 늦게 잤는데\n어떻게 아침에 일찍 일어날 수 있어요??\n그건 혹시… 연예인 마법인가요?! 🫢✨”",
      "content_zh": "IU姐姐！！昨晚很晚才睡，怎么早上还能早起？？难道是…艺人魔法吗？！🫢✨",
      "post_time": "2025-06-17 22:26:36",
      "image_count": 0,
      "image_urls": null,
      "local_image_paths": null,
      "likes": 0,
      "comments": 0,
      "views": 0,
      "board": "Dear. IU",
      "members_only": 0,
      "author_username": "Keila",
      "author_avatar": "https://dearimage.iu101.org/images/avatars/avatar_259.jpeg",
      "author_local_avatar": "https://dearimage.iu101.org/images/avatars/avatar_259.jpeg",
      "fan_comments": [],
      "direct_iu_replies": [
        {
          "id": 1394,
          "content_ko": "희한하게 어릴 때부터 아무리 늦게 자도 일어나는 건 잘함! 지금 알람보다 30분 일찍 깨서 베리즈 중 ❤️‍🔥 기분 좋댜",
          "content_zh": "奇怪地从小不管多晚睡都能很好地起床！比闹钟早醒30分钟 在berryz中 ❤️‍🔥 心情好",
          "image_count": 0,
          "image_urls": null,
          "local_image_paths": null,
          "replied_at": "2025-06-17 22:38:58"
        }
      ]
    },
    {
      "id": 566,
      "post_uuid": "01977fff-ad8e-f366-ea35-adbe82a186b6",
      "title_ko": null,
      "title_zh": null,
      "content_ko": "나는 지은이 저음 목소리를 진~~~짜 좋아해.\n고음이 멋있는 건 당연하고, 말할 필요도 없지만\n저음은 진짜 너무 매력 있어.\n\"미인\"이든 \"Last Scene\"이든, 들을 때마다 푹 빠지는 느낌이야.\n진짜 너무 좋다… 미쳐버릴 것 같아!!",
      "content_zh": "我真的很喜欢志恩的低音嗓音。\n高音当然也很棒，这都不用说，\n但低音真的太有魅力了。\n无论是《美人》还是《Last Scene》，每次听都会深深陷入其中。\n真的太喜欢了……简直要疯掉了！！",
      "post_time": "2025-06-17 22:25:52",
      "image_count": 0,
      "image_urls": null,
      "local_image_paths": null,
      "likes": 0,
      "comments": 0,
      "views": 0,
      "board": "Dear. IU",
      "members_only": 0,
      "author_username": "파김치",
      "author_avatar": "https://dearimage.iu101.org/images/avatars/avatar_39.jpeg",
      "author_local_avatar": "https://dearimage.iu101.org/images/avatars/avatar_39.jpeg",
      "fan_comments": [],
      "direct_iu_replies": [
        {
          "id": 1393,
          "content_ko": "고마워 나도 내 저음 좋아..해..🫰",
          "content_zh": "谢谢 我也喜欢我的低音..海..🫰",
          "image_count": 0,
          "image_urls": null,
          "local_image_paths": null,
          "replied_at": "2025-06-17 22:39:53"
        }
      ]
    },
    {
      "id": 565,
      "post_uuid": "01977ffc-2bb0-2af9-e67f-7b5c22aea279",
      "title_ko": null,
      "title_zh": null,
      "content_ko": "회원님의 팬 구독 기간이 만료되어 곧 해제됩니다. '활성화'라고 답장해 주세요！",
      "content_zh": "您的粉丝订阅期限已到期，即将被取消。请回复\"激活\"！",
      "post_time": "2025-06-17 22:22:02",
      "image_count": 0,
      "image_urls": null,
      "local_image_paths": null,
      "likes": 0,
      "comments": 0,
      "views": 0,
      "board": "Dear. IU",
      "members_only": 0,
      "author_username": "Guliguli",
      "author_avatar": "https://dearimage.iu101.org/images/avatars/avatar_427.jpeg",
      "author_local_avatar": "https://dearimage.iu101.org/images/avatars/avatar_427.jpeg",
      "fan_comments": [],
      "direct_iu_replies": [
        {
          "id": 1392,
          "content_ko": "뭐야 그런 거 없잖아요 😛",
          "content_zh": "什么都没有嘛 😛",
          "image_count": 0,
          "image_urls": null,
          "local_image_paths": null,
          "replied_at": "2025-06-17 22:40:44"
        }
      ]
    },
    {
      "id": 564,
      "post_uuid": "01977ffa-dd1b-ccf3-d3c6-ab5a19e3e037",
      "title_ko": null,
      "title_zh": null,
      "content_ko": "언니 그립톡 왜 바꿨어용?? 둘다 넘 귀여워요🫣💖\n",
      "content_zh": "姐姐为什么换防滑贴了？两个都很可爱呢🫣💖",
      "post_time": "2025-06-17 22:20:36",
      "image_count": 1,
      "image_urls": "https://dearimage.iu101.org/images/posts/post_564_801762151.jpeg",
      "local_image_paths": "https://dearimage.iu101.org/images/posts/post_564_801762151.jpeg",
      "likes": 0,
      "comments": 0,
      "views": 0,
      "board": "Dear. IU",
      "members_only": 0,
      "author_username": "우리집알감자",
      "author_avatar": "https://dearimage.iu101.org/images/avatars/avatar_44.jpeg",
      "author_local_avatar": "https://dearimage.iu101.org/images/avatars/avatar_44.jpeg",
      "fan_comments": [],
      "direct_iu_replies": [
        {
          "id": 1391,
          "content_ko": "이전 그립톡 내가 그 위에 앉아서 갑자기 톡 빠져버렸어 🙂‍↕️",
          "content_zh": "之前握力器 我坐在上面突然弹开了 🙂‍↕️",
          "image_count": 0,
          "image_urls": null,
          "local_image_paths": null,
          "replied_at": "2025-06-17 22:41:59"
        }
      ]
    },
    {
      "id": 563,
      "post_uuid": "01977ffa-c16f-f020-1e83-8a80c2ef4e59",
      "title_ko": null,
      "title_zh": null,
      "content_ko": "😅💕🎂 06.18 오늘 생일이야 지은이가 오늘 생일인 팬들 생일 축하해주면 기쁘게 행복하게 하루 보낼수 있을꺼 같아 생일축하 해줄수 있니?💗",
      "content_zh": "😅💕🎂 06.18 今天是生日，如果今天生日的智恩粉丝们能送上生日祝福的话，她一定会开心幸福地度过这一天，可以为她庆祝生日吗？💗",
      "post_time": "2025-06-17 22:20:29",
      "image_count": 0,
      "image_urls": null,
      "local_image_paths": null,
      "likes": 0,
      "comments": 0,
      "views": 0,
      "board": "Dear. IU",
      "members_only": 0,
      "author_username": "바다햇살",
      "author_avatar": "https://dearimage.iu101.org/images/avatars/avatar_426.jpg",
      "author_local_avatar": "https://dearimage.iu101.org/images/avatars/avatar_426.jpg",
      "fan_comments": [],
      "direct_iu_replies": [
        {
          "id": 1390,
          "content_ko": "생일 츅하해 날씨도 화창하고 세상이 유나바다의 생일을 축하하나 봐💗 행복한 하루 보내!!",
          "content_zh": "生日祝贺 天气也晴朗 世界好像在庆祝友娜海的生日💗 幸福的一天！",
          "image_count": 0,
          "image_urls": null,
          "local_image_paths": null,
          "replied_at": "2025-06-17 22:43:59"
        }
      ]
    },
    {
      "id": 562,
      "post_uuid": "01977ff8-4489-a9c5-2925-c0d2a8ca1d9a",
      "title_ko": null,
      "title_zh": null,
      "content_ko": "저는 출근 준비하러갑니다.\n좋은하루 보내요. 웃을 일 많~~~은 하루 되세요.\n모기 조심해여!!! 위잉!!",
      "content_zh": "我要去准备上班了。祝你度过美好的一天，愿你拥有充满欢笑的美好日子。小心蚊子哦！嗡嗡！",
      "post_time": "2025-06-17 22:17:46",
      "image_count": 0,
      "image_urls": null,
      "local_image_paths": null,
      "likes": 0,
      "comments": 0,
      "views": 0,
      "board": "Dear. IU",
      "members_only": 0,
      "author_username": "나의취미는아이유",
      "author_avatar": null,
      "author_local_avatar": null,
      "fan_comments": [],
      "direct_iu_replies": [
        {
          "id": 1389,
          "content_ko": "👏!\n제가 처리했습니다.",
          "content_zh": "👏！ 我处理了。",
          "image_count": 0,
          "image_urls": null,
          "local_image_paths": null,
          "replied_at": "2025-06-17 22:46:06"
        }
      ]
    },
    {
      "id": 561,
      "post_uuid": "01977ff4-7a80-148b-c205-ef9d7d98ec76",
      "title_ko": null,
      "title_zh": null,
      "content_ko": "온니 쟐 잤어요? 오늘도 뭐 배우러 가나아~?",
      "content_zh": "欧尼睡了吗？今天也要去学习什么吗？",
      "post_time": "2025-06-17 22:13:38",
      "image_count": 0,
      "image_urls": null,
      "local_image_paths": null,
      "likes": 0,
      "comments": 0,
      "views": 0,
      "board": "Dear. IU",
      "members_only": 0,
      "author_username": "민주얌",
      "author_avatar": null,
      "author_local_avatar": null,
      "fan_comments": [],
      "direct_iu_replies": [
        {
          "id": 1388,
          "content_ko": "어떻게 알았지?! 오늘 바쁘다 바빠모드야!! 😆",
          "content_zh": "怎么知道的？！今天忙 忙模式！！😆",
          "image_count": 0,
          "image_urls": null,
          "local_image_paths": null,
          "replied_at": "2025-06-17 22:47:38"
        }
      ]
    },
    {
      "id": 560,
      "post_uuid": "01977fec-9143-b052-05f6-e360ccad8306",
      "title_ko": null,
      "title_zh": null,
      "content_ko": "언니는 기타를 배우는 기술이 있습니까? 기타를 산 지 2 년이 되었는데도 여전히 노래 한 곡을 배우지 못하여, 늘 며칠을 배우면서 포기한다. 기타로 언니 노래 한 곡 연주하고 싶어요!🥺🥺",
      "content_zh": "姐姐有学吉他的技巧吗？我买吉他已经两年了，但还是连一首歌都学不会，总是学几天就放弃了。我想用吉他弹奏姐姐的一首歌！🥺🥺",
      "post_time": "2025-06-17 22:04:59",
      "image_count": 0,
      "image_urls": null,
      "local_image_paths": null,
      "likes": 0,
      "comments": 0,
      "views": 0,
      "board": "Dear. IU",
      "members_only": 0,
      "author_username": "SweetGoodNight",
      "author_avatar": null,
      "author_local_avatar": null,
      "fan_comments": [],
      "direct_iu_replies": [
        {
          "id": 1387,
          "content_ko": "내 노래 중에는 ‘무릎’과 ‘드라마?’ ‘겨울..잠’ 정도가 코드도 쉽고 주법도 쉬워서 연습하기 좋을 거예요! 거기서 조금 더 늘면 ‘마음‘을 연습해 봐!",
          "content_zh": "我的歌里，《无题》、《Drama?》和《冬眠》这几首和弦简单、弹法也容易，很适合练习！等你再熟练一些，就可以试着练《心》了！",
          "image_count": 0,
          "image_urls": null,
          "local_image_paths": null,
          "replied_at": "2025-06-17 22:51:40"
        }
      ]
    },
    {
      "id": 559,
      "post_uuid": "01977feb-f669-92c4-f7b2-ac942cbd52a4",
      "title_ko": null,
      "title_zh": null,
      "content_ko": "아이유 님, 6월 18일은 제 생일이에요 🎂\n지난 1년은 아픈 아버지를 돌보느라 많이 힘들었지만,\n아이유 님의 노래 덕분에 하루하루를 버틸 수 있었어요.\n\n특히 작년 생일이 있던 달에 방콕 콘서트에서\n직접 아이유 님을 만날 수 있었던 건 큰 위로가 되었어요.\n\n이 자리를 빌어 진심으로 감사드려요.\n아이유 님이 이 글을 봐주셨으면 좋겠어요. 고맙습니다.",
      "content_zh": "IU，6月18日是我的生日🎂\n过去一年因为要照顾生病的父亲非常辛苦，\n但多亏了IU的歌曲，我才能一天天坚持下来。\n\n特别是去年生日那个月在曼谷演唱会\n能亲自见到IU，给了我很大的安慰。\n\n借此机会真心表达感谢。\n希望IU能看到这段话，谢谢。",
      "post_time": "2025-06-17 22:04:19",
      "image_count": 1,
      "image_urls": "https://dearimage.iu101.org/images/posts/post_559_65658121.jpeg",
      "local_image_paths": "https://dearimage.iu101.org/images/posts/post_559_65658121.jpeg",
      "likes": 0,
      "comments": 0,
      "views": 0,
      "board": "Dear. IU",
      "members_only": 0,
      "author_username": "PAUL.UAENA",
      "author_avatar": null,
      "author_local_avatar": null,
      "fan_comments": [],
      "direct_iu_replies": [
        {
          "id": 1386,
          "content_ko": "방콕 콘서트 정말 좋았지 🥰\n오늘 유애나들 중에 생일자들이 많네 생일 축하해요! 💗",
          "content_zh": "曼谷演唱会真的很好 🥰 今天友爱娜们中生日的很多 生日快乐！ 💗",
          "image_count": 0,
          "image_urls": null,
          "local_image_paths": null,
          "replied_at": "2025-06-17 22:52:56"
        }
      ]
    }
  ]
}