{
  "page": 32,
  "totalPages": 45,
  "total": 895,
  "data": [
    {
      "id": 705,
      "post_uuid": "0197504c-060d-b0cc-abd9-a3fac8535638",
      "title_ko": null,
      "title_zh": null,
      "content_ko": "요즘 컨디션 괜찮아요?? 의사 선생님께 칭찬 들을 수 있나용? 🐥",
      "content_zh": "最近状态好吗？？能得到医生的表扬吗？ 🐥",
      "post_time": "2025-06-08 16:07:29",
      "image_count": 0,
      "image_urls": null,
      "local_image_paths": null,
      "likes": 0,
      "comments": 0,
      "views": 0,
      "board": "Dear. IU",
      "members_only": 0,
      "author_username": "말랑찹쌀떡",
      "author_avatar": "https://dearimage.iu101.org/images/avatars/avatar_29.jpeg",
      "author_local_avatar": "https://dearimage.iu101.org/images/avatars/avatar_29.jpeg",
      "fan_comments": [],
      "direct_iu_replies": [
        {
          "id": 1533,
          "content_ko": "아.. 의사 선생님께 칭찬 듣지 못 해요...\n왜냐면 의사쌤 뵐 일이 없거든요 😆😆😆 \n굳 컨디션",
          "content_zh": "啊...得不到医生老师的夸奖...\n因为根本见不到医生老师嘛 😆😆😆 \n身体状况很好",
          "image_count": 0,
          "image_urls": null,
          "local_image_paths": null,
          "replied_at": "2025-06-08 17:12:32"
        }
      ]
    },
    {
      "id": 704,
      "post_uuid": "01975046-050c-3a82-e868-ff8e02e55571",
      "title_ko": null,
      "title_zh": null,
      "content_ko": "지은 누나 !! 나 20대 중반인데\n일 다니다가 지금은 실업자 상태가 되서\n백수가 됬어 ㅠㅠ 혹시 추천할 만한\n취미 좀 알려줘 ㅠㅠㅠㅠㅠ ",
      "content_zh": "智恩姐姐！我二十多岁了，工作过一段时间，现在失业了，成了无业游民ㅠㅠ 能推荐一些值得做的兴趣爱好吗？ㅠㅠㅠㅠㅠ",
      "post_time": "2025-06-08 16:00:55",
      "image_count": 0,
      "image_urls": null,
      "local_image_paths": null,
      "likes": 0,
      "comments": 0,
      "views": 0,
      "board": "Dear. IU",
      "members_only": 0,
      "author_username": "꿈꾸는유애나",
      "author_avatar": null,
      "author_local_avatar": null,
      "fan_comments": [],
      "direct_iu_replies": [
        {
          "id": 1532,
          "content_ko": "나 취미 너무 별거 없어서... asmr 들으면서 누워있기 인데.. 같이 해보실..?",
          "content_zh": "我兴趣爱好没什么...就是躺着听asmr..一起试试看..？",
          "image_count": 0,
          "image_urls": null,
          "local_image_paths": null,
          "replied_at": "2025-06-08 17:13:55"
        }
      ]
    },
    {
      "id": 703,
      "post_uuid": "01975045-69b8-a7af-ff57-35859797c76b",
      "title_ko": null,
      "title_zh": null,
      "content_ko": "완전 내 스타일，언니, 이게 요즘 한국에서 인기가 많다고 들었어요, 맞죠?",
      "content_zh": "完全是我的风格，姐姐，听说这在韩国很受欢迎，对吧？",
      "post_time": "2025-06-08 16:00:15",
      "image_count": 1,
      "image_urls": "https://dearimage.iu101.org/images/posts/post_703_242517347.jpeg",
      "local_image_paths": "https://dearimage.iu101.org/images/posts/post_703_242517347.jpeg",
      "likes": 0,
      "comments": 0,
      "views": 0,
      "board": "Dear. IU",
      "members_only": 0,
      "author_username": "YU^Q^",
      "author_avatar": null,
      "author_local_avatar": null,
      "fan_comments": [],
      "direct_iu_replies": [
        {
          "id": 1531,
          "content_ko": "음.. 아니야 완내스 좀 지났어 좀 애매해요 \n요즘 유행하는 거 ‘느좋’ 느낌 좋다~ 이런 뜻!",
          "content_zh": "嗯...不是，完奈斯已经过了，有点尴尬。\n最近流行的\"neujoh\"，就是感觉不错~这个意思！",
          "image_count": 0,
          "image_urls": null,
          "local_image_paths": null,
          "replied_at": "2025-06-08 17:15:04"
        }
      ]
    },
    {
      "id": 702,
      "post_uuid": "0197503e-528b-5402-6f4e-83402afafa53",
      "title_ko": null,
      "title_zh": null,
      "content_ko": "나랑 이름 석 자 다 같은 지은온니야\n20대 후반이 되도록 아직 나는 내가 될 거라고 상상했던 \n나의 모습과 거리가 너무 멀어서 가끔 마음이 울렁거려\n그럴때마다 언니 노래를 듣고, 언니가 나온 모습들을 보면서\n꼭 내 분야에서 나도 이름 석 자 제대로 남기겠다고 다짐해🏴‍☠️\n\n나는 첫째라서 평생 언니를 갖고 싶어했거든?\n난 그래서 징짱이 내 언니라고 생각하고 살고 있어\n일 하느라 아주 바빠서 콘서트에서나 얼굴 볼 수 있는 온니 ㅋㅋ세상에 쉬운 일이란 없고, 힘들지 않은 사람은 찾아볼 수 없는 게 잔혹한 이 현실이지만! 그 안에서 온기를 나눠주는 언니를 보며 이름 같은 이 동생도 또 힘내볼게!!! \n\n주말도 고생했어 오늘은 꿀잠자길🩵",
      "content_zh": "我和名字三个字都一样的智恩欧尼\n直到二十多岁后半段 我还是离曾经想象中那个自己相距甚远 有时心里会感到慌乱\n每当这时就会听欧尼的歌 看着欧尼出现的画面\n暗自下决心一定要在自己的领域里也留下响当当的名字海盗旗\n\n我是家里的长女 所以一辈子都想有个姐姐呢\n所以我一直把智障当作我的姐姐来看待\n因为工作太忙 只能在演唱会上才能见到面的欧尼 哈哈哈\n世上没有容易的事 也找不到不辛苦的人 这就是残酷的现实\n但在这样的环境中看到给予温暖的欧尼 连名字都相似的这个妹妹也会再次打起精神\n\n周末也辛苦了 今天好好睡个美容觉吧💚",
      "post_time": "2025-06-08 15:52:31",
      "image_count": 0,
      "image_urls": null,
      "local_image_paths": null,
      "likes": 0,
      "comments": 0,
      "views": 0,
      "board": "Dear. IU",
      "members_only": 0,
      "author_username": "징댕",
      "author_avatar": null,
      "author_local_avatar": null,
      "fan_comments": [],
      "direct_iu_replies": [
        {
          "id": 1530,
          "content_ko": "지은아 내가 언니 할게! 잘 자 내 하나뿐인 여동생 지은아💗",
          "content_zh": "智恩啊我当你姐姐！晚安我唯一的妹妹智恩啊💗",
          "image_count": 0,
          "image_urls": null,
          "local_image_paths": null,
          "replied_at": "2025-06-08 17:17:46"
        }
      ]
    },
    {
      "id": 701,
      "post_uuid": "01975035-81cb-0cc0-e28a-e650a46d3c02",
      "title_ko": null,
      "title_zh": null,
      "content_ko": "언니가 자기 전에 당신에게 하고 싶은 말이 있어요 \n하지만 여기 댓글이 많아서 이 단락이 무시됐을 수도 있어요 \n작년 오늘은 내 인생에서 가장 행복한 날이었습니다. 왜냐하면 내가 5년 동안 기다렸던 사람이 마침내 말레이시아에 왔기 때문입니다. \n그날은 내 인생에서 가장 의미 있는 날이었고 드디어 완벽한 사람을 만났어요 \n엄청난 응원으로 정말 소름이 돋았어요 물론 저도 함께 응원했어요 \n그리고 저도 정말 운이 좋은 것 같아요. 하나님께서 저를 잘 보살펴 주시고 앞에서 네 줄의 티켓을 잡아주셨기 때문에 저를 아주 가까이 보고 그 순간을 소중히 여기셨어요 \n작년의 오늘이 정말 그리워요. 그 순간으로 돌아갈 수 있었으면 좋겠어요. 왜냐하면 정말 행복해요\n요즘 내 삶이 좋지 않고 내가 하고 싶지 않은 일을 하고 있지만 다음에 다시 만날 때까지 잘 먹고 잘 살겠다고 말하고 싶어요 \n이 구절이 그렇게 운이 좋은지 모르겠지만 모든 것은 운명에 달려 있는 것 같아요 \nKuaena 당신이 다시 오기를 기다리세요\n잘 자요 🫶🏻\n",
      "content_zh": "姐姐睡前想对你说些话\n但因为这里评论太多，这段话可能会被忽略\n去年的今天是我人生中最幸福的一天，因为我等了5年的那个人终于来到了马来西亚\n那天是我人生中最有意义的一天，我终于遇到了完美的人\n现场巨大的应援声让我起了一身鸡皮疙瘩，当然我也一起应援了\n我也觉得自己真的很幸运，上帝很好地保佑着我，给了我前四排的票，让我能近距离看到你，珍惜那个瞬间\n真的好怀念去年的今天，希望能回到那一刻，因为真的太幸福了\n最近我的生活不太好，做着自己不想做的事情，但我想说为了下次再见面，我会好好吃饭好好生活的\n不知道这段话是否也会这么幸运，但一切似乎都取决于命运\nKuaena，期待你再次到来\n晚安🫶🏻",
      "post_time": "2025-06-08 15:42:53",
      "image_count": 0,
      "image_urls": null,
      "local_image_paths": null,
      "likes": 0,
      "comments": 0,
      "views": 0,
      "board": "Dear. IU",
      "members_only": 0,
      "author_username": "jeyyenn",
      "author_avatar": null,
      "author_local_avatar": null,
      "fan_comments": [],
      "direct_iu_replies": [
        {
          "id": 1529,
          "content_ko": "다시 만나러 갈게 나의 쿠알라룸푸르으야 😁",
          "content_zh": "我会再去见你的我的吉隆坡 😁",
          "image_count": 0,
          "image_urls": null,
          "local_image_paths": null,
          "replied_at": "2025-06-08 17:19:41"
        }
      ]
    },
    {
      "id": 700,
      "post_uuid": "0197502e-e9cc-0814-cf11-b4db114cb08b",
      "title_ko": null,
      "title_zh": null,
      "content_ko": "언니 전에 프롬유에서 언급했던 책 <성가신 사랑>을 읽었어요! 언니는 혹시 다 읽었나요? 아니 제가 읽는내내 완전 🤯< 이 상태가 되어가지고 꽤 재밌었던 독서였어요 히히 작가님이 서사를 엄청 재밌게 처리하셔서 그것도 끌림 되네요! 언니도 다 읽었으면 언니 생각 궁금하네요~~!! 히히히히히 암튼 추천(?)해줘서 고마워요 엉니 잘 읽었습니다 😆💗",
      "content_zh": "姐姐，之前在From U提到的那本书《烦人的爱情》我读完了！姐姐你读完了吗？我读的过程中完全处于🤯这种状态，真的很有意思呢。作者把叙事处理得特别有趣，让人忍不住一直看下去！如果姐姐也读完了的话，很想知道你的感想呢～～！嘻嘻嘻总之谢谢你推荐（？）给我，读得很开心😆💗",
      "post_time": "2025-06-08 15:35:41",
      "image_count": 1,
      "image_urls": "https://dearimage.iu101.org/images/posts/post_700_1466471714.jpeg",
      "local_image_paths": "https://dearimage.iu101.org/images/posts/post_700_1466471714.jpeg",
      "likes": 0,
      "comments": 0,
      "views": 0,
      "board": "Dear. IU",
      "members_only": 0,
      "author_username": "희나야",
      "author_avatar": null,
      "author_local_avatar": null,
      "fan_comments": [],
      "direct_iu_replies": [
        {
          "id": 1528,
          "content_ko": "다 못 읽음..  나폴리 4부작은 진짜 인생 도서 수준으로 인상 깊게 읽었는데 성가신 사랑은 저와는 맞지 않나 보오 중도 포기 그래도 엘레나 페란테 신작 나오면 바로 뛰어간다",
          "content_zh": "没全读完..那不勒斯四部曲真的读得很有感触达到了人生必读书籍的程度，但《烦人的爱》好像不太适合我中途放弃了，不过埃莱娜·费兰特的新作一出来就马上去追",
          "image_count": 0,
          "image_urls": null,
          "local_image_paths": null,
          "replied_at": "2025-06-08 17:22:00"
        }
      ]
    },
    {
      "id": 699,
      "post_uuid": "0197502e-677b-6b5d-1460-c868bfc94545",
      "title_ko": null,
      "title_zh": null,
      "content_ko": "헉 첫글이라 너무 떨린다,, 요즘 언니가 빠진 건 뭐예요?\n저는! 자존감, 내면의 힘을 기르는 거에 빠졌어요. 많이 듣던 말인데 막상 실천하려니 쉽지 않더라구요🫨",
      "content_zh": "天啊，第一次发帖好紧张啊，，最近姐姐迷上了什么？\n我！迷上了培养自尊心和内在力量。虽然这话听过很多次，但真正要实践起来还真不容易呢🫨",
      "post_time": "2025-06-08 15:35:07",
      "image_count": 0,
      "image_urls": null,
      "local_image_paths": null,
      "likes": 0,
      "comments": 0,
      "views": 0,
      "board": "Dear. IU",
      "members_only": 0,
      "author_username": "구슬주",
      "author_avatar": null,
      "author_local_avatar": null,
      "fan_comments": [],
      "direct_iu_replies": [
        {
          "id": 1527,
          "content_ko": "난 6월이 되니까 되게\n희주화 됐어 😶ㅋㅋㅋ막 자신감이 넘치고 좀 막무가내로 사는 것도 재미있네 싶은 요즘이야!",
          "content_zh": "一到六月我就变得特别乐观 😶ㅋㅋㅋ 最近总觉得自己充满自信，有点任性地生活也挺有意思的！",
          "image_count": 0,
          "image_urls": null,
          "local_image_paths": null,
          "replied_at": "2025-06-08 17:23:56"
        }
      ]
    },
    {
      "id": 698,
      "post_uuid": "0197502b-ccf1-6237-0ff7-8e10273f2bae",
      "title_ko": null,
      "title_zh": null,
      "content_ko": "언니, 나 목요일에 수술해야 해요. 아주 작은 수술이지만 조금 두렵습니다. 파이팅 한마디 해주시겠습니까?💗💗💗",
      "content_zh": "姐姐，我周四要做手术。虽然是很小的手术但有点害怕。能给我一句加油吗？💗💗💗",
      "post_time": "2025-06-08 15:32:17",
      "image_count": 1,
      "image_urls": "https://dearimage.iu101.org/images/posts/post_698_1802578764.gif",
      "local_image_paths": "https://dearimage.iu101.org/images/posts/post_698_1802578764.gif",
      "likes": 0,
      "comments": 0,
      "views": 0,
      "board": "Dear. IU",
      "members_only": 0,
      "author_username": "사어",
      "author_avatar": "https://dearimage.iu101.org/images/avatars/avatar_198.jpeg",
      "author_local_avatar": "https://dearimage.iu101.org/images/avatars/avatar_198.jpeg",
      "fan_comments": [],
      "direct_iu_replies": [
        {
          "id": 1526,
          "content_ko": "아이궁 무슨\n수술해 무서워서 어떡해애 금방 지나갈 거야 다시 튼튼이로 돌아와서 나랑 놀기다!!?",
          "content_zh": "哎呀怎么办\n要做手术好害怕啊 会很快过去的 然后健健康康地回来和我一起玩！！？",
          "image_count": 0,
          "image_urls": null,
          "local_image_paths": null,
          "replied_at": "2025-06-08 17:25:40"
        }
      ]
    },
    {
      "id": 697,
      "post_uuid": "01975029-eef5-e8b7-86f6-e423c14b6122",
      "title_ko": null,
      "title_zh": null,
      "content_ko": "팬클럽 가입 표시가 없어서 부끄럽고 막 쥐구멍에 숨어버리고 땅을 파서 지구 반대편으로 나와버려...\n\n진짜 내년에 성인 되니까 내년부터 평생 가입할게요 힝",
      "content_zh": "没有加入粉丝俱乐部的标志，感觉好丢脸，真想钻进老鼠洞，挖个地洞到地球另一端去……\n\n真的，明年成年了的话，从明年开始我会一辈子都加入的呜呜",
      "post_time": "2025-06-08 15:30:14",
      "image_count": 0,
      "image_urls": null,
      "local_image_paths": null,
      "likes": 0,
      "comments": 0,
      "views": 0,
      "board": "Dear. IU",
      "members_only": 0,
      "author_username": "내가살아가는데에는이유가있어요",
      "author_avatar": null,
      "author_local_avatar": null,
      "fan_comments": [],
      "direct_iu_replies": [
        {
          "id": 1525,
          "content_ko": "ㅋㅋㅋㅋ신경 쓰지 마 \n베리즈에 온 이상 우리는\n베리즈 패밀리~~~~~🍓🫐",
          "content_zh": "哈哈哈，别在意\n既然来到Berryz，我们就是\nBerryz一家人~~~~~🍓🫐",
          "image_count": 0,
          "image_urls": null,
          "local_image_paths": null,
          "replied_at": "2025-06-08 17:26:29"
        }
      ]
    },
    {
      "id": 696,
      "post_uuid": "01975021-edfc-aa74-31c7-332e20ae76a5",
      "title_ko": null,
      "title_zh": null,
      "content_ko": "언니는 고양이가 좋아요 강아지가 좋아요??\n키운다면 고양이? 강아지??",
      "content_zh": "姐姐喜欢猫还是狗？？",
      "post_time": "2025-06-08 15:21:30",
      "image_count": 2,
      "image_urls": "https://dearimage.iu101.org/images/posts/post_696_1522443090.jpeg",
      "local_image_paths": "https://dearimage.iu101.org/images/posts/post_696_1517528287.jpeg|https://dearimage.iu101.org/images/posts/post_696_1522443090.jpeg",
      "likes": 0,
      "comments": 0,
      "views": 0,
      "board": "Dear. IU",
      "members_only": 0,
      "author_username": "쀍가연",
      "author_avatar": null,
      "author_local_avatar": null,
      "fan_comments": [],
      "direct_iu_replies": [
        {
          "id": 1524,
          "content_ko": "난 강아지! 근데 반려견을 데려올 생각은 없어!",
          "content_zh": "我是小狗！但是不打算带宠物狗来！",
          "image_count": 0,
          "image_urls": null,
          "local_image_paths": null,
          "replied_at": "2025-06-08 17:27:26"
        }
      ]
    },
    {
      "id": 695,
      "post_uuid": "01975020-66ff-3f8a-010c-6fcb90dd6449",
      "title_ko": null,
      "title_zh": null,
      "content_ko": "언니 8기 키트 스포 해죠요",
      "content_zh": "姐姐第8期kit剧透吧",
      "post_time": "2025-06-08 15:19:50",
      "image_count": 0,
      "image_urls": null,
      "local_image_paths": null,
      "likes": 0,
      "comments": 0,
      "views": 0,
      "board": "Dear. IU",
      "members_only": 0,
      "author_username": "쀍가연",
      "author_avatar": null,
      "author_local_avatar": null,
      "fan_comments": [],
      "direct_iu_replies": [
        {
          "id": 1523,
          "content_ko": "발견!",
          "content_zh": "发现了！",
          "image_count": 0,
          "image_urls": null,
          "local_image_paths": null,
          "replied_at": "2025-06-08 17:28:10"
        }
      ]
    },
    {
      "id": 708,
      "post_uuid": "01974d3d-c9a4-cead-d61c-b57219534702",
      "title_ko": null,
      "title_zh": null,
      "content_ko": "지은아, 오늘 일요일인데 쉬는 날이야? 💕",
      "content_zh": "智恩啊，今天是周日是休息日吗？💕",
      "post_time": "2025-06-08 01:53:04",
      "image_count": 0,
      "image_urls": null,
      "local_image_paths": null,
      "likes": 0,
      "comments": 0,
      "views": 0,
      "board": "Dear. IU",
      "members_only": 0,
      "author_username": "지은의딸기우유",
      "author_avatar": null,
      "author_local_avatar": null,
      "fan_comments": [],
      "direct_iu_replies": [
        {
          "id": 1536,
          "content_ko": "촬영 중이야 ~.~",
          "content_zh": "正在拍摄中～.～",
          "image_count": 0,
          "image_urls": null,
          "local_image_paths": null,
          "replied_at": "2025-06-08 01:58:50"
        }
      ]
    },
    {
      "id": 724,
      "post_uuid": "01974ccc-f223-75ba-5ca0-e99173cad786",
      "title_ko": null,
      "title_zh": null,
      "content_ko": "\"언니, 요 며칠 동안 계속 촬영하고 있니?\" 쉬었나요? 🥹나 운전면허 시험을 보러 왔어, 매일 연습해야 해, 너무 피곤해, 😴 곧 시험이 있어, 너무 긴장돼",
      "content_zh": "姐姐，这几天一直在拍戏吗？有休息过吗？🥹 我来考驾照了，每天都要练习，好累啊 😴 马上就要考试了，好紧张",
      "post_time": "2025-06-07 23:49:49",
      "image_count": 0,
      "image_urls": null,
      "local_image_paths": null,
      "likes": 0,
      "comments": 0,
      "views": 0,
      "board": "Dear. IU",
      "members_only": 0,
      "author_username": "7iu^^",
      "author_avatar": "https://dearimage.iu101.org/images/avatars/avatar_4.jpeg",
      "author_local_avatar": "https://dearimage.iu101.org/images/avatars/avatar_4.jpeg",
      "fan_comments": [],
      "direct_iu_replies": [
        {
          "id": 1552,
          "content_ko": "다치지 말고 한 번에 붙고 와!😆 파이팅!!",
          "content_zh": "不要受伤一次成功回来！😆加油！！",
          "image_count": 0,
          "image_urls": null,
          "local_image_paths": null,
          "replied_at": "2025-06-07 23:52:09"
        }
      ]
    },
    {
      "id": 723,
      "post_uuid": "01974cc8-b86d-ac92-dbef-1c96e2d8c910",
      "title_ko": null,
      "title_zh": null,
      "content_ko": "안녕하세요, 아이유. 좋은 아침이에요 🌷잘 지내세요? 지난번에 답장 주셔서 감사합니다. 아기처럼 푹 잤어요 🫣, 세상에서 가장 행복한 사람이 되었어요 🫰 당신의 메시지 덕분에 마음이 정말 행복으로 가득 찼어요. 당신은 항상 여러모로 저를 편안하게 해줘요. 저는 집에서 멀리 떨어져서 일하는데, 외롭고 힘들 때 당신과 당신의 노래가 저를 위로해 줘요 💜🍀💜\n\n고마워요 🫰 건강하고 행복하세요. 😉 우리가 나이가 들어도 항상 응원하고 사랑할게요. 신의 축복이 항상 당신과 함께하길 🫶 😻🫶",
      "content_zh": "你好，IU。早上好 🌷 你还好吗？谢谢上次你的回复。我睡得很香，像婴儿一样 🫣 现在的我成了世界上最幸福的人 🫰 因为你的消息，我的心里真的充满了快乐。你总是在各个方面让我感到安心。我在离家很远的地方工作，每当感到孤独和疲惫时，你和你的歌都会安慰我 💜🍀💜\n\n谢谢你 🫰 希望你健康快乐。😉 即使我们变老了，我也会一直支持你、爱你。愿上帝的祝福永远与你同在 🫶 😻🫶",
      "post_time": "2025-06-07 23:45:12",
      "image_count": 0,
      "image_urls": null,
      "local_image_paths": null,
      "likes": 0,
      "comments": 0,
      "views": 0,
      "board": "Dear. IU",
      "members_only": 0,
      "author_username": "샤메인",
      "author_avatar": "https://dearimage.iu101.org/images/avatars/avatar_323.jpg",
      "author_local_avatar": "https://dearimage.iu101.org/images/avatars/avatar_323.jpg",
      "fan_comments": [],
      "direct_iu_replies": [
        {
          "id": 1551,
          "content_ko": "좋은 아침! 🥰 고마워요!",
          "content_zh": "早上好！🥰谢谢！",
          "image_count": 0,
          "image_urls": null,
          "local_image_paths": null,
          "replied_at": "2025-06-07 23:52:38"
        }
      ]
    },
    {
      "id": 722,
      "post_uuid": "01974cac-43f1-890c-28d0-c380df9c3499",
      "title_ko": null,
      "title_zh": null,
      "content_ko": "언니야ㅑㅑㅑ오늘 밤 하늘 예쁘죠~? ",
      "content_zh": "姐姐姐姐今天晚上的天空很漂亮吧~?",
      "post_time": "2025-06-07 23:14:07",
      "image_count": 1,
      "image_urls": "https://dearimage.iu101.org/images/posts/post_722_506705583.jpeg",
      "local_image_paths": "https://dearimage.iu101.org/images/posts/post_722_506705583.jpeg",
      "likes": 0,
      "comments": 0,
      "views": 0,
      "board": "Dear. IU",
      "members_only": 0,
      "author_username": "즈즈",
      "author_avatar": "https://dearimage.iu101.org/images/avatars/avatar_151.jpeg",
      "author_local_avatar": "https://dearimage.iu101.org/images/avatars/avatar_151.jpeg",
      "fan_comments": [],
      "direct_iu_replies": [
        {
          "id": 1550,
          "content_ko": "거기 어디야? 여긴 해가 중천이야! 🫠",
          "content_zh": "那里是哪里？这里太阳当空照！🫠",
          "image_count": 0,
          "image_urls": null,
          "local_image_paths": null,
          "replied_at": "2025-06-07 23:53:52"
        }
      ]
    },
    {
      "id": 721,
      "post_uuid": "01974ca5-04f0-b821-7e06-f45ab2f0b547",
      "title_ko": null,
      "title_zh": null,
      "content_ko": "언니 잘 잤어요?\n전 이제 일어났어요!",
      "content_zh": "姐姐睡得好吗？",
      "post_time": "2025-06-07 23:06:12",
      "image_count": 0,
      "image_urls": null,
      "local_image_paths": null,
      "likes": 0,
      "comments": 0,
      "views": 0,
      "board": "Dear. IU",
      "members_only": 0,
      "author_username": "딸기",
      "author_avatar": null,
      "author_local_avatar": null,
      "fan_comments": [],
      "direct_iu_replies": [
        {
          "id": 1549,
          "content_ko": "왜케 일찍 일어났어어 이 좋은 일요일에!",
          "content_zh": "为什么这么早起床啊在这美好的星期天！",
          "image_count": 0,
          "image_urls": null,
          "local_image_paths": null,
          "replied_at": "2025-06-07 23:54:14"
        }
      ]
    },
    {
      "id": 720,
      "post_uuid": "01974c96-ea05-6604-b685-f227e15988b2",
      "title_ko": null,
      "title_zh": null,
      "content_ko": "언니 완전 대왕홀씨 발견했어요🌼\n바로 지은언니?!?!💗💗💗💗💗\n요새 야외촬영 힘들지는 않아요?모기들이 괴롭히지는 않구?🦟\n수분보충은 잘하구 있죠옹?온통 언니 걱정뿐🫨💗",
      "content_zh": "姐姐，我发现了超级大花粉！🌼\n就是刚才建的姐姐？！？！💗💗💗💗💗\n最近户外拍摄不累吗？蚊子有没有骚扰你？🦟\n水分补充做得还好吧？满脑子都是对姐姐的担心🫨💗",
      "post_time": "2025-06-07 22:50:48",
      "image_count": 1,
      "image_urls": "https://dearimage.iu101.org/images/posts/post_720_459741436.jpeg",
      "local_image_paths": "https://dearimage.iu101.org/images/posts/post_720_459741436.jpeg",
      "likes": 0,
      "comments": 0,
      "views": 0,
      "board": "Dear. IU",
      "members_only": 0,
      "author_username": "쪼푸린",
      "author_avatar": "https://dearimage.iu101.org/images/avatars/avatar_32.png",
      "author_local_avatar": "https://dearimage.iu101.org/images/avatars/avatar_32.png",
      "fan_comments": [],
      "direct_iu_replies": [
        {
          "id": 1548,
          "content_ko": "헉 진짜 대왕 홀씨다!!! 🫢",
          "content_zh": "哇真是大王Holssi！！！🫢",
          "image_count": 0,
          "image_urls": null,
          "local_image_paths": null,
          "replied_at": "2025-06-07 23:55:21"
        }
      ]
    },
    {
      "id": 719,
      "post_uuid": "01974c8e-9623-e567-ea31-d29d96b8ae89",
      "title_ko": null,
      "title_zh": null,
      "content_ko": "베리즈에 아이유님 전여친 구여친 현여친 미래여친 전아내 현아내 등등 너무 많은데 도대체 어떻게 된겁니까📢📢📢",
      "content_zh": "Berryz里智恩的前女友现女友前妻现妻未来妻子等等太多了到底怎么回事啊📢📢📢",
      "post_time": "2025-06-07 22:41:42",
      "image_count": 0,
      "image_urls": null,
      "local_image_paths": null,
      "likes": 0,
      "comments": 0,
      "views": 0,
      "board": "Dear. IU",
      "members_only": 0,
      "author_username": "미니언",
      "author_avatar": "https://dearimage.iu101.org/images/avatars/avatar_89.gif",
      "author_local_avatar": "https://dearimage.iu101.org/images/avatars/avatar_89.gif",
      "fan_comments": [],
      "direct_iu_replies": [
        {
          "id": 1547,
          "content_ko": "제가 여성편력이 좀 대단합니다. 문제 있습니까? 😌",
          "content_zh": "我女性缘很好。有问题吗？😌",
          "image_count": 0,
          "image_urls": null,
          "local_image_paths": null,
          "replied_at": "2025-06-07 23:57:09"
        }
      ]
    },
    {
      "id": 718,
      "post_uuid": "01974c64-fe05-08cd-3fab-3f1a79b5ba3a",
      "title_ko": null,
      "title_zh": null,
      "content_ko": "아이유 님, 안녕하세요!\n요즘 ‘네모의 꿈’을 정말 자주 듣고 있어요.\n노래를 들을 때마다 아이유 님이 귀엽게 레고 세트를 조립하고 예쁘게 꾸미는 모습이 상상돼서 괜히 미소가 나요. 특히 크리스마스 브이로그에서 레고 트리를 조립하시던 장면이 떠올라서 더 그런 것 같아요. 이렇게 사랑스러운 노래를 불러주셔서 정말 감사해요. 🎄🧱😊",
      "content_zh": "IU，你好！\n最近经常听《方块的梦想》呢。\n每次听这首歌的时候，都会想象IU你可爱地组装乐高套装、漂亮地装饰的样子，不由得露出微笑。特别是想起你在圣诞节Vlog里组装乐高树的场景，更是如此。谢谢你演唱这么可爱的歌曲。🎄🧱😊",
      "post_time": "2025-06-07 21:56:16",
      "image_count": 0,
      "image_urls": null,
      "local_image_paths": null,
      "likes": 0,
      "comments": 0,
      "views": 0,
      "board": "Dear. IU",
      "members_only": 0,
      "author_username": "Like_A_Star",
      "author_avatar": null,
      "author_local_avatar": null,
      "fan_comments": [],
      "direct_iu_replies": [
        {
          "id": 1546,
          "content_ko": "오 네모의 꿈 레고 챌린지! 상상만 해도 너무 귀엽겠다 😍",
          "content_zh": "哦正方形的梦想乐高挑战！光想象就很可爱 😍",
          "image_count": 0,
          "image_urls": null,
          "local_image_paths": null,
          "replied_at": "2025-06-07 23:58:46"
        }
      ]
    },
    {
      "id": 717,
      "post_uuid": "01974c17-ec0a-1198-5c79-db156ca2a928",
      "title_ko": null,
      "title_zh": null,
      "content_ko": "언니! 저 지금 서울 도착했어요! \n강남에 머무르고 있는데 맛있는 고기집 추천해줄 수 있어요? 저 진짜 고기 너무 좋아해요! 🍖\n근데 저 채소는 못 먹어요 🥬🙅🏻‍♀️",
      "content_zh": "姐姐！我刚到首尔了！\n我在江南这边住，能推荐一家好吃的烤肉店吗？我超喜欢吃的！ 🍖\n不过我不吃蔬菜 🥬🙅🏻‍♀️",
      "post_time": "2025-06-07 20:32:05",
      "image_count": 1,
      "image_urls": "https://dearimage.iu101.org/images/posts/post_717_2137174383.jpeg",
      "local_image_paths": "https://dearimage.iu101.org/images/posts/post_717_2137174383.jpeg",
      "likes": 0,
      "comments": 0,
      "views": 0,
      "board": "Dear. IU",
      "members_only": 0,
      "author_username": "아이유의딸",
      "author_avatar": null,
      "author_local_avatar": null,
      "fan_comments": [],
      "direct_iu_replies": [
        {
          "id": 1545,
          "content_ko": "나 하나 고백하는데 사실 내가 고기에 좀 약해..🫣고기 맛집 잘 몰라..",
          "content_zh": "我有个告白，其实我对肉类有点弱..🫣肉类餐厅不太懂..",
          "image_count": 0,
          "image_urls": null,
          "local_image_paths": null,
          "replied_at": "2025-06-08 00:01:38"
        }
      ]
    }
  ]
}