{
  "page": 27,
  "totalPages": 45,
  "total": 895,
  "data": [
    {
      "id": 596,
      "post_uuid": "01977686-a617-5b8c-523c-bafd9387f3f2",
      "title_ko": null,
      "title_zh": null,
      "content_ko": "즐거운 월요일은 아이유 답장부터 시작 (답장해줘 흑흑흑)!",
      "content_zh": "愉快的周一从 IU 的回复开始（求回复呜呜呜）！",
      "post_time": "2025-06-16 02:17:05",
      "image_count": 0,
      "image_urls": null,
      "local_image_paths": null,
      "likes": 0,
      "comments": 0,
      "views": 0,
      "board": "Dear. IU",
      "members_only": 0,
      "author_username": "lSUN",
      "author_avatar": null,
      "author_local_avatar": null,
      "fan_comments": [],
      "direct_iu_replies": [
        {
          "id": 1423,
          "content_ko": "아 즐겁다 월요일 즐겁다 세뇌 완료!!",
          "content_zh": "啊快乐周一快乐洗脑完成！！",
          "image_count": 0,
          "image_urls": null,
          "local_image_paths": null,
          "replied_at": "2025-06-16 02:17:30"
        }
      ]
    },
    {
      "id": 595,
      "post_uuid": "01977686-a125-fe5e-ccb0-41ac4635cc34",
      "title_ko": null,
      "title_zh": null,
      "content_ko": "\"언니, 오늘 쉬나요😴?\" 언니 많이 쉬고 맛있는 거 좀 먹어! 사랑해💓",
      "content_zh": "\"姐姐，今天休息吗😴？\" 姐姐多休息吃点好吃的！爱你💓",
      "post_time": "2025-06-16 02:17:04",
      "image_count": 0,
      "image_urls": null,
      "local_image_paths": null,
      "likes": 0,
      "comments": 0,
      "views": 0,
      "board": "Dear. IU",
      "members_only": 0,
      "author_username": "7iu^^",
      "author_avatar": "https://dearimage.iu101.org/images/avatars/avatar_4.jpeg",
      "author_local_avatar": "https://dearimage.iu101.org/images/avatars/avatar_4.jpeg",
      "fan_comments": [],
      "direct_iu_replies": [
        {
          "id": 1422,
          "content_ko": "오늘도 뭔가를 배우러 간다.. 희주.. 이 능력자 🥰",
          "content_zh": "今天也去学习点什么..熙珠..这个能人🥰",
          "image_count": 0,
          "image_urls": null,
          "local_image_paths": null,
          "replied_at": "2025-06-16 02:18:18"
        }
      ]
    },
    {
      "id": 614,
      "post_uuid": "01977679-2bb7-557c-5e48-a1f744cb3489",
      "title_ko": null,
      "title_zh": null,
      "content_ko": "엉니 여기 네모 모야…?",
      "content_zh": "嗯尼这里有个四方形的是什么…？",
      "post_time": "2025-06-16 02:02:22",
      "image_count": 1,
      "image_urls": "https://dearimage.iu101.org/images/posts/post_614_8586045.jpeg",
      "local_image_paths": "https://dearimage.iu101.org/images/posts/post_614_8586045.jpeg",
      "likes": 0,
      "comments": 0,
      "views": 0,
      "board": "Dear. IU",
      "members_only": 0,
      "author_username": "수림잉",
      "author_avatar": "https://dearimage.iu101.org/images/avatars/avatar_180.jpeg",
      "author_local_avatar": "https://dearimage.iu101.org/images/avatars/avatar_180.jpeg",
      "fan_comments": [],
      "direct_iu_replies": [
        {
          "id": 1441,
          "content_ko": "어머 쟤가 왜 저기 있어",
          "content_zh": "咦她为什么在那里",
          "image_count": 0,
          "image_urls": null,
          "local_image_paths": null,
          "replied_at": "2025-06-16 02:02:43"
        }
      ]
    },
    {
      "id": 613,
      "post_uuid": "01977678-bf7a-e90c-ccbc-1f555bae5489",
      "title_ko": null,
      "title_zh": null,
      "content_ko": "애순아~ 즐거워요?",
      "content_zh": "嗯顺，开心吗？",
      "post_time": "2025-06-16 02:01:54",
      "image_count": 1,
      "image_urls": "https://dearimage.iu101.org/images/posts/post_613_263251732.jpeg",
      "local_image_paths": "https://dearimage.iu101.org/images/posts/post_613_263251732.jpeg",
      "likes": 0,
      "comments": 0,
      "views": 0,
      "board": "Dear. IU",
      "members_only": 0,
      "author_username": "모찌•͈ᴗ•͈",
      "author_avatar": null,
      "author_local_avatar": null,
      "fan_comments": [],
      "direct_iu_replies": [
        {
          "id": 1440,
          "content_ko": "애순이~~ 오랜만에 애순이 돼서 즐거웠어",
          "content_zh": "小爱顺~~好久没当小爱顺很开心",
          "image_count": 0,
          "image_urls": null,
          "local_image_paths": null,
          "replied_at": "2025-06-16 02:03:10"
        }
      ]
    },
    {
      "id": 612,
      "post_uuid": "01977678-a35b-fa8f-d751-3af993938fb2",
      "title_ko": null,
      "title_zh": null,
      "content_ko": "19 살이라는 어린나이에 직장생활 시작하면서 벌써 30 대에 접어들었네요ㅠ 10 년을 넘게 한회사에서 꾸준히 일해왔는데 요즘은 새로오신 팀장님이랑 부딪히게 돼요\n팀장님은 일못하는 직원들은 봐주면서 저보고 일을 다 체크해보라고 하고 다해서 넘겨놓은 일들은 다른직원의 성과로 돌리니 참 허망할때가 많아요\n오랜 시간을 버텨온 지금이 아까워서라도 그만둘수가 없는데\n이럴땐 어떻게 해야할지 고민이네요\n언니도 이런시간을 견디면서 지금이 됐겠죠?",
      "content_zh": "19 岁那么小的年纪就开始职场生活了，现在已经进入 30 岁了ㅠ 在一家公司坚持工作了 10 年多，最近和新来的组长起了冲突。组长对工作做得不好的员工睁一只眼闭一只眼，却让我检查所有工作，我做完移交的工作却被算成其他员工的业绩，真的经常觉得很空虚。坚持到现在这么长时间觉得可惜所以没法辞职，这时候该怎么办呢很苦恼。姐姐也是熬过这样的时间才到现在的吧？",
      "post_time": "2025-06-16 02:01:47",
      "image_count": 0,
      "image_urls": null,
      "local_image_paths": null,
      "likes": 0,
      "comments": 0,
      "views": 0,
      "board": "Dear. IU",
      "members_only": 0,
      "author_username": "겨울에피는봄꽃",
      "author_avatar": null,
      "author_local_avatar": null,
      "fan_comments": [],
      "direct_iu_replies": [
        {
          "id": 1439,
          "content_ko": "아 팀장님 진짜 왜 저한테만 그래여!!!!!!! 😭🤬🤬🤬🤬🤬🤬 하고 싶다... 아고.. 답답하지.. ",
          "content_zh": "组长真的为什么只对我这样啊！！！！😭🤬🤬🤬🤬🤬🤬想说...啊...真憋屈...",
          "image_count": 0,
          "image_urls": null,
          "local_image_paths": null,
          "replied_at": "2025-06-16 02:04:24"
        }
      ]
    },
    {
      "id": 611,
      "post_uuid": "01977676-d594-7b59-6c46-6bf360538c49",
      "title_ko": null,
      "title_zh": null,
      "content_ko": "언니 나도 이번 주에 제주도 가는데 꼭 전시회 다녀올게 너무 예쁘다아 🥹🥹💗",
      "content_zh": "姐姐我这周也要去济州岛，一定要去看展览，听说太美了 🥹🥹💗",
      "post_time": "2025-06-16 01:59:48",
      "image_count": 0,
      "image_urls": null,
      "local_image_paths": null,
      "likes": 0,
      "comments": 0,
      "views": 0,
      "board": "Dear. IU",
      "members_only": 0,
      "author_username": "수림잉",
      "author_avatar": "https://dearimage.iu101.org/images/avatars/avatar_180.jpeg",
      "author_local_avatar": "https://dearimage.iu101.org/images/avatars/avatar_180.jpeg",
      "fan_comments": [],
      "direct_iu_replies": [
        {
          "id": 1438,
          "content_ko": "응 꼭 가!! 재밌었어!",
          "content_zh": "嗯一定要去！！很有趣！",
          "image_count": 0,
          "image_urls": null,
          "local_image_paths": null,
          "replied_at": "2025-06-16 02:04:39"
        }
      ]
    },
    {
      "id": 610,
      "post_uuid": "01977674-b917-3cf8-dca7-809d4ffdaff5",
      "title_ko": null,
      "title_zh": null,
      "content_ko": "제주 할망 그림 다 너무 이쁘다💗\n좋은 시간 잘 보내고 왔어요?? \n맛있는 거 많이 먹었어요오?☺️",
      "content_zh": "济州阿婆的画都太好看了💗 玩得开心吗？ 吃了很多好吃的吗？☺️",
      "post_time": "2025-06-16 01:57:30",
      "image_count": 0,
      "image_urls": null,
      "local_image_paths": null,
      "likes": 0,
      "comments": 0,
      "views": 0,
      "board": "Dear. IU",
      "members_only": 0,
      "author_username": "강지우",
      "author_avatar": "https://dearimage.iu101.org/images/avatars/avatar_508.jpeg",
      "author_local_avatar": "https://dearimage.iu101.org/images/avatars/avatar_508.jpeg",
      "fan_comments": [],
      "direct_iu_replies": [
        {
          "id": 1437,
          "content_ko": "아니 당일치기로 다녀 오느라고 맛있는 건 못 먹었어요 😩",
          "content_zh": "因为当天往返所以没能吃到好吃的😩",
          "image_count": 0,
          "image_urls": null,
          "local_image_paths": null,
          "replied_at": "2025-06-16 02:05:24"
        }
      ]
    },
    {
      "id": 609,
      "post_uuid": "01977674-9a26-3e16-9926-1d0aa85bc2c3",
      "title_ko": null,
      "title_zh": null,
      "content_ko": "언니 제주도 간 김에 오메기떡 잔뜩 먹고 와용 바빠서 바로 육지왔나요?🥹",
      "content_zh": "姐姐去济州岛顺便吃了好多欧麦琪年糕，回来啦？因为忙所以直接回大陆了吗？🥹",
      "post_time": "2025-06-16 01:57:22",
      "image_count": 1,
      "image_urls": "https://dearimage.iu101.org/images/posts/post_609_1670193220.jpg",
      "local_image_paths": "https://dearimage.iu101.org/images/posts/post_609_1670193220.jpg",
      "likes": 0,
      "comments": 0,
      "views": 0,
      "board": "Dear. IU",
      "members_only": 0,
      "author_username": "채린",
      "author_avatar": null,
      "author_local_avatar": null,
      "fan_comments": [],
      "direct_iu_replies": [
        {
          "id": 1436,
          "content_ko": "넹 오메기떡이랑 고등어회 못 먹어서 한이다😟",
          "content_zh": "嗯没能吃到欧麦糕和鲐鱼刺身真遗憾😟",
          "image_count": 0,
          "image_urls": null,
          "local_image_paths": null,
          "replied_at": "2025-06-16 02:06:13"
        }
      ]
    },
    {
      "id": 608,
      "post_uuid": "01977673-6b73-259a-c097-de578e3306eb",
      "title_ko": null,
      "title_zh": null,
      "content_ko": "어깨에 걸어둔 그림은 선물 받은 그림이에요? 😻😻... ",
      "content_zh": "肩上挂着的画是收到的礼物吗？ 😻😻...",
      "post_time": "2025-06-16 01:56:05",
      "image_count": 1,
      "image_urls": "https://dearimage.iu101.org/images/posts/post_608_1782196337.jpeg",
      "local_image_paths": "https://dearimage.iu101.org/images/posts/post_608_1782196337.jpeg",
      "likes": 0,
      "comments": 0,
      "views": 0,
      "board": "Dear. IU",
      "members_only": 0,
      "author_username": "이히주",
      "author_avatar": null,
      "author_local_avatar": null,
      "fan_comments": [],
      "direct_iu_replies": [
        {
          "id": 1435,
          "content_ko": "아 저건 반려그림이라는 개념으로 전시 보는 동안 한 작품을 가방처럼 저렇게 메고 전시를 관람하는 규칙이 있더라구요! 저는 저 그림을 골랐어요! 나갈 땐 반납!! ㅋㅋ",
          "content_zh": "啊，那个展览有个概念叫\"携带画作\"，就是看展的时候像背书包一样背着一幅作品参观！我选了那幅画！出去的时候要归还！！哈哈",
          "image_count": 0,
          "image_urls": null,
          "local_image_paths": null,
          "replied_at": "2025-06-16 02:07:43"
        }
      ]
    },
    {
      "id": 607,
      "post_uuid": "01977672-df01-fb3a-db11-3754b391f508",
      "title_ko": null,
      "title_zh": null,
      "content_ko": "애순이 이 그림 산 거예요~? 야무지게 메고 있네 🐥",
      "content_zh": "小顺子买了这幅画~？背得很认真呢 🐥",
      "post_time": "2025-06-16 01:55:29",
      "image_count": 1,
      "image_urls": "https://dearimage.iu101.org/images/posts/post_607_2097911030.jpeg",
      "local_image_paths": "https://dearimage.iu101.org/images/posts/post_607_2097911030.jpeg",
      "likes": 0,
      "comments": 0,
      "views": 0,
      "board": "Dear. IU",
      "members_only": 0,
      "author_username": "말랑찹쌀떡",
      "author_avatar": "https://dearimage.iu101.org/images/avatars/avatar_29.jpeg",
      "author_local_avatar": "https://dearimage.iu101.org/images/avatars/avatar_29.jpeg",
      "fan_comments": [],
      "direct_iu_replies": [
        {
          "id": 1434,
          "content_ko": "어쩌다 보니 저 그림은 안 샀는데 좋은 작품 너무 많아서 이 작품 저 작품 많이 구매했어요! 우리 동료 분들 드리고 싶어서",
          "content_zh": "结果那幅画没买，但因为好作品实在太多了，所以买了好多不同的作品！想送给我们的同事朋友们。",
          "image_count": 0,
          "image_urls": null,
          "local_image_paths": null,
          "replied_at": "2025-06-16 02:08:48"
        }
      ]
    },
    {
      "id": 606,
      "post_uuid": "01977671-939e-1dcf-10e3-2828c5806f43",
      "title_ko": null,
      "title_zh": null,
      "content_ko": "IU 언니! 지금까지 하신 헤어 컬러 중에 가장 마음에 드셨던 색은 어떤 거예요? 2015 년쯤에 하신 빨간 머리도 정말 예뻤는데... 혹시 다시 빨간 머리 볼 수 있을까요?",
      "content_zh": "IU 欧尼！您之前染过的发色中最喜欢的是哪一种呢？2015 年左右染的红色头发真的很好看……有机会再看到您染红头发吗？",
      "post_time": "2025-06-16 01:54:04",
      "image_count": 0,
      "image_urls": null,
      "local_image_paths": null,
      "likes": 0,
      "comments": 0,
      "views": 0,
      "board": "Dear. IU",
      "members_only": 0,
      "author_username": "Melody",
      "author_avatar": null,
      "author_local_avatar": null,
      "fan_comments": [],
      "direct_iu_replies": [
        {
          "id": 1433,
          "content_ko": "난 파란 머리 좋았어!!! ",
          "content_zh": "我喜欢蓝色头发！！！",
          "image_count": 0,
          "image_urls": null,
          "local_image_paths": null,
          "replied_at": "2025-06-16 02:09:23"
        }
      ]
    },
    {
      "id": 605,
      "post_uuid": "01977671-6a61-9343-9789-e0a7f9318389",
      "title_ko": null,
      "title_zh": null,
      "content_ko": "언니 나 출근해..\n요식업에서 일하는데 힘내라고 해줄 수 있어?🥺",
      "content_zh": "姐姐我去上班了.. 在餐饮业工作能给我加油吗？🥺",
      "post_time": "2025-06-16 01:53:53",
      "image_count": 0,
      "image_urls": null,
      "local_image_paths": null,
      "likes": 0,
      "comments": 0,
      "views": 0,
      "board": "Dear. IU",
      "members_only": 0,
      "author_username": "하원",
      "author_avatar": "https://dearimage.iu101.org/images/avatars/avatar_47.jpg",
      "author_local_avatar": "https://dearimage.iu101.org/images/avatars/avatar_47.jpg",
      "fan_comments": [],
      "direct_iu_replies": [
        {
          "id": 1432,
          "content_ko": "힘내애 오늘도 보람차게 하고 오자!! 진상 손님 있으면 다 일러!",
          "content_zh": "加油今天也要充实度过！！有无理客人的话全告诉我！",
          "image_count": 0,
          "image_urls": null,
          "local_image_paths": null,
          "replied_at": "2025-06-16 02:10:02"
        }
      ]
    },
    {
      "id": 604,
      "post_uuid": "01977670-e849-e93c-06e3-2b16697e10c7",
      "title_ko": null,
      "title_zh": null,
      "content_ko": "근데 인스타 사진은 언니가 직접 올리는 거야???",
      "content_zh": "但 Instagram 的照片是姐姐亲自上传的吗？",
      "post_time": "2025-06-16 01:53:20",
      "image_count": 0,
      "image_urls": null,
      "local_image_paths": null,
      "likes": 0,
      "comments": 0,
      "views": 0,
      "board": "Dear. IU",
      "members_only": 0,
      "author_username": "군꿀고구마",
      "author_avatar": null,
      "author_local_avatar": null,
      "fan_comments": [],
      "direct_iu_replies": [
        {
          "id": 1431,
          "content_ko": "응응 내가 직접 골라서!",
          "content_zh": "嗯嗯我自己选的！",
          "image_count": 0,
          "image_urls": null,
          "local_image_paths": null,
          "replied_at": "2025-06-16 02:10:37"
        }
      ]
    },
    {
      "id": 603,
      "post_uuid": "01977670-8db6-3aca-46f1-b4ffd7b7b453",
      "title_ko": null,
      "title_zh": null,
      "content_ko": "제주도 언제 다녀오신거애요???",
      "content_zh": "什么时候去济州岛回来的？",
      "post_time": "2025-06-16 01:52:57",
      "image_count": 0,
      "image_urls": null,
      "local_image_paths": null,
      "likes": 0,
      "comments": 0,
      "views": 0,
      "board": "Dear. IU",
      "members_only": 0,
      "author_username": "뮈푀",
      "author_avatar": null,
      "author_local_avatar": null,
      "fan_comments": [],
      "direct_iu_replies": [
        {
          "id": 1430,
          "content_ko": "그저께 😛 당일치기로 슥삭 다녀옴!!",
          "content_zh": "前天😛当天往返匆匆逛了一圈！！",
          "image_count": 0,
          "image_urls": null,
          "local_image_paths": null,
          "replied_at": "2025-06-16 02:11:22"
        }
      ]
    },
    {
      "id": 602,
      "post_uuid": "01977670-50c5-1a0f-4bdd-59e7b0fb45a2",
      "title_ko": null,
      "title_zh": null,
      "content_ko": "제주 할망 그림 다 너무 예쁘고 따수워 ♥️ 제주 가서 할머님들이랑 무슨 대화를 나눴어?? 유애나는 징니의 모든것이 궁금하다ㅠㅠ🥹",
      "content_zh": "济州奶奶们的画都太美了，很温暖♥️ 去济州和奶奶们聊了什么呀？유애나对징니的一切都很好奇ㅠㅠ🥹",
      "post_time": "2025-06-16 01:52:41",
      "image_count": 0,
      "image_urls": null,
      "local_image_paths": null,
      "likes": 0,
      "comments": 0,
      "views": 0,
      "board": "Dear. IU",
      "members_only": 0,
      "author_username": "징쨩만세",
      "author_avatar": null,
      "author_local_avatar": null,
      "fan_comments": [],
      "direct_iu_replies": [
        {
          "id": 1429,
          "content_ko": "할머님들 살아오신 얘기, 그림 시작하신 계기, 그림에 담긴 할망들의 삶, 앞으로의 목표 등.. \n유익했어! ",
          "content_zh": "奶奶们的人生故事，开始画画的契机，画中蕴含的奶奶们的生活，今后的目标等..",
          "image_count": 0,
          "image_urls": null,
          "local_image_paths": null,
          "replied_at": "2025-06-16 02:12:43"
        }
      ]
    },
    {
      "id": 601,
      "post_uuid": "0197766e-55da-f599-a3f6-adf8b5dd542f",
      "title_ko": null,
      "title_zh": null,
      "content_ko": "IU-nim, Is there a chance you read this message? 💗 sending you lots of love from across the world! 🌎 Your music is my healing source! 🌸 Thank you!!! I’m enjoying the Flower Bookmark 3 album! 💗",
      "content_zh": "IU，有机会看到这条消息吗？💗 从世界各地给你送去满满的爱！🌎 你的音乐是我的治愈之源！🌸 谢谢！！！ 我正在享受《Flower Bookmark 3》这张专辑！💗",
      "post_time": "2025-06-16 01:50:31",
      "image_count": 0,
      "image_urls": null,
      "local_image_paths": null,
      "likes": 0,
      "comments": 0,
      "views": 0,
      "board": "Dear. IU",
      "members_only": 0,
      "author_username": "IUCheers",
      "author_avatar": null,
      "author_local_avatar": null,
      "fan_comments": [],
      "direct_iu_replies": [
        {
          "id": 1428,
          "content_ko": "💗🙂‍↕️",
          "content_zh": "💗🙂‍↕️",
          "image_count": 0,
          "image_urls": null,
          "local_image_paths": null,
          "replied_at": "2025-06-16 02:13:22"
        }
      ]
    },
    {
      "id": 600,
      "post_uuid": "0197766d-7266-2577-0e40-e187a6187ea8",
      "title_ko": null,
      "title_zh": null,
      "content_ko": "제주할망분들 그림 실제로 보니까 어땠어요??",
      "content_zh": "济州奶奶们的画实际看到是什么感觉？",
      "post_time": "2025-06-16 01:49:33",
      "image_count": 0,
      "image_urls": null,
      "local_image_paths": null,
      "likes": 0,
      "comments": 0,
      "views": 0,
      "board": "Dear. IU",
      "members_only": 0,
      "author_username": "뮈푀",
      "author_avatar": null,
      "author_local_avatar": null,
      "fan_comments": [],
      "direct_iu_replies": [
        {
          "id": 1427,
          "content_ko": "예술적이고 굉장히 화려해..!!",
          "content_zh": "很有艺术性而且非常华丽..！！",
          "image_count": 0,
          "image_urls": null,
          "local_image_paths": null,
          "replied_at": "2025-06-16 02:13:57"
        }
      ]
    },
    {
      "id": 599,
      "post_uuid": "0197766b-6897-a57e-9ee9-7e76b836b7fd",
      "title_ko": null,
      "title_zh": null,
      "content_ko": "다음 콘서트때 요건 꼭 넣고 싶다하는 꽃셋 노래 있나요??",
      "content_zh": "下次演唱会有没有想一定要加入的花束歌？",
      "post_time": "2025-06-16 01:47:20",
      "image_count": 0,
      "image_urls": null,
      "local_image_paths": null,
      "likes": 0,
      "comments": 0,
      "views": 0,
      "board": "Dear. IU",
      "members_only": 0,
      "author_username": "뮈푀",
      "author_avatar": null,
      "author_local_avatar": null,
      "fan_comments": [],
      "direct_iu_replies": [
        {
          "id": 1426,
          "content_ko": "네모의 꿈!",
          "content_zh": "正方形的梦想！",
          "image_count": 0,
          "image_urls": null,
          "local_image_paths": null,
          "replied_at": "2025-06-16 02:14:33"
        }
      ]
    },
    {
      "id": 598,
      "post_uuid": "01977669-f6f1-2a20-79be-2bd19ded623a",
      "title_ko": null,
      "title_zh": null,
      "content_ko": "언니~~~내 프사 봐봐요!!!🎀✨\n나 예쁘지 않아요?? 예쁘죠?!!ㅎㅎ\n내 친구들은 내가 예쁘다고 칭찬하지 않아..💢\n언니도 내 친구잖아요!그럼 언니가 나를 칭찬해 줘요🥺",
      "content_zh": "姐姐~~~快看看我的头像！！🎀✨\n我是不是很好看？很好看对吧？！呵呵\n我的朋友们都不夸我漂亮..💢\n姐姐也是我的朋友啊！那姐姐来夸夸我嘛🥺",
      "post_time": "2025-06-16 01:45:45",
      "image_count": 0,
      "image_urls": null,
      "local_image_paths": null,
      "likes": 0,
      "comments": 0,
      "views": 0,
      "board": "Dear. IU",
      "members_only": 0,
      "author_username": "注销的用户",
      "author_avatar": null,
      "author_local_avatar": null,
      "fan_comments": [],
      "direct_iu_replies": [
        {
          "id": 1425,
          "content_ko": "이쁘기만 하구만 내가 칭찬 10인분 해줄게!!",
          "content_zh": "只是漂亮而已，我要给你10倍的夸奖！！",
          "image_count": 0,
          "image_urls": null,
          "local_image_paths": null,
          "replied_at": "2025-06-16 02:15:22"
        }
      ]
    },
    {
      "id": 597,
      "post_uuid": "01977657-994e-e446-7aa9-1bd984006ea0",
      "title_ko": null,
      "title_zh": null,
      "content_ko": "내가 처음으로 쓴 한국어는 너의 이름이야, 언니\n언니가 내가 쓴 걸 어떻게 생각해? 칭찬 좀 달라고～🥹",
      "content_zh": "我第一次写的韩语就是你的名字，姐姐 姐姐觉得我写得怎么样？求夸奖～🥹",
      "post_time": "2025-06-16 01:25:41",
      "image_count": 1,
      "image_urls": "https://dearimage.iu101.org/images/posts/post_597_366190415.jpeg",
      "local_image_paths": "https://dearimage.iu101.org/images/posts/post_597_366190415.jpeg",
      "likes": 0,
      "comments": 0,
      "views": 0,
      "board": "Dear. IU",
      "members_only": 0,
      "author_username": "IU小恩",
      "author_avatar": "https://dearimage.iu101.org/images/avatars/avatar_50.jpeg",
      "author_local_avatar": "https://dearimage.iu101.org/images/avatars/avatar_50.jpeg",
      "fan_comments": [],
      "direct_iu_replies": [
        {
          "id": 1424,
          "content_ko": "나보다 잘 써.",
          "content_zh": "写得比我好。",
          "image_count": 0,
          "image_urls": null,
          "local_image_paths": null,
          "replied_at": "2025-06-16 02:16:31"
        }
      ]
    }
  ]
}
