{
  "page": 13,
  "totalPages": 45,
  "total": 895,
  "data": [
    {
      "id": 309,
      "post_uuid": "0197fda2-20ed-94f7-5e22-dd875d05e286",
      "title_ko": null,
      "title_zh": null,
      "content_ko": "언니는 식욕🤤과 수면욕😪 어느 쪽이 더 강해요?",
      "content_zh": "姐姐食欲🤤和睡眠欲😪哪个更强？",
      "post_time": "2025-07-12 07:55:50",
      "image_count": 0,
      "image_urls": null,
      "local_image_paths": null,
      "likes": 0,
      "comments": 0,
      "views": 0,
      "board": "Dear. IU",
      "members_only": 0,
      "author_username": "채현^ㅅ^",
      "author_avatar": "https://dearimage.iu101.org/images/avatars/avatar_366.jpeg",
      "author_local_avatar": "https://dearimage.iu101.org/images/avatars/avatar_366.jpeg",
      "fan_comments": [],
      "direct_iu_replies": [
        {
          "id": 1053,
          "content_ko": "수면욕이고 지금 귀하디 귀한 낮 퇴근 중인데 집 가자마자 일단 씻고 누울 예정!! 😍",
          "content_zh": "想睡觉了，现在正珍贵地在白天下班时间，一到家就先洗澡然后躺下！！ 😍",
          "image_count": 0,
          "image_urls": null,
          "local_image_paths": null,
          "replied_at": "2025-07-12 08:02:22"
        }
      ]
    },
    {
      "id": 308,
      "post_uuid": "0197fda0-4e4c-c47b-f129-514ca8d90f77",
      "title_ko": null,
      "title_zh": null,
      "content_ko": "언니는 오늘 일이 많이 바빴어요? 힘들면 쉬고, 못 버티면 뒤돌아보고, 언니 뒤에서 계속 응원할게🫶 그래도 안되면 버블티 한잔 하자! 기분 좋은거 가득 전해줄께🧋",
      "content_zh": "姐姐今天工作很忙吗？累了就休息，撑不住就回头看看，我会一直在你身后为你加油🫶 如果还是不行就喝杯珍珠奶茶！把美好的心情都传递给你🧋",
      "post_time": "2025-07-12 07:53:50",
      "image_count": 1,
      "image_urls": "https://dearimage.iu101.org/images/posts/post_308_387396868.jpg",
      "local_image_paths": "https://dearimage.iu101.org/images/posts/post_308_387396868.jpg",
      "likes": 0,
      "comments": 0,
      "views": 0,
      "board": "Dear. IU",
      "members_only": 0,
      "author_username": "버블티",
      "author_avatar": "https://dearimage.iu101.org/images/avatars/avatar_3.jpg",
      "author_local_avatar": "https://dearimage.iu101.org/images/avatars/avatar_3.jpg",
      "fan_comments": [],
      "direct_iu_replies": [
        {
          "id": 1052,
          "content_ko": "아 오늘 일이 착착착 진행돼서 빨리 끝났어!! 💃🥰",
          "content_zh": "啊今天事情进展顺利，早早结束了！！💃🥰",
          "image_count": 0,
          "image_urls": null,
          "local_image_paths": null,
          "replied_at": "2025-07-12 08:04:46"
        }
      ]
    },
    {
      "id": 307,
      "post_uuid": "0197fd8c-9cbd-9526-665e-bc94646aaf73",
      "title_ko": null,
      "title_zh": null,
      "content_ko": "하... 진짜 우짜징 ?? 나 진짜 어제도 기깔나게 맛있는 저녁 먹고 싶어서 퇴근하자마자 뭐먹을지 고민했는데 결국 8시 반까지 고민하다가 편털해써,,, 그래서 오늘은 진~~짜루 맛있는거 먹고싶은데 저녁 추천햐조 웅니ㅠㅜ 언니는 뭐먹어여...? 이런 결정못하는 애나에게 맛깔나는 저녁 추천 좀😭",
      "content_zh": "哈... 真是的怎么办啊？昨天我也特别想吃顿好吃的晚餐，一下班就开始纠结吃什么，结果一直想到八点半还是没决定好就随便吃了点...所以今天真的特别想吃点好的，求推荐晚餐呜呜呜 姐姐你吃什么呀...？给这个做不了决定的我推荐点好吃的吧😭",
      "post_time": "2025-07-12 07:32:20",
      "image_count": 0,
      "image_urls": null,
      "local_image_paths": null,
      "likes": 0,
      "comments": 0,
      "views": 0,
      "board": "Dear. IU",
      "members_only": 0,
      "author_username": "마초디앙",
      "author_avatar": null,
      "author_local_avatar": null,
      "fan_comments": [],
      "direct_iu_replies": [
        {
          "id": 1051,
          "content_ko": "편털이 뭐지? 저녁 메뉴는~~~~~~ 샤브샤브, 칼국수, 순두부찌개, 짜파게티, 돈까스 중에 하나 어때?!",
          "content_zh": "偏爱什么？晚餐菜单~~~~~~ 火锅、刀削面、嫩豆腐汤、炸酱乌冬面、猪排，选一个怎么样？！",
          "image_count": 0,
          "image_urls": null,
          "local_image_paths": null,
          "replied_at": "2025-07-12 08:09:36"
        }
      ]
    },
    {
      "id": 306,
      "post_uuid": "0197fd8a-d27f-1170-8098-5b46ea5d9784",
      "title_ko": null,
      "title_zh": null,
      "content_ko": "언니 요즘엔 습하지 않고 덥기만 해서 좀 괜찮은데 곧 습한 날씨가 돌아온다고 해요ㅠ.ㅠ 이온 음료로 수분 충전 잘 하구 양산 들고 다니고 그늘이나 에어컨 아래에서 휴식 취해요 🥲",
      "content_zh": "姐姐，最近虽然闷热，但还不是特别潮湿，还算好一些，不过听说很快又要变得湿热了ㅠ.ㅠ 要多喝离子饮料补充水分，随身带着遮阳伞，在阴凉处或空调房里好好休息哦 🥲",
      "post_time": "2025-07-12 07:30:22",
      "image_count": 0,
      "image_urls": null,
      "local_image_paths": null,
      "likes": 0,
      "comments": 0,
      "views": 0,
      "board": "Dear. IU",
      "members_only": 0,
      "author_username": "채린",
      "author_avatar": null,
      "author_local_avatar": null,
      "fan_comments": [],
      "direct_iu_replies": [
        {
          "id": 1050,
          "content_ko": "요즘엔 습하지 않다는 게 무슨 말이야? 😀?",
          "content_zh": "最近不潮湿是什么意思？😀？",
          "image_count": 0,
          "image_urls": null,
          "local_image_paths": null,
          "replied_at": "2025-07-12 08:10:25"
        }
      ]
    },
    {
      "id": 305,
      "post_uuid": "0197fd8a-8eac-dbd1-1ff3-55a4640882c0",
      "title_ko": null,
      "title_zh": null,
      "content_ko": "지은아 요즘 잘 때 냉방이 몇 도까지 조절되나요?",
      "content_zh": "知恩啊，最近睡觉时空调能调到几度？",
      "post_time": "2025-07-12 07:30:05",
      "image_count": 0,
      "image_urls": null,
      "local_image_paths": null,
      "likes": 0,
      "comments": 0,
      "views": 0,
      "board": "Dear. IU",
      "members_only": 0,
      "author_username": "검문문",
      "author_avatar": null,
      "author_local_avatar": null,
      "fan_comments": [],
      "direct_iu_replies": [
        {
          "id": 1049,
          "content_ko": "26도쯤이 베스트..?",
          "content_zh": "26度左右最好..？",
          "image_count": 0,
          "image_urls": null,
          "local_image_paths": null,
          "replied_at": "2025-07-12 08:11:21"
        }
      ]
    },
    {
      "id": 304,
      "post_uuid": "0197fd67-27b4-0b9a-3c7d-5b0b03e9f0b9",
      "title_ko": null,
      "title_zh": null,
      "content_ko": "지은언니, 혹시 영화 ‘엘리오’ 봤어요?\n저는 며칠 전에 봤는데… 이상하게 마음 한켠이 조용히 울리는 느낌이었어요.\n세상에 잘 안 어울리는 기분, 말하지 않아도 이해받고 싶은 마음…\n엘리오를 보면서 괜히 저를 자꾸 겹쳐 보게 되더라고요.\n그래도 그 아이가 결국 따뜻한 손길을 만나듯, 언니의 음악이나 말이\n늘 그런 존재처럼 느껴져서 참 고마웠어요\n\n요즘은 괜찮으면서도, 묘하게 혼자인 기분이 드는 날들이지만\n오늘 하루도 언니에게 따뜻하고 부드럽게 흘러가길 바랄게요💗",
      "content_zh": "知恩姐姐，你看过电影《请以你的名字呼唤我》吗？\n几天前我看过了...奇怪的是心里某个角落有种静静颤动的感觉。\n那种与世界格格不入的心情，希望不用说也能被理解的心意...\n看《请以你的名字呼唤我》的时候，总是不由自主地把自己代入进去。\n不过就像那个孩子最终遇到了温暖的双手一样，姐姐的音乐和话语\n总让我觉得是那样的存在，真的非常感谢。\n\n最近虽然还算平静，但总有些莫名感到孤独的日子，\n今天也希望能有温暖柔和的时光流淌在姐姐身边💗",
      "post_time": "2025-07-12 06:51:25",
      "image_count": 0,
      "image_urls": null,
      "local_image_paths": null,
      "likes": 0,
      "comments": 0,
      "views": 0,
      "board": "Dear. IU",
      "members_only": 0,
      "author_username": "융융",
      "author_avatar": null,
      "author_local_avatar": null,
      "fan_comments": [],
      "direct_iu_replies": [
        {
          "id": 1048,
          "content_ko": "아 나 그거 보고 싶었는데 아직 못 봤네...! 🥺\n기회가 되면 꼭 볼게요!! 고마워요💜",
          "content_zh": "啊，那个我好想看，但还没看到呢...！🥺\n有机会的话一定去看！谢谢啦💜",
          "image_count": 0,
          "image_urls": null,
          "local_image_paths": null,
          "replied_at": "2025-07-12 08:14:23"
        }
      ]
    },
    {
      "id": 303,
      "post_uuid": "0197fd31-3a34-45e9-29b9-64d2028e50a8",
      "title_ko": null,
      "title_zh": null,
      "content_ko": "언니 손톱 이렇게 짧게 유지하려면 자주 깎아야 하죠? 며칠마다 한 번씩 해요?",
      "content_zh": "姐姐，指甲要保持这么短的话，得经常修剪吧？是每隔几天剪一次吗？",
      "post_time": "2025-07-12 05:52:31",
      "image_count": 0,
      "image_urls": null,
      "local_image_paths": null,
      "likes": 0,
      "comments": 0,
      "views": 0,
      "board": "Dear. IU",
      "members_only": 0,
      "author_username": "융융",
      "author_avatar": null,
      "author_local_avatar": null,
      "fan_comments": [],
      "direct_iu_replies": [
        {
          "id": 1047,
          "content_ko": "4-5일에 한 번인 거 같아요 \n근데 저처럼 너무 바짝 깎는 거 손톱에 별로 안 좋대요 🤫",
          "content_zh": "大概4-5天一次吧\n不过像我这样刮得太干净对指甲不好 🤫",
          "image_count": 0,
          "image_urls": null,
          "local_image_paths": null,
          "replied_at": "2025-07-12 08:17:23"
        }
      ]
    },
    {
      "id": 302,
      "post_uuid": "0197fd1c-792c-6a67-8c8f-65750ccb75c2",
      "title_ko": null,
      "title_zh": null,
      "content_ko": "평소에는 이모티콘 잘 안 쓴다면서 팬들한텐 무심해 보일까 봐 자주 써주다니 쏘 감동.. 평소 말투로 답장하면 어떨지 궁금해지네 !",
      "content_zh": "平时不是不太用表情包吗，却因为担心对粉丝们显得冷淡而经常使用，真是让人感动……好奇你会不会用平时的语气来回复呢！",
      "post_time": "2025-07-12 05:29:51",
      "image_count": 0,
      "image_urls": null,
      "local_image_paths": null,
      "likes": 0,
      "comments": 0,
      "views": 0,
      "board": "Dear. IU",
      "members_only": 0,
      "author_username": "말랑찹쌀떡",
      "author_avatar": "https://dearimage.iu101.org/images/avatars/avatar_29.jpeg",
      "author_local_avatar": "https://dearimage.iu101.org/images/avatars/avatar_29.jpeg",
      "fan_comments": [],
      "direct_iu_replies": [
        {
          "id": 1046,
          "content_ko": "언제 한 번 날 잡고 평소 말투로만 답장하기 해볼까 😀",
          "content_zh": "什么时候找个时间只用平时说话的语气回复试试 😀",
          "image_count": 0,
          "image_urls": null,
          "local_image_paths": null,
          "replied_at": "2025-07-12 08:18:50"
        }
      ]
    },
    {
      "id": 301,
      "post_uuid": "0197fd0f-0df3-f05f-7686-f5961efa1c86",
      "title_ko": null,
      "title_zh": null,
      "content_ko": "언니 너무 너무 예뻐요💝\n근데 저 뒤에 보이는 병에 담긴 건 뭐예용 !?\n숟가락도 있는 거 보니 뭔가 떠 먹는 건가아 ~!? (근데 그건 또 아닌 것 같기도 하구 ...🤔)",
      "content_zh": "姐姐真的好漂亮呀💝\n不过我看到你身后那个瓶子里装的是什么呀！？\n看着还有勺子，难道是可以舀着吃的东西～！？（不过又感觉好像不是...🤔）",
      "post_time": "2025-07-12 05:15:11",
      "image_count": 2,
      "image_urls": "https://dearimage.iu101.org/images/posts/post_301_1639116349.jpeg",
      "local_image_paths": "https://dearimage.iu101.org/images/posts/post_301_1639116349.jpeg|https://dearimage.iu101.org/images/posts/post_301_1638810531.jpeg",
      "likes": 0,
      "comments": 0,
      "views": 0,
      "board": "Dear. IU",
      "members_only": 0,
      "author_username": "♥ㅏ꼬운유애나아효밍♥",
      "author_avatar": "https://dearimage.iu101.org/images/avatars/avatar_197.gif",
      "author_local_avatar": "https://dearimage.iu101.org/images/avatars/avatar_197.gif",
      "fan_comments": [],
      "direct_iu_replies": [
        {
          "id": 1045,
          "content_ko": "내 거 아니라서 잘 모름 🤫 \n(근데 아마 음료수인 듯? 숟가락은 저 병 때문은 아니고 도시락 때문에 저기 있었나 봐)",
          "content_zh": "不是我的，所以不太清楚 🤫\n（不过好像是饮料？勺子不是因为那个瓶子放那里的，好像是因为便当盒才放在那里的）",
          "image_count": 0,
          "image_urls": null,
          "local_image_paths": null,
          "replied_at": "2025-07-12 08:21:16"
        }
      ]
    },
    {
      "id": 300,
      "post_uuid": "0197fcf8-0b55-9cf5-d6b8-a29907c9ea7d",
      "title_ko": null,
      "title_zh": null,
      "content_ko": "지은언니~ 유애나언니랑 밥먹으로 왔어요!\n점심메뉴는 김밥😂🍚\n무슨 김밥인지 맞춰보세요옹☺️🤔",
      "content_zh": "知恩姐姐~ 和有爱姐姐一起来吃饭啦！\n午餐菜单是紫菜包饭😂🍚\n猜猜是什么口味的紫菜包饭吧☺️🤔",
      "post_time": "2025-07-12 04:50:03",
      "image_count": 1,
      "image_urls": "https://dearimage.iu101.org/images/posts/post_300_1958218297.jpeg",
      "local_image_paths": "https://dearimage.iu101.org/images/posts/post_300_1958218297.jpeg",
      "likes": 0,
      "comments": 0,
      "views": 0,
      "board": "Dear. IU",
      "members_only": 0,
      "author_username": "김현아",
      "author_avatar": null,
      "author_local_avatar": null,
      "fan_comments": [],
      "direct_iu_replies": [
        {
          "id": 1044,
          "content_ko": "아마도 참깨김밥 아닐까..?",
          "content_zh": "可能是芝麻紫菜包饭吧..？",
          "image_count": 0,
          "image_urls": null,
          "local_image_paths": null,
          "replied_at": "2025-07-12 08:23:30"
        }
      ]
    },
    {
      "id": 312,
      "post_uuid": "0197f72f-d89b-613b-f91c-72eefb33159b",
      "title_ko": null,
      "title_zh": null,
      "content_ko": "아... 언니, 오늘 중국 후난은 진짜 더워요! 언니는 거기도 더운가요? 🥵",
      "content_zh": "啊... 姐姐，今天中国湖南真的很热！姐姐那边也很热吗？🥵",
      "post_time": "2025-07-11 01:53:17",
      "image_count": 0,
      "image_urls": null,
      "local_image_paths": null,
      "likes": 0,
      "comments": 0,
      "views": 0,
      "board": "Dear. IU",
      "members_only": 0,
      "author_username": "SUN.U",
      "author_avatar": null,
      "author_local_avatar": null,
      "fan_comments": [],
      "direct_iu_replies": [
        {
          "id": 1056,
          "content_ko": "내가\n지금 후난 날씨 찾아 봤는데 서울보다 선선한데!!!?",
          "content_zh": "我刚才查了一下湖南的天气，比首尔还要凉快吗？？？",
          "image_count": 0,
          "image_urls": null,
          "local_image_paths": null,
          "replied_at": "2025-07-11 02:05:43"
        }
      ]
    },
    {
      "id": 320,
      "post_uuid": "0197f4cd-fdfd-59bb-31ed-3fb104eda1a6",
      "title_ko": null,
      "title_zh": null,
      "content_ko": "언니는 왜 이 이모티콘을 자주 보낼까? 🥴\n언니는 언제쯤 나한테 답장할 수 있을까? 🥺\n너무 슬퍼요... 언니랑 오프라인에서 못 만날 것 같아요. 어떡해요? 🥺",
      "content_zh": "姐姐为什么总是发这个表情？🥴\n姐姐什么时候才能回我消息呢？🥺\n好难过...好像不能和姐姐线下见面了，怎么办？🥺",
      "post_time": "2025-07-10 14:47:10",
      "image_count": 0,
      "image_urls": null,
      "local_image_paths": null,
      "likes": 0,
      "comments": 0,
      "views": 0,
      "board": "Dear. IU",
      "members_only": 0,
      "author_username": "dlwlrmANEAU",
      "author_avatar": null,
      "author_local_avatar": null,
      "fan_comments": [],
      "direct_iu_replies": [
        {
          "id": 1064,
          "content_ko": "무심해 보일까 봐🙂‍↕️",
          "content_zh": "怕看起来太冷淡🙂‍↕️",
          "image_count": 0,
          "image_urls": null,
          "local_image_paths": null,
          "replied_at": "2025-07-10 14:48:34"
        }
      ]
    },
    {
      "id": 319,
      "post_uuid": "0197f4cd-33f4-148e-745e-7090e06d491c",
      "title_ko": null,
      "title_zh": null,
      "content_ko": "언니!!! >.< 나 친구들이랑 광란의 밤 보내구잇러… 이제 곧 고닥교 가서 거의 마지막으로 노는거야…ㅋㅋ큐ㅠㅠㅠㅠㅠㅠ",
      "content_zh": "姐姐！！！>.< 我和朋友们正在狂欢之夜... 马上就要毕业了，这是最后一次玩了...哈哈呜呜呜呜呜呜",
      "post_time": "2025-07-10 14:46:18",
      "image_count": 1,
      "image_urls": "https://dearimage.iu101.org/images/posts/post_319_1309953156.jpeg",
      "local_image_paths": "https://dearimage.iu101.org/images/posts/post_319_1309953156.jpeg",
      "likes": 0,
      "comments": 0,
      "views": 0,
      "board": "Dear. IU",
      "members_only": 0,
      "author_username": "하음",
      "author_avatar": null,
      "author_local_avatar": null,
      "fan_comments": [],
      "direct_iu_replies": [
        {
          "id": 1063,
          "content_ko": "혹시 몰라서 사진 다 확대해 봤어 😌 아주 건전한 시간 보내고 있네 그래도..시간이 좀 늦지 않았어? 🥺 고닥교 가면 더 놀 시간이 없긴 하겠지만.. 그래도 집에 가자 이제",
          "content_zh": "以防万一我把照片都放大看了 😌 正在度过很健康的时间呢，不过...时间是不是有点晚了？ 🥺 去高速客运站的话确实没时间再玩了...不过还是回家吧现在",
          "image_count": 0,
          "image_urls": null,
          "local_image_paths": null,
          "replied_at": "2025-07-10 14:55:20"
        }
      ]
    },
    {
      "id": 318,
      "post_uuid": "0197f4cd-296d-ecb5-145d-12a2b0d0793d",
      "title_ko": null,
      "title_zh": null,
      "content_ko": "언니 오늘 모의고사 보고온 고삼에게 수고했다 한마디만 해조 🥺",
      "content_zh": "姐姐对今天考模拟考试的高三学生说声辛苦了 🥺",
      "post_time": "2025-07-10 14:46:15",
      "image_count": 0,
      "image_urls": null,
      "local_image_paths": null,
      "likes": 0,
      "comments": 0,
      "views": 0,
      "board": "Dear. IU",
      "members_only": 0,
      "author_username": "응묘",
      "author_avatar": "https://dearimage.iu101.org/images/avatars/avatar_229.jpg",
      "author_local_avatar": "https://dearimage.iu101.org/images/avatars/avatar_229.jpg",
      "fan_comments": [],
      "direct_iu_replies": [
        {
          "id": 1062,
          "content_ko": "울 응묘 고생 많았다 💜",
          "content_zh": "我们的应喵辛苦了 💜",
          "image_count": 0,
          "image_urls": null,
          "local_image_paths": null,
          "replied_at": "2025-07-10 14:55:53"
        }
      ]
    },
    {
      "id": 317,
      "post_uuid": "0197f4cd-2619-8000-0ec9-0c7462044ddf",
      "title_ko": null,
      "title_zh": null,
      "content_ko": "언니 여름에도 긴팔 긴바지 파자마 입어??🛌",
      "content_zh": "姐姐夏天也穿长袖长裤睡衣吗？🛌",
      "post_time": "2025-07-10 14:46:14",
      "image_count": 0,
      "image_urls": null,
      "local_image_paths": null,
      "likes": 0,
      "comments": 0,
      "views": 0,
      "board": "Dear. IU",
      "members_only": 0,
      "author_username": "다연",
      "author_avatar": "https://dearimage.iu101.org/images/avatars/avatar_100.jpeg",
      "author_local_avatar": "https://dearimage.iu101.org/images/avatars/avatar_100.jpeg",
      "fan_comments": [],
      "direct_iu_replies": [
        {
          "id": 1061,
          "content_ko": "응 거의 그런 편이야!",
          "content_zh": "嗯差不多是那种类型！",
          "image_count": 0,
          "image_urls": null,
          "local_image_paths": null,
          "replied_at": "2025-07-10 14:56:12"
        }
      ]
    },
    {
      "id": 316,
      "post_uuid": "0197f4cd-0379-e57a-7b5e-17743369cc72",
      "title_ko": null,
      "title_zh": null,
      "content_ko": "언니! 내가 처음으로 개발 프로젝트에 팀장을 맡게 됐어!! 아직 서투른데 팀장직을 맡아서 약간 부담이 되는데 언니가 응원 한번만 해주면 씩씩하게 전부 잘 해낼수 있을거가타!!🥹🤍🤍",
      "content_zh": "姐姐！我第一次在开发项目中当上组长了！！虽然还很生疏，担任组长一职让我有点负担，但只要姐姐为我加油一次，我就有信心能好好完成所有工作！！🥹🤍🤍",
      "post_time": "2025-07-10 14:46:05",
      "image_count": 0,
      "image_urls": null,
      "local_image_paths": null,
      "likes": 0,
      "comments": 0,
      "views": 0,
      "board": "Dear. IU",
      "members_only": 0,
      "author_username": "뿅아리둘",
      "author_avatar": null,
      "author_local_avatar": null,
      "fan_comments": [],
      "direct_iu_replies": [
        {
          "id": 1060,
          "content_ko": "히야히씨!!! 팀장이라니!!!! 내 새끼 대단해 뿌듯뿌!!!! ❤️❤️",
          "content_zh": "哇塞！！组长什么的！！我的孩子真厉害 很自豪！！ ❤️❤️",
          "image_count": 0,
          "image_urls": null,
          "local_image_paths": null,
          "replied_at": "2025-07-10 14:58:57"
        }
      ]
    },
    {
      "id": 315,
      "post_uuid": "0197f4cc-fd60-98bb-afe6-268be51eb11b",
      "title_ko": null,
      "title_zh": null,
      "content_ko": "언니 내가 오늘 오빠랑 사정이 있어서 두 번째 또 방을 바꿨거든 근데 옮기다가 그만.. 언니 포스터가 좀 찢겼지 뭐야ㅠㅠㅠ 옮길 때부터 굿즈는 최대한 조심하면서 딴 사람도 건들지 못하게 했는데 결국 내가.. 또 그랬어 어제도 화장품 깨뜨리고 그 전날엔 컵도 깼는데 나 마이너스 손인가봐..ㅠㅠㅠ",
      "content_zh": "姐姐，我今天因为和欧巴有些事情，又换了第二次房间。可是搬的时候不小心……姐姐的海报被撕破了一些呜呜呜……搬的时候我已经尽量小心拿周边了，也防止别人碰，结果还是我……又搞砸了。昨天打碎了化妆品，前天还摔破了杯子，我好像真的是个扫把星呜呜呜……",
      "post_time": "2025-07-10 14:46:04",
      "image_count": 0,
      "image_urls": null,
      "local_image_paths": null,
      "likes": 0,
      "comments": 0,
      "views": 0,
      "board": "Dear. IU",
      "members_only": 0,
      "author_username": "최가영",
      "author_avatar": null,
      "author_local_avatar": null,
      "fan_comments": [],
      "direct_iu_replies": [
        {
          "id": 1059,
          "content_ko": "뭔가 다 액땜되고 있나 봐!! 더 안 좋은 일이 생길 뻔한 걸 가영이 손이 다 액땜하고 있는 듯\n속상하겠지만 어찌 보면 살짝 찢어진 포스터 오히려 감성 있어😌",
          "content_zh": "好像什么都在化解厄运！差点发生更不好的事情，嘉英的手好像把厄运都化解了 虽然很烦人，但换个角度看，撕破的海报反而有感觉😌",
          "image_count": 0,
          "image_urls": null,
          "local_image_paths": null,
          "replied_at": "2025-07-10 15:01:03"
        }
      ]
    },
    {
      "id": 314,
      "post_uuid": "0197f4cc-e34e-5a7a-9e51-58805778bfc9",
      "title_ko": null,
      "title_zh": null,
      "content_ko": "언니 운동 실컷 다~~ 하구 왔는데 넘 배고프넹.... 어쩌짛ㅎㅎㅎ",
      "content_zh": "姐姐我运动完回来了，好饿啊.... 怎么办哈哈",
      "post_time": "2025-07-10 14:45:57",
      "image_count": 0,
      "image_urls": null,
      "local_image_paths": null,
      "likes": 0,
      "comments": 0,
      "views": 0,
      "board": "Dear. IU",
      "members_only": 0,
      "author_username": "당도100감귤",
      "author_avatar": null,
      "author_local_avatar": null,
      "fan_comments": [],
      "direct_iu_replies": [
        {
          "id": 1058,
          "content_ko": "참는 게 좋을 듯~~~~😍",
          "content_zh": "还是忍着比较好~~~~😍",
          "image_count": 0,
          "image_urls": null,
          "local_image_paths": null,
          "replied_at": "2025-07-10 15:01:34"
        }
      ]
    },
    {
      "id": 313,
      "post_uuid": "0197f4cc-c7c4-edc8-58c9-6031a40ece8c",
      "title_ko": null,
      "title_zh": null,
      "content_ko": "언니! 내 이름에도 ‘이유’가 들어가거든! 언니도 이유자나 헤헤 그래서 투이유얌 언니가 지어줄 별명은 없을까?😆",
      "content_zh": "姐姐！我名字里也有'理由'！姐姐也是理由子嘿嘿 所以我们是two you吗？姐姐能给我起个昵称吗？😆",
      "post_time": "2025-07-10 14:45:50",
      "image_count": 0,
      "image_urls": null,
      "local_image_paths": null,
      "likes": 0,
      "comments": 0,
      "views": 0,
      "board": "Dear. IU",
      "members_only": 0,
      "author_username": "투이유",
      "author_avatar": null,
      "author_local_avatar": null,
      "fan_comments": [],
      "direct_iu_replies": [
        {
          "id": 1057,
          "content_ko": "이유진 이유정 이유빈 이유미 이유경 이유성 이유주",
          "content_zh": "李珠真 李珠静 李珠斌 李珠美 李珠京 李珠成 李珠周",
          "image_count": 0,
          "image_urls": null,
          "local_image_paths": null,
          "replied_at": "2025-07-10 15:02:49"
        }
      ]
    },
    {
      "id": 324,
      "post_uuid": "0197f4c4-a26a-2956-4670-4038afa67249",
      "title_ko": null,
      "title_zh": null,
      "content_ko": "언니 나는 궁금해하는 게 사랑이라고 생각하는데 뭔가 내가 사랑하는 사람들이 나를 별로 궁금해 하지 않는 것 같아서 속상해.. 그래도 내가 사랑하는 사람을 궁금해 하는 것도 행복한 일이니까 계속 궁금해하고 있기는 해..!!\n그런 의미에서 언니는 나에게 정말 궁금한 존재야. \n평생 궁금해 할 것 같아  \n사랑해!!!!\n",
      "content_zh": "姐姐，我觉得好奇就是爱，可是好像我爱的人们并不怎么好奇我，这让我很难过...不过即使这样，我继续好奇着我所爱的人也是一件幸福的事，所以我还是会一直好奇下去的..!!\n从这个意义上来说，姐姐对我来说真的是一个很神奇的存在。\n我想我会用一生去好奇你\n爱你!!!!",
      "post_time": "2025-07-10 14:36:56",
      "image_count": 0,
      "image_urls": null,
      "local_image_paths": null,
      "likes": 0,
      "comments": 0,
      "views": 0,
      "board": "Dear. IU",
      "members_only": 0,
      "author_username": "마은이",
      "author_avatar": "https://dearimage.iu101.org/images/avatars/avatar_99.jpeg",
      "author_local_avatar": "https://dearimage.iu101.org/images/avatars/avatar_99.jpeg",
      "fan_comments": [],
      "direct_iu_replies": [
        {
          "id": 1068,
          "content_ko": "응 계속 나 궁금해해줘!! 💜 나도 쪽! ",
          "content_zh": "嗯继续对我好奇吧！！ 💜 我也是",
          "image_count": 0,
          "image_urls": null,
          "local_image_paths": null,
          "replied_at": "2025-07-10 14:42:22"
        }
      ]
    }
  ]
}