{
  "page": 23,
  "totalPages": 45,
  "total": 895,
  "data": [
    {
      "id": 513,
      "post_uuid": "01978faa-b457-6f51-e7c8-3f3191054ab4",
      "title_ko": null,
      "title_zh": null,
      "content_ko": "언니! 게시글 오른쪽 상단에 클릭해서 다시 편집할 수 있다는 것을 알게 되었습니다. 그러면 반드시 \"예\"라고 대답할 수 있는 질문을 하나 하겠습니다. 만약 당신이 나에게 답장을 한다면, 나는 다시 게시글의 내용을 \"좋아합니까\"라고 편집해도 괜찮습니까? 하하하",
      "content_zh": "姐姐！我才知道帖子右上角可以点击重新编辑。那我问你一个肯定能回答\"是\"的问题：如果你回复我的话，我可以再把帖子内容编辑成\"喜欢吗\"吗？哈哈哈",
      "post_time": "2025-06-20 23:26:58",
      "image_count": 0,
      "image_urls": null,
      "local_image_paths": null,
      "likes": 0,
      "comments": 0,
      "views": 0,
      "board": "Dear. IU",
      "members_only": 0,
      "author_username": "dlwlrmaaaaa",
      "author_avatar": "https://dearimage.iu101.org/images/avatars/avatar_422.jpg",
      "author_local_avatar": "https://dearimage.iu101.org/images/avatars/avatar_422.jpg",
      "fan_comments": [],
      "direct_iu_replies": [
        {
          "id": 1339,
          "content_ko": "우리 한국에서 자주 하는 방법을 알아버렸군 😌😌",
          "content_zh": "我们韩国常用的方法被发现了 😌😌",
          "image_count": 0,
          "image_urls": null,
          "local_image_paths": null,
          "replied_at": "2025-06-20 23:36:09"
        }
      ]
    },
    {
      "id": 512,
      "post_uuid": "01978fa4-a076-60e9-40d3-90be25bf58cf",
      "title_ko": null,
      "title_zh": null,
      "content_ko": "언니가 굉장히 좋아할만한 분위기의 Netflix 에서 볼 수 있는 일본 애니메이션 2 개를 소개합니다！아주 재미있으니까 밤 새지 않도록 조심하세요ㅋㅋㅋ(저는 밤 새웠어요🤣💓‪)\n\n1.〜약사의 혼잣말(薬屋のひとりごと)〜\n\n후궁을 무대로, 약과 독에 비정상적인 고집을 가진 약제사 소녀의 고양이(마오마오)가 약학의 지식이나 관찰력으로 여러가지 사건을 해결해 나가는 이야기입니다!\n환관인 진시나 개성넘치는 사람들과의 인간관계도 볼수있어서 너무 매력적이에요~!!\n\n이건 꼭 봐야해요!!!제가 좋아하기 때문에 언니도 좋아할거라고 생각해요(?)ㅋㅋㅋㅋㅋㅋ\n정말 재미있어서 하루가 24 시간 밖에 안되는게 아쉬울 정도입니다!!!\n언니의 드라마 촬영에도 도움이 된다는 느낌이 들어요\n(⬆️제 개인적인 의견이니 너무 신경쓰지 마세요( .ˬ.)\")\n\n\n2. 〜장송의 프리렌(葬送のフリーレン)〜\n\n천년을 넘게 사는 엘프의 마법사 프릴렌이 용사 힘멜들과 함께 마왕을 무찌르고 세계에 평화를 가져온 '그 후'의 세계 판타지 이야기입니다🪄︎︎\n(게임의 RPG 로 따지면 엔딩후부터 시작되는 느낌)\n마왕 토벌 50 년 만에 프릴렌은 동료 용사 힘멜의 죽음을 계기로 사람을 알아보는 여행을 떠납니다.\n\n평화로운 세계에서 장수 종족인 엘프의 프릴렌이 인간의 시간의 흐름이나 죽음과 마주하는 모습은 끝없는 여행 도중 문득 올려다본 별처럼 고요하게 마음을 비춥니다🫂💓‪\n폭소하는 느낌은 아니지만 모험을 하는 가운데 동료와의 화목한 분위기나 일상에 치유되어 마음이 천천히 따뜻해지는 점이 매력입니다🥰INFJ 사람은 좋아한다고 생각합니다ㅎㅎ\n(참고로 저는 ENFJ 입니다🤭) \n\nSee you on Netflix~(*´∇`)ﾉ\n유애나에게도 추천이니 봐주세요~!\n아이유애나 다이스키！！",
      "content_zh": "介绍两部 Netflix 上可以观看、姐姐会非常喜欢氛围的日本动画！非常有趣，小心别熬夜哦哈哈哈（我熬了夜🤣💓）\n\n1. ～药师的独语（薬屋のひとりごと）～\n\n以宫廷为背景，讲述拥有异常执着于药与毒知识的药师少女与其猫咪（毛毛）运用药学知识和观察力解决各种事件的故事！\n还能看到与宦官金时等个性鲜明人物的人际关系，非常有魅力~！！\n\n这个一定要看！！！因为喜欢所以觉得姐姐也会喜欢（？）哈哈哈哈\n真的太有趣了，恨不得一天有 24 小时以上！！\n感觉对姐姐拍电视剧也有帮助\n（⬆️这是我的个人意见，不要太在意(.ˬ.)）\n\n2. ～葬送的芙莉莲（葬送のフリーレン）～\n\n讲述了活了千年的精灵魔法师芙莉莲与勇者辛美尔等人一起打败魔王、带来世界和平后的幻想故事🪄︎︎\n（如果用游戏 RPG 来说，就是从结局后开始）\n讨伐魔王 50 年后，芙莉莲以同伴勇者辛美尔的死亡为契机，踏上了了解人类的旅程。\n\n在和平的世界中，长寿种族精灵芙莉莲面对人类的时间流逝和死亡，就像在无尽旅途中偶然仰望星空般静静地洗涤着心灵🫂💓\n虽然不是爆笑的感觉，但在冒险过程中与同伴和睦的氛围和日常治愈让人内心慢慢温暖起来，这就是魅力所在🥰我觉得 INFJ 型的人都会喜欢\n（顺便我是 ENFJ 呢🤭）\n\n在 Netflix 见~(*´∇`)ﾉ\n也推荐给 IU 爱娜，一定要看哦~\n爱娜大好き！！",
      "post_time": "2025-06-20 23:20:20",
      "image_count": 4,
      "image_urls": "https://dearimage.iu101.org/images/posts/post_512_1601645123.jpeg",
      "local_image_paths": "https://dearimage.iu101.org/images/posts/post_512_1601645123.jpeg|https://dearimage.iu101.org/images/posts/post_512_1510565626.jpeg|https://dearimage.iu101.org/images/posts/post_512_1521547632.jpeg|https://dearimage.iu101.org/images/posts/post_512_1514807020.jpeg",
      "likes": 0,
      "comments": 0,
      "views": 0,
      "board": "Dear. IU",
      "members_only": 0,
      "author_username": "루나_Luna",
      "author_avatar": null,
      "author_local_avatar": null,
      "fan_comments": [],
      "direct_iu_replies": [
        {
          "id": 1338,
          "content_ko": "오 장송의 프리렌! 나 저거 알아! 😃😃",
          "content_zh": "哦长宋的frieren！我知道那个！ 😃😃",
          "image_count": 0,
          "image_urls": null,
          "local_image_paths": null,
          "replied_at": "2025-06-20 23:38:41"
        }
      ]
    },
    {
      "id": 511,
      "post_uuid": "01978f9c-9dcb-2d96-e189-4da7e9445829",
      "title_ko": null,
      "title_zh": null,
      "content_ko": "좋은 아침이야, 지은! 방금 우리 부부 점심 데이트 하고 왔어. 애들 때문에 한동안 못 했는데 정말 좋았어. 이 돼지고기 타코 진짜 최고다!\n너 타코 좋아해?\n",
      "content_zh": "早安，知恩！我们夫妻刚刚吃完午餐约会回来。因为孩子的事情好久没这样了，真的很开心。这个猪肉塔可真是太棒了！你喜欢塔可吗？",
      "post_time": "2025-06-20 23:11:35",
      "image_count": 1,
      "image_urls": "https://dearimage.iu101.org/images/posts/post_511_617472390.png",
      "local_image_paths": "https://dearimage.iu101.org/images/posts/post_511_617472390.png",
      "likes": 0,
      "comments": 0,
      "views": 0,
      "board": "Dear. IU",
      "members_only": 0,
      "author_username": "CT",
      "author_avatar": null,
      "author_local_avatar": null,
      "fan_comments": [],
      "direct_iu_replies": [
        {
          "id": 1337,
          "content_ko": "타코 좋지!! 혹시 생양파랑 고수만 빼줄 수 있어...?",
          "content_zh": "taco不错！！可以只把生洋葱和香菜去掉吗...?",
          "image_count": 0,
          "image_urls": null,
          "local_image_paths": null,
          "replied_at": "2025-06-20 23:39:57"
        }
      ]
    },
    {
      "id": 510,
      "post_uuid": "01978f8b-24ee-709e-2f19-bf2ef43886e3",
      "title_ko": null,
      "title_zh": null,
      "content_ko": "언니, 당신을 좋아한 지 오래됐어요, 열심히 저축하고 있어요, 한국에 와서 당신을 만나고 싶어요. 하지만 나는 충분한 돈을 저축한 후에 적절한 시간에 갈 수 없다는 것을 발견했습니다. 왜냐하면 나는 아직 학생이고 수업을 들어야 하기 때문입니다. 언니가 정말 중국에 올 수 있다면 좋을 것입니다! 안 와도 괜찮아요, 꼭 한국에 가서 당신을 볼 거예요!",
      "content_zh": "姐姐，我喜欢你很久了，一直在努力存钱，想来韩国见你。但是我发现即使存够了钱，在合适的时间也去不了，因为我还是学生，需要上课。如果姐姐能真的来中国就好了！不来也没关系，我一定会去韩国看你！",
      "post_time": "2025-06-20 22:52:30",
      "image_count": 0,
      "image_urls": null,
      "local_image_paths": null,
      "likes": 0,
      "comments": 0,
      "views": 0,
      "board": "Dear. IU",
      "members_only": 0,
      "author_username": "Forever",
      "author_avatar": null,
      "author_local_avatar": null,
      "fan_comments": [],
      "direct_iu_replies": [
        {
          "id": 1336,
          "content_ko": "그래 내가 가도록 노력할게 저축한 돈으로는 맛있는 것도 사먹고 친구들이랑 놀아! 💗",
          "content_zh": "对，我会努力去的，用存的钱买好吃的和朋友们一起玩！ 💗",
          "image_count": 0,
          "image_urls": null,
          "local_image_paths": null,
          "replied_at": "2025-06-20 23:43:47"
        }
      ]
    },
    {
      "id": 517,
      "post_uuid": "01978bf7-16b7-fb90-213d-efe871c966ad",
      "title_ko": null,
      "title_zh": null,
      "content_ko": "그럼 녹음하실때 모자를 쓰시는 이유는 무엇인가요,,?",
      "content_zh": "知恩姐姐喜欢咖喱吗？我现在早餐吃咖喱，姐姐吃了什么呀？！",
      "post_time": "2025-06-20 06:11:55",
      "image_count": 0,
      "image_urls": null,
      "local_image_paths": null,
      "likes": 0,
      "comments": 0,
      "views": 0,
      "board": "Dear. IU",
      "members_only": 0,
      "author_username": "케에이",
      "author_avatar": null,
      "author_local_avatar": null,
      "fan_comments": [],
      "direct_iu_replies": [
        {
          "id": 1343,
          "content_ko": "아 집 밖에 나갈 때는 늘 모자를 씁니다! ",
          "content_zh": "啊出门的时候总是戴帽子！",
          "image_count": 0,
          "image_urls": null,
          "local_image_paths": null,
          "replied_at": "2025-06-20 06:17:55"
        }
      ]
    },
    {
      "id": 519,
      "post_uuid": "01978b90-701c-4a4e-20ad-f278285a1c7e",
      "title_ko": null,
      "title_zh": null,
      "content_ko": "언니는 픽사 영화도 봐?? 어제 엘리오 봤는데 펑펑 울엇어ㅠㅠㅜ “넌 혼자가 아니야” 메시지가 진짜 감명깊더라🥺 언니에게 추천해주고 싶어!! 명작이야👍🏻",
      "content_zh": "姐姐也看皮克斯的电影吗？昨天看了《埃利奥》，哭得稀里哗啦的ㅠㅠㅜ “你并不孤单”这句话真的让我深受感动🥺 想推荐给姐姐！真是部杰作👍🏻",
      "post_time": "2025-06-20 04:19:48",
      "image_count": 1,
      "image_urls": "https://dearimage.iu101.org/images/posts/post_519_1616066482.jpeg",
      "local_image_paths": "https://dearimage.iu101.org/images/posts/post_519_1616066482.jpeg",
      "likes": 0,
      "comments": 0,
      "views": 0,
      "board": "Dear. IU",
      "members_only": 0,
      "author_username": "어서",
      "author_avatar": "https://dearimage.iu101.org/images/avatars/avatar_235.jpeg",
      "author_local_avatar": "https://dearimage.iu101.org/images/avatars/avatar_235.jpeg",
      "fan_comments": [],
      "direct_iu_replies": [
        {
          "id": 1345,
          "content_ko": "와 개봉했구나 예고 봤어! 나도 보고 싶다!!",
          "content_zh": "哇上映了看了预告！我也想看!!",
          "image_count": 0,
          "image_urls": null,
          "local_image_paths": null,
          "replied_at": "2025-06-20 04:38:31"
        }
      ]
    },
    {
      "id": 518,
      "post_uuid": "01978b90-5a64-c059-c08b-fa24d1ce736f",
      "title_ko": null,
      "title_zh": null,
      "content_ko": "지은언니이-! \n녹음 할 때 모자 항상 거꾸로 쓰는 이유 있어??",
      "content_zh": "姐姐周末也在努力工作吗？",
      "post_time": "2025-06-20 04:19:42",
      "image_count": 0,
      "image_urls": null,
      "local_image_paths": null,
      "likes": 0,
      "comments": 0,
      "views": 0,
      "board": "Dear. IU",
      "members_only": 0,
      "author_username": "항상변함없이",
      "author_avatar": "https://dearimage.iu101.org/images/avatars/avatar_18.jpg",
      "author_local_avatar": "https://dearimage.iu101.org/images/avatars/avatar_18.jpg",
      "fan_comments": [],
      "direct_iu_replies": [
        {
          "id": 1344,
          "content_ko": "챙이 팝필터에 닿으면 소리 나서! ",
          "content_zh": "因为碰到防喷罩会发出声音！",
          "image_count": 0,
          "image_urls": null,
          "local_image_paths": null,
          "replied_at": "2025-06-20 06:09:39"
        }
      ]
    },
    {
      "id": 520,
      "post_uuid": "01978b8e-e48a-6a06-20af-71e6fd290f6f",
      "title_ko": null,
      "title_zh": null,
      "content_ko": "말할 수 있죠! 추위는 더위보다 훨씬 낫죠!",
      "content_zh": "知恩姐姐～！录音时总是把帽子反着戴有什么原因吗？？",
      "post_time": "2025-06-20 04:18:07",
      "image_count": 0,
      "image_urls": null,
      "local_image_paths": null,
      "likes": 0,
      "comments": 0,
      "views": 0,
      "board": "Dear. IU",
      "members_only": 0,
      "author_username": "vicvi",
      "author_avatar": null,
      "author_local_avatar": null,
      "fan_comments": [],
      "direct_iu_replies": [
        {
          "id": 1346,
          "content_ko": "그렇다고 생각했는데 점점 둘 다 힘든 것 같아요..🫠",
          "content_zh": "虽然这么想，但感觉两个都很难..🫠",
          "image_count": 0,
          "image_urls": null,
          "local_image_paths": null,
          "replied_at": "2025-06-20 04:19:35"
        }
      ]
    },
    {
      "id": 527,
      "post_uuid": "01978b84-52ec-a36b-f667-8996bb475497",
      "title_ko": null,
      "title_zh": null,
      "content_ko": "언니 오늘은 뭐해요?? 비오는디 촬영해요?",
      "content_zh": "IU，在那里还好吗？今天韩国太热了，据说路面热到能煎鸡蛋！🥵",
      "post_time": "2025-06-20 04:06:34",
      "image_count": 0,
      "image_urls": null,
      "local_image_paths": null,
      "likes": 0,
      "comments": 0,
      "views": 0,
      "board": "Dear. IU",
      "members_only": 0,
      "author_username": "지우",
      "author_avatar": "https://dearimage.iu101.org/images/avatars/avatar_56.jpg",
      "author_local_avatar": "https://dearimage.iu101.org/images/avatars/avatar_56.jpg",
      "fan_comments": [],
      "direct_iu_replies": [
        {
          "id": 1353,
          "content_ko": "오늘은 실내 촬영이라서 문제 없지! 👍👍",
          "content_zh": "今天是室内拍摄所以没问题！👍👍",
          "image_count": 0,
          "image_urls": null,
          "local_image_paths": null,
          "replied_at": "2025-06-20 04:07:35"
        }
      ]
    },
    {
      "id": 526,
      "post_uuid": "01978b7f-6161-0b18-22f3-363589f8943d",
      "title_ko": null,
      "title_zh": null,
      "content_ko": "뭔 김밥이게",
      "content_zh": "什么金巴？",
      "post_time": "2025-06-20 04:01:10",
      "image_count": 1,
      "image_urls": "https://dearimage.iu101.org/images/posts/post_526_1233660384.jpeg",
      "local_image_paths": "https://dearimage.iu101.org/images/posts/post_526_1233660384.jpeg",
      "likes": 0,
      "comments": 0,
      "views": 0,
      "board": "Dear. IU",
      "members_only": 0,
      "author_username": "훨훨나는날치알주먹밥",
      "author_avatar": null,
      "author_local_avatar": null,
      "fan_comments": [],
      "direct_iu_replies": [
        {
          "id": 1352,
          "content_ko": "잠깐만. 날치알주먹밥이 참치땡초김밥 먹는 거 합법이야??",
          "content_zh": "等等. 鱼籽饭团吃金枪鱼辣条紫菜包饭是合法的吗？？",
          "image_count": 0,
          "image_urls": null,
          "local_image_paths": null,
          "replied_at": "2025-06-20 04:09:24"
        }
      ]
    },
    {
      "id": 525,
      "post_uuid": "01978b78-691b-01c4-72f1-3a0da87baebd",
      "title_ko": null,
      "title_zh": null,
      "content_ko": "아이유, 거기서 잘 버티고 있어? 오늘 한국 너무 더워서 길바닥에서 계란 후라이 될 정도라던데! 🥵\n점심은 먹었어? 아니면 더위 때문에 입맛까지 다 녹아버렸어? 😂\n그리고… 여왕님께 인사 한 번 받을 수 있을까요? “안녕” 한 마디만… 눈 두 번 깜빡이면 ‘예스’로 알게요! 👀",
      "content_zh": "IU，你在那儿还好吗？今天韩国太热了，据说走在路上都能把鸡蛋煎熟！🥵\n吃午饭了吗？还是因为太热连胃口都融化了？😂\n还有……能跟女王大人打个招呼吗？就一句\"你好\"……你眨两下眼睛我就当是\"好的\"！👀",
      "post_time": "2025-06-20 03:53:33",
      "image_count": 0,
      "image_urls": null,
      "local_image_paths": null,
      "likes": 0,
      "comments": 0,
      "views": 0,
      "board": "Dear. IU",
      "members_only": 0,
      "author_username": "Melssi",
      "author_avatar": null,
      "author_local_avatar": null,
      "fan_comments": [],
      "direct_iu_replies": [
        {
          "id": 1351,
          "content_ko": "오늘은 비가 와서 어제만큼 덥지 않아요! 😌🙄😌🙄😶 (깜빡 깜빡)",
          "content_zh": "今天下雨没有昨天那么热！ 😌🙄😌🙄😶 (一眨眼一眨眼)",
          "image_count": 0,
          "image_urls": null,
          "local_image_paths": null,
          "replied_at": "2025-06-20 04:11:35"
        }
      ]
    },
    {
      "id": 524,
      "post_uuid": "01978b75-8377-e440-1171-48c062ab8426",
      "title_ko": null,
      "title_zh": null,
      "content_ko": "아이유언니💟 네모꿈을 이미지로 네일팁을 만들어봤습니다! 엄지손가락에는 귀엽고 사랑스러운 사각 마시멜로를 올려봤습니다！부디 언니에게 닿기를...! 💗아이유ちゃん다이스키! 달콤하고 네모의 꿈일지 몰라〜😴",
      "content_zh": "IU 欧尼💟 我把正方形的梦做成图片美甲了！在大拇指上放了可爱又甜美的方块棉花糖！希望能传达到欧尼那里...！💗IU 酱大好き！可能是甜蜜又方块的梦呢〜😴",
      "post_time": "2025-06-20 03:50:23",
      "image_count": 1,
      "image_urls": "https://dearimage.iu101.org/images/posts/post_524_324964532.jpeg",
      "local_image_paths": "https://dearimage.iu101.org/images/posts/post_524_324964532.jpeg",
      "likes": 0,
      "comments": 0,
      "views": 0,
      "board": "Dear. IU",
      "members_only": 0,
      "author_username": "사키노",
      "author_avatar": null,
      "author_local_avatar": null,
      "fan_comments": [],
      "direct_iu_replies": [
        {
          "id": 1350,
          "content_ko": "카와이이이!! 너무 잘했다!! 😍",
          "content_zh": "卡哇伊伊伊！！做得太好了！！ 😍",
          "image_count": 0,
          "image_urls": null,
          "local_image_paths": null,
          "replied_at": "2025-06-20 04:12:21"
        }
      ]
    },
    {
      "id": 523,
      "post_uuid": "01978b73-e9d9-e36c-0df1-6083a394e2b8",
      "title_ko": null,
      "title_zh": null,
      "content_ko": "아이유님 페이보릿 김치도 묵은지에요? 파김치만 아니면 되는거에요? 저는 갓담근 젓갈 팍팍 양념 팍팍 전라도 스탈 배추김치가 최애! 근데 익은걸 넘어 새콤해지는 시점부터 살짝 내외함😓",
      "content_zh": "IU 欧尼喜欢的泡菜也是老泡菜吗？只要不是葱泡菜就行？我最爱刚腌好的、放了很多鱼露和调料的全罗道风味白菜泡菜！不过超过发酵阶段开始变酸的时候就有点受不了了😓",
      "post_time": "2025-06-20 03:48:39",
      "image_count": 0,
      "image_urls": null,
      "local_image_paths": null,
      "likes": 0,
      "comments": 0,
      "views": 0,
      "board": "Dear. IU",
      "members_only": 0,
      "author_username": "미니언",
      "author_avatar": "https://dearimage.iu101.org/images/avatars/avatar_89.gif",
      "author_local_avatar": "https://dearimage.iu101.org/images/avatars/avatar_89.gif",
      "fan_comments": [],
      "direct_iu_replies": [
        {
          "id": 1349,
          "content_ko": "저는 익은 배추김치, 살짝 묵은지 최애!\n+열무김치, 갓김치, 깍두기, 무김치, 겉절이도 좋고 최근에는 파김치도 조금 그 맛을 알게 됨 😌",
          "content_zh": "我喜欢吃熟成的白菜泡菜和稍微发酵的泡菜！\n萝卜泡菜、嫩叶泡菜、块状泡菜、白萝卜泡菜、生拌菜也都喜欢，最近还渐渐爱上了葱泡菜 😌",
          "image_count": 0,
          "image_urls": null,
          "local_image_paths": null,
          "replied_at": "2025-06-20 04:14:17"
        }
      ]
    },
    {
      "id": 522,
      "post_uuid": "01978b72-9514-dc7f-d321-6a5f90a5e942",
      "title_ko": null,
      "title_zh": null,
      "content_ko": "언니는 오늘 뭐 할까요?\n언니 밥 먹었어요?\n가장 싫은 계절이 돌아왔습니다🥵🥵🥵\n그리워요 Bye Summer 🎸",
      "content_zh": "姐姐今天要做什么呢？\n姐姐吃饭了吗？\n最讨厌的季节又来了🥵🥵🥵\n好想念 Bye Summer 🎸",
      "post_time": "2025-06-20 03:47:11",
      "image_count": 1,
      "image_urls": "https://dearimage.iu101.org/images/posts/post_522_1991108497.jpeg",
      "local_image_paths": "https://dearimage.iu101.org/images/posts/post_522_1991108497.jpeg",
      "likes": 0,
      "comments": 0,
      "views": 0,
      "board": "Dear. IU",
      "members_only": 0,
      "author_username": "RICO0o。",
      "author_avatar": null,
      "author_local_avatar": null,
      "fan_comments": [],
      "direct_iu_replies": [
        {
          "id": 1348,
          "content_ko": "오늘 매우 맛있는 샐러드 점심으로 먹었어요!!",
          "content_zh": "今天吃了非常美味的沙拉当午餐！！",
          "image_count": 0,
          "image_urls": null,
          "local_image_paths": null,
          "replied_at": "2025-06-20 04:15:14"
        }
      ]
    },
    {
      "id": 521,
      "post_uuid": "01978b71-1e91-4de3-2eea-5f51adb4a17f",
      "title_ko": null,
      "title_zh": null,
      "content_ko": "윽 학교 너무 추워 에어컨 온도 16 도야 16 도 말이된다고 생각해 진짜!!!?? 하ㅜㅜㅜ 지은 언니는 에어컨 틀면 몇도로 설정해!??😖🥺",
      "content_zh": "姐姐也看皮克斯电影吗？昨天看了《艾利奥》，哭得稀里哗啦的ㅠㅠㅜ \"你不是一个人\"这句话真的很有感触🥺 想推荐给姐姐！是杰作👍🏻",
      "post_time": "2025-06-20 03:45:35",
      "image_count": 0,
      "image_urls": null,
      "local_image_paths": null,
      "likes": 0,
      "comments": 0,
      "views": 0,
      "board": "Dear. IU",
      "members_only": 0,
      "author_username": "짱구",
      "author_avatar": null,
      "author_local_avatar": null,
      "fan_comments": [],
      "direct_iu_replies": [
        {
          "id": 1347,
          "content_ko": "16도..? 설정이 가능한지도 처음 알았어...🫨 좀 춥겠는데? 나는 보통 25도! 너무 더우면 23도? ",
          "content_zh": "16度..? 第一次知道还能设置...🫨会不会很冷？我通常25度！太热的话23度？",
          "image_count": 0,
          "image_urls": null,
          "local_image_paths": null,
          "replied_at": "2025-06-20 04:16:57"
        }
      ]
    },
    {
      "id": 531,
      "post_uuid": "0197875a-b01d-b657-55ab-21e265413c26",
      "title_ko": null,
      "title_zh": null,
      "content_ko": "지은 언니, 예전에 부른 《사랑》이라는 노래 기억해? 들을 때마다 눈물 나. 보고 싶어, 진짜 보고 싶어. 😭",
      "content_zh": "知恩姐姐，还记得以前唱过的那首《爱情》吗？每次听都忍不住流泪。好想见你，真的好想见你。😭",
      "post_time": "2025-06-19 08:42:36",
      "image_count": 0,
      "image_urls": null,
      "local_image_paths": null,
      "likes": 0,
      "comments": 0,
      "views": 0,
      "board": "Dear. IU",
      "members_only": 0,
      "author_username": "Uyasmine",
      "author_avatar": null,
      "author_local_avatar": null,
      "fan_comments": [],
      "direct_iu_replies": [
        {
          "id": 1357,
          "content_ko": "낭~시 인위~~ 아뎌리~ 쪈머훼이 예션~~",
          "content_zh": "南~时因味~~ 阿迭里~ 咱姆嗨耶逊~~",
          "image_count": 0,
          "image_urls": null,
          "local_image_paths": null,
          "replied_at": "2025-06-19 08:48:05"
        }
      ]
    },
    {
      "id": 530,
      "post_uuid": "01978757-7e90-7eab-bdec-a289ecf29e8a",
      "title_ko": null,
      "title_zh": null,
      "content_ko": "그니까요 언니 여기 32 도예요 추워 죽겠어요🥵",
      "content_zh": "姐姐，你知道风信子吗？",
      "post_time": "2025-06-19 08:39:07",
      "image_count": 0,
      "image_urls": null,
      "local_image_paths": null,
      "likes": 0,
      "comments": 0,
      "views": 0,
      "board": "Dear. IU",
      "members_only": 0,
      "author_username": "시나(•ө•)♡",
      "author_avatar": "https://dearimage.iu101.org/images/avatars/avatar_439.jpeg",
      "author_local_avatar": "https://dearimage.iu101.org/images/avatars/avatar_439.jpeg",
      "fan_comments": [],
      "direct_iu_replies": [
        {
          "id": 1356,
          "content_ko": "건조하기는 또 얼마나 건조한지~~😮‍💨 미스트 필수다 필수야",
          "content_zh": "干燥又有多干燥啊~~😮‍💨喷雾必备 必备呀",
          "image_count": 0,
          "image_urls": null,
          "local_image_paths": null,
          "replied_at": "2025-06-19 08:48:57"
        }
      ]
    },
    {
      "id": 529,
      "post_uuid": "01978756-634e-f2ca-e21e-2038f6b3b0e0",
      "title_ko": null,
      "title_zh": null,
      "content_ko": "언니 혹시 더위를 먹은거야..?\n춥다구..?🥵",
      "content_zh": "姐姐今天做什么？下雨天也在拍摄吗？",
      "post_time": "2025-06-19 08:37:55",
      "image_count": 0,
      "image_urls": null,
      "local_image_paths": null,
      "likes": 0,
      "comments": 0,
      "views": 0,
      "board": "Dear. IU",
      "members_only": 0,
      "author_username": "지우",
      "author_avatar": "https://dearimage.iu101.org/images/avatars/avatar_56.jpg",
      "author_local_avatar": "https://dearimage.iu101.org/images/avatars/avatar_56.jpg",
      "fan_comments": [],
      "direct_iu_replies": [
        {
          "id": 1355,
          "content_ko": "사실은 너무 더워요... 땀이 뻘뻘 나요..🫠",
          "content_zh": "说实话太热了...汗流浃背..🫠",
          "image_count": 0,
          "image_urls": null,
          "local_image_paths": null,
          "replied_at": "2025-06-19 08:50:01"
        }
      ]
    },
    {
      "id": 528,
      "post_uuid": "01978753-fde7-6f23-3971-505c4c8447e6",
      "title_ko": null,
      "title_zh": null,
      "content_ko": "언니야, 네모필라를 알아? \n이건 내가 가장 좋아하는 꽃이야 💙\n언니는 어떤 꽃을 제일 좋아해? \n다음 번 꽃갈피에서 어떤 꽃을 선택할지 기대돼! \n\n하지만 꽃보다 지은 언니가 더 아름다워. \n언니가 내 최애야💙💙",
      "content_zh": "姐姐，你知道风信子吗？\n这是我最喜欢的花 💙\n姐姐最喜欢什么花呢？\n很期待下一次花签上会选择什么花！\n\n不过比起花来，制作花签的姐姐更美丽。\n姐姐是我最爱的人💙💙",
      "post_time": "2025-06-19 08:35:18",
      "image_count": 2,
      "image_urls": "https://dearimage.iu101.org/images/posts/post_528_1942998404.jpeg",
      "local_image_paths": "https://dearimage.iu101.org/images/posts/post_528_1942998404.jpeg|https://dearimage.iu101.org/images/posts/post_528_1502905285.jpeg",
      "likes": 0,
      "comments": 0,
      "views": 0,
      "board": "Dear. IU",
      "members_only": 0,
      "author_username": "catsy",
      "author_avatar": null,
      "author_local_avatar": null,
      "fan_comments": [],
      "direct_iu_replies": [
        {
          "id": 1354,
          "content_ko": "최근에 작약이 진짜 예쁘더라 장미도 예쁘고 \n그치만 내 마음 속 원픽은 항상 제비꽃!",
          "content_zh": "最近芍药真的很好看玫瑰也很美 但是在我心里首选一直是紫罗兰！",
          "image_count": 0,
          "image_urls": null,
          "local_image_paths": null,
          "replied_at": "2025-06-19 08:52:16"
        }
      ]
    },
    {
      "id": 533,
      "post_uuid": "0197804d-d6eb-fbc4-7fcc-aac936d37637",
      "title_ko": null,
      "title_zh": null,
      "content_ko": "안녕 누나 좋은 하루를 시작할수 있을것 같은 아침이야!\n누나가 읽을수 있을진 모르겠지만 꼭 전하고싶은 고마움이야!\n나는 누나 15 년지기 팬이야!\n\n누나 처음으로 봤던게 옛날에 세바퀴에서 마시멜로 홍보하려고 나온건데 엄마랑 같이 보면서 지금 생각하면 무례하지만 ㅋㅋ 애기 시절 내가 보기에도 어린 나이에 열심히 하고 잘하는 누나를 보고 \"쟤는 진짜 잘됐으면 좋겠다\" 했던게 왜 아직도 생생하게 기억나나 몰라\n\n좋은날로 학교에서 나만 알던 가수가 모르는 사람 없는 가수가 되고 점점점 내가 생각했던것보다 너무 커져버려서 엄청 신기해, 누나 좋은 일 있을때마다 가족이 경사난것처럼\n왜 이렇게 기쁘고 장한지 ㅋㅋㅋㅋ 내가 응원하는 사람이 꿈을 이루고 최고가 되는 기쁨을 누리는 사람이 얼마나 될까?\n\n사연없는 집이 어디있나 싶지만 주인공이 될 팔자인지 나는 너무 많은 일들이 있었고 사는게 바빠서 아이유를 잊게된지 조금 되던 최근에 '폭싹 속았수다'를 보고 큰 힘을 얻었어 (누나 연기 진짜 깊어졌더라 멋있었어)\n\n17 년동안 만들어준 누나의 여러 모양의 앨범들은 내가 위로 받고 싶을땐 위로를 빼다 듣고, 힘을 얻고 싶을땐 격려를 빼다 보곤해 그리고 내 소중한 앨범은 17 년째 아직도 만들어지고 있으니까 얼마나 복받았나 몰라\n\n열심히 팬 활동 하는 분들에 비하면 나는 그냥 가져다 쓰기만 하는 사람이지만 처음으로 고마운 마음을 표현해보고 싶어서 이렇게 적어 보내\n\n무심히 걸어가는 나한테 늘 불쑥 찾아와서 내 인생에 꽃갈피를 꽂아주고 가는 내 우상, 아이돌 진심으로 축하하고 응원해 늘 충분히 행복한 사람이길 바라!\n\n읽을수 있을지는 모르겠지만 못읽으면 손편지라도 보내지 뭐!\n\n오늘 하루에 행운 가득하길 빌게 화이팅!",
      "content_zh": "你好姐姐，今天早上感觉能拥有美好的一天！\n虽然不知道姐姐能不能看到，但我真的想表达这份感谢！\n我是从 15 年前就开始喜欢姐姐的粉丝！\n\n第一次见到姐姐是在很久以前的《无限挑战》里宣传棉花糖的时候，当时和妈妈一起看，现在想想虽然有点失礼哈哈，但小时候看到年纪那么小却很努力很优秀的姐姐，心里想着\"希望她真的能够成功\"，为什么到现在还记忆犹新呢？\n\n好日子那天在学校，我一个人知道的歌手变成了人人都知道的歌手，变得比我想象中还要更加闪耀，真的很神奇，每当姐姐有好事的时候，我们全家都像遇到喜事一样高兴\n为什么会这么开心和骄傲呢哈哈 我支持的人能够实现梦想获得成功的快乐，能有多少人能体验到呢？\n\n虽然说没有故事的家庭在哪里都有，但可能是命中注定要成为主角吧，我经历了太多事情，生活忙碌得差点忘记了 IU，最近看了《我的解放日志》后得到了很大的力量（姐姐的演技真的变深了，很帅气）\n\n17 年来姐姐创造的各种风格的专辑，每当我需要安慰时就从中获得慰藉，想要力量时就读到鼓励的话语，而我珍贵的专辑至今 17 年了还在继续制作，我觉得自己太幸福了\n\n比起那些认真做粉丝活动的人，我只是个拿来主义者，但第一次想表达感谢的心情，所以写下这些话发送\n\n总是不经意间走向我的人生插上书签的我的偶像，真心祝贺并支持你，希望你永远是个足够幸福的人！\n\n不知道能否看到，如果看不到的话就当是手写信好了！\n\n祝你今天好运满满加油！",
      "post_time": "2025-06-17 23:51:14",
      "image_count": 0,
      "image_urls": null,
      "local_image_paths": null,
      "likes": 0,
      "comments": 0,
      "views": 0,
      "board": "Dear. IU",
      "members_only": 0,
      "author_username": "wishur",
      "author_avatar": null,
      "author_local_avatar": null,
      "fan_comments": [],
      "direct_iu_replies": [
        {
          "id": 1359,
          "content_ko": "글 왜 이렇게 잘 써? 너무 좋다 나 일하러 가는 길에 우연히 이 편지를 봤네 덕분에 오늘 유난히 더 힘낼 수 있을 거 같아\n 내가 네 응원 덕분에 더 열심히 살았나 봐\n고마워 너도 오늘 행복하게 보내고 그늘 잘 찾아 다니고 팥빙수도 사먹어!! 파이팅!! 💗🫰",
          "content_zh": "文章怎么写得这么好？太棒了！我上班路上偶然看到这封信，多亏了你，今天感觉特别有干劲。\n我想我是因为你的鼓励才更加努力地生活着吧。\n谢谢你，你也今天要过得开心，记得找阴凉处走，还要买红豆刨冰吃哦！！加油！！💗🫰",
          "image_count": 0,
          "image_urls": null,
          "local_image_paths": null,
          "replied_at": "2025-06-17 23:55:24"
        }
      ]
    }
  ]
}
