{
  "page": 39,
  "totalPages": 45,
  "total": 895,
  "data": [
    {
      "id": 847,
      "post_uuid": "01971254-8c99-6000-f2c3-c2a20a7830a8",
      "title_ko": null,
      "title_zh": null,
      "content_ko": "언니는 콘서트에서 가장 기대되는 곡이 뭐야?",
      "content_zh": "姐姐在演唱会上最期待的歌曲是什么？",
      "post_time": "2025-05-27 15:20:20",
      "image_count": 0,
      "image_urls": null,
      "local_image_paths": null,
      "likes": 0,
      "comments": 0,
      "views": 0,
      "board": "Dear. IU",
      "members_only": 0,
      "author_username": "현정•___________•",
      "author_avatar": null,
      "author_local_avatar": null,
      "fan_comments": [],
      "direct_iu_replies": [
        {
          "id": 1679,
          "content_ko": "네모의 꿈 떼창 정말 귀엽겠지? 😀",
          "content_zh": "我..",
          "image_count": 0,
          "image_urls": null,
          "local_image_paths": null,
          "replied_at": "2025-05-27 15:31:39"
        }
      ]
    },
    {
      "id": 846,
      "post_uuid": "01971254-80cb-8ac8-f4e1-5e668e515544",
      "title_ko": null,
      "title_zh": null,
      "content_ko": "책갈피 너무 좋아!!!",
      "content_zh": "书签太喜欢了！！！",
      "post_time": "2025-05-27 15:20:17",
      "image_count": 0,
      "image_urls": null,
      "local_image_paths": null,
      "likes": 0,
      "comments": 0,
      "views": 0,
      "board": "Dear. IU",
      "members_only": 0,
      "author_username": "마구쓰",
      "author_avatar": null,
      "author_local_avatar": null,
      "fan_comments": [],
      "direct_iu_replies": [
        {
          "id": 1678,
          "content_ko": "훈이니?",
          "content_zh": "正方形的梦想合唱一定很可爱吧？",
          "image_count": 0,
          "image_urls": null,
          "local_image_paths": null,
          "replied_at": "2025-05-27 15:31:51"
        }
      ]
    },
    {
      "id": 845,
      "post_uuid": "01971253-164a-6ad2-7ab9-273609efe3c5",
      "title_ko": null,
      "title_zh": null,
      "content_ko": "언니 인스타 완전 뮤비 킬포 잘라서 올렸네요 ㅠㅠ 최애장면 2개 몰래 씩 웃기, 증사로 플러팅",
      "content_zh": "姐姐Instagram把MV精彩片段都剪好了上传，太棒了ㅠㅠ 最爱的两个场景偷偷笑，增删式浮夸",
      "post_time": "2025-05-27 15:18:44",
      "image_count": 1,
      "image_urls": "https://dearimage.iu101.org/images/posts/post_845_810249523.gif",
      "local_image_paths": "https://dearimage.iu101.org/images/posts/post_845_810249523.gif",
      "likes": 0,
      "comments": 0,
      "views": 0,
      "board": "Dear. IU",
      "members_only": 0,
      "author_username": "앙카",
      "author_avatar": null,
      "author_local_avatar": null,
      "fan_comments": [],
      "direct_iu_replies": [
        {
          "id": 1677,
          "content_ko": "아 어느 구간이 좋을까 고민 많이 했어..🥹",
          "content_zh": "训儿吗？",
          "image_count": 0,
          "image_urls": null,
          "local_image_paths": null,
          "replied_at": "2025-05-27 15:33:28"
        }
      ]
    },
    {
      "id": 842,
      "post_uuid": "0197124d-f23e-3084-9a49-bd49299a6eaf",
      "title_ko": null,
      "title_zh": null,
      "content_ko": "아이유 언니는 들어라!!!!!!!!!!!!!!!\n10월 4일 너무 좋다!!!!!!!!!!!!!!!!!!!!!!!\n들렸어요???언니????!!!!!!!!!!!!",
      "content_zh": "IU欧尼你听好了！！！！！！！\n10月4日太棒了！！！！！！！！！！！！！\n听到了吗？欧尼？？！！！！！",
      "post_time": "2025-05-27 15:13:07",
      "image_count": 0,
      "image_urls": null,
      "local_image_paths": null,
      "likes": 0,
      "comments": 0,
      "views": 0,
      "board": "Dear. IU",
      "members_only": 0,
      "author_username": "프롬숨니",
      "author_avatar": null,
      "author_local_avatar": null,
      "fan_comments": [],
      "direct_iu_replies": [
        {
          "id": 1674,
          "content_ko": "아이고 귀야!!! 깜짝 놀랐다!!",
          "content_zh": "已经到最后了吗？",
          "image_count": 0,
          "image_urls": null,
          "local_image_paths": null,
          "replied_at": "2025-05-27 15:35:54"
        }
      ]
    },
    {
      "id": 841,
      "post_uuid": "0197124a-87f1-ed91-4567-c5d3135d58d4",
      "title_ko": null,
      "title_zh": null,
      "content_ko": "언니 네모의 꿈에서 희망 없는 나에게~ 부를 때 진짜 희망 없는 목소리로 불러주는게 너무 귀여워서 웃음이 나왔어요🤤",
      "content_zh": "姐姐在《方块的梦》中对绝望的我说话时，真的用绝望的声音呼唤，太可爱了，我都笑了出来🤤",
      "post_time": "2025-05-27 15:09:23",
      "image_count": 0,
      "image_urls": null,
      "local_image_paths": null,
      "likes": 0,
      "comments": 0,
      "views": 0,
      "board": "Dear. IU",
      "members_only": 0,
      "author_username": "유림εз",
      "author_avatar": null,
      "author_local_avatar": null,
      "fan_comments": [],
      "direct_iu_replies": [
        {
          "id": 1673,
          "content_ko": "여러 버젼이 있었는데 그 희망 없는 버젼이\n채택🙂‍↕️",
          "content_zh": "哎呀耳朵！！吓了一跳！！",
          "image_count": 0,
          "image_urls": null,
          "local_image_paths": null,
          "replied_at": "2025-05-27 15:45:01"
        }
      ]
    },
    {
      "id": 840,
      "post_uuid": "01971249-4a9b-c21b-693a-2d964ff1cccb",
      "title_ko": null,
      "title_zh": null,
      "content_ko": "언니, 10월 4일 정말 좋아요, 내 마음이 정화 된 것 같아요, 지금 내 영혼은 날아다녀요, 언니의 아름다운 노래 때문에, 약속해요, 꼭 80세까지 노래하고, 그때 목발을 짚고 당신을 보러 갈 거예요.🥹🥹🥹",
      "content_zh": "姐姐，10月4日真的很好，我的心灵仿佛得到了净化，现在我的灵魂都在飞舞，都是因为姐姐美妙的歌声。我答应你，一定要唱到80岁，到时候拄着拐杖也要去看你。🥹🥹🥹",
      "post_time": "2025-05-27 15:08:02",
      "image_count": 0,
      "image_urls": null,
      "local_image_paths": null,
      "likes": 0,
      "comments": 0,
      "views": 0,
      "board": "Dear. IU",
      "members_only": 0,
      "author_username": "사어",
      "author_avatar": "https://dearimage.iu101.org/images/avatars/avatar_198.jpeg",
      "author_local_avatar": "https://dearimage.iu101.org/images/avatars/avatar_198.jpeg",
      "fan_comments": [],
      "direct_iu_replies": [
        {
          "id": 1672,
          "content_ko": "둘 다 건강히 만나자 그때 🫶",
          "content_zh": "有很多版本但那个绝望的版本被采用了",
          "image_count": 0,
          "image_urls": null,
          "local_image_paths": null,
          "replied_at": "2025-05-27 15:46:38"
        }
      ]
    },
    {
      "id": 839,
      "post_uuid": "01971248-e00b-feb3-49e0-972fc7d76dfa",
      "title_ko": null,
      "title_zh": null,
      "content_ko": "지은아, 나 이제 잘 거야.\n너도 얼른 가서 푹 자고.\n\n다음에 또 같이 놀자.\n정말이야.\n🥰",
      "content_zh": "知恩啊，我要去睡觉了。你也快回去好好休息。下次再一起玩。真的。🥰",
      "post_time": "2025-05-27 15:07:35",
      "image_count": 0,
      "image_urls": null,
      "local_image_paths": null,
      "likes": 0,
      "comments": 0,
      "views": 0,
      "board": "Dear. IU",
      "members_only": 0,
      "author_username": "파김치",
      "author_avatar": "https://dearimage.iu101.org/images/avatars/avatar_39.jpeg",
      "author_local_avatar": "https://dearimage.iu101.org/images/avatars/avatar_39.jpeg",
      "fan_comments": [],
      "direct_iu_replies": [
        {
          "id": 1671,
          "content_ko": "파김치야 잘 자 또 놀자🫶",
          "content_zh": "到时候两个都健康地见面吧",
          "image_count": 0,
          "image_urls": null,
          "local_image_paths": null,
          "replied_at": "2025-05-27 15:50:49"
        }
      ]
    },
    {
      "id": 838,
      "post_uuid": "01971248-5768-6db5-dfa7-ae9a9d5c89bb",
      "title_ko": null,
      "title_zh": null,
      "content_ko": "평생 동안 나를 위해 노래를 부르십시오🔥🫶🏻",
      "content_zh": "终生为我唱歌吧🔥🫶🏻",
      "post_time": "2025-05-27 15:07:00",
      "image_count": 1,
      "image_urls": "https://dearimage.iu101.org/images/posts/post_838_161247694.jpeg",
      "local_image_paths": "https://dearimage.iu101.org/images/posts/post_838_161247694.jpeg",
      "likes": 0,
      "comments": 0,
      "views": 0,
      "board": "Dear. IU",
      "members_only": 0,
      "author_username": "7iu^^",
      "author_avatar": "https://dearimage.iu101.org/images/avatars/avatar_4.jpeg",
      "author_local_avatar": "https://dearimage.iu101.org/images/avatars/avatar_4.jpeg",
      "fan_comments": [],
      "direct_iu_replies": [
        {
          "id": 1670,
          "content_ko": "70 years old 렛츠기릿",
          "content_zh": "泡菜晚安再玩吧",
          "image_count": 0,
          "image_urls": null,
          "local_image_paths": null,
          "replied_at": "2025-05-27 15:52:52"
        }
      ]
    },
    {
      "id": 837,
      "post_uuid": "01971247-13de-e714-323b-d033f5f8808a",
      "title_ko": null,
      "title_zh": null,
      "content_ko": "언니, 입안에 물집이 두 개 생겨서 너무 아파요. 언니가 뽀뽀하고 안아줘야 나을 것 같아요.😭",
      "content_zh": "姐姐，嘴里长了两个水泡，太疼了。感觉只有姐姐亲亲抱抱才会好起来。😭",
      "post_time": "2025-05-27 15:05:37",
      "image_count": 0,
      "image_urls": null,
      "local_image_paths": null,
      "likes": 0,
      "comments": 0,
      "views": 0,
      "board": "Dear. IU",
      "members_only": 0,
      "author_username": "Zeng",
      "author_avatar": null,
      "author_local_avatar": null,
      "fan_comments": [],
      "direct_iu_replies": [
        {
          "id": 1669,
          "content_ko": "뽀뽀가 문제가 아니고 그럴 때는 잘 쉬어야 한다!! 나는 그럴 때 보통 깨물어서 터뜨립니다 🙂‍↕️ (비추천)",
          "content_zh": "亲嘴不是问题，那种时候要好好休息才行！我通常会在那时候咬破它 🙂‍↕️（不推荐）",
          "image_count": 0,
          "image_urls": null,
          "local_image_paths": null,
          "replied_at": "2025-05-27 15:54:26"
        }
      ]
    },
    {
      "id": 836,
      "post_uuid": "01971246-d3b2-31f5-e1dd-467fef075a49",
      "title_ko": null,
      "title_zh": null,
      "content_ko": "미인 곡소개글을 보고 자신에 대한 이야기로 중점을 두었다는게 너무 천재적인 발상 같아요ㅠㅠㅜ \n저도 미인을 들으면서 한 번 보고 두 번 보고 자꾸만 보고 싶은 ‘나’가 되고 싶네요🥹\n발매해줘서 고마워요❣️",
      "content_zh": "看了美仁的介绍文字，发现她把重点放在了自己的故事上，这个想法真是太天才了ㅠㅠㅜ\n我也想成为那个听了美仁的歌后，看了一遍又一遍，总是忍不住想再看的\"我\"啊🥹\n谢谢你们发行这首歌❣️",
      "post_time": "2025-05-27 15:05:21",
      "image_count": 0,
      "image_urls": null,
      "local_image_paths": null,
      "likes": 0,
      "comments": 0,
      "views": 0,
      "board": "Dear. IU",
      "members_only": 0,
      "author_username": "팽다",
      "author_avatar": "https://dearimage.iu101.org/images/avatars/avatar_348.jpeg",
      "author_local_avatar": "https://dearimage.iu101.org/images/avatars/avatar_348.jpeg",
      "fan_comments": [],
      "direct_iu_replies": [
        {
          "id": 1668,
          "content_ko": "상상하면 너무 귀엽잖아~~~~팽다도 내일 아침 세수할 때부터 한 번 해보는 걸로!! ",
          "content_zh": "亲吻不是问题，那时候要好好休息！！我那时候通常咬破它（不推荐）",
          "image_count": 0,
          "image_urls": null,
          "local_image_paths": null,
          "replied_at": "2025-05-27 15:55:19"
        }
      ]
    },
    {
      "id": 835,
      "post_uuid": "01971241-d3cf-3ddc-9787-0129471b39ea",
      "title_ko": null,
      "title_zh": null,
      "content_ko": "10월 4일 듣는데 '너는 여우 같아~' 가사를 들으면 자꾸 키가 즉고 여시상인 애순이가 떠오르네요~^^",
      "content_zh": "听10月4日这首歌，听到\"你像狐狸一样~\"的歌词，总是想到身高即刻变矮的艺顺前辈~^^",
      "post_time": "2025-05-27 14:59:53",
      "image_count": 0,
      "image_urls": null,
      "local_image_paths": null,
      "likes": 0,
      "comments": 0,
      "views": 0,
      "board": "Dear. IU",
      "members_only": 0,
      "author_username": "padawan",
      "author_avatar": null,
      "author_local_avatar": null,
      "fan_comments": [],
      "direct_iu_replies": [
        {
          "id": 1667,
          "content_ko": "ㅋㅋㅋㅋㅋ너는 키가 즉은 여시상~~ 같아~~~🦊",
          "content_zh": "想象起来太可爱了~胖达明天早上洗脸开始也试试看吧！！",
          "image_count": 0,
          "image_urls": null,
          "local_image_paths": null,
          "replied_at": "2025-05-27 16:03:57"
        }
      ]
    },
    {
      "id": 834,
      "post_uuid": "0197123b-c7f7-d2f6-229c-bb15ff965c24",
      "title_ko": null,
      "title_zh": null,
      "content_ko": "언니가 컴백할 때 마다 느낀다… 2009년…나만 아는 나만 사랑하는 나만의 가수는 없다…우리 언니는 그저 신…이제는 너무나도 슈스얌🥹 언니가 슈스가 돼서 너무 좋으면서도 언제 이렇게 어른이 됐나 싶음🥹🥹🥹 언니는 진짜 너무 너무 존경하게 해..🫠💖",
      "content_zh": "每次姐姐回归的时候都会感慨……2009年……没有只属于我一个人知道、只属于我一个人爱着的歌手了……我们的姐姐简直就是神啊……现在变得太可爱了🥹 姐姐变得这么可爱让我很开心，但又觉得她什么时候突然长大了呢🥹🥹🥹 姐姐真的让人无比敬佩……🫠💖",
      "post_time": "2025-05-27 14:53:17",
      "image_count": 0,
      "image_urls": null,
      "local_image_paths": null,
      "likes": 0,
      "comments": 0,
      "views": 0,
      "board": "Dear. IU",
      "members_only": 0,
      "author_username": "승현쮸",
      "author_avatar": "https://dearimage.iu101.org/images/avatars/avatar_345.jpeg",
      "author_local_avatar": "https://dearimage.iu101.org/images/avatars/avatar_345.jpeg",
      "fan_comments": [],
      "direct_iu_replies": [
        {
          "id": 1666,
          "content_ko": "와 나 이거 하다가 잠들었자냐아아아😱😱😱😱!!!!! 깜짝이야 ",
          "content_zh": "你就像身高挺拔的女时相一样",
          "image_count": 0,
          "image_urls": null,
          "local_image_paths": null,
          "replied_at": "2025-05-27 17:16:23"
        },
        {
          "id": 1665,
          "content_ko": "🫶",
          "content_zh": "哇我做到这个就睡着了吓死我了",
          "image_count": 0,
          "image_urls": null,
          "local_image_paths": null,
          "replied_at": "2025-05-27 17:16:47"
        }
      ]
    },
    {
      "id": 833,
      "post_uuid": "01971235-3648-fbae-b82b-6a3cf60e0c84",
      "title_ko": null,
      "title_zh": null,
      "content_ko": "언니!! 여섯 곡 중에서 제일 처음으로 앨범에 넣기로 결정한 곡은 어떤 거예요?",
      "content_zh": "姐姐！！在六首歌中，最先决定放进专辑的是哪首歌？",
      "post_time": "2025-05-27 14:46:06",
      "image_count": 0,
      "image_urls": null,
      "local_image_paths": null,
      "likes": 0,
      "comments": 0,
      "views": 0,
      "board": "Dear. IU",
      "members_only": 0,
      "author_username": "Zazu's핫딸기차",
      "author_avatar": "https://dearimage.iu101.org/images/avatars/avatar_48.jpeg",
      "author_local_avatar": "https://dearimage.iu101.org/images/avatars/avatar_48.jpeg",
      "fan_comments": [],
      "direct_iu_replies": [
        {
          "id": 1664,
          "content_ko": "네모의 꿈!!",
          "content_zh": "正方形的梦想！！",
          "image_count": 0,
          "image_urls": null,
          "local_image_paths": null,
          "replied_at": "2025-05-27 17:19:01"
        }
      ]
    },
    {
      "id": 863,
      "post_uuid": "019710a3-5d01-b357-199a-2f816783182f",
      "title_ko": null,
      "title_zh": null,
      "content_ko": "언니, 엄마한테 가방 하나 만들어 달라고 했는데 예쁘지?",
      "content_zh": "姐姐，让妈妈给我做了一个包，漂亮吗？",
      "post_time": "2025-05-27 07:27:11",
      "image_count": 1,
      "image_urls": "https://dearimage.iu101.org/images/posts/post_863_454800268.jpg",
      "local_image_paths": "https://dearimage.iu101.org/images/posts/post_863_454800268.jpg",
      "likes": 0,
      "comments": 0,
      "views": 0,
      "board": "Dear. IU",
      "members_only": 0,
      "author_username": "yuluCafe.lulu",
      "author_avatar": null,
      "author_local_avatar": null,
      "fan_comments": [],
      "direct_iu_replies": [
        {
          "id": 1695,
          "content_ko": "미.쳤.다 어머님 센스 대박이신데?!!?",
          "content_zh": "随心所欲>.",
          "image_count": 0,
          "image_urls": null,
          "local_image_paths": null,
          "replied_at": "2025-05-27 07:28:21"
        }
      ]
    },
    {
      "id": 862,
      "post_uuid": "019710a2-2f5f-e14f-126c-8ead28d5a5ca",
      "title_ko": null,
      "title_zh": null,
      "content_ko": "오눌 나오는 곡들 중에 언니는\n유애나 반응 제일 궁금한 곡이 뭐에요?",
      "content_zh": "在即将发布的歌曲中，姐姐最想知道优爱娜反应的是哪首？",
      "post_time": "2025-05-27 07:25:53",
      "image_count": 0,
      "image_urls": null,
      "local_image_paths": null,
      "likes": 0,
      "comments": 0,
      "views": 0,
      "board": "Dear. IU",
      "members_only": 0,
      "author_username": "민경이",
      "author_avatar": null,
      "author_local_avatar": null,
      "fan_comments": [],
      "direct_iu_replies": [
        {
          "id": 1694,
          "content_ko": "10월 4일이요! ",
          "content_zh": "真漂亮！！小时候不太懂现在渐渐感受到玫瑰是花中之王",
          "image_count": 0,
          "image_urls": null,
          "local_image_paths": null,
          "replied_at": "2025-05-27 07:31:27"
        }
      ]
    },
    {
      "id": 861,
      "post_uuid": "019710a1-d744-02af-ff75-3188848cc21c",
      "title_ko": null,
      "title_zh": null,
      "content_ko": "망부석이 되…",
      "content_zh": "变成望夫石…",
      "post_time": "2025-05-27 07:25:31",
      "image_count": 1,
      "image_urls": "https://dearimage.iu101.org/images/posts/post_861_1502936613.jpeg",
      "local_image_paths": "https://dearimage.iu101.org/images/posts/post_861_1502936613.jpeg",
      "likes": 0,
      "comments": 0,
      "views": 0,
      "board": "Dear. IU",
      "members_only": 0,
      "author_username": "제비꽃티타임",
      "author_avatar": null,
      "author_local_avatar": null,
      "fan_comments": [],
      "direct_iu_replies": [
        {
          "id": 1693,
          "content_ko": "아냐 아냐 그럼ㅋㅋㅋ내일도 올게!!! 날 기다리다가 늦게 잠들지 말아죠 🥹🥹",
          "content_zh": "疯了妈妈的sense太厉害了？！？",
          "image_count": 0,
          "image_urls": null,
          "local_image_paths": null,
          "replied_at": "2025-05-27 07:33:09"
        }
      ]
    },
    {
      "id": 860,
      "post_uuid": "019710a1-c604-00d0-014e-61978abd02f6",
      "title_ko": null,
      "title_zh": null,
      "content_ko": "사랑해요 아이유!!!!!!!!",
      "content_zh": "爱你IU！！！！！！",
      "post_time": "2025-05-27 07:25:26",
      "image_count": 1,
      "image_urls": "https://dearimage.iu101.org/images/posts/post_860_285477170.jpeg",
      "local_image_paths": "https://dearimage.iu101.org/images/posts/post_860_285477170.jpeg",
      "likes": 0,
      "comments": 0,
      "views": 0,
      "board": "Dear. IU",
      "members_only": 0,
      "author_username": "♡아이유가제일좋아하는츄츄♡",
      "author_avatar": "https://dearimage.iu101.org/images/avatars/avatar_10.jpeg",
      "author_local_avatar": "https://dearimage.iu101.org/images/avatars/avatar_10.jpeg",
      "fan_comments": [],
      "direct_iu_replies": [
        {
          "id": 1692,
          "content_ko": "나도 사랑해!!!! ",
          "content_zh": "10月4日！",
          "image_count": 0,
          "image_urls": null,
          "local_image_paths": null,
          "replied_at": "2025-05-27 07:33:34"
        }
      ]
    },
    {
      "id": 859,
      "post_uuid": "019710a1-2e46-4087-ab76-5390292a77f3",
      "title_ko": null,
      "title_zh": null,
      "content_ko": "마미뮤믜 네모믜꿈 뮤비 풀버전믄 만나모나몀?\n잠뜰님믜 티저몀삼만 보고 풀버전 기도메타 줌민뎀... ㅠㅠ\n\n마 죄솜해묨... 네모믜꿈미 너무 귀며뭐서 네모네모빔 맞마버렸지모먐...",
      "content_zh": "妈妈咪呀《Nemo의 꿈》MV完整版什么时候能出来啊？\n粉丝们只看了预告片三遍就祈祷着完整版快点发布... ㅠㅠ\n\n真是对不起... 《Nemo의 꿈》太可爱了，我已经被方块方块轰炸得不行了...",
      "post_time": "2025-05-27 07:24:48",
      "image_count": 0,
      "image_urls": null,
      "local_image_paths": null,
      "likes": 0,
      "comments": 0,
      "views": 0,
      "board": "Dear. IU",
      "members_only": 0,
      "author_username": "브이유",
      "author_avatar": null,
      "author_local_avatar": null,
      "fan_comments": [],
      "direct_iu_replies": [
        {
          "id": 1691,
          "content_ko": "만 나뫄묘..🥹",
          "content_zh": "没关系没关系哈哈明天也会来的！！别等我睡得太晚",
          "image_count": 0,
          "image_urls": null,
          "local_image_paths": null,
          "replied_at": "2025-05-27 07:34:53"
        }
      ]
    },
    {
      "id": 858,
      "post_uuid": "019710a0-c0be-e3a2-dad2-249a1a168b74",
      "title_ko": null,
      "title_zh": null,
      "content_ko": "언니 혹시 네버엔딩 스토리랑 밤편지랑 잊어야 한다는 마음으로는 세계관 연결인가요오?\n뮤비에 핀 꽃아주는게 연결선인것 같아서요!!🌸",
      "content_zh": "姐姐，不知道《永恒的故事》、《夜信》和《必须忘记的心情》是世界观连接吗？MV中开花送花像是连接线！！🌸",
      "post_time": "2025-05-27 07:24:20",
      "image_count": 0,
      "image_urls": null,
      "local_image_paths": null,
      "likes": 0,
      "comments": 0,
      "views": 0,
      "board": "Dear. IU",
      "members_only": 0,
      "author_username": "감자닝",
      "author_avatar": null,
      "author_local_avatar": null,
      "fan_comments": [],
      "direct_iu_replies": [
        {
          "id": 1690,
          "content_ko": "연결되지... 않습니다!!",
          "content_zh": "我也爱你！！！",
          "image_count": 0,
          "image_urls": null,
          "local_image_paths": null,
          "replied_at": "2025-05-27 07:35:56"
        }
      ]
    },
    {
      "id": 857,
      "post_uuid": "019710a0-4702-53e8-1ccb-ed81fab491b6",
      "title_ko": null,
      "title_zh": null,
      "content_ko": "언니, 그런 무리한 룸메이트를 만났을 때 어떻게 해야 할까요? 제대로 얘기해도 소용이 없어요.",
      "content_zh": "姐姐，遇到那种过分的室友该怎么办？好好说话也没用。",
      "post_time": "2025-05-27 07:23:48",
      "image_count": 0,
      "image_urls": null,
      "local_image_paths": null,
      "likes": 0,
      "comments": 0,
      "views": 0,
      "board": "Dear. IU",
      "members_only": 0,
      "author_username": "iloveuuuuyeahh",
      "author_avatar": null,
      "author_local_avatar": null,
      "fan_comments": [],
      "direct_iu_replies": [
        {
          "id": 1689,
          "content_ko": "노력해도 소용 없다면 그때부터는 무시!! 마음 수련이라 생각하고 견디자!!",
          "content_zh": "即使努力也没有用的话，那就从那时起无视它吧！就当是修心练性，坚持下去！",
          "image_count": 0,
          "image_urls": null,
          "local_image_paths": null,
          "replied_at": "2025-05-27 07:43:57"
        }
      ]
    }
  ]
}