{
  "page": 28,
  "totalPages": 45,
  "total": 895,
  "data": [
    {
      "id": 620,
      "post_uuid": "01977256-705d-c843-b332-0f643176d02e",
      "title_ko": null,
      "title_zh": null,
      "content_ko": "언니 ! 언니가 여행지 추천 해줬음 좋겠어!",
      "content_zh": "姐姐！希望姐姐给我推荐旅游地！",
      "post_time": "2025-06-15 06:45:56",
      "image_count": 0,
      "image_urls": null,
      "local_image_paths": null,
      "likes": 0,
      "comments": 0,
      "views": 0,
      "board": "Dear. IU",
      "members_only": 0,
      "author_username": "지금이_아이유",
      "author_avatar": null,
      "author_local_avatar": null,
      "fan_comments": [],
      "direct_iu_replies": [
        {
          "id": 1447,
          "content_ko": "국내여행이면 제주도나 전주 한옥 마을\n여수 밤바다 가평 쪽 펜션 어때?",
          "content_zh": "国内旅游的话济州岛或全州韩屋村",
          "image_count": 0,
          "image_urls": null,
          "local_image_paths": null,
          "replied_at": "2025-06-15 06:48:31"
        }
      ]
    },
    {
      "id": 619,
      "post_uuid": "01977256-5eca-67f2-af08-71d9ec21437a",
      "title_ko": null,
      "title_zh": null,
      "content_ko": "언니언니! 최근에 키는 몇이에요??🤔",
      "content_zh": "姐姐姐姐！最近身高多少啊？？🤔",
      "post_time": "2025-06-15 06:45:52",
      "image_count": 0,
      "image_urls": null,
      "local_image_paths": null,
      "likes": 0,
      "comments": 0,
      "views": 0,
      "board": "Dear. IU",
      "members_only": 0,
      "author_username": "꽃잎",
      "author_avatar": null,
      "author_local_avatar": null,
      "fan_comments": [],
      "direct_iu_replies": [
        {
          "id": 1446,
          "content_ko": "작년에 163.2 찍었다가 올해 162.7 로 작아짐..",
          "content_zh": "去年测了163.2今年变成162.7变矮了..",
          "image_count": 0,
          "image_urls": null,
          "local_image_paths": null,
          "replied_at": "2025-06-15 06:50:16"
        }
      ]
    },
    {
      "id": 618,
      "post_uuid": "01977255-dd5c-7d98-1590-1290268554e3",
      "title_ko": null,
      "title_zh": null,
      "content_ko": "아파서 입원했는데 혼자라 더 서러워🥺🥺",
      "content_zh": "因为生病住院了，一个人更觉得凄凉🥺🥺",
      "post_time": "2025-06-15 06:45:19",
      "image_count": 1,
      "image_urls": "https://dearimage.iu101.org/images/posts/post_618_529570108.jpeg",
      "local_image_paths": "https://dearimage.iu101.org/images/posts/post_618_529570108.jpeg",
      "likes": 0,
      "comments": 0,
      "views": 0,
      "board": "Dear. IU",
      "members_only": 0,
      "author_username": "하은ꕤ",
      "author_avatar": "https://dearimage.iu101.org/images/avatars/avatar_91.gif",
      "author_local_avatar": "https://dearimage.iu101.org/images/avatars/avatar_91.gif",
      "fan_comments": [],
      "direct_iu_replies": [
        {
          "id": 1445,
          "content_ko": "아이고 환자분 불편하신 데는 없으세요? 열 좀 재드릴게요",
          "content_zh": "哎呀患者您有什么不舒服的地方吗？我给您量下体温",
          "image_count": 0,
          "image_urls": null,
          "local_image_paths": null,
          "replied_at": "2025-06-15 06:52:51"
        }
      ]
    },
    {
      "id": 617,
      "post_uuid": "01977255-d8ef-e7de-c5bd-9b7c07ed1bb7",
      "title_ko": null,
      "title_zh": null,
      "content_ko": "내 세계에서 나는 IU's house 를 지었다",
      "content_zh": "在我的世界里，我建造了 IU's house",
      "post_time": "2025-06-15 06:45:18",
      "image_count": 3,
      "image_urls": "https://dearimage.iu101.org/images/posts/post_617_1839009860.png",
      "local_image_paths": "https://dearimage.iu101.org/images/posts/post_617_1839009860.png|https://dearimage.iu101.org/images/posts/post_617_1837809654.png|https://dearimage.iu101.org/images/posts/post_617_1836979144.png",
      "likes": 0,
      "comments": 0,
      "views": 0,
      "board": "Dear. IU",
      "members_only": 0,
      "author_username": "Jiaming",
      "author_avatar": null,
      "author_local_avatar": null,
      "fan_comments": [],
      "direct_iu_replies": [
        {
          "id": 1444,
          "content_ko": "ㅋㅋㅋㅋㅋㅋ",
          "content_zh": "哈哈哈",
          "image_count": 0,
          "image_urls": null,
          "local_image_paths": null,
          "replied_at": "2025-06-15 06:53:53"
        }
      ]
    },
    {
      "id": 616,
      "post_uuid": "01977255-af1d-d5f5-7c9b-712ad4608a47",
      "title_ko": null,
      "title_zh": null,
      "content_ko": "지금 언니 근처에 네모난 게 있어요?",
      "content_zh": "现在姐姐附近有四方形的东西吗？",
      "post_time": "2025-06-15 06:45:07",
      "image_count": 0,
      "image_urls": null,
      "local_image_paths": null,
      "likes": 0,
      "comments": 0,
      "views": 0,
      "board": "Dear. IU",
      "members_only": 0,
      "author_username": "うさぎ",
      "author_avatar": "https://dearimage.iu101.org/images/avatars/avatar_43.jpeg",
      "author_local_avatar": "https://dearimage.iu101.org/images/avatars/avatar_43.jpeg",
      "fan_comments": [],
      "direct_iu_replies": [
        {
          "id": 1443,
          "content_ko": "대..본?",
          "content_zh": "试..镜？",
          "image_count": 0,
          "image_urls": null,
          "local_image_paths": null,
          "replied_at": "2025-06-15 06:55:08"
        }
      ]
    },
    {
      "id": 615,
      "post_uuid": "01977255-7bf1-7fcc-948b-6582646d6b76",
      "title_ko": null,
      "title_zh": null,
      "content_ko": "언니는 호주 분위기가 더 좋아요, 영국 분위기가 더 좋아요? 유학에서 나라를 선택하는 일에 있어서 당신의 의견도 묻고 싶습니다!🇬🇧🐨🦘🥰🥰💗",
      "content_zh": "姐姐更喜欢澳大利亚的氛围还是英国的氛围？在选择留学国家方面，我也想听听你的意见！🇬🇧🐨🦘🥰🥰💗",
      "post_time": "2025-06-15 06:44:54",
      "image_count": 0,
      "image_urls": null,
      "local_image_paths": null,
      "likes": 0,
      "comments": 0,
      "views": 0,
      "board": "Dear. IU",
      "members_only": 0,
      "author_username": "Jacklinnnine",
      "author_avatar": null,
      "author_local_avatar": null,
      "fan_comments": [],
      "direct_iu_replies": [
        {
          "id": 1442,
          "content_ko": "뭔가 호주는 자연친화적일 것 같아서 성격이 좋아질 것 같고 \n영국은 여러 문화를 배울 수 있을 것 같아",
          "content_zh": "总觉得澳大利亚应该很亲近自然，性格也会变得更好，\n英国则似乎能学到很多不同的文化。",
          "image_count": 0,
          "image_urls": null,
          "local_image_paths": null,
          "replied_at": "2025-06-15 06:56:46"
        }
      ]
    },
    {
      "id": 645,
      "post_uuid": "0197721d-d6d7-210a-e867-bd4d733d7434",
      "title_ko": null,
      "title_zh": null,
      "content_ko": "더위 안먹게 조심해!🫡🫶",
      "content_zh": "注意别中暑！🫡🫶",
      "post_time": "2025-06-15 05:44:07",
      "image_count": 0,
      "image_urls": null,
      "local_image_paths": null,
      "likes": 0,
      "comments": 0,
      "views": 0,
      "board": "Dear. IU",
      "members_only": 0,
      "author_username": "김꼬악",
      "author_avatar": null,
      "author_local_avatar": null,
      "fan_comments": [],
      "direct_iu_replies": [
        {
          "id": 1473,
          "content_ko": "팥빙수 먹어!!",
          "content_zh": "吃红豆刨冰！！",
          "image_count": 0,
          "image_urls": null,
          "local_image_paths": null,
          "replied_at": "2025-06-15 05:51:34"
        }
      ]
    },
    {
      "id": 644,
      "post_uuid": "0197721b-6d41-2a3b-4a8a-b617b42b487f",
      "title_ko": null,
      "title_zh": null,
      "content_ko": "아침 일찍부터 촬영하고 오후에 쉬기 vs 오후부터 밤샘 촬영하고 오전에 쉬기\n\n어떤 게 언니한테 더 잘 맞아요?! 요즘은 뒤죽박죽인 것 같아서 생체 리듬이 걱정되긴 햐 🫠",
      "content_zh": "清晨就开始拍摄，下午休息 VS 下午开始通宵拍摄，上午休息\n\n哪种安排更适合姐姐呢？最近感觉作息很混乱，有点担心生物钟会出问题 🫠",
      "post_time": "2025-06-15 05:41:29",
      "image_count": 0,
      "image_urls": null,
      "local_image_paths": null,
      "likes": 0,
      "comments": 0,
      "views": 0,
      "board": "Dear. IU",
      "members_only": 0,
      "author_username": "말랑찹쌀떡",
      "author_avatar": "https://dearimage.iu101.org/images/avatars/avatar_29.jpeg",
      "author_local_avatar": "https://dearimage.iu101.org/images/avatars/avatar_29.jpeg",
      "fan_comments": [],
      "direct_iu_replies": [
        {
          "id": 1472,
          "content_ko": "음 예전엔 후자였는데 요즘엔 전자! 해가 질락말락 노을질 때 혼자 퇴근하는 기분 얼마나 좋게요🥰",
          "content_zh": "嗯以前是后者，最近是前者！日落时分独自下班的心情有多美好啊🥰",
          "image_count": 0,
          "image_urls": null,
          "local_image_paths": null,
          "replied_at": "2025-06-15 05:53:02"
        }
      ]
    },
    {
      "id": 643,
      "post_uuid": "01977210-dbae-1ef2-bb35-d1bb5dff89fd",
      "title_ko": null,
      "title_zh": null,
      "content_ko": "지은 언니🤩\n저는 요 며칠 사이에 제가 제일 좋아하는 과일이 블루베리라는 걸 깨달았어요 🫐\n블루베리는 정말 못 참겠어요.\n나라마다 과일의 맛이 정말 다르잖아요.\n제 인생에서 먹어본 블루베리 중에 제일 맛있었던 건 한국산이었어요 🫐\n지난달에 언니의 IU HBD CAFE 에 갔을 때, 한국에서 산 블루베리가\n정말 신선하고 달콤했어요!!!!!!\n너무 그리워요! 그때 같이 샀던 딸기도 진짜 맛있었고요~\n그것도 제가 인생에서 먹어본 딸기 중 최고였어요 🍓\n\n생각해보니까 블루베리도 동글동글하네요!\n너무 귀여워요 ☺️\n역시 저는 동글동글한 것들에 끌리는 것 같아요.\n그중에서도 제일 좋아하는 건 바로 언니예요.\n언니의 이름도 성격도 전부 동글동글하고,\n게다가 진짜 너무 귀여워요 ☺️\n세상에서 제일 귀여워요 ☺️\n\n초귀여운 언니는 귤 말고도 좋아하는 과일이 있나요?\n추천해주실 수 있어요?\n다음에 한국 가면 꼭 하나하나 다 맛보고 싶어요 🤤\n물론… 또 블루베리를 살 수 있는 기회가 있다면\n그땐 몇 상자 더 사서 호텔에 들고 가서 먹을 거예요 🤤\n",
      "content_zh": "知恩欧尼🤩\n这几天我发现自己最喜欢的水果竟然是蓝莓🫐\n蓝莓真的让人无法抗拒。\n各国水果的味道真的都不一样呢。\n在我人生中吃过的蓝莓里，最好吃的还是韩国产的🫐\n上个月去欧尼的 IU HBD 咖啡厅时，在韩国买的蓝莓\n真的非常新鲜又香甜！！！\n好怀念啊！那时候一起买的草莓也特别好吃～\n也是我人生中吃过最棒的草莓🍓\n\n想想看蓝莓也是圆滚滚的呢！\n太可爱了☺️\n果然我很喜欢圆滚滚的东西。\n其中我最喜欢的就是欧尼啦。\n欧尼的名字和性格都很圆润，\n而且真的超级可爱☺️\n是世界上最可爱的☺️\n\n超可爱的欧尼除了橘子还有什么喜欢的水果吗？\n可以给我推荐一下吗？\n下次去韩国一定要一个一个都尝一遍🤤\n当然…如果还有机会买蓝莓的话\n那时候我要多买几箱带到酒店吃🤤",
      "post_time": "2025-06-15 05:29:56",
      "image_count": 3,
      "image_urls": "https://dearimage.iu101.org/images/posts/post_643_362628381.png",
      "local_image_paths": "https://dearimage.iu101.org/images/posts/post_643_362628381.png|https://dearimage.iu101.org/images/posts/post_643_358738115.png|https://dearimage.iu101.org/images/posts/post_643_359541679.png",
      "likes": 0,
      "comments": 0,
      "views": 0,
      "board": "Dear. IU",
      "members_only": 0,
      "author_username": "暂停活动的用户",
      "author_avatar": null,
      "author_local_avatar": null,
      "fan_comments": [],
      "direct_iu_replies": [
        {
          "id": 1471,
          "content_ko": "나는 사과를 좋아해요 사실 과일이란 과일은 키위 빼고 거의 다 좋아하지만 매일 먹는 건 사과!\n사과 중에서도 홍로! 🍎",
          "content_zh": "我喜欢苹果，其实除了猕猴桃以外的水果我都喜欢，但每天吃的都是苹果！ 苹果中最喜欢红富士！🍎",
          "image_count": 0,
          "image_urls": null,
          "local_image_paths": null,
          "replied_at": "2025-06-15 05:55:03"
        }
      ]
    },
    {
      "id": 642,
      "post_uuid": "0197720c-9936-4a08-4232-6bf6f4cebde9",
      "title_ko": null,
      "title_zh": null,
      "content_ko": "언니 점심먹었오?\n나는 남편하구 비빔국수먹었어!!존맛!",
      "content_zh": "姐姐吃午饭了吗？ 我和老公吃了拌面！！超好吃！",
      "post_time": "2025-06-15 05:25:17",
      "image_count": 0,
      "image_urls": null,
      "local_image_paths": null,
      "likes": 0,
      "comments": 0,
      "views": 0,
      "board": "Dear. IU",
      "members_only": 0,
      "author_username": "아이유애나8기",
      "author_avatar": null,
      "author_local_avatar": null,
      "fan_comments": [],
      "direct_iu_replies": [
        {
          "id": 1470,
          "content_ko": "아직 안 먹었오 지금 일어났거든 아직 침대야 😴",
          "content_zh": "还没吃呢现在刚起床还在床上呢😴",
          "image_count": 0,
          "image_urls": null,
          "local_image_paths": null,
          "replied_at": "2025-06-15 05:55:39"
        },
        {
          "id": 1469,
          "content_ko": "비빔국수 진짜 맛있었겠다 \n나는 어제 잔치국수 먹었는데!!",
          "content_zh": "拌面条肯定很好吃吧，我昨天吃了宴会面！！",
          "image_count": 0,
          "image_urls": null,
          "local_image_paths": null,
          "replied_at": "2025-06-15 05:56:01"
        }
      ]
    },
    {
      "id": 641,
      "post_uuid": "019771fb-4883-f4e1-1664-04ff6a977521",
      "title_ko": null,
      "title_zh": null,
      "content_ko": "언니, 제가 시험에 큰 문제가 생겨서 시험지 코드를 기입하는 것을 잊어버려서 점수가 안 나올 수도 있어요, 전에 이런 시험 훈련을 한 적이 없기 때문에 이 사실을 몰랐지만, 저는 그로 인해 상심하고 오랫동안 준비했고, 또한 제가 부주의하다고 느꼈어요🤕😧😥😱😩😩, 당신이 저를 위로해 줄 수 있나요🥹😭",
      "content_zh": "姐姐，我考试出了大问题，忘记填写答题卡的代码，可能出不了成绩。因为以前没有参加过这样的考试训练，所以不知道这个情况，但因此我很伤心，准备了这么长时间，也觉得自己太粗心了🤕😧😥😱😩😩，你能安慰我一下吗🥹😭",
      "post_time": "2025-06-15 05:06:22",
      "image_count": 0,
      "image_urls": null,
      "local_image_paths": null,
      "likes": 0,
      "comments": 0,
      "views": 0,
      "board": "Dear. IU",
      "members_only": 0,
      "author_username": "今天听Palette了吗",
      "author_avatar": "https://dearimage.iu101.org/images/avatars/avatar_304.jpeg",
      "author_local_avatar": "https://dearimage.iu101.org/images/avatars/avatar_304.jpeg",
      "fan_comments": [],
      "direct_iu_replies": [
        {
          "id": 1468,
          "content_ko": "아이고 너무 속상하겠다 ㅜㅜ... \n시험 때는 넘 긴장해서 그럴 수 있지... 거기에 계속 고여있지 말고 다음에 절대로 같은 실수 안 한다는 마음으로 절치부심해!! 토닥토닥 그럴 수 있어어",
          "content_zh": "哎呀，一定很伤心吧ㅜㅜ...\n考试时太紧张了才会这样...别一直闷闷不乐，要下定决心下次绝不再犯同样的错误，振作起来！！拍拍肩膀，这种事情谁都会遇到的",
          "image_count": 0,
          "image_urls": null,
          "local_image_paths": null,
          "replied_at": "2025-06-15 05:59:21"
        }
      ]
    },
    {
      "id": 640,
      "post_uuid": "019771ec-781b-6b8b-2652-32b483cd9164",
      "title_ko": null,
      "title_zh": null,
      "content_ko": "브이를 요로케 하는 게 그 시절 감성인가요....?\n같이 찍어봤는데 약간 맛 내기가 어렵더라구 😗\n포즈는 다 언니가 정해써여?-?",
      "content_zh": "V 字这样比是那个时代的感性吗....？ 一起拍了拍，但有点难掌握技巧 😗 姿势都是姐姐定的-？",
      "post_time": "2025-06-15 04:50:12",
      "image_count": 2,
      "image_urls": "https://dearimage.iu101.org/images/posts/post_640_1367595465.jpeg",
      "local_image_paths": "https://dearimage.iu101.org/images/posts/post_640_1367545245.jpeg|https://dearimage.iu101.org/images/posts/post_640_1367595465.jpeg",
      "likes": 0,
      "comments": 0,
      "views": 0,
      "board": "Dear. IU",
      "members_only": 0,
      "author_username": "말랑찹쌀떡",
      "author_avatar": "https://dearimage.iu101.org/images/avatars/avatar_29.jpeg",
      "author_local_avatar": "https://dearimage.iu101.org/images/avatars/avatar_29.jpeg",
      "fan_comments": [],
      "direct_iu_replies": [
        {
          "id": 1467,
          "content_ko": "그냥 약간 깜찌기 감성...? 나만 아는 거야..?? ",
          "content_zh": "就是有点小鹿乱撞的感觉...？只有我知道吗..？",
          "image_count": 0,
          "image_urls": null,
          "local_image_paths": null,
          "replied_at": "2025-06-15 06:01:11"
        }
      ]
    },
    {
      "id": 639,
      "post_uuid": "019771e9-c7af-34d0-9bfb-c472c0f0a6ef",
      "title_ko": null,
      "title_zh": null,
      "content_ko": "아이유 님 점심 뭘 먹었어요? \n저는 도쿄에 있는데 오키나와 명산의 소키소바를 먹었어요. \n너무 맛있었어요😋\n",
      "content_zh": "IU，午餐吃了什么？ 我在东京，吃了冲绳特产的索奇索巴。 太好吃了😋",
      "post_time": "2025-06-15 04:47:15",
      "image_count": 1,
      "image_urls": "https://dearimage.iu101.org/images/posts/post_639_1292102848.jpeg",
      "local_image_paths": "https://dearimage.iu101.org/images/posts/post_639_1292102848.jpeg",
      "likes": 0,
      "comments": 0,
      "views": 0,
      "board": "Dear. IU",
      "members_only": 0,
      "author_username": "타카오",
      "author_avatar": null,
      "author_local_avatar": null,
      "fan_comments": [],
      "direct_iu_replies": [
        {
          "id": 1466,
          "content_ko": "같이 먹은 기분이넹😊 이래서 포카 데리구 다니는구나",
          "content_zh": "感觉一起吃了呢😊所以才带着POCA到处跑啊。",
          "image_count": 0,
          "image_urls": null,
          "local_image_paths": null,
          "replied_at": "2025-06-15 06:02:01"
        }
      ]
    },
    {
      "id": 638,
      "post_uuid": "019771e6-be75-a29c-75dd-6079a61c368d",
      "title_ko": null,
      "title_zh": null,
      "content_ko": "우리 귀여운 지은이, aka 최고의 마크 장인님! \n지금 점심시간인데, 거긴 비 오고 있어요?\n맛있는 점심 꼭꼭 챙겨 먹어요~🍱",
      "content_zh": "我们可爱的知恩，aka 最佳 marking 专家！ 现在是午餐时间，那边下雨了吗？ 记得好好吃美味的午餐哦~🍱",
      "post_time": "2025-06-15 04:43:56",
      "image_count": 0,
      "image_urls": null,
      "local_image_paths": null,
      "likes": 0,
      "comments": 0,
      "views": 0,
      "board": "Dear. IU",
      "members_only": 0,
      "author_username": "파김치",
      "author_avatar": "https://dearimage.iu101.org/images/avatars/avatar_39.jpeg",
      "author_local_avatar": "https://dearimage.iu101.org/images/avatars/avatar_39.jpeg",
      "fan_comments": [],
      "direct_iu_replies": [
        {
          "id": 1465,
          "content_ko": "오늘 비온대서 촬영 급하게 취소 됐는데 \n비 안 와😮",
          "content_zh": "今天预报下雨拍摄紧急取消了，但没下雨😮",
          "image_count": 0,
          "image_urls": null,
          "local_image_paths": null,
          "replied_at": "2025-06-15 06:03:36"
        }
      ]
    },
    {
      "id": 637,
      "post_uuid": "019771d7-6a8b-b196-df5d-099df684e8ed",
      "title_ko": null,
      "title_zh": null,
      "content_ko": "지은 님, 어젯밤에 꿈에서 저랑 친구 열 명 넘게 함께 한국에 가서 지은 님 콘서트를 봤어요. 공연장이 엄청 컸는데 운 좋게도 저희 모두 내자 자리였거든요. 공연 내내 정말정말 행복했어요. 지은 님은 무대 위를 계속 뛰어다니시는데 너무 귀여우셨어요. 호텔에 돌아와서야 공연 티켓 뒤에 즉석 복권이 있는 걸 발견했어요. 그래서 제 티켓을 긁어봤는데, 대박이 터졌더라고요! 거의 10 만 위안(한화 약 1800 만원) 정도 되는 금액이었고, 숫자도 4 자리 모두 되게 길한 숫자였어요. 저는 너무 놀라서 멍하니 있었는데, 옆에 있던 친구들이 축하해주니까 그제서야 깨달았어요. 그 뒤에 제 친구들이 자기들 티켓도 저한테 주면서 긁어보라고 했는데, 거기서도 숫자가 나와서 각자 천 위안(한화 약 18 만원) 정도씩 당첨됐어요. 진짜 신기했어요! 지은 님, 제가 이제 복권 좀 사야 할까요?😂😂",
      "content_zh": "知恩，昨晚梦里我和十几个朋友一起去韩国看了知恩的演唱会。演出场地特别大，运气好我们都坐前排。演出全程真的很幸福。知恩一直在舞台上跑来跑去太可爱了。回到酒店才发现演出票后面有刮刮乐彩票。所以我刮了票，结果中了大奖！差不多 10 万人民币（韩币约 1800 万韩元），四个数字都是很吉利的数字。我太惊讶愣在那里，旁边朋友们祝贺我才反应过来。然后朋友们把他们的票也给我让我刮，结果也出了数字，各自中了约一千人民币（韩币约 18 万韩元）。真的好神奇！知恩，我现在该买点彩票吗？😂😂",
      "post_time": "2025-06-15 04:27:12",
      "image_count": 0,
      "image_urls": null,
      "local_image_paths": null,
      "likes": 0,
      "comments": 0,
      "views": 0,
      "board": "Dear. IU",
      "members_only": 0,
      "author_username": "kokoUI",
      "author_avatar": null,
      "author_local_avatar": null,
      "fan_comments": [],
      "direct_iu_replies": [
        {
          "id": 1464,
          "content_ko": "복권 사!!",
          "content_zh": "买彩票！！",
          "image_count": 0,
          "image_urls": null,
          "local_image_paths": null,
          "replied_at": "2025-06-15 06:05:01"
        }
      ]
    },
    {
      "id": 636,
      "post_uuid": "019771d6-fed7-6bb6-92c0-e2912b514082",
      "title_ko": null,
      "title_zh": null,
      "content_ko": "언니 나 할일을 너무 많이 미뤄 미루는 습관 어떻게 고쳐야할까 \n시험 2 주남았는데 정신 못차리는중이야…….\n공부하라고 혼 좀 내줘!!ㅠㅠ",
      "content_zh": "姐姐我有个习惯，总是把事情拖来拖去，这个习惯怎么改呢 试还有 2 周就到了，现在还提不起精神...... 劝劝我好好学习吧！！ㅠㅠ",
      "post_time": "2025-06-15 04:26:44",
      "image_count": 0,
      "image_urls": null,
      "local_image_paths": null,
      "likes": 0,
      "comments": 0,
      "views": 0,
      "board": "Dear. IU",
      "members_only": 0,
      "author_username": "이서융",
      "author_avatar": null,
      "author_local_avatar": null,
      "fan_comments": [],
      "direct_iu_replies": [
        {
          "id": 1463,
          "content_ko": "그런 친구들 중에 남은 일주일 동안 초인적인 힘을 발휘해서 성적 괜찮게 나오는 친구들 있는데 \n쀼는 어떤 스타일이야?",
          "content_zh": "这种朋友中有一些在剩下的一周里发挥超人般的力量让成绩变好，你是哪种风格？",
          "image_count": 0,
          "image_urls": null,
          "local_image_paths": null,
          "replied_at": "2025-06-15 06:06:08"
        }
      ]
    },
    {
      "id": 635,
      "post_uuid": "019771d0-cc1b-2d6b-e426-9b443857da3f",
      "title_ko": null,
      "title_zh": null,
      "content_ko": "아이유 님, 안녕하세요!\n이번 주에 딸기달이 하늘에 떠서, 지난해 런던 콘서트 밤의 행복한 기억들이 다시 떠올랐고, 진심으로 감사드리고 싶은 마음이 들었어요. 🍓🌕\n\n제 인생 첫 콘서트였고, 특히 아이유 님 어머님께서 팬들을 위해 정성껏 선물을 준비해 주셨다는 점이 정말 감동이었어요. 감사한 마음, 꼭 전해 주세요. 🙏🏻\n\n아이유 님이 기타를 치시는 모습을 직접 보는 게 오래된 소원이었는데, 제가 정말 좋아하는 노래 중 하나인 ‘Like A Star’를 뜻밖에 연주해 주셔서 그 아름다움에 제 마음이 조용히 울었답니다. 🥹\n\n그리고 그날 밤, 스트로베리 문 아래에서 우리 모두가 함께 ‘Strawberry Moon’을 불렀던 순간은 오래도록 잊지 못할 소중한 추억이에요. 노래가 시작되기 전엔 잘할 수 있을까 살짝 걱정도 됐지만, 결국 모두가 하나 되어 정말 멋지게 해냈죠! 😌 그쵸?\n\n월드 투어가 얼마나 힘드셨을지 상상도 할 수 없어서, 해외 유애나들을 위해 이렇게 먼 런던까지 와주셔서, 또 멋진 공연도 보여주셔서 진심으로 감사드려요.\n많이 바쁘시겠지만, 언젠가 다시 런던에서 딸기달 아래, 모두 함께 모여 노래 부르는 기쁨을 다시 누릴 수 있으면 좋겠어요. 정말 많이 보고 싶어요. 🫶🏻 \n\n– \"꿈같은 순간이 또 있을까… 아마도 우리가 처음 발견한 오늘 이 밤의 모든 것.\"",
      "content_zh": "IU，你好！\n这周草莓月升上天空，让我再次想起了去年伦敦演唱会那晚幸福的记忆，真心想向你表达感谢之情。🍓🌕\n\n那是我人生中第一场演唱会，特别是 IU 的妈妈特意为粉丝们精心准备礼物，真的让我非常感动。请一定要替我传达这份感激之情。🙏🏻\n\n我一直有个长久以来的愿望，就是亲眼看到 IU 弹吉他的样子，而那天你意外地演奏了我最喜欢的歌曲之一《Like A Star》，那份美丽让我的心悄悄落泪。🥹\n\n还有那个夜晚，在草莓月光下我们一起合唱《Strawberry Moon》的瞬间，将成为我久久难忘的珍贵回忆。虽然在歌曲开始前还稍微担心能不能唱好，但最终我们所有人融为一体，完成得非常精彩！😌 对吧？\n\n我能想象世界巡演有多么辛苦，但你还是为了海外的 IU 粉们远赴伦敦，又带来了精彩的演出，真心感谢你们。\n虽然你一定很忙，但如果有一天能在伦敦再次相聚，在草莓月亮下大家一起唱歌，那就太好了。真的很想念你们。🫶🏻\n\n——\"还会有如此梦幻的时刻吗……也许就是我们初次发现的今晚的一切。\"",
      "post_time": "2025-06-15 04:19:58",
      "image_count": 1,
      "image_urls": "https://dearimage.iu101.org/images/posts/post_635_2046287924.jpg",
      "local_image_paths": "https://dearimage.iu101.org/images/posts/post_635_2046287924.jpg",
      "likes": 0,
      "comments": 0,
      "views": 0,
      "board": "Dear. IU",
      "members_only": 0,
      "author_username": "Like_A_Star",
      "author_avatar": null,
      "author_local_avatar": null,
      "fan_comments": [],
      "direct_iu_replies": [
        {
          "id": 1462,
          "content_ko": "월드 투어는 정말 힘들었고 그때 소진된 체력이 아직도 다 온전히 돌아온 것 같지는 않지만 ㅋㅋ\n해외애나들을 만나러 갔던 것은 내 인생에서 제일 잘한 선택 중 하나예요 나도 보고 싶어요❤️‍🔥",
          "content_zh": "世界巡演真的很辛苦，那时候消耗的体力到现在都还没完全恢复过来呢哈哈\n但去见海外粉丝们绝对是我人生中最棒的选择之一，我也很想念大家❤️‍🔥",
          "image_count": 0,
          "image_urls": null,
          "local_image_paths": null,
          "replied_at": "2025-06-15 06:08:19"
        }
      ]
    },
    {
      "id": 634,
      "post_uuid": "019771bc-f6a7-61dc-baec-80a1f420cd3b",
      "title_ko": null,
      "title_zh": null,
      "content_ko": "지은 언니 !! 오늘 일정 많앙 ?",
      "content_zh": "知恩姐姐！！今天行程多吗？",
      "post_time": "2025-06-15 03:58:18",
      "image_count": 0,
      "image_urls": null,
      "local_image_paths": null,
      "likes": 0,
      "comments": 0,
      "views": 0,
      "board": "Dear. IU",
      "members_only": 0,
      "author_username": "이찌우",
      "author_avatar": null,
      "author_local_avatar": null,
      "fan_comments": [],
      "direct_iu_replies": [
        {
          "id": 1461,
          "content_ko": "오늘 좀 이따가 뭐 배우러 가야 해!",
          "content_zh": "今天稍后还要去学点什么！",
          "image_count": 0,
          "image_urls": null,
          "local_image_paths": null,
          "replied_at": "2025-06-15 06:09:47"
        }
      ]
    },
    {
      "id": 633,
      "post_uuid": "0197719f-95e0-608b-b0ce-47ba54666abc",
      "title_ko": null,
      "title_zh": null,
      "content_ko": "지은아, 희주랑 친구가 되려면 어떤 조건이 필요할까?\n사람 잘 웃게 해주는 거면… 괜찮을까? 🥳",
      "content_zh": "知恩啊，要和熙珠成为朋友需要什么条件呢？ 如果是让人开心地笑...可以吗？🥳",
      "post_time": "2025-06-15 03:26:13",
      "image_count": 0,
      "image_urls": null,
      "local_image_paths": null,
      "likes": 0,
      "comments": 0,
      "views": 0,
      "board": "Dear. IU",
      "members_only": 0,
      "author_username": "파김치",
      "author_avatar": "https://dearimage.iu101.org/images/avatars/avatar_39.jpeg",
      "author_local_avatar": "https://dearimage.iu101.org/images/avatars/avatar_39.jpeg",
      "fan_comments": [],
      "direct_iu_replies": [
        {
          "id": 1460,
          "content_ko": "희주를... 무섭다고 생각하면 못 친해져! 싸바싸바 금지!!",
          "content_zh": "如果觉得熙珠很可怕的话就交不到朋友了！禁止撒娇！！",
          "image_count": 0,
          "image_urls": null,
          "local_image_paths": null,
          "replied_at": "2025-06-15 06:18:57"
        }
      ]
    },
    {
      "id": 632,
      "post_uuid": "0197716d-08f2-b6d2-9102-024b2cad28c1",
      "title_ko": null,
      "title_zh": null,
      "content_ko": "언니~ 인스타 업데이트 안 하신 거 잊으신 건 아니죠? 👀 MV 비하인드 셀카도 볼 수 있을까요? 🤲🏻🤲🏻",
      "content_zh": "姐姐~没忘记更新 Instagram 吧？👀 MV 幕后自拍也能看到吗？🤲🏻🤲🏻",
      "post_time": "2025-06-15 02:31:00",
      "image_count": 0,
      "image_urls": null,
      "local_image_paths": null,
      "likes": 0,
      "comments": 0,
      "views": 0,
      "board": "Dear. IU",
      "members_only": 0,
      "author_username": "아이유의크레페૮᎔•⩊•᎔ა",
      "author_avatar": "https://dearimage.iu101.org/images/avatars/avatar_7.jpeg",
      "author_local_avatar": "https://dearimage.iu101.org/images/avatars/avatar_7.jpeg",
      "fan_comments": [],
      "direct_iu_replies": [
        {
          "id": 1459,
          "content_ko": "아 그거 약간 텀 놓친 거 같아서 안 할까 했는데 할까요? 아님 베리즈에다가만 풀까?",
          "content_zh": "啊那个好像有点冷场了，本来不想做的，要做吗？还是只在V LIVE上发？",
          "image_count": 0,
          "image_urls": null,
          "local_image_paths": null,
          "replied_at": "2025-06-15 06:21:46"
        }
      ]
    }
  ]
}
