{
  "page": 6,
  "totalPages": 45,
  "total": 895,
  "data": [
    {
      "id": 132,
      "post_uuid": "0199d533-24cb-e2df-9a74-f06ad9582c58",
      "title_ko": null,
      "title_zh": null,
      "content_ko": "잘 잤어요? 오늘은 몇시에 나가용",
      "content_zh": "睡得好吗？今天几点出门",
      "post_time": "2025-10-11 21:35:22",
      "image_count": 0,
      "image_urls": null,
      "local_image_paths": null,
      "likes": 0,
      "comments": 0,
      "views": 0,
      "board": "Dear. IU",
      "members_only": 0,
      "author_username": "JAEHUN",
      "author_avatar": null,
      "author_local_avatar": null,
      "fan_comments": [],
      "direct_iu_replies": [
        {
          "id": 659,
          "content_ko": "밖이야 🤫",
          "content_zh": "外面 🤫",
          "image_count": 0,
          "image_urls": null,
          "local_image_paths": null,
          "replied_at": "2025-10-11 21:45:01"
        }
      ]
    },
    {
      "id": 131,
      "post_uuid": "0199d532-d441-d395-db86-3a5aaaf0a691",
      "title_ko": null,
      "title_zh": null,
      "content_ko": "언니 굿모닝❤️ 난 이제 잘려구ㅎㅎ\n연휴동안 생활패턴이 완전 바뀌어서 이제 아침되면 잠와 ㅠ\n낼 출근 잘할수있겠지 🥹 오늘도 화이팅이얌 🤍❤️🫶",
      "content_zh": "姐姐早上好❤️ 我现在要去睡觉啦ㅎㅎ\n假期期间生活规律完全乱了，现在一到早上就犯困ㅠ\n明天能顺利上班吧 🥹 今天也要加油哦 🤍❤️🫶",
      "post_time": "2025-10-11 21:35:02",
      "image_count": 0,
      "image_urls": null,
      "local_image_paths": null,
      "likes": 0,
      "comments": 0,
      "views": 0,
      "board": "Dear. IU",
      "members_only": 0,
      "author_username": "도연",
      "author_avatar": null,
      "author_local_avatar": null,
      "fan_comments": [],
      "direct_iu_replies": [
        {
          "id": 658,
          "content_ko": "신나는 연휴을 보냈나보군...😏",
          "content_zh": "度过了愉快的假期呢...😏",
          "image_count": 0,
          "image_urls": null,
          "local_image_paths": null,
          "replied_at": "2025-10-11 21:47:16"
        }
      ]
    },
    {
      "id": 130,
      "post_uuid": "0199d531-5d2b-cc09-0308-b5e670c806c0",
      "title_ko": null,
      "title_zh": null,
      "content_ko": "알람보다 1시간 일찍 깼을 때,,기분 너무 별루야🫩\n하 오늘은 침대아니고 풋살대회 결선가야하는데\n어제도 결선 1차여서 피곤하다ㅠㅠㅠ언니두 피곤하지?\n우리 서로 응원을 교환해보자!!!🔥❣️🔥❣️🔥\n",
      "content_zh": "比闹钟提前一小时醒来的时候，心情真的超级不好🫩\n啊，今天不能躺在床上了，要去参加五人制足球决赛\n昨天也是决赛第一场，好累啊ㅠㅠㅠ姐姐也累吗？\n我们互相加油打气吧！！！🔥❣️🔥❣️🔥",
      "post_time": "2025-10-11 21:33:26",
      "image_count": 1,
      "image_urls": "https://dearimage.iu101.org/images/posts/post_130_1731127892.jpeg",
      "local_image_paths": "https://dearimage.iu101.org/images/posts/post_130_1731127892.jpeg",
      "likes": 0,
      "comments": 0,
      "views": 0,
      "board": "Dear. IU",
      "members_only": 0,
      "author_username": "유애나답게",
      "author_avatar": "https://dearimage.iu101.org/images/avatars/avatar_363.jpeg",
      "author_local_avatar": "https://dearimage.iu101.org/images/avatars/avatar_363.jpeg",
      "fan_comments": [],
      "direct_iu_replies": [
        {
          "id": 657,
          "content_ko": "일요일 아침에 풋살 경기 가는 애나.. 멋지다 ❤️‍🔥",
          "content_zh": "周日早上去踢五人制足球的安娜..真帅 ❤️‍🔥",
          "image_count": 0,
          "image_urls": null,
          "local_image_paths": null,
          "replied_at": "2025-10-11 21:53:35"
        }
      ]
    },
    {
      "id": 129,
      "post_uuid": "0199d530-3851-44e6-0c3b-9467b7ce34de",
      "title_ko": null,
      "title_zh": null,
      "content_ko": "언니, 정말 기쁜 소식이 있어요! 저 지난 9월에 필리핀에서 3일 동안 치러진 사회복지사 국가시험에 합격해서 이제 정식 ‘사회복지사’가 됩니다! Yahoo!! 🎉\n필리핀에는 도움을 필요로 하는 취약 계층이 정말 많아서, 이런 일을 할 수 있게 된 것이 더 의미 있게 느껴져요.\n그리고 언니가 ‘Bye, Summer’를 깜짝 공개해줬을 때, 마치 저에게 주는 선물 같아서 큰 위로와 보상이 되었어요 🥹💜\n항상 고맙고, 사랑해요 언니!",
      "content_zh": "姐姐，有特别开心的消息要告诉你！我上个月九月在菲律宾参加了为期三天的社会福利师国家考试，顺利通过了，现在正式成为\"社会福利师\"了！Yahoo!! 🎉\n菲律宾有很多需要帮助的弱势群体，能从事这份工作让我觉得格外有意义。\n还有，当姐姐突然公开《Bye, Summer》这首歌的时候，感觉就像给我的礼物一样，给了我很大的安慰和鼓励 🥹💜\n一直很感谢你，爱你，姐姐！",
      "post_time": "2025-10-11 21:32:11",
      "image_count": 1,
      "image_urls": "https://dearimage.iu101.org/images/posts/post_129_1960786015.jpg",
      "local_image_paths": "https://dearimage.iu101.org/images/posts/post_129_1960786015.jpg",
      "likes": 0,
      "comments": 0,
      "views": 0,
      "board": "Dear. IU",
      "members_only": 0,
      "author_username": "leejia20",
      "author_avatar": null,
      "author_local_avatar": null,
      "fan_comments": [],
      "direct_iu_replies": [
        {
          "id": 656,
          "content_ko": "아고 대단해!!! 축하해 보람있는 일들을 많이 만나길 바라 🫶",
          "content_zh": "啊天好厉害！！恭喜你希望遇到更多有意义的事情 🫶",
          "image_count": 0,
          "image_urls": null,
          "local_image_paths": null,
          "replied_at": "2025-10-11 21:58:23"
        }
      ]
    },
    {
      "id": 128,
      "post_uuid": "0199d530-2852-0189-d681-0ff587a7d7e9",
      "title_ko": null,
      "title_zh": null,
      "content_ko": "언니 벌써 일어났구나아 🥺\n오늘도 알람 울리기 몇 분 전에 깼나요?",
      "content_zh": "姐姐已经起床了啊 🥺",
      "post_time": "2025-10-11 21:32:07",
      "image_count": 0,
      "image_urls": null,
      "local_image_paths": null,
      "likes": 0,
      "comments": 0,
      "views": 0,
      "board": "Dear. IU",
      "members_only": 0,
      "author_username": "애증",
      "author_avatar": null,
      "author_local_avatar": null,
      "fan_comments": [],
      "direct_iu_replies": [
        {
          "id": 655,
          "content_ko": "오늘 8분 전에 깼어 😴🥱",
          "content_zh": "今天提前8分钟醒了 😴🥱",
          "image_count": 0,
          "image_urls": null,
          "local_image_paths": null,
          "replied_at": "2025-10-11 21:59:44"
        }
      ]
    },
    {
      "id": 127,
      "post_uuid": "0199d52f-a10a-2768-48f4-86ee96dd49ee",
      "title_ko": null,
      "title_zh": null,
      "content_ko": "하 둥근해 또뜰려하네 전 이만 입시준비하러 나가보겟슴다ㅠ",
      "content_zh": "哈 圆脸又要露出来了 我这就去准备考试了ㅠ",
      "post_time": "2025-10-11 21:31:32",
      "image_count": 0,
      "image_urls": null,
      "local_image_paths": null,
      "likes": 0,
      "comments": 0,
      "views": 0,
      "board": "Dear. IU",
      "members_only": 0,
      "author_username": "이유는없어요",
      "author_avatar": null,
      "author_local_avatar": null,
      "fan_comments": [],
      "direct_iu_replies": [
        {
          "id": 654,
          "content_ko": "입시생들 파이팅!!!!! ❤️‍🔥",
          "content_zh": "考生们加油！！！❤️‍🔥",
          "image_count": 0,
          "image_urls": null,
          "local_image_paths": null,
          "replied_at": "2025-10-11 22:01:53"
        }
      ]
    },
    {
      "id": 140,
      "post_uuid": "0199d529-db51-3f43-1f8b-1cefe43eae36",
      "title_ko": null,
      "title_zh": null,
      "content_ko": "언니이 떡, 밥, 빵, 면 중에 뭐 제일 좋아해요??\n저는 빵 → 밥 → 면 → 떡 순으로 좋아해요!!!",
      "content_zh": "姐姐，年糕、米饭、面包、面条里面你最喜欢哪个？  \n我最喜欢的是面包→米饭→面条→年糕！！！",
      "post_time": "2025-10-11 21:25:14",
      "image_count": 0,
      "image_urls": null,
      "local_image_paths": null,
      "likes": 0,
      "comments": 0,
      "views": 0,
      "board": "Dear. IU",
      "members_only": 0,
      "author_username": "예빈..",
      "author_avatar": "https://dearimage.iu101.org/images/avatars/avatar_27.jpeg",
      "author_local_avatar": "https://dearimage.iu101.org/images/avatars/avatar_27.jpeg",
      "fan_comments": [],
      "direct_iu_replies": [
        {
          "id": 667,
          "content_ko": "면->떡->밥->빵",
          "content_zh": "面条->年糕->米饭->面包",
          "image_count": 0,
          "image_urls": null,
          "local_image_paths": null,
          "replied_at": "2025-10-11 21:30:20"
        }
      ]
    },
    {
      "id": 139,
      "post_uuid": "0199d524-5504-c2f4-6789-5632ea882a52",
      "title_ko": null,
      "title_zh": null,
      "content_ko": "언니 저는 여행 가려고 공항에 왔어요✈️\n오는 길에 눈 감고 생각을 하는데 언니 생각이 많이 나더라고요 ㅎㅎ 나의 삶이고 휴식이며 취미인 지으니 언니야\n오늘도 좋은 하루 보내요 사랑해 많이 많이!!💜",
      "content_zh": "姐姐，我去机场准备旅行啦✈️\n来的路上闭着眼睛想着事情，脑海里全是姐姐的身影呢 ㅎㅎ 对我来说既是生活又是休息和爱好的就是姐姐呀\n今天也要过得开心哦，非常非常爱你！！💜",
      "post_time": "2025-10-11 21:19:12",
      "image_count": 0,
      "image_urls": null,
      "local_image_paths": null,
      "likes": 0,
      "comments": 0,
      "views": 0,
      "board": "Dear. IU",
      "members_only": 0,
      "author_username": "혜린아",
      "author_avatar": null,
      "author_local_avatar": null,
      "fan_comments": [],
      "direct_iu_replies": [
        {
          "id": 666,
          "content_ko": "혜린아 조심이 다녀와 🫶",
          "content_zh": "惠琳小心回来了 🫶",
          "image_count": 0,
          "image_urls": null,
          "local_image_paths": null,
          "replied_at": "2025-10-11 21:31:23"
        }
      ]
    },
    {
      "id": 138,
      "post_uuid": "0199d51f-4bbd-6964-dd67-6fb7a0838e93",
      "title_ko": null,
      "title_zh": null,
      "content_ko": "언니언니~ 팬밋업은 아이유티비 안올라와요??",
      "content_zh": "姐姐姐姐~粉丝见面会不在IU TV上上传吗？？",
      "post_time": "2025-10-11 21:13:42",
      "image_count": 0,
      "image_urls": null,
      "local_image_paths": null,
      "likes": 0,
      "comments": 0,
      "views": 0,
      "board": "Dear. IU",
      "members_only": 0,
      "author_username": "이유민",
      "author_avatar": "https://dearimage.iu101.org/images/avatars/avatar_141.jpeg",
      "author_local_avatar": "https://dearimage.iu101.org/images/avatars/avatar_141.jpeg",
      "fan_comments": [],
      "direct_iu_replies": [
        {
          "id": 665,
          "content_ko": "올라와요~! 돌아오는 주에 올라온다고 알고 있어!!",
          "content_zh": "上来吧~！知道下周要回来的！！",
          "image_count": 0,
          "image_urls": null,
          "local_image_paths": null,
          "replied_at": "2025-10-11 21:32:25"
        }
      ]
    },
    {
      "id": 137,
      "post_uuid": "0199d51e-bf8e-cf7f-d6d7-2b8d72f623d1",
      "title_ko": null,
      "title_zh": null,
      "content_ko": "이번 수능응원영상 벌써 너~~무 기대돼요!!\n매번 응원영상 봐오면서 그냥 ‘언니 예쁘다!! 나도 언젠가 응원받는 날이 오긴오겠지?‘ 했었는데..진찌 와버렸네요..ㄷㄷ\n사실 6종합이라 수능 부담보다는 면접 부담이 크지만 그래도 영상보고 입시준비 힘내고 싶네요..!",
      "content_zh": "这次的高考加油视频我已经超级期待了！！\n每次看加油视频的时候都在想\"姐姐真漂亮！！总有一天我也能收到加油吧？\"没想到真的来了..太激动了..\n其实因为是综合招生，比起高考压力面试压力更大，不过还是想看完视频好好准备入学考试..！",
      "post_time": "2025-10-11 21:13:06",
      "image_count": 0,
      "image_urls": null,
      "local_image_paths": null,
      "likes": 0,
      "comments": 0,
      "views": 0,
      "board": "Dear. IU",
      "members_only": 0,
      "author_username": "이유민",
      "author_avatar": "https://dearimage.iu101.org/images/avatars/avatar_141.jpeg",
      "author_local_avatar": "https://dearimage.iu101.org/images/avatars/avatar_141.jpeg",
      "fan_comments": [],
      "direct_iu_replies": [
        {
          "id": 664,
          "content_ko": "벌써..? 진짜..?\n유민이는 잘할 거야!! ❤️‍🔥",
          "content_zh": "已经..？真的..？",
          "image_count": 0,
          "image_urls": null,
          "local_image_paths": null,
          "replied_at": "2025-10-11 21:36:11"
        }
      ]
    },
    {
      "id": 141,
      "post_uuid": "0199d3f5-b2b6-15be-0141-35e08d58010e",
      "title_ko": null,
      "title_zh": null,
      "content_ko": "언니 잘자ㅏ 좋은 꿈 꿔요",
      "content_zh": "姐姐晚安 做个好梦",
      "post_time": "2025-10-11 15:48:38",
      "image_count": 0,
      "image_urls": null,
      "local_image_paths": null,
      "likes": 0,
      "comments": 0,
      "views": 0,
      "board": "Dear. IU",
      "members_only": 0,
      "author_username": "지은이지원",
      "author_avatar": null,
      "author_local_avatar": null,
      "fan_comments": [],
      "direct_iu_replies": [
        {
          "id": 668,
          "content_ko": "그래 모두 잘 자 내일 또 놀자아 ❤️‍🔥\n숙면하기를 🙂‍↕️",
          "content_zh": "好啦大家都好好睡明天再玩 ❤️‍🔥",
          "image_count": 0,
          "image_urls": null,
          "local_image_paths": null,
          "replied_at": "2025-10-11 15:49:46"
        }
      ]
    },
    {
      "id": 147,
      "post_uuid": "0199d3e9-f55a-3546-43c6-3463796b0747",
      "title_ko": null,
      "title_zh": null,
      "content_ko": "언니~~ 이제 퇴근하고 집에서 편히 쉬는중인가?!😚",
      "content_zh": "姐姐~~现在下班在家舒服地休息吗？！😚",
      "post_time": "2025-10-11 15:35:49",
      "image_count": 0,
      "image_urls": null,
      "local_image_paths": null,
      "likes": 0,
      "comments": 0,
      "views": 0,
      "board": "Dear. IU",
      "members_only": 0,
      "author_username": "서융",
      "author_avatar": null,
      "author_local_avatar": null,
      "fan_comments": [],
      "direct_iu_replies": [
        {
          "id": 674,
          "content_ko": "그래애 집에 왔다아아 🥰🥰 아이고 언제 씻나...",
          "content_zh": "好啦回到家了 🥰🥰 天啊什么时候洗澡...",
          "image_count": 0,
          "image_urls": null,
          "local_image_paths": null,
          "replied_at": "2025-10-11 15:37:25"
        }
      ]
    },
    {
      "id": 146,
      "post_uuid": "0199d3e2-18a0-3012-182d-f1472a0f66b7",
      "title_ko": null,
      "title_zh": null,
      "content_ko": "언니 근데 나 진짜 궁금한데 ㅋㅋㅋ 팬미때 준 아이스방석 차가운 의자에 두고 쓰려면 의자도 냉장고에 넣어야 해요..?🤔🤔😂😂",
      "content_zh": "姐姐，我真的很好奇哈哈粉丝见面会上的冰垫放在冷椅子上用的话椅子也要放冰箱吗..？🤔🤔😂😂",
      "post_time": "2025-10-11 15:27:14",
      "image_count": 0,
      "image_urls": null,
      "local_image_paths": null,
      "likes": 0,
      "comments": 0,
      "views": 0,
      "board": "Dear. IU",
      "members_only": 0,
      "author_username": "우리집알감자",
      "author_avatar": "https://dearimage.iu101.org/images/avatars/avatar_44.jpeg",
      "author_local_avatar": "https://dearimage.iu101.org/images/avatars/avatar_44.jpeg",
      "fan_comments": [],
      "direct_iu_replies": [
        {
          "id": 673,
          "content_ko": "아니 우리 방석만 넣자 🥰",
          "content_zh": "不我们只放坐垫 🥰",
          "image_count": 0,
          "image_urls": null,
          "local_image_paths": null,
          "replied_at": "2025-10-11 15:38:15"
        }
      ]
    },
    {
      "id": 145,
      "post_uuid": "0199d3d9-93d6-d68a-e574-03ebc17b7707",
      "title_ko": null,
      "title_zh": null,
      "content_ko": "아이유 언니 저 약간(winter sleep) 애니메이션 했어요 좋아해요? 아쉽게도 제가 여기에 영상을 올리지 못해서 제가 다 하고 보여드릴게요! 🫣💖",
      "content_zh": "IU姐姐，我做了(winter sleep)动画喜欢吗？遗憾的是我不能在这里上传视频，等我做完给你看！ 🫣💖",
      "post_time": "2025-10-11 15:17:55",
      "image_count": 7,
      "image_urls": "https://dearimage.iu101.org/images/posts/post_145_267467713.jpeg",
      "local_image_paths": "https://dearimage.iu101.org/images/posts/post_145_262307614.jpeg|https://dearimage.iu101.org/images/posts/post_145_264237578.jpeg|https://dearimage.iu101.org/images/posts/post_145_260945110.jpeg|https://dearimage.iu101.org/images/posts/post_145_255939910.jpeg|https://dearimage.iu101.org/images/posts/post_145_267467713.jpeg",
      "likes": 0,
      "comments": 0,
      "views": 0,
      "board": "Dear. IU",
      "members_only": 0,
      "author_username": "Im._.rara",
      "author_avatar": null,
      "author_local_avatar": null,
      "fan_comments": [],
      "direct_iu_replies": [
        {
          "id": 672,
          "content_ko": "고마워요 🫶",
          "content_zh": "谢谢 🫶",
          "image_count": 0,
          "image_urls": null,
          "local_image_paths": null,
          "replied_at": "2025-10-11 15:39:35"
        }
      ]
    },
    {
      "id": 144,
      "post_uuid": "0199d3cf-45f2-3888-a864-2786a876c06d",
      "title_ko": null,
      "title_zh": null,
      "content_ko": "지은아, 퇴근했어?\n크림빵은 이미 다 소화했지?\n치킨 한 판 시킬까? 아니면 좋아하는 와플? 라면 한 그릇 끓일까?\n지은아, 배 안 채우고 어떻게 잠을 자겠어? ",
      "content_zh": "智恩啊，下班了吗？\n奶油面包已经消化完了吧？\n要不叫一份炸鸡？还是你喜欢的华夫饼？要煮碗拉面吗？\n智恩啊，肚子不填饱怎么睡觉呢？",
      "post_time": "2025-10-11 15:06:40",
      "image_count": 0,
      "image_urls": null,
      "local_image_paths": null,
      "likes": 0,
      "comments": 0,
      "views": 0,
      "board": "Dear. IU",
      "members_only": 0,
      "author_username": "도리~",
      "author_avatar": "https://dearimage.iu101.org/images/avatars/avatar_372.jpeg",
      "author_local_avatar": "https://dearimage.iu101.org/images/avatars/avatar_372.jpeg",
      "fan_comments": [],
      "direct_iu_replies": [
        {
          "id": 671,
          "content_ko": "하지만 난 위가 비어있어야 잠이 더 잘 오는 걸...",
          "content_zh": "但我觉得胃空着更容易睡着...",
          "image_count": 0,
          "image_urls": null,
          "local_image_paths": null,
          "replied_at": "2025-10-11 15:45:05"
        }
      ]
    },
    {
      "id": 143,
      "post_uuid": "0199d3cb-01f8-d6a2-fd12-f26b7efaba34",
      "title_ko": null,
      "title_zh": null,
      "content_ko": "언니는 요즘 몇 시에 자?",
      "content_zh": "姐姐最近几点睡？",
      "post_time": "2025-10-11 15:02:00",
      "image_count": 0,
      "image_urls": null,
      "local_image_paths": null,
      "likes": 0,
      "comments": 0,
      "views": 0,
      "board": "Dear. IU",
      "members_only": 0,
      "author_username": "ちゃんみお",
      "author_avatar": null,
      "author_local_avatar": null,
      "fan_comments": [],
      "direct_iu_replies": [
        {
          "id": 670,
          "content_ko": "나 이제 자야 해 내일도 일찍이라..🥰",
          "content_zh": "我现在该睡觉了明天也要早起..🥰",
          "image_count": 0,
          "image_urls": null,
          "local_image_paths": null,
          "replied_at": "2025-10-11 15:45:59"
        }
      ]
    },
    {
      "id": 142,
      "post_uuid": "0199d3c8-bd4d-cb6b-50ac-ac9778a3f791",
      "title_ko": null,
      "title_zh": null,
      "content_ko": "언니!🤍이 곡 이름 혹시 홀씨인가요? ",
      "content_zh": "姐姐！🤍这首歌名是Holssi吗？",
      "post_time": "2025-10-11 14:59:32",
      "image_count": 1,
      "image_urls": "https://dearimage.iu101.org/images/posts/post_142_431759808.jpg",
      "local_image_paths": "https://dearimage.iu101.org/images/posts/post_142_431759808.jpg",
      "likes": 0,
      "comments": 0,
      "views": 0,
      "board": "Dear. IU",
      "members_only": 0,
      "author_username": "뮤먀",
      "author_avatar": null,
      "author_local_avatar": null,
      "fan_comments": [],
      "direct_iu_replies": [
        {
          "id": 669,
          "content_ko": "쇼퍼였을 걸?",
          "content_zh": "应该是购物者吧？",
          "image_count": 0,
          "image_urls": null,
          "local_image_paths": null,
          "replied_at": "2025-10-11 15:47:38"
        }
      ]
    },
    {
      "id": 160,
      "post_uuid": "0199d2e0-451f-66ae-284b-624fe75601a6",
      "title_ko": null,
      "title_zh": null,
      "content_ko": "！！아기!!!사고가 났어, 내가 밖에서 일을 저질렀어, 상대방이 너에게 50장의 셀카를 찍어야 돼, 내가 가격을 깎아서 500장을 찍었어!!!!빨리 찍어요",
      "content_zh": "！宝宝！！出事了，我在外面惹麻烦了，对方要求你拍50张自拍照，我砍价后变成了500张！！快点拍吧",
      "post_time": "2025-10-11 10:45:37",
      "image_count": 0,
      "image_urls": null,
      "local_image_paths": null,
      "likes": 0,
      "comments": 0,
      "views": 0,
      "board": "Dear. IU",
      "members_only": 0,
      "author_username": "ellin",
      "author_avatar": null,
      "author_local_avatar": null,
      "fan_comments": [],
      "direct_iu_replies": [
        {
          "id": 687,
          "content_ko": "세상에 50장을 500장으로 바꿨어!? 🤦🏻‍♀️",
          "content_zh": "天哪把50张改成500张！？🤦🏻‍♀️",
          "image_count": 0,
          "image_urls": null,
          "local_image_paths": null,
          "replied_at": "2025-10-11 10:47:57"
        }
      ]
    },
    {
      "id": 159,
      "post_uuid": "0199d2d4-e76d-0e81-c46a-15bbd4a8d0f4",
      "title_ko": null,
      "title_zh": null,
      "content_ko": "징니 퇴근했어?🥺",
      "content_zh": "姐姐下班了吗？🥺",
      "post_time": "2025-10-11 10:33:12",
      "image_count": 0,
      "image_urls": null,
      "local_image_paths": null,
      "likes": 0,
      "comments": 0,
      "views": 0,
      "board": "Dear. IU",
      "members_only": 0,
      "author_username": "애나",
      "author_avatar": "https://dearimage.iu101.org/images/avatars/avatar_266.jpg",
      "author_local_avatar": "https://dearimage.iu101.org/images/avatars/avatar_266.jpg",
      "fan_comments": [],
      "direct_iu_replies": [
        {
          "id": 686,
          "content_ko": "아직 지금 저녁시간이야! ❤️‍🔥",
          "content_zh": "现在还是晚餐时间！❤️‍🔥",
          "image_count": 0,
          "image_urls": null,
          "local_image_paths": null,
          "replied_at": "2025-10-11 10:49:29"
        }
      ]
    },
    {
      "id": 158,
      "post_uuid": "0199d2c8-d0b2-f044-9756-609610e10167",
      "title_ko": null,
      "title_zh": null,
      "content_ko": "언니언니언니!!!!!! 드디어 나왔어요!!!!!!!!!!!\n",
      "content_zh": "姐姐姐姐姐姐！！！！终于出来了！！！！！",
      "post_time": "2025-10-11 10:20:00",
      "image_count": 1,
      "image_urls": "https://dearimage.iu101.org/images/posts/post_158_2076566773.jpeg",
      "local_image_paths": "https://dearimage.iu101.org/images/posts/post_158_2076566773.jpeg",
      "likes": 0,
      "comments": 0,
      "views": 0,
      "board": "Dear. IU",
      "members_only": 0,
      "author_username": "이유민",
      "author_avatar": "https://dearimage.iu101.org/images/avatars/avatar_141.jpeg",
      "author_local_avatar": "https://dearimage.iu101.org/images/avatars/avatar_141.jpeg",
      "fan_comments": [],
      "direct_iu_replies": [
        {
          "id": 685,
          "content_ko": "우와 이거 진짜네!!! 유민이는 나왔어?",
          "content_zh": "哇这是真的！！有民出来了吗？",
          "image_count": 0,
          "image_urls": null,
          "local_image_paths": null,
          "replied_at": "2025-10-11 10:50:10"
        }
      ]
    }
  ]
}