{
  "page": 33,
  "totalPages": 45,
  "total": 895,
  "data": [
    {
      "id": 716,
      "post_uuid": "01974c13-8ef0-829a-ea5c-e1948c2df56d",
      "title_ko": null,
      "title_zh": null,
      "content_ko": "안녕하세요, 언니. 항상 열심히 일해주셔서 정말 감사드리고, 가끔 이렇게 베리즈에 들러주셔서 너무 기뻐요. 제 글이 아니더라도 언니의 댓글을 볼 때마다 마음이 따뜻해지고 행복해집니다.\n\n친구처럼 느껴지는 언니, 멀리 있지만 마음은 가까이에 있는 것 같아요. 따뜻하고 진심 어린 말들 정말 감사드려요. 우리가 가족이나 가까운 친구들처럼 언니를 깊이 알지는 못하더라도, 이렇게 언니의 삶을 살짝 보여주셔서 정말 고맙습니다. 연예인의 삶을 선택해주시고, 우리에게 좋은 본보기가 되어주셔서 감사해요.\n\n요즘 유애나들의 일상 이야기를 보는 게 재미있으신가요? 저도 하나 공유해볼게요! 아직 이루지는 않았지만, 지금 저는 제 인생의 전환점이 될 만한 도전을 하고 있어요. 언젠가 이걸 이루게 되면 꼭 다시 베리즈에 와서 자랑하고 싶어요. 지금은 그저 한 걸음 내딛는 중이고, 이 발걸음이 저뿐만 아니라 다른 사람들에게도 좋은 영향을 줄 수 있기를 바라고 있어요 😉.",
      "content_zh": "你好，姐姐。一直这么努力地工作，真的非常感谢您，偶尔能这样来Vezie看看我们，我也感到很开心。即使不是我的文章，每次看到姐姐的留言，心里都暖暖的，感到很幸福。\n\n感觉像朋友一样的姐姐，虽然距离遥远，但心却好像很近似的。那些温暖真诚的话语真的非常感谢。虽然我们可能不像家人或亲密朋友那样深入了解姐姐，但您让我们 glimpse 到您的生活，真的非常感谢。感谢您选择了演艺人生，给我们树立了好榜样。\n\n最近看有爱娜们的日常故事有趣吗？我也分享一个！虽然还没有实现，但现在我正在尝试着人生转折点般的挑战。如果有一天实现了这个目标，一定还会回到Vezie来炫耀一下。现在只是刚刚迈出一步，希望这一步不仅对我自己，也能给其他人带来好的影响😉。",
      "post_time": "2025-06-07 20:27:19",
      "image_count": 0,
      "image_urls": null,
      "local_image_paths": null,
      "likes": 0,
      "comments": 0,
      "views": 0,
      "board": "Dear. IU",
      "members_only": 0,
      "author_username": "leejia20",
      "author_avatar": null,
      "author_local_avatar": null,
      "fan_comments": [],
      "direct_iu_replies": [
        {
          "id": 1544,
          "content_ko": "어떤 도전일까나~~~~ 알려 줘!!! ",
          "content_zh": "是什么挑战呢~~~~告诉我！！！",
          "image_count": 0,
          "image_urls": null,
          "local_image_paths": null,
          "replied_at": "2025-06-08 00:02:58"
        }
      ]
    },
    {
      "id": 715,
      "post_uuid": "01974bc6-a32e-f89c-1b0f-c1c2eafcf84e",
      "title_ko": null,
      "title_zh": null,
      "content_ko": "아이유님 최애 김밥이 참치김밥이에요?\n저는 깻잎 들어간 소고기 땡초 김밥!\n오늘 오래간만에 시켜먹었는데 땡초가 빠진걸 집에 오고나서 알아서 슬펐음 ㅜ",
      "content_zh": "IU欧尼最喜欢的紫菜包饭是金枪鱼紫菜包饭吗？\n我最喜欢放了紫苏叶的牛肉辣椒紫菜包饭！\n今天好久没点来吃了，回家后才发现辣椒漏放了，好伤心ㅜ",
      "post_time": "2025-06-07 19:03:18",
      "image_count": 1,
      "image_urls": "https://dearimage.iu101.org/images/posts/post_715_704095714.jpg",
      "local_image_paths": "https://dearimage.iu101.org/images/posts/post_715_704095714.jpg",
      "likes": 0,
      "comments": 0,
      "views": 0,
      "board": "Dear. IU",
      "members_only": 0,
      "author_username": "미니언",
      "author_avatar": "https://dearimage.iu101.org/images/avatars/avatar_89.gif",
      "author_local_avatar": "https://dearimage.iu101.org/images/avatars/avatar_89.gif",
      "fan_comments": [],
      "direct_iu_replies": [
        {
          "id": 1543,
          "content_ko": "아니 내 최애는 묵참김밥!! 묵은지 참치\n김밥을 제일 좋아해 🤤",
          "content_zh": "不是我最喜欢的是泡菜金枪鱼卷！！泡菜金枪鱼",
          "image_count": 0,
          "image_urls": null,
          "local_image_paths": null,
          "replied_at": "2025-06-08 00:04:30"
        }
      ]
    },
    {
      "id": 714,
      "post_uuid": "01974bc6-4f1b-e287-7f3e-d5447e87d5f1",
      "title_ko": null,
      "title_zh": null,
      "content_ko": "아이유 님, 안녕하세요! 요즘 ‘네모의 꿈’을 자주 듣고 있어요. 아이유 님은 마인크래프트처럼 창의력이 필요한 게임도 잘 하실 것 같아요. 혹시 마인크래프트 같은 게임을 해보신 적 있으신가요? 노래를 들으면 예쁜 공간을 만들거나 멋지게 꾸미는 모습이 떠올라서 괜히 미소가 지어져요. 이렇게 귀여운 노래 불러주셔서 정말 감사해요. ⛏️😊",
      "content_zh": "IU，你好！最近经常听《네모의 꿈》（方块的梦）。我觉得IU也一定很擅长像我的世界这样需要创造力的游戏吧？你有玩过类似我的世界的这类游戏吗？听着这首歌，脑海中就会浮现出你打造漂亮空间、用心装饰的画面，不自觉地就露出了微笑。谢谢你演唱这么可爱的歌曲。⛏️😊",
      "post_time": "2025-06-07 19:02:57",
      "image_count": 0,
      "image_urls": null,
      "local_image_paths": null,
      "likes": 0,
      "comments": 0,
      "views": 0,
      "board": "Dear. IU",
      "members_only": 0,
      "author_username": "Like_A_Star",
      "author_avatar": null,
      "author_local_avatar": null,
      "fan_comments": [],
      "direct_iu_replies": [
        {
          "id": 1542,
          "content_ko": "마인크래프트 고수입니다 🙂‍↕️",
          "content_zh": "我是Minecraft高手 🙂‍↕️",
          "image_count": 0,
          "image_urls": null,
          "local_image_paths": null,
          "replied_at": "2025-06-08 00:05:00"
        }
      ]
    },
    {
      "id": 713,
      "post_uuid": "01974bbd-5ef4-bd18-7be3-705b90e3245b",
      "title_ko": null,
      "title_zh": null,
      "content_ko": "징짱! 첫이별그날밤 가사 중 ‘수고했어 사랑,고생했지 나의 사랑’에서 사랑은 내 마음속 사랑이라는 감정을 가리키는 걸까? 상대방을 가리키는걸까? 🤔💗😍",
      "content_zh": "真棒！《初夜》歌词中\"辛苦了 爱啊，受苦了吧 我的爱\"这句里的\"爱\"是指我心里的爱这种感情吗？还是指对方呢？🤔💗😍",
      "post_time": "2025-06-07 18:53:11",
      "image_count": 1,
      "image_urls": "https://dearimage.iu101.org/images/posts/post_713_296075947.jpeg",
      "local_image_paths": "https://dearimage.iu101.org/images/posts/post_713_296075947.jpeg",
      "likes": 0,
      "comments": 0,
      "views": 0,
      "board": "Dear. IU",
      "members_only": 0,
      "author_username": "꽁이와지동이",
      "author_avatar": null,
      "author_local_avatar": null,
      "fan_comments": [],
      "direct_iu_replies": [
        {
          "id": 1541,
          "content_ko": "상대방이 아닌 상대에게 보냈던 내 감정! \n내 안에서 만들어진 그 감정에게 보내는 인사라고 생각했어요!",
          "content_zh": "不是寄给对方，而是寄给我内心那份感情！\n我认为这是向我心中产生的那份感情发出的问候！",
          "image_count": 0,
          "image_urls": null,
          "local_image_paths": null,
          "replied_at": "2025-06-08 00:06:04"
        }
      ]
    },
    {
      "id": 712,
      "post_uuid": "01974b35-ae54-6d4d-6576-8ea30d21ded1",
      "title_ko": null,
      "title_zh": null,
      "content_ko": "언니 ASMR 들으면서 자려고... 언니는 평소에 어떤 종류의 ASMR을 듣나요?",
      "content_zh": "姐姐，我准备听着ASMR睡觉...姐姐平时听什么类型的ASMR？",
      "post_time": "2025-06-07 16:24:58",
      "image_count": 0,
      "image_urls": null,
      "local_image_paths": null,
      "likes": 0,
      "comments": 0,
      "views": 0,
      "board": "Dear. IU",
      "members_only": 0,
      "author_username": "XIANGXIANGꪔ̤̫",
      "author_avatar": null,
      "author_local_avatar": null,
      "fan_comments": [],
      "direct_iu_replies": [
        {
          "id": 1540,
          "content_ko": "저는 보통 토킹 asmr을 들어요!! 추천해 주고 싶은 asmr이 있나요?",
          "content_zh": "我一般听talk asmr!!有想推荐的asmr吗？",
          "image_count": 0,
          "image_urls": null,
          "local_image_paths": null,
          "replied_at": "2025-06-08 00:10:58"
        }
      ]
    },
    {
      "id": 711,
      "post_uuid": "01974b28-df0d-ab0c-8ef6-0bb42cd6a07f",
      "title_ko": null,
      "title_zh": null,
      "content_ko": "지은아",
      "content_zh": "智恩啊",
      "post_time": "2025-06-07 16:10:59",
      "image_count": 0,
      "image_urls": null,
      "local_image_paths": null,
      "likes": 0,
      "comments": 0,
      "views": 0,
      "board": "Dear. IU",
      "members_only": 0,
      "author_username": "노노",
      "author_avatar": null,
      "author_local_avatar": null,
      "fan_comments": [],
      "direct_iu_replies": [
        {
          "id": 1539,
          "content_ko": "응?",
          "content_zh": "嗯？",
          "image_count": 0,
          "image_urls": null,
          "local_image_paths": null,
          "replied_at": "2025-06-08 00:11:25"
        }
      ]
    },
    {
      "id": 710,
      "post_uuid": "01974b1d-9db1-7a34-aa5e-3445ff6a1eb2",
      "title_ko": null,
      "title_zh": null,
      "content_ko": "지은아, 여기 베리즈에서 네가 내게 답장해줬다고 엄마한테 말했는데, 엄마가 믿질 못하셨어. “진짜 지은이가 답장한 거야?“라고 물어보셨어. 나 어떻게 해야 해? 어떻게 설득하지? ㅋㅋ 나도 엄마를 팬클럽에 가입시켰어야 했는데… 엄마도 너 진짜 많이 좋아해!\n\n여기 엄마가 아이유 푸라닭 포토카드를 자랑하는 사진이야!\n\n번역이 100% 정확하지 않을 수도 있어요!\n\n— 엄마한테 인사 한마디 해줄 수 있어요? 🥺💜",
      "content_zh": "智恩啊，我跟妈妈说你在这里给我回了消息，妈妈都不相信呢。她还问我\"真的是智恩你回的消息吗？\"我该怎么办呀？怎么才能说服她呢？哈哈，我也应该让妈妈加入粉丝俱乐部的...妈妈也很喜欢你哦！\n\n这里有妈妈炫耀IU炸鸡照片卡的照片！\n\n翻译可能不完全准确哦！\n\n— 能跟妈妈打个招呼吗？🥺💜",
      "post_time": "2025-06-07 15:58:41",
      "image_count": 1,
      "image_urls": "https://dearimage.iu101.org/images/posts/post_710_708069119.jpeg",
      "local_image_paths": "https://dearimage.iu101.org/images/posts/post_710_708069119.jpeg",
      "likes": 0,
      "comments": 0,
      "views": 0,
      "board": "Dear. IU",
      "members_only": 0,
      "author_username": "paulabianca",
      "author_avatar": "https://dearimage.iu101.org/images/avatars/avatar_74.jpeg",
      "author_local_avatar": "https://dearimage.iu101.org/images/avatars/avatar_74.jpeg",
      "fan_comments": [],
      "direct_iu_replies": [
        {
          "id": 1538,
          "content_ko": "엄마! 진짜 지은이예요! 반가워요 엄마 😆🥰",
          "content_zh": "妈妈！真的是智恩啊！很高兴见到您妈妈 😆🥰",
          "image_count": 0,
          "image_urls": null,
          "local_image_paths": null,
          "replied_at": "2025-06-08 00:12:45"
        }
      ]
    },
    {
      "id": 709,
      "post_uuid": "01974b15-3dc9-8e06-d55a-8f505519e862",
      "title_ko": null,
      "title_zh": null,
      "content_ko": "언니 이거 고양이, 닭 벼슬, 곰돌이 인데\n맞는 거 같아…? 나도 의문이긴해 ㅋㅋㅋㅋㅋㅋㅋㅋ",
      "content_zh": "姐姐，这个是猫咪、鸡冠、小熊，\n好像对了……？我也很疑惑哈哈哈哈哈",
      "post_time": "2025-06-07 15:49:32",
      "image_count": 1,
      "image_urls": "https://dearimage.iu101.org/images/posts/post_709_1269312599.jpeg",
      "local_image_paths": "https://dearimage.iu101.org/images/posts/post_709_1269312599.jpeg",
      "likes": 0,
      "comments": 0,
      "views": 0,
      "board": "Dear. IU",
      "members_only": 0,
      "author_username": "지수킴",
      "author_avatar": null,
      "author_local_avatar": null,
      "fan_comments": [],
      "direct_iu_replies": [
        {
          "id": 1537,
          "content_ko": "애들이 조금씩...ㅎㅎ 귀엽다 그래두 🥰ㅋㅋㅋ",
          "content_zh": "孩子们一点点...呵呵可爱啊虽然 🥰哈哈哈",
          "image_count": 0,
          "image_urls": null,
          "local_image_paths": null,
          "replied_at": "2025-06-08 00:13:47"
        }
      ]
    },
    {
      "id": 725,
      "post_uuid": "01973cb6-2e4a-6d3b-a915-2f5047a820a5",
      "title_ko": null,
      "title_zh": null,
      "content_ko": "언니~~~ 오늘도 이른 시간부터 스케줄인 거죠 🥹",
      "content_zh": "姐姐~~~今天也是早早开始日程吗 🥹",
      "post_time": "2025-06-04 20:51:01",
      "image_count": 0,
      "image_urls": null,
      "local_image_paths": null,
      "likes": 0,
      "comments": 0,
      "views": 0,
      "board": "Dear. IU",
      "members_only": 0,
      "author_username": "도토링야",
      "author_avatar": "https://dearimage.iu101.org/images/avatars/avatar_113.jpeg",
      "author_local_avatar": "https://dearimage.iu101.org/images/avatars/avatar_113.jpeg",
      "fan_comments": [],
      "direct_iu_replies": [
        {
          "id": 1553,
          "content_ko": "아니\n난 일 다\n마치고 집\n돌아왔어요! 이제 자야지이😴",
          "content_zh": "不是",
          "image_count": 0,
          "image_urls": null,
          "local_image_paths": null,
          "replied_at": "2025-06-04 20:55:33"
        }
      ]
    },
    {
      "id": 729,
      "post_uuid": "01973ca1-75ec-e752-cfce-b401f5705375",
      "title_ko": null,
      "title_zh": null,
      "content_ko": "언니가 요즘 제일 좋아하는 이모티콘이 있어요? \n저는 요즘 이 은색 하트 모양 이모티콘을 특히 좋아해요.🤍🤍 다른 색깔보다 더 예쁘고 반짝반짝 빛나는 것 같아요!!",
      "content_zh": "姐姐最近有特别喜欢的表情符号吗？\n我最近特别喜欢这个银色心形表情符号。🤍🤍 它比其他颜色的更好看，闪闪发光的样子！",
      "post_time": "2025-06-04 20:28:23",
      "image_count": 0,
      "image_urls": null,
      "local_image_paths": null,
      "likes": 0,
      "comments": 0,
      "views": 0,
      "board": "Dear. IU",
      "members_only": 0,
      "author_username": "쿠키기Gao",
      "author_avatar": null,
      "author_local_avatar": null,
      "fan_comments": [],
      "direct_iu_replies": [
        {
          "id": 1558,
          "content_ko": "💗 나는 이거! 사랑이 퍼져 나가는 것 같은 모양이야! 💗💗",
          "content_zh": "💗我就是这个！好像爱在传播的样子！💗💗",
          "image_count": 0,
          "image_urls": null,
          "local_image_paths": null,
          "replied_at": "2025-06-04 20:35:15"
        }
      ]
    },
    {
      "id": 730,
      "post_uuid": "01973c9b-61f5-5e0f-8916-dce2cb671226",
      "title_ko": null,
      "title_zh": null,
      "content_ko": "(언니가 답장이 없어도 난 괜찮아요🫶)❤️💜💚💙🩷\n언니 굿모닝~ 오늘도 언니는 일찍 일어나야 합니까?\n가끔은 언니가 좀 더 쉴 수 있었으면 좋겠어요. \n비록, 저도 언니의 작품을 더 많이 볼 수 있고, 언니의 콘서트에 더 많이 참여할 수 있기를 바라지만, 그보다는 언니가 푹 쉬었으면 좋겠습니다🥺\n아니면 이렇게 해요! 나는 언니에게 분홍색이나 파란색의 Tweety잠옷 을 선물합니다. 언니는 그것을 입고 하루 동안 푹 자도 될까요?🥹\n\n（姊姊沒有回覆我也沒關係的🫶）❤️💜💚💙🩷\n姊姊早安～不知道姊姊今天也要早起嗎？\n有時候真希望姊姊可以有多一點休息時間。\n雖然也很希望可以看到姊姊更多的作品、參加更多的演唱會，但比起這些，更希望姊姊可以好好休息🥺\n不然這樣吧！我送給姊姊一件粉色或藍色的Tweety睡衣，姊姊穿著它好好睡一天覺，好嗎？🥹",
      "content_zh": "（姐姐不回消息也没关系哦🫶）❤️💜💚💙🩷\n姐姐早上好～今天姐姐也要早起吗？\n有时候真希望姐姐能多休息一会儿。\n虽然我也很期待看到姐姐更多的作品，参加更多演唱会，但比起这些，更希望姐姐能好好休息🥺\n要不这样吧！我送给姐姐粉色或蓝色的Tweety睡衣，姐姐穿着它好好睡一整天，好吗？🥹",
      "post_time": "2025-06-04 20:21:45",
      "image_count": 0,
      "image_urls": null,
      "local_image_paths": null,
      "likes": 0,
      "comments": 0,
      "views": 0,
      "board": "Dear. IU",
      "members_only": 0,
      "author_username": "MengMeng孟孟",
      "author_avatar": "https://dearimage.iu101.org/images/avatars/avatar_182.jpeg",
      "author_local_avatar": "https://dearimage.iu101.org/images/avatars/avatar_182.jpeg",
      "fan_comments": [],
      "direct_iu_replies": [
        {
          "id": 1559,
          "content_ko": "난 지금 집에 들어왔어 🤤 다들 잘 잤나요? 그렇다면 이제 내가 한 번 자러 가볼까나하",
          "content_zh": "我现在到家了🤤大家睡得好吗？如果是的话那我也该去睡一觉了",
          "image_count": 0,
          "image_urls": null,
          "local_image_paths": null,
          "replied_at": "2025-06-04 20:34:32"
        }
      ]
    },
    {
      "id": 728,
      "post_uuid": "01973c97-904b-5762-88d7-642e75d82dea",
      "title_ko": null,
      "title_zh": null,
      "content_ko": "언니 나 이번달에 시험인데 응원하고 힘 좀 줄 수 있어요🤍? 이번 시험은 매우 중요한 시험이라 매우 긴장됩니다ㅠㅠ ",
      "content_zh": "姐姐，我这个月有考试，可以给我加油打气吗？🤍这次考试是非常重要的考试，所以很紧张ㅠㅠ",
      "post_time": "2025-06-04 20:17:35",
      "image_count": 0,
      "image_urls": null,
      "local_image_paths": null,
      "likes": 0,
      "comments": 0,
      "views": 0,
      "board": "Dear. IU",
      "members_only": 0,
      "author_username": "지은이초콜릿뺏기",
      "author_avatar": null,
      "author_local_avatar": null,
      "fan_comments": [],
      "direct_iu_replies": [
        {
          "id": 1557,
          "content_ko": "가끔은 끝까지 긴장감을 놓지 않을 때 최고의\n결과가 나오기도 하는 것 같아! 열심히 노력했다면 후회 없는 성적 나올 거라 믿어요 🔥\n파이팅!!!!",
          "content_zh": "有时候一直保持紧张感到最后，反而会有最好的结果！相信如果努力了的话，一定能取得无悔的成绩 🔥\n加油！！！",
          "image_count": 0,
          "image_urls": null,
          "local_image_paths": null,
          "replied_at": "2025-06-04 20:38:21"
        }
      ]
    },
    {
      "id": 727,
      "post_uuid": "01973c7f-a6c4-ca48-6820-17b9d8eede90",
      "title_ko": null,
      "title_zh": null,
      "content_ko": "지은 언니…\n잘 자요.\n안아주실 수 있을까요…?\n제발…\n\n좋은 꿈 꾸세요.\n",
      "content_zh": "智恩姐姐...\n晚安。\n能抱抱我吗...？\n拜托了...\n\n做个好梦。",
      "post_time": "2025-06-04 19:51:28",
      "image_count": 0,
      "image_urls": null,
      "local_image_paths": null,
      "likes": 0,
      "comments": 0,
      "views": 0,
      "board": "Dear. IU",
      "members_only": 0,
      "author_username": "暂停活动的用户",
      "author_avatar": null,
      "author_local_avatar": null,
      "fan_comments": [],
      "direct_iu_replies": [
        {
          "id": 1556,
          "content_ko": "🤗 안아줄게 황샤오츄야 무슨 일 있어?",
          "content_zh": "🤗抱抱你，黄小秋，怎么了？",
          "image_count": 0,
          "image_urls": null,
          "local_image_paths": null,
          "replied_at": "2025-06-04 20:40:34"
        }
      ]
    },
    {
      "id": 726,
      "post_uuid": "01973c7d-d724-1d26-4eaa-63ed81dee181",
      "title_ko": null,
      "title_zh": null,
      "content_ko": "지은 언니, 미안해요.\n언니가 일 때문에 많이 바쁘고, 얼마나 힘드실지 잘 알아요.\n그래도 이번만큼은 배려 없고 미성숙한 팬이 되어도 괜찮을까요—\n여기서 마음껏 울게 해주세요.\n이번엔 정말 언니가 저를 좀 안아줬으면 해요…\n\n어젯밤, 외할머니 영정을 보는데\n그제서야 정말 실감이 났어요.\n‘외할머니가 정말 안 계시는구나…’\n오랫동안 누워 계셨고,\n이미 저를 못 알아보신 지도 오래됐지만—\n그래도…\n\n‘이젠 예전으로 돌아갈 수 없다는 걸 아는 것’과\n‘정말 다시는 기회가 없다는 걸 아는 것’은\n결국 완전히 다른 일이더라고요.\n\n역시 저는 아직 이런 감정을 혼자서 소화할 만큼\n어른스럽지 못한 것 같아요.\n아무리 괜찮은 척해봐도 여전히 혼란스럽고,\n제가 왜 이런 반응을 하는지도 잘 모르겠어요.\n역시… 저, 위로가 필요한 것 같아요.\n",
      "content_zh": "智恩姐姐，对不起。\n我知道姐姐因为工作很忙，也明白你有多辛苦。\n但这次可以不考虑其他，做个不懂事、不成熟的粉丝吗——\n请让我在这里尽情地哭吧。\n这次真的希望姐姐能抱抱我……\n\n昨晚看到外婆的遗像时，\n我才真正意识到。\n\"外婆真的不在了……\"\n虽然她已经卧床很久，\n早就认不出我也已经很久了——\n但是……\n\n\"知道再也回不到从前\"和\n\"真的再也没有机会了\"\n终究是完全不同的两回事。\n\n果然我还是不够成熟，\n无法独自消化这种感情。\n不管怎么装作没事，内心依然混乱，\n连自己为什么会有这种反应都不清楚。\n果然……我需要安慰。",
      "post_time": "2025-06-04 19:49:29",
      "image_count": 0,
      "image_urls": null,
      "local_image_paths": null,
      "likes": 0,
      "comments": 0,
      "views": 0,
      "board": "Dear. IU",
      "members_only": 0,
      "author_username": "暂停活动的用户",
      "author_avatar": null,
      "author_local_avatar": null,
      "fan_comments": [],
      "direct_iu_replies": [
        {
          "id": 1555,
          "content_ko": "그랬구나.. 할머님께서 생전에\n이렇게 할머님을 아끼고 사랑하는\n손녀 덕분에 정말 행복하셨겠어 \n나도 잠들기 전에\n우리 샤오츄의 할머님의 명복을 빌게.\n좋은 곳으로 가셨을 거야 \n",
          "content_zh": "是这样啊...奶奶生前有你这样疼爱她的孙女，\n一定过得很幸福吧。\n我也在睡前为小褚的奶奶祈福，\n愿她能去往美好的地方。",
          "image_count": 0,
          "image_urls": null,
          "local_image_paths": null,
          "replied_at": "2025-06-04 20:49:40"
        },
        {
          "id": 1554,
          "content_ko": "네가 어떤 감정을 느끼든 어떤 반응을 하든 \n자연스러운 거라고 생각해 \n이제 다시 못 만난다고 생각하면 인생이\n너무 길게 느껴지고 그렇지. 나도 그런 기분을 느껴 봤어 죽음 이별 이런 추상적인 슬픔보다\n보고 싶어서 어떡하냐 하는 생각이 날 많이 막막하게 했던 것 같아 그래도 나는\n또 만날 수 있다고 생각해! 사오츄도 잘\n살다 보면 언젠가 사랑하는 할머님\n만날 수 있다고 생각해\n그리워 하면 언젠가 만나게\n되는 어느 영화와 같은\n일들이 이뤄져 가기를..\n바라",
          "content_zh": "无论你感受到怎样的情绪，做出怎样的反应，我都觉得是自然而然的事。一想到以后再也见不到面了，人生就显得格外漫长。这种感觉我也曾体会过。比起死亡、离别这些抽象的悲伤，那种\"想见却见不到\"的想法反而更让我感到迷茫。不过我相信，我们一定还会再见面的！小秋也是这样，总有一天会再次见到心爱的奶奶的。希望那些像电影里一样美好的事情能够实现——只要心中思念，终有重逢之日。",
          "image_count": 0,
          "image_urls": null,
          "local_image_paths": null,
          "replied_at": "2025-06-04 20:52:13"
        }
      ]
    },
    {
      "id": 731,
      "post_uuid": "01973328-1a52-dca4-3999-7aff1b7d3e51",
      "title_ko": null,
      "title_zh": null,
      "content_ko": "언니 폭싹 촬영할 때 iu tv는 안 찍었어요?🥺(그냥 궁금해서요!)",
      "content_zh": "姐姐拍爆米花时iu tv没有拍吗？🥺（只是好奇！）",
      "post_time": "2025-06-03 00:19:15",
      "image_count": 0,
      "image_urls": null,
      "local_image_paths": null,
      "likes": 0,
      "comments": 0,
      "views": 0,
      "board": "Dear. IU",
      "members_only": 0,
      "author_username": "시나(•ө•)♡",
      "author_avatar": "https://dearimage.iu101.org/images/avatars/avatar_439.jpeg",
      "author_local_avatar": "https://dearimage.iu101.org/images/avatars/avatar_439.jpeg",
      "fan_comments": [],
      "direct_iu_replies": [
        {
          "id": 1560,
          "content_ko": "촬영 현장에 메이킹 카메라는 넷플릭스 것만 가능🙂‍↕️",
          "content_zh": "拍摄现场制作花絮只有网飞的摄像机可以🙂‍↕️",
          "image_count": 0,
          "image_urls": null,
          "local_image_paths": null,
          "replied_at": "2025-06-03 00:25:21"
        }
      ]
    },
    {
      "id": 736,
      "post_uuid": "01973301-6b43-fd2c-b2ef-2b4bd70319c6",
      "title_ko": null,
      "title_zh": null,
      "content_ko": "아침에 참치 김밥을 먹었는데, 꽤 맛있더라. 언니는 아침에 뭘 먹었니?",
      "content_zh": "早上吃了金枪鱼紫菜包饭，还挺好吃的。姐姐早上吃了什么？",
      "post_time": "2025-06-02 23:37:00",
      "image_count": 0,
      "image_urls": null,
      "local_image_paths": null,
      "likes": 0,
      "comments": 0,
      "views": 0,
      "board": "Dear. IU",
      "members_only": 0,
      "author_username": "zhizhi",
      "author_avatar": null,
      "author_local_avatar": null,
      "fan_comments": [],
      "direct_iu_replies": [
        {
          "id": 1565,
          "content_ko": "오 나는 그냥 김밥!",
          "content_zh": "哦我只要紫菜包饭！",
          "image_count": 0,
          "image_urls": null,
          "local_image_paths": null,
          "replied_at": "2025-06-02 23:44:44"
        }
      ]
    },
    {
      "id": 735,
      "post_uuid": "019732fd-edb2-701f-439a-952dc9b8d84f",
      "title_ko": null,
      "title_zh": null,
      "content_ko": "아침8시 퇴근하고 소중한 한표! 이제 집가서 자야지...(오늘도 출근하니까ㅠ...)",
      "content_zh": "早上8点下班，投下珍贵的一票！现在回家睡觉...(今天也要上班ㅠ...)",
      "post_time": "2025-06-02 23:33:11",
      "image_count": 1,
      "image_urls": "https://dearimage.iu101.org/images/posts/post_735_210612000.jpg",
      "local_image_paths": "https://dearimage.iu101.org/images/posts/post_735_210612000.jpg",
      "likes": 0,
      "comments": 0,
      "views": 0,
      "board": "Dear. IU",
      "members_only": 0,
      "author_username": "Peaches",
      "author_avatar": null,
      "author_local_avatar": null,
      "fan_comments": [],
      "direct_iu_replies": [
        {
          "id": 1564,
          "content_ko": "왜.. 출근을 하지..?",
          "content_zh": "为什么...要去上班..",
          "image_count": 0,
          "image_urls": null,
          "local_image_paths": null,
          "replied_at": "2025-06-02 23:46:32"
        }
      ]
    },
    {
      "id": 734,
      "post_uuid": "019732ee-8fd4-0da2-f5bc-f7a6c8e59e0d",
      "title_ko": null,
      "title_zh": null,
      "content_ko": "좋은 아침이에요,  저는 그냥 자러갑니다...아이유가 베리즈에 나와서 푹 잘 수 있을 것 같아요 🫰😻💜🫰 잘 자라고 인사 보내줄 수 있나요 🫣 첫 촬영날 재밌게 보내세요 😉 파이팅 🫶",
      "content_zh": "早上好，我要去睡觉了...因为IU在V LIVE上，感觉能睡个好觉呢 🫰😻💜🫰 能帮我传达一声晚安吗 🫣 第一天拍摄玩得开心哦 😉 加油 🫶",
      "post_time": "2025-06-02 23:16:24",
      "image_count": 0,
      "image_urls": null,
      "local_image_paths": null,
      "likes": 0,
      "comments": 0,
      "views": 0,
      "board": "Dear. IU",
      "members_only": 0,
      "author_username": "샤메인",
      "author_avatar": "https://dearimage.iu101.org/images/avatars/avatar_323.jpg",
      "author_local_avatar": "https://dearimage.iu101.org/images/avatars/avatar_323.jpg",
      "fan_comments": [],
      "direct_iu_replies": [
        {
          "id": 1563,
          "content_ko": "너무 좋겠다 아침에 자는 거 진짜 기분 좋잖아요 \n잘 자요 😴",
          "content_zh": "真好啊早上睡觉的感觉真的很好",
          "image_count": 0,
          "image_urls": null,
          "local_image_paths": null,
          "replied_at": "2025-06-02 23:56:19"
        }
      ]
    },
    {
      "id": 733,
      "post_uuid": "019732eb-1d4b-09a3-4996-aece3c32ad48",
      "title_ko": null,
      "title_zh": null,
      "content_ko": "아이유 씨, 6월 1일 마닐라 콘서트가 벌써 1년이 지났다는 거 알고 계셨나요? 당시에 아이유 씨가 부르신 “pasilyo” 커버가 아직도 생생하게 기억나요. 정말 최고의 커버 중 하나였어요.\n해외 팬들을 위해 직접 그 언어를 배우고 마음을 전하시는 모습이 정말 감동적이었어요. 그리고, 말할 것도 없이, 마할 키타 (Mahal kita) — 사랑해요. 💜\n",
      "content_zh": "IU，您知道6月1日的马尼拉演唱会已经过去一年了吗？当时您演唱的《Pasilyo》翻唱至今仍让我记忆犹新，真的是最棒的翻唱之一。\n您为了海外粉丝亲自学习当地语言、传递心意的样子真的让人感动。当然，不用说也知道，Mahal kita（我爱你）—— 我爱您。💜",
      "post_time": "2025-06-02 23:12:38",
      "image_count": 0,
      "image_urls": null,
      "local_image_paths": null,
      "likes": 0,
      "comments": 0,
      "views": 0,
      "board": "Dear. IU",
      "members_only": 0,
      "author_username": "paulabianca",
      "author_avatar": "https://dearimage.iu101.org/images/avatars/avatar_74.jpeg",
      "author_local_avatar": "https://dearimage.iu101.org/images/avatars/avatar_74.jpeg",
      "fan_comments": [],
      "direct_iu_replies": [
        {
          "id": 1562,
          "content_ko": "이카왓 이 카~~~~~~우 ",
          "content_zh": "伊卡哇特卡~~~~~~乌",
          "image_count": 0,
          "image_urls": null,
          "local_image_paths": null,
          "replied_at": "2025-06-03 00:01:34"
        }
      ]
    },
    {
      "id": 732,
      "post_uuid": "019732e9-abd2-c014-1331-f1602f0943f6",
      "title_ko": null,
      "title_zh": null,
      "content_ko": "나는 어렸을 때 꿈이 있었습니다. 나는 좋은 일러스트레이터가 되고 싶었습니다. 아마 내가 초등학교 때 아이유 언니를 알게 되었고, 나는 당신을 몇 백 장까지 그렸습니다. 비록 한 장 한 장이 예쁘지는 않지만, 당신이 나를 발전시켰고, 이제 나는 꿈을 향해 천천히 나아가는 것을 느꼈습니다. 그리고 지금 나는 더 큰 꿈을 가지고 있습니다. 나는 언젠가 당신과 함께 일할 수 있기를 바랍니다! (아래 내용은 번역입니다, 불편을 드려 죄송합니다)",
      "content_zh": "我小时候有一个梦想，就是成为一名优秀的插画师。大概在我上小学的时候认识了IU姐姐，我为您画了几百张画。虽然每一张都不够漂亮，但您让我不断进步，现在我感觉自己正在慢慢接近梦想。而现在我有了更大的梦想，希望有一天能与您一起合作！（以下是翻译内容，如有不便敬请谅解）",
      "post_time": "2025-06-02 23:11:04",
      "image_count": 4,
      "image_urls": "https://dearimage.iu101.org/images/posts/post_732_2111847941.jpeg",
      "local_image_paths": "https://dearimage.iu101.org/images/posts/post_732_2103711516.jpeg|https://dearimage.iu101.org/images/posts/post_732_2106855415.jpeg|https://dearimage.iu101.org/images/posts/post_732_2106189735.jpeg|https://dearimage.iu101.org/images/posts/post_732_2111847941.jpeg",
      "likes": 0,
      "comments": 0,
      "views": 0,
      "board": "Dear. IU",
      "members_only": 0,
      "author_username": "Im._.rara",
      "author_avatar": null,
      "author_local_avatar": null,
      "fan_comments": [],
      "direct_iu_replies": [
        {
          "id": 1561,
          "content_ko": "한 장 한 장이 다 예쁘다 😊",
          "content_zh": "每一张都很美😊",
          "image_count": 0,
          "image_urls": null,
          "local_image_paths": null,
          "replied_at": "2025-06-03 00:06:09"
        }
      ]
    }
  ]
}