{
  "page": 45,
  "totalPages": 45,
  "total": 895,
  "data": [
    {
      "id": 1039,
      "post_uuid": "0196d3ef-13ae-ede5-05c2-e8bac4773c4e",
      "title_ko": null,
      "title_zh": null,
      "content_ko": "안녕 지은언니! 나는 12년생 유애나야!!\n난 5살때 엄마가 아침마다 지은언니 노래를 틀어주셨어\n친언니가 초1때 유애나가 됐고\n나는 6살때 유애나가 됐지\n유치원 갈 준비를 할때면 내 손을 잡아를 계속 불렀어\n유치원에 가서도 매일 지은언니 노래를 부르고\n노래와 가사들을 전부 외우기 시작했지\n사실 언니의 콘서트나 팬미팅,생카는 가 본적 없어….\n서울과는 집이 끝과 끝이었고\n돈 적으로도,거기까지 가는데 아빠가 운전하는것, 숙박비,식비 등등…  부담돼는 것들이 한두개가 아니었어\n그래서 어쩔 수 없이 굿즈들만 주구장창 샀지\n그래서 이번 8기 가입 된게 너~무 좋아!!\n이번 생카와 유병제의 웃으면 안돼는 생일파티도 못 가지만\n항상 마음은 언니 곁에 있어\n언니 생각만 하고 언니에 대한 말만해서\n공부좀 하라고 내 목숨같은 굿즈들을 모두 버릴 뻔 한 적도 있는데 울고불고 엄마한테 빌어서 안버렸지!^^\n(포스터를 구겨버리셔서 내가 갈기갈기 찢기는 것 같았지만^)\n어쨌든 난 언니에 살고 언니에 죽는 사람이야\n부담주려는 것은 아니지만\n학교 친구들이 날 놀려대고\n가족들은 모두 내 편이 아닐 때\n언니는 유일하게\n\"유애나 사랑해!!!\"라며 내 편이 되어주었어\n난 언니의 인형을 안고 매일 펑펑 울었고\n진짜 언니 영상들을 보며 \n내가 살아갈 이유를 찾았어💜\n지금은 너무 너무 행복해\n매일 저녁 9시 반이 돼서야 학원이 끝나지만\n한국학생이라면 어쩔 수 없징….\n힘들땐 언니에게 준다 생각하고\n노트에 편지를 썼는데 진짜로 언니가 볼 수 있는\n편지를 쓸줄이야..💜💜\n언니! 너무 너무 사랑해!!!\n다음에 티켓팅 성공하면 꼭 콘서트 갈게!!\n생일 진짜 진짜 축하해!!\n태어나 줘서 고마워\n지은언니 어머니 지은언니 낳아주셔서 감사합니다!!\n언니가 없었으면 나도 없었을 거야\n언니! 평생을 고마웠고\n지금도 모든게 다 고마워\n사랑해!!!\n\n-중1 유애나 예서가-",
      "content_zh": "你好知恩欧尼！我是12年的柳爱娜！！\n我5岁时妈妈每天早上都会放知恩欧尼的歌给我听\n亲姐姐在小学一年级时成了柳爱娜\n我在6岁时也成了柳爱娜\n准备上幼儿园的时候总是唱着《牵我的手》\n去了幼儿园后每天也唱着知恩欧尼的歌\n开始把所有的歌词都背下来了\n其实我从来没有去过欧尼的演唱会、粉丝见面会和生咖……\n家离首尔两端那么远\n从钱的角度来说，开车去那里、住宿费、餐费等等……负担的东西不是一个两个\n所以只能无奈地一直买周边商品\n所以这次能加入第8期真的太开心了！！\n虽然这次生咖和有病制的不能笑生日派对也没法参加\n但我的心一直在欧尼身边\n因为总是想着欧尼，说着关于欧尼的话\n差点要把我命一样的周边都扔掉让好好学习，最后哭着求妈妈才没扔掉！^^\n（海报被弄皱了感觉像被撕碎了一样^）\n总之我是为欧尼而活，为欧尼而死的人\n不是想给你添负担\n当学校朋友嘲笑我\n家人都不站在我这边的时候\n欧尼是唯一\n说\"爱柳爱娜！！！\"站在我的一边的人\n我抱着欧尼的玩偶每天痛哭\n看着真正的欧尼视频\n找到了活下去的理由💜\n现在非常非常幸福\n虽然每天晚上9点半补习班才结束\n但作为韩国学生没办法……\n累的时候就想着给欧尼写信\n在笔记本上写了信，没想到真的能让欧尼看到\n写信给你……💜💜\n欧尼！超级超级爱你！！！\n下次抢到票一定去演唱会！！\n生日真的真的祝贺！！\n谢谢你来到这个世界\n谢谢知恩欧尼的母亲生下知恩欧尼！！\n如果没有欧尼的话我也不会存在\n欧尼！一辈子都很感谢\n现在所有的一切都很感激\n我爱你！！！\n\n-中一柳爱娜 预书-",
      "post_time": "2025-05-15 12:33:02",
      "image_count": 0,
      "image_urls": null,
      "local_image_paths": null,
      "likes": 0,
      "comments": 0,
      "views": 0,
      "board": "Dear. IU",
      "members_only": 0,
      "author_username": "지으니러버",
      "author_avatar": null,
      "author_local_avatar": null,
      "fan_comments": [],
      "direct_iu_replies": [
        {
          "id": 1873,
          "content_ko": "중1 ㅠㅠ 나도 예서 곁에 있어 🫶 사랑해",
          "content_zh": "初一 ㅠㅠ 我也在预瑟身边 🫶 爱你",
          "image_count": 0,
          "image_urls": null,
          "local_image_paths": null,
          "replied_at": "2025-05-15 12:44:56"
        }
      ]
    },
    {
      "id": 1038,
      "post_uuid": "0196d3ec-2d73-2265-4262-d37705273103",
      "title_ko": null,
      "title_zh": null,
      "content_ko": "언니는 아직 퇴근하지 않았습니까? 수고하셨습니다🥺",
      "content_zh": "姐姐还没有下班吗？辛苦了🥺",
      "post_time": "2025-05-15 12:29:52",
      "image_count": 0,
      "image_urls": null,
      "local_image_paths": null,
      "likes": 0,
      "comments": 0,
      "views": 0,
      "board": "Dear. IU",
      "members_only": 0,
      "author_username": "UNIU.",
      "author_avatar": null,
      "author_local_avatar": null,
      "fan_comments": [],
      "direct_iu_replies": [
        {
          "id": 1872,
          "content_ko": "아직 😆😆",
          "content_zh": "还早 😆😆",
          "image_count": 0,
          "image_urls": null,
          "local_image_paths": null,
          "replied_at": "2025-05-15 12:45:36"
        }
      ]
    },
    {
      "id": 1037,
      "post_uuid": "0196d3eb-de78-eec7-25ce-54c8e9350b50",
      "title_ko": null,
      "title_zh": null,
      "content_ko": "언니가 지금쯤이면 퇴근을 하셨을까요??\n얼른 들어가서 푹 쉬어요!🥹💜",
      "content_zh": "姐姐这时候应该下班了吧？？",
      "post_time": "2025-05-15 12:29:32",
      "image_count": 0,
      "image_urls": null,
      "local_image_paths": null,
      "likes": 0,
      "comments": 0,
      "views": 0,
      "board": "Dear. IU",
      "members_only": 0,
      "author_username": "강지우",
      "author_avatar": "https://dearimage.iu101.org/images/avatars/avatar_508.jpeg",
      "author_local_avatar": "https://dearimage.iu101.org/images/avatars/avatar_508.jpeg",
      "fan_comments": [],
      "direct_iu_replies": [
        {
          "id": 1871,
          "content_ko": "아직 😆😆 근데 오늘 촬영 너무 재밌어서 안 피곤피~~🌸",
          "content_zh": "还早 😆😆 但是今天拍摄太有趣了不累~~🌸",
          "image_count": 0,
          "image_urls": null,
          "local_image_paths": null,
          "replied_at": "2025-05-15 12:46:17"
        }
      ]
    },
    {
      "id": 1036,
      "post_uuid": "0196d3e8-fd6c-b63d-6ea6-dde2e611978e",
      "title_ko": null,
      "title_zh": null,
      "content_ko": "이 손짓은 사실 무엇을 의미합니까?😆",
      "content_zh": "这个手势实际上意味着什么？😆",
      "post_time": "2025-05-15 12:26:23",
      "image_count": 1,
      "image_urls": "https://dearimage.iu101.org/images/posts/post_1036_916326534.gif",
      "local_image_paths": "https://dearimage.iu101.org/images/posts/post_1036_916326534.gif",
      "likes": 0,
      "comments": 0,
      "views": 0,
      "board": "Dear. IU",
      "members_only": 0,
      "author_username": "검문문",
      "author_avatar": null,
      "author_local_avatar": null,
      "fan_comments": [],
      "direct_iu_replies": [
        {
          "id": 1870,
          "content_ko": "이거 한 개 더 살게요~~!",
          "content_zh": "这个再买一个~~!",
          "image_count": 0,
          "image_urls": null,
          "local_image_paths": null,
          "replied_at": "2025-05-15 12:48:29"
        }
      ]
    },
    {
      "id": 1035,
      "post_uuid": "0196d3e8-bd60-5660-eaf6-fcaccc08bf0e",
      "title_ko": null,
      "title_zh": null,
      "content_ko": "나이가 든다는건 의식하고 싶지않지만 어쩔수없는 일이던데 \n아이유가 느끼는 '나이 든다는 것' 은 어때요?\n",
      "content_zh": "虽然不想意识到，但变老确实是无可奈何的事情，\n你觉得IU感受到的“变老”是什么样的呢？",
      "post_time": "2025-05-15 12:26:07",
      "image_count": 0,
      "image_urls": null,
      "local_image_paths": null,
      "likes": 0,
      "comments": 0,
      "views": 0,
      "board": "Dear. IU",
      "members_only": 0,
      "author_username": "가난",
      "author_avatar": null,
      "author_local_avatar": null,
      "fan_comments": [],
      "direct_iu_replies": [
        {
          "id": 1869,
          "content_ko": "체력이 예전 같지 않은 건 아쉽지만 나이 드는 것 자체는 좋아요! 멋있어지는 느낌?",
          "content_zh": "体力不如从前虽然遗憾但变老本身我很喜欢！感觉变得有魅力？",
          "image_count": 0,
          "image_urls": null,
          "local_image_paths": null,
          "replied_at": "2025-05-15 12:51:43"
        }
      ]
    },
    {
      "id": 1034,
      "post_uuid": "0196d3e8-b008-6f30-a1dc-c15972ce1885",
      "title_ko": null,
      "title_zh": null,
      "content_ko": "언니가 답장하면 나 잠잘 때 웃을 것 같아",
      "content_zh": "姐姐如果回复的话，我想我会在睡觉时微笑",
      "post_time": "2025-05-15 12:26:04",
      "image_count": 0,
      "image_urls": null,
      "local_image_paths": null,
      "likes": 0,
      "comments": 0,
      "views": 0,
      "board": "Dear. IU",
      "members_only": 0,
      "author_username": "yajisyz_",
      "author_avatar": null,
      "author_local_avatar": null,
      "fan_comments": [],
      "direct_iu_replies": [
        {
          "id": 1868,
          "content_ko": "웃다가 못 자면 어쩔려구 어쩔려구",
          "content_zh": "笑得睡不着怎么办怎么办",
          "image_count": 0,
          "image_urls": null,
          "local_image_paths": null,
          "replied_at": "2025-05-15 12:52:20"
        }
      ]
    },
    {
      "id": 1033,
      "post_uuid": "0196d3e5-8e0a-373c-e424-1a76d3781bc8",
      "title_ko": null,
      "title_zh": null,
      "content_ko": "생일 정시에 축하해주구 싶은데. . 내일 일찍 일어나야해서 못 해서 너무 슬프니까 미리미리미리 !!!!!!!! \n진짜 정말 정말로 태어나줘서 고마워요 🩷 (제일 중요 𖤐) \n나의 원앤온리 평생 최고의 가수 아이유 🩷 🪽(왕 중요 𖤐 )",
      "content_zh": "想在生日当天准时送上祝福，但因为明天要早起所以不能熬夜，太难过了，所以提前提前提前！！！\n真的真的真的谢谢你来到这个世界 🩷 （最重要 </tool_call>）\n我唯一的此生最爱的歌手IU 🩷🪽（超级重要 </tool_call>）",
      "post_time": "2025-05-15 12:22:38",
      "image_count": 0,
      "image_urls": null,
      "local_image_paths": null,
      "likes": 0,
      "comments": 0,
      "views": 0,
      "board": "Dear. IU",
      "members_only": 0,
      "author_username": "연이⠀",
      "author_avatar": null,
      "author_local_avatar": null,
      "fan_comments": [],
      "direct_iu_replies": [
        {
          "id": 1867,
          "content_ko": "잘 자~~~~❣️",
          "content_zh": "晚安~~~~❣️",
          "image_count": 0,
          "image_urls": null,
          "local_image_paths": null,
          "replied_at": "2025-05-15 12:54:17"
        }
      ]
    },
    {
      "id": 1032,
      "post_uuid": "0196d3e2-adb1-399e-449c-608079cfec54",
      "title_ko": null,
      "title_zh": null,
      "content_ko": "오늘 언니따라 고양이 챌린지 해봤지요 😺",
      "content_zh": "今天跟着姐姐尝试了猫咪挑战 😺",
      "post_time": "2025-05-15 12:19:30",
      "image_count": 1,
      "image_urls": "https://dearimage.iu101.org/images/posts/post_1032_105693537.jpg",
      "local_image_paths": "https://dearimage.iu101.org/images/posts/post_1032_105693537.jpg",
      "likes": 0,
      "comments": 0,
      "views": 0,
      "board": "Dear. IU",
      "members_only": 0,
      "author_username": "Dochi",
      "author_avatar": null,
      "author_local_avatar": null,
      "fan_comments": [],
      "direct_iu_replies": [
        {
          "id": 1866,
          "content_ko": "우와 고양이 달란트 ",
          "content_zh": "哇猫咪才艺",
          "image_count": 0,
          "image_urls": null,
          "local_image_paths": null,
          "replied_at": "2025-05-15 12:56:17"
        }
      ]
    },
    {
      "id": 1031,
      "post_uuid": "0196d3e2-24eb-0c6d-4327-f4acebc8dcd0",
      "title_ko": null,
      "title_zh": null,
      "content_ko": "아민수사진??ㅎㅎ\n지은언니 저 어때요오\n근처사는칭구들은 다 학원이라 엄마께서 찍어주셨어용\n저는 왜 등근육이랑 배쪽이 아픈지..ㅎㅋㅎㅋㅎ\n내일 있을 콘서트라이브를 위해 학애나는 공부하러 갑니다 총총총",
      "content_zh": "阿敏素描？？呵呵\n知恩欧尼，我怎么样？\n附近住的朋友都是补习班，妈妈给我拍的\n不知道为什么背肌和肚子疼...呵呵呵\n为了明天的演唱会直播，学爱要去学习了 咻咻咻",
      "post_time": "2025-05-15 12:18:55",
      "image_count": 1,
      "image_urls": "https://dearimage.iu101.org/images/posts/post_1031_1881466343.jpeg",
      "local_image_paths": "https://dearimage.iu101.org/images/posts/post_1031_1881466343.jpeg",
      "likes": 0,
      "comments": 0,
      "views": 0,
      "board": "Dear. IU",
      "members_only": 0,
      "author_username": "귤쥬스_규리",
      "author_avatar": null,
      "author_local_avatar": null,
      "fan_comments": [],
      "direct_iu_replies": [
        {
          "id": 1865,
          "content_ko": "귤쥬스처럼 완벽한 고양이는 내 평생 처음이야",
          "content_zh": "像橘子汁一样完美的猫咪是我这辈子第一次见",
          "image_count": 0,
          "image_urls": null,
          "local_image_paths": null,
          "replied_at": "2025-05-15 12:57:35"
        }
      ]
    },
    {
      "id": 1044,
      "post_uuid": "0196d3b1-4405-6107-c3cd-d316ccf8c41a",
      "title_ko": null,
      "title_zh": null,
      "content_ko": "언니, 우리 할머니도 당신은좋아해요",
      "content_zh": "姐姐，我们奶奶也喜欢你",
      "post_time": "2025-05-15 11:25:32",
      "image_count": 0,
      "image_urls": null,
      "local_image_paths": null,
      "likes": 0,
      "comments": 0,
      "views": 0,
      "board": "Dear. IU",
      "members_only": 0,
      "author_username": "Pudding",
      "author_avatar": null,
      "author_local_avatar": null,
      "fan_comments": [],
      "direct_iu_replies": [
        {
          "id": 1878,
          "content_ko": "우리 할머니께도 Pudding이를 좋아하시라고 할게요🙂",
          "content_zh": "我也会让奶奶喜欢Pudding的🙂",
          "image_count": 0,
          "image_urls": null,
          "local_image_paths": null,
          "replied_at": "2025-05-15 11:47:03"
        }
      ]
    },
    {
      "id": 1043,
      "post_uuid": "0196d3b0-825a-1ab5-9f90-8b4fc9385f79",
      "title_ko": null,
      "title_zh": null,
      "content_ko": "징짱에게 🍓🫐\n\n징짱 안녀엉 ✨ 매년 유애나 가입하고보니 어느새 내가 서른이 넘었더라고 그런데 신기하게도 그 긴 시간 동안 내 곁에 늘 징짱이 있었어🫶🏻\n중학교 때 아이리버 MP3에 Boo를 넣어놓고 매일 들었던 기억이 아직도 생생해 그때는 그냥 좋은 노래라고 생각했는데, 지금 돌아보면 그게 시작이었더라 … \n징짱이 내 인생에 스며든 첫 순간 💗\n\n그리고 지금은 ‘폭싹 속았수다’ 보면서 밤에 밤산책 듣는 게 내 하루의 마무리가 됐어\n어릴 적 내 마음을 토닥여주던 목소리가, 이제는 어른이 된 나에게도 여전히 같은 위로를 주고 있다는 게… 참 고맙고 신기해\n\n요즘은 엄마랑 같이 징짱 노래를 들어\n운전하면서, 집안일 하면서, 가끔은 아무 이유 없이 그냥 같이 웃으면서\n세월이 흘러서, 징짱 음악이 우리 모녀의 공통 언어가 됐어\n이렇게 따뜻한 노래를 해줘서 고맙고, 사랑하는 사람과 함께 나눌 수 있는 음악을 만들어줘서 더더욱 고마워💗\n세대를 잇는 따뜻한 노래를 해주는 징짱이 있다는 게 정말 큰 축복이라는 생각이 들어\n\n언젠가 엄마 손 꼭 잡고 징짱 콘서트에 갈거야!\n상상만 해도 가슴이 벅차고, 벌써 눈물 날 것 같아😭\n그 순간이 오면, 엄마와 난 서로를 바라보며 “정말 잘 왔다”라고 틀림없이 말할 거야\n\n징짱 🕶️\n내 지난 시간 속에 징짱이 있다는 게 얼마나 큰 행운인지 몰라\n그리고 앞으로의 시간 속에도 징짱이 계속 함께해줬으면 해 \n70번째 생일에도, 난 징짱 노래 들으면서 촛불 끌 거야 😘🎂\n그때도 지금처럼 웃고, 울고, 사랑할 수 있기를 바라면서\n\n해피 아이유 데이!\n늘 고맙고, 진심으로 축하해! 🥂\n내 오랜 친구 같고, 마음의 언니 같고, 언제나 반가운 내 가수\n사랑해, 징짱🫶🏻\n\n우리 오래오래 함께하자🪻\n\n네 팬, 네 오랜 친구(라고 말해 보고 싶었어 ◟( ˘ ³˘)◞ ♡ )\n",
      "content_zh": "给珍藏 🍓🫐\n\n珍藏你好 ✨ 每年爱豆日注册后，不知不觉我已经三十多岁了，但神奇的是，在那漫长的时光里，珍藏一直在我身边🫶🏻\n还记得中学时在艾利和MP3里放着Boo每天听的情景，现在依然记忆犹新，那时候只是觉得是首好歌，现在回想起来，那就是开始……\n珍藏渗入我人生的第一个瞬间 💗\n\n而现在，晚上听着夜山散步看完《暴雪搜查队》成了我一天的结束\n小时候安慰我心灵的声音，现在对已经成人的我也依然给予同样的慰藉……真的既感激又神奇\n\n最近和妈妈一起听珍藏的歌\n开车时、做家务时，偶尔毫无理由地一起笑着\n岁月流逝，珍藏的音乐成了我们母女的共同语言\n谢谢你唱这么温暖的歌，更感谢你创作了可以和心爱的人分享的音乐💗\n能有珍藏这样跨越世代唱着温暖歌曲的存在，真的觉得是很大的福气\n\n总有一天我会紧紧牵着妈妈的手去珍藏演唱会！\n光是想象就让人心潮澎湃，眼泪都要掉下来了😭\n那个时刻到来时，我和妈妈一定会互相看着说\"真的来对了\"\n\n珍藏 🕶️\n我不知道在过去的时间里有珍藏存在是多么大的幸运\n也希望今后的时间里珍藏能继续陪伴\n七十岁生日时，我也会听着珍藏的歌吹蜡烛 😘🎂\n希望那时也能像现在一样欢笑、哭泣、相爱\n\nHappy IU Day!\n一直很感谢，真心祝贺！ 🥂\n像我的老朋友，像我心灵的姐姐，永远让我开心的我的歌手\n爱你，珍藏🫶🏻\n\n我们长久长久地在一起吧🪻\n\n你的粉丝，你的老朋友（想这么说 ◟( ˘ ³˘)◞ ♡ )",
      "post_time": "2025-05-15 11:24:42",
      "image_count": 0,
      "image_urls": null,
      "local_image_paths": null,
      "likes": 0,
      "comments": 0,
      "views": 0,
      "board": "Dear. IU",
      "members_only": 0,
      "author_username": "윤스리랑",
      "author_avatar": null,
      "author_local_avatar": null,
      "fan_comments": [],
      "direct_iu_replies": [
        {
          "id": 1877,
          "content_ko": "고마워 내 오랜 친구야💗",
          "content_zh": "谢谢我的老朋友💗",
          "image_count": 0,
          "image_urls": null,
          "local_image_paths": null,
          "replied_at": "2025-05-15 11:48:41"
        }
      ]
    },
    {
      "id": 1058,
      "post_uuid": "0196cfbc-27fe-4938-41d8-9e886a7e085c",
      "title_ko": null,
      "title_zh": null,
      "content_ko": "엉니!!! 오늘 베리즈 사용 한말씀만 하신다면!!! 써본 소감이 어떻슴까!!!",
      "content_zh": "恩尼！！今天用了贝瑞兹只说了一句话！！使用感受怎么样！！！",
      "post_time": "2025-05-14 16:58:56",
      "image_count": 0,
      "image_urls": null,
      "local_image_paths": null,
      "likes": 0,
      "comments": 0,
      "views": 0,
      "board": "Dear. IU",
      "members_only": 0,
      "author_username": "솔리",
      "author_avatar": null,
      "author_local_avatar": null,
      "fan_comments": [],
      "direct_iu_replies": [
        {
          "id": 1892,
          "content_ko": "진짜 신기하고 재밌다!! 😍 핸드폰 사용 시간이 엄청 늘어날 것 같아요",
          "content_zh": "真的神奇又有趣!! 😍 手机使用时间会大幅增加",
          "image_count": 0,
          "image_urls": null,
          "local_image_paths": null,
          "replied_at": "2025-05-14 17:12:35"
        }
      ]
    },
    {
      "id": 1061,
      "post_uuid": "0196cf8c-f97c-f45d-a858-cc42a5a62107",
      "title_ko": null,
      "title_zh": null,
      "content_ko": "언니 그래서 3초 알람은 어디로 증발했어요? \n가사라두 적어줘요..📝",
      "content_zh": "姐姐所以3秒闹钟消失到哪里去了？",
      "post_time": "2025-05-14 16:07:24",
      "image_count": 0,
      "image_urls": null,
      "local_image_paths": null,
      "likes": 0,
      "comments": 0,
      "views": 0,
      "board": "Dear. IU",
      "members_only": 0,
      "author_username": "현정•___________•",
      "author_avatar": null,
      "author_local_avatar": null,
      "fan_comments": [],
      "direct_iu_replies": [
        {
          "id": 1895,
          "content_ko": "앗!!!",
          "content_zh": "啊!!!",
          "image_count": 0,
          "image_urls": null,
          "local_image_paths": null,
          "replied_at": "2025-05-14 16:40:25"
        }
      ]
    },
    {
      "id": 1060,
      "post_uuid": "0196cf70-4d4f-8a74-9a25-5a39948247d5",
      "title_ko": null,
      "title_zh": null,
      "content_ko": "이 꽃은 복사꽃인가요 벚꽃인가요 아님 진달래?",
      "content_zh": "这花是杜鹃花还是樱花还是迎春花？",
      "post_time": "2025-05-14 15:36:05",
      "image_count": 1,
      "image_urls": "https://dearimage.iu101.org/images/posts/post_1060_596554565.jpg",
      "local_image_paths": "https://dearimage.iu101.org/images/posts/post_1060_596554565.jpg",
      "likes": 0,
      "comments": 0,
      "views": 0,
      "board": "Dear. IU",
      "members_only": 0,
      "author_username": "두새",
      "author_avatar": null,
      "author_local_avatar": null,
      "fan_comments": [],
      "direct_iu_replies": [
        {
          "id": 1894,
          "content_ko": "진달래 렛츠기릿!!",
          "content_zh": "杜鹃花lets go!!",
          "image_count": 0,
          "image_urls": null,
          "local_image_paths": null,
          "replied_at": "2025-05-14 16:43:34"
        }
      ]
    },
    {
      "id": 1068,
      "post_uuid": "0196ceec-3bab-4141-b9e1-9007ab89636c",
      "title_ko": null,
      "title_zh": null,
      "content_ko": "언니 디어유로 오셔~!~!",
      "content_zh": "姐姐来Dear U吧~!~!",
      "post_time": "2025-05-14 13:11:50",
      "image_count": 0,
      "image_urls": null,
      "local_image_paths": null,
      "likes": 0,
      "comments": 0,
      "views": 0,
      "board": "Dear. IU",
      "members_only": 0,
      "author_username": "preciousnow",
      "author_avatar": null,
      "author_local_avatar": null,
      "fan_comments": [],
      "direct_iu_replies": [
        {
          "id": 1904,
          "content_ko": "일단 디어유로 피신!",
          "content_zh": "先逃到Dear U吧！",
          "image_count": 0,
          "image_urls": null,
          "local_image_paths": null,
          "replied_at": "2025-05-14 13:12:28"
        }
      ]
    }
  ]
}