{
  "page": 15,
  "totalPages": 45,
  "total": 895,
  "data": [
    {
      "id": 342,
      "post_uuid": "0197df85-d421-25f9-fd9a-76ef903f9583",
      "title_ko": null,
      "title_zh": null,
      "content_ko": "언니… 우리 여자친구가 ‘답장이 안 오는 건 닉네임 때문일 수도 있고, 프로필 사진 때문일 수도 있대’ 하면서 자꾸 바꾸라 그래요. 헤헤… 언니도 그렇게 생각해요? 나는 이런 모습이 너무 사랑스러운데… ♡",
      "content_zh": "姐姐… 我女朋友说“不回消息可能是因为昵称或者头像的问题”，一直让我改。嘿嘿… 姐姐你也这么觉得吗？我觉得这样的你特别可爱…♡",
      "post_time": "2025-07-06 11:36:19",
      "image_count": 0,
      "image_urls": null,
      "local_image_paths": null,
      "likes": 0,
      "comments": 0,
      "views": 0,
      "board": "Dear. IU",
      "members_only": 0,
      "author_username": "빛의흐릿한환상",
      "author_avatar": null,
      "author_local_avatar": null,
      "fan_comments": [],
      "direct_iu_replies": [
        {
          "id": 1094,
          "content_ko": "지금 프사 구름 사진 너무 예쁘고 닉네임도 너무 예뻐요🩵",
          "content_zh": "现在的头像云朵照片太美了昵称也很漂亮🩵",
          "image_count": 0,
          "image_urls": null,
          "local_image_paths": null,
          "replied_at": "2025-07-06 12:02:14"
        }
      ]
    },
    {
      "id": 341,
      "post_uuid": "0197df84-91de-89df-5b16-bd0b6e420afb",
      "title_ko": null,
      "title_zh": null,
      "content_ko": "지은 언니 ~ 유맛저 !! 🐥🍙🍽️\n저는 아까 점심 때 언니가 좋아하고 자주 먹는 김밥을 먹어봤어용 ㅎㅎ 이거 김밥 이름이 ☘️행운 김밥🍀 이래용 히힣ㅋㅋㅋㅋᩚ 언니두 점심 맛있게 드셨나용 !? 이제 저녁 먹을 시간이네요 !! 저녁도 맛있는 걸로 꼭 챙겨드세요 ~💝\n그래야 힘이 88 (팔팔) 나니깐용 ~!! 파이팅 ~!~!~ 🩵\n햐삐햐삐 💞\n언니에게도 행운 , 행복 가득하길 바라요 ~🍀\n사랑해요 💗💗\n\n그리고 궁금한 거 있는데\n언니는 김밥 꽁지부터 먹어요 !? 아니면 가운데부터 먹어요 !?\n전 가운데부터 ~!! 🍙😋\n사실 꽁지는 너무 커서 잘 안 먹어요 ...😳",
      "content_zh": "知恩欧尼~有美味的发现！！🐥🍙🍽️\n我刚才午饭的时候试着吃了欧尼喜欢而且经常吃的紫菜包饭哈哈 这个紫菜包饭的名字叫☘️幸运紫菜包饭🍀 呵呵呵kkkkk欧尼午饭也吃得香吗！？现在该吃晚饭了呢！！晚饭也要好好吃点好吃的哦～💝\n这样才能有力气88（棒棒）嘛～！！加油～！～！～🩵\nHappy happy 💞\n希望欧尼也能充满好运和幸福～🍀\n爱你💗💗\n\n还有个好奇的问题\n欧尼是先吃紫菜包饭的尾巴部分！？还是从中间开始吃！？\n我是从中间开始～！！🍙😋\n其实尾巴部分太大了不太好吃...😳",
      "post_time": "2025-07-06 11:34:56",
      "image_count": 2,
      "image_urls": "https://dearimage.iu101.org/images/posts/post_341_1022814440.jpeg",
      "local_image_paths": "https://dearimage.iu101.org/images/posts/post_341_1021906345.jpeg|https://dearimage.iu101.org/images/posts/post_341_1022814440.jpeg",
      "likes": 0,
      "comments": 0,
      "views": 0,
      "board": "Dear. IU",
      "members_only": 0,
      "author_username": "♥ㅏ꼬운유애나아효밍♥",
      "author_avatar": "https://dearimage.iu101.org/images/avatars/avatar_197.gif",
      "author_local_avatar": "https://dearimage.iu101.org/images/avatars/avatar_197.gif",
      "fan_comments": [],
      "direct_iu_replies": [
        {
          "id": 1093,
          "content_ko": "김밥이 색색 예쁘다 🥴 \n나도 예쁜 김밥 좋아해 난 꽁지도 좋아하는데",
          "content_zh": "紫菜包饭颜色很漂亮 🥴 我也喜欢漂亮的紫菜包饭，我喜欢海带丝",
          "image_count": 0,
          "image_urls": null,
          "local_image_paths": null,
          "replied_at": "2025-07-06 12:03:58"
        }
      ]
    },
    {
      "id": 340,
      "post_uuid": "0197df81-1a44-154a-8ff5-a5ad43b3a826",
      "title_ko": null,
      "title_zh": null,
      "content_ko": "언니는 진~짜 야식 못 참겠는 날엔\n주로 머 시켜 먹어요?? 😲",
      "content_zh": "姐姐真的到忍不住夜宵的时候",
      "post_time": "2025-07-06 11:31:09",
      "image_count": 0,
      "image_urls": null,
      "local_image_paths": null,
      "likes": 0,
      "comments": 0,
      "views": 0,
      "board": "Dear. IU",
      "members_only": 0,
      "author_username": "하원",
      "author_avatar": "https://dearimage.iu101.org/images/avatars/avatar_47.jpg",
      "author_local_avatar": "https://dearimage.iu101.org/images/avatars/avatar_47.jpg",
      "fan_comments": [],
      "direct_iu_replies": [
        {
          "id": 1092,
          "content_ko": "나는 치킨 아니면 내가 끓인 라면!!!",
          "content_zh": "我除了炸鸡就是自己煮的拉面！！！",
          "image_count": 0,
          "image_urls": null,
          "local_image_paths": null,
          "replied_at": "2025-07-06 12:05:42"
        }
      ]
    },
    {
      "id": 339,
      "post_uuid": "0197df7e-890b-1719-d6f3-bef256efea49",
      "title_ko": null,
      "title_zh": null,
      "content_ko": "오사카 공연부터 1년이 지났네요☺️💞\n비록, 이 인생이 전부 허무한 꿈이었다고 해도,아이유언니를 만난 것만큼은 꿈 너머까지 닿을 것 같아요💭💗\n언니존재는 조용히 내 마음 깊은 곳에 닿았고, 닫힌 문을 망설임 없이 열어주었습니다.\n\n제는 원래 사랑과는 동떨어진 존재라고 생각했어요.\n누군가를 믿거나 상냥함을 받는 것이 조금 두려웠습니다.\n그런데 신기하네요. 언니를 보고 있으면, 계속 닫혀있던 제 마음이 조금씩 풀려갔습니다.\n언니의 행동이나 말, 누군가를 향한 다정한 표정을 보고 있는 것만으로도 가슴 속이 따뜻해지고, 정신을 차려보니 저도 누군가에게 좀 상냥해지고 싶어졌습니다🫂💕︎︎\n\n그리고 지금 저는 대학교 2학년이기 때문에 결코 돈이 있는 것은 아니지만, 저와 마찬가지로 질병이나 재해, ○○로 부모를 잃은 아이들이 한 사람이라도 더 교육의 기회를 받을 수 있도록 모금을 모아 장학금을 전달하는 활동을 하고 있습니다.\n\n언니의 파워는 정말 대단하고, 제가 지금 이렇게 활동적으로 지내고 있는 것도 다 아이유 언니 덕분이에요💪🏻(¨̮ 💪🏻)\n언니에게 받은 은혜와 사랑을 다른 사람에게도 나눠주고 싶습니다!! 언젠가 언니에게 보답도 하고 싶고…모두가 행복하고 평화로운 세상이 되길 바랍니다(  ᴗ ᴗ)\"💭💗\n\n모든 것은 지은 언니, 당신이 없었다면 내 인생은, 꿈은 이렇게 충실하지 못했을 거예요!!\n기쁠 때나 슬플 때나 즐거울 때나 힘들 때나 언니의 음악에, 가사에, 연기에, 구원을 받았습니다.\n정말 감사합니다😭💓\n언니가 제를 몰라도 언니의 존재가 제를 바꾼 거예요!!\n설령 아침이 오고, 모든 것이 사라져 버려도,\n제 안에 남은 그 빛은 결코 사라지지 않아요✨\n꿈에서도 현실에서도 언니을 만난 것은 제에게 가장 큰 선물이에요!\n\n그리고 오사카 공연 둘째 날에 그렇게 아팠던 줄 전혀 몰랐어요ㅜㅜ힘들었을 텐데... 정말 고맙고 미안합니다( ´•̥̥̥ω•̥̥̥`)\n일애나는 정말 정말로 정말로 행복했습니다!!\n멋진 유애나들과 인연을 이어준것도 정말 감사하게 생각해요🥹(요코하마 공연과 오사카 공연 덕분에 나이국적에 관계없이 100명 정도 친구를 사귈 수 있었습니다❀(*´▽`*)❀)\n\n쓰고싶은게 정말 많지만...이것만은 아이유언니에게 전하고 싶어요!!⬇️\n①태어나줘서 고마워요!! \n②여기까지 정말 폭싹 속았수다!!\n③앞으로도 친하게 지내요🥰\n④\"그렇다ーーーーー！！！！\"(Epilogue에의 대답)\n\n앞으로도 아이유언니와 유애나들과 함께 나이 먹는 게 기대돼요! 웃으면 주름이 생기니까 주름을 많이 만드는 게 이기는 거죠!? 저랑 승부해요❤️‍🔥ㅎㅎㅎㅎ\n\n아이유애나 아이시테루(⑉• •⑉)❤︎\n이제부터는 언니가 어디든 날아갈 수 있게 우리가 바람이 될게☺️💗 매일 오츠카레사마~🫂✨\n너무 긴 문장이 되어버려서 미안해요…\npapago선생님의 번역은 정확하다고 생각하는데 괜찮을까요?(*´꒳`*)?",
      "content_zh": "从大阪演出到现在已经过去一年了呢☺️💞\n即使人生全部都是一场虚无的梦，但遇见IU姐姐这件事，感觉已经超越了梦境💭💗\n姐姐的存在悄悄触动了我内心深处，毫不犹豫地为我打开了紧闭的门。\n\n我一直以为自己是个与爱无缘的存在。\n相信某人或接受温柔对我来说有些害怕。\n但很神奇的是，看着姐姐的时候，我那一直紧闭的心门渐渐松开了。\n看到姐姐的言行举止，对某人的温柔表情，心中就变得温暖起来，回过神来才发现自己也想对某人温柔一些🫂💕︎︎\n\n现在我是大学二年级学生，虽然绝不是有钱的人，但我正在参与募捐活动，希望能帮助更多像我一样因疾病、灾难、○○而失去父母的孩子获得教育机会。\n\n姐姐的力量真的很强大，我现在能这样积极活跃，全都是因为IU姐姐💪🏻(¨̮ 💪🏻)\n我想把从姐姐那里得到的恩惠和爱分享给其他人！也希望有一天能报答姐姐……希望世界都能幸福和平(  ᴗ ᴗ)\"💭💗\n\n一切都是因为有在的姐姐，如果没有你，我的人生、我的梦想不会如此充实！！\n开心时、难过时、快乐时、辛苦时，我都从姐姐的音乐、歌词、演技中得到了救赎。\n真的非常感谢😭💓\n即使姐姐不认识我，但你的存在改变了我！！\n就算黎明到来，一切都消失，\n留在我心中的那道光也绝不会消失✨\n无论在梦中还是现实中遇见姐姐都是给我最大的礼物！\n\n还有大阪演出第二天你病得那么厉害我完全不知道ㅜㅜ一定很辛苦吧...真的既感激又抱歉( ´•̥̥̥ω•̥̥̥`)\n日爱娜真的真的真的很幸福！！\n也很感谢让我结识了美好的友爱娜们🥹（多亏了横滨演出和大阪演出，我得以结交了约100位不分年龄国籍的朋友❀(*´▽`*)❀）\n\n想写的话真的很多...但有这些话一定要传达给IU姐姐！！⬇️\n①谢谢你出生在这个世界上！！\n②到这里真的被你彻底骗到了！！\n③以后也要好好相处哦🥰\n④\"就是这样ーーーーー！！！！\"（对Epilogue的回答）\n\n以后也期待能和IU姐姐、友爱娜们一起变老！因为笑会生皱纹，所以多制造皱纹就是赢了对吧！跟我比比看吧❤️‍🔥ㅎㅎㅎㅎ\n\nIU爱娜 我爱你(⑉• •⑉)❤︎\n从今以后，无论姐姐飞向哪里，我们都会成为你的风☺️💗 每天都要辛苦了~🫂✨\n句子写得太长了很抱歉...\nPapago老师的翻译我觉得很准确，可以吗？(*´꒳`*)?",
      "post_time": "2025-07-06 11:28:21",
      "image_count": 4,
      "image_urls": "https://dearimage.iu101.org/images/posts/post_339_2010889558.jpeg",
      "local_image_paths": "https://dearimage.iu101.org/images/posts/post_339_2009650074.png|https://dearimage.iu101.org/images/posts/post_339_2009451467.png|https://dearimage.iu101.org/images/posts/post_339_2009919046.jpeg|https://dearimage.iu101.org/images/posts/post_339_2010889558.jpeg",
      "likes": 0,
      "comments": 0,
      "views": 0,
      "board": "Dear. IU",
      "members_only": 0,
      "author_username": "루나_Luna",
      "author_avatar": null,
      "author_local_avatar": null,
      "fan_comments": [],
      "direct_iu_replies": [
        {
          "id": 1091,
          "content_ko": "둘째 줄까지 읽었을 때-> 시인이네\n세 번째 문단까지 읽었을 때-> 천사네\n여섯 번째 문단까지 읽었을 때-> 그 와중에 친구 100명?!? 😱 \n멋진 인생이다❤️🙂‍↕️ \n우리 오사카 때 정말 좋았지",
          "content_zh": "读到第二行时→这是诗人啊  \n读到第三段时→简直是天使啊  \n读到第六段时→在这种情况下还有100个朋友？！？😱  \n真是精彩的人生❤️🙂‍↕️  \n我们大阪那时真的很好",
          "image_count": 0,
          "image_urls": null,
          "local_image_paths": null,
          "replied_at": "2025-07-06 12:13:51"
        }
      ]
    },
    {
      "id": 350,
      "post_uuid": "0197d011-0bfc-6194-bc51-d89f0d178e43",
      "title_ko": null,
      "title_zh": null,
      "content_ko": "언니, 나는 네가 핸드폰을 너무 많이 보지 않았으면 좋겠어. 눈에 안 좋아. 하지만 또 너무 많은 사람들이 언니에게 메시지를 남긴 것 같아. 내가 언니에게 보낸 메시지를 언니가 볼까봐 걱정돼. 마음이 너무 괴로워.🙁🙁",
      "content_zh": "姐姐，我希望你不要太频繁地看手机，对眼睛不好。但是好像又有太多人给你发消息。我担心你看到我给你发的消息，心里很难受。🙁🙁",
      "post_time": "2025-07-03 11:34:27",
      "image_count": 0,
      "image_urls": null,
      "local_image_paths": null,
      "likes": 0,
      "comments": 0,
      "views": 0,
      "board": "Dear. IU",
      "members_only": 0,
      "author_username": "Holssiwyiis_",
      "author_avatar": null,
      "author_local_avatar": null,
      "fan_comments": [],
      "direct_iu_replies": [
        {
          "id": 1116,
          "content_ko": "꺄 너무 귀여운 모순이네 고마워 눈 관리 잘할게 👀",
          "content_zh": "哇太可爱的矛盾了谢谢我会好好保护眼睛的 👀",
          "image_count": 0,
          "image_urls": null,
          "local_image_paths": null,
          "replied_at": "2025-07-03 11:36:05"
        }
      ]
    },
    {
      "id": 358,
      "post_uuid": "0197d000-19c8-e8d6-a7c0-3604477e80bc",
      "title_ko": null,
      "title_zh": null,
      "content_ko": "언니!!! 언니 오징어게임3 봤어요?👀 저는 다 봤어요🤭",
      "content_zh": "姐姐！！姐姐看了鱿鱼游戏3吗？👀 我都看完了🤭",
      "post_time": "2025-07-03 11:15:57",
      "image_count": 0,
      "image_urls": null,
      "local_image_paths": null,
      "likes": 0,
      "comments": 0,
      "views": 0,
      "board": "Dear. IU",
      "members_only": 0,
      "author_username": "여너초밥",
      "author_avatar": null,
      "author_local_avatar": null,
      "fan_comments": [],
      "direct_iu_replies": [
        {
          "id": 1124,
          "content_ko": "제발 우승자 얘기하지 말아 주세요..아직 못 봤어요..🥹",
          "content_zh": "求求你们别提获胜者的事情了..还没看到呢..🥹",
          "image_count": 0,
          "image_urls": null,
          "local_image_paths": null,
          "replied_at": "2025-07-03 11:17:21"
        }
      ]
    },
    {
      "id": 357,
      "post_uuid": "0197cffa-b853-31b6-4a4a-54688b6f8734",
      "title_ko": null,
      "title_zh": null,
      "content_ko": "언니 저 퇴사하기로 했어요 !!\n맘을 단단히 먹기 전까지는 너무 너무 불안했는데\n오히려 결정을 지으니까 훨씬 편해진 거 같아요\n언니도 제 결정 당연히 응원해주겠죠 !!?",
      "content_zh": "姐姐，我决定辞职了！！\n在下定决心之前，心里一直非常非常不安，\n但反而做出决定后，感觉轻松多了。\n姐姐也一定会支持我的决定吧！！？",
      "post_time": "2025-07-03 11:10:04",
      "image_count": 0,
      "image_urls": null,
      "local_image_paths": null,
      "likes": 0,
      "comments": 0,
      "views": 0,
      "board": "Dear. IU",
      "members_only": 0,
      "author_username": "수림잉",
      "author_avatar": "https://dearimage.iu101.org/images/avatars/avatar_180.jpeg",
      "author_local_avatar": "https://dearimage.iu101.org/images/avatars/avatar_180.jpeg",
      "fan_comments": [],
      "direct_iu_replies": [
        {
          "id": 1123,
          "content_ko": "더 딱 맞는 곳이 있겠지~~~~~!!! 얼마나 혼자 고민 많이 했어 고생했어🩵 응원 응원!!",
          "content_zh": "应该有更合适的吧~~~~~！！！一个人考虑了多久啊辛苦了🩵加油加油！！",
          "image_count": 0,
          "image_urls": null,
          "local_image_paths": null,
          "replied_at": "2025-07-03 11:18:53"
        }
      ]
    },
    {
      "id": 356,
      "post_uuid": "0197cff8-d5c5-3950-5e3e-7076f9e7100e",
      "title_ko": null,
      "title_zh": null,
      "content_ko": "언니는 어떻게 대사를 기억하고 있습니까??\n공부 방법의 참고로 하고 싶습니다‼️‼️",
      "content_zh": "姐姐是怎么记住台词的呢？想参考一下学习方法‼️‼️",
      "post_time": "2025-07-03 11:08:00",
      "image_count": 0,
      "image_urls": null,
      "local_image_paths": null,
      "likes": 0,
      "comments": 0,
      "views": 0,
      "board": "Dear. IU",
      "members_only": 0,
      "author_username": "♡마오♡",
      "author_avatar": "https://dearimage.iu101.org/images/avatars/avatar_97.jpeg",
      "author_local_avatar": "https://dearimage.iu101.org/images/avatars/avatar_97.jpeg",
      "fan_comments": [],
      "direct_iu_replies": [
        {
          "id": 1122,
          "content_ko": "대사를 틀릴 때마다 불행이 하나씩 찾아온다... \n이런 식으로 극단적으로🙂‍↕️",
          "content_zh": "每次说错台词就会有一个不幸找上门来...",
          "image_count": 0,
          "image_urls": null,
          "local_image_paths": null,
          "replied_at": "2025-07-03 11:21:05"
        }
      ]
    },
    {
      "id": 355,
      "post_uuid": "0197cff8-72c0-e4ef-d07d-cba0e858d39c",
      "title_ko": null,
      "title_zh": null,
      "content_ko": "언니~ 전에 답장해줬던 사람들 댓글은 눈에 더 잘 들어와? ",
      "content_zh": "姐姐~之前回复过的人的评论会更显眼吗？",
      "post_time": "2025-07-03 11:07:35",
      "image_count": 0,
      "image_urls": null,
      "local_image_paths": null,
      "likes": 0,
      "comments": 0,
      "views": 0,
      "board": "Dear. IU",
      "members_only": 0,
      "author_username": "注销的用户",
      "author_avatar": null,
      "author_local_avatar": null,
      "fan_comments": [],
      "direct_iu_replies": [
        {
          "id": 1121,
          "content_ko": "크게 그렇진 않은 것 같아 내용을 먼저 보니까 달고 나서 ‘낯익은 닉네임이다’라고 깨달을 때가 더 많아",
          "content_zh": "好像不是特别那样，先看内容的时候更多是甜的然后\"熟悉的名字\"这样意识到的时候",
          "image_count": 0,
          "image_urls": null,
          "local_image_paths": null,
          "replied_at": "2025-07-03 11:22:15"
        }
      ]
    },
    {
      "id": 354,
      "post_uuid": "0197cff8-6018-3c5a-84b8-e247c143a9ad",
      "title_ko": null,
      "title_zh": null,
      "content_ko": "언니, 제가 중학교 때 선생님이 우리에게 하루에 사과 한 개 🍎 의사가 저를 멀리하라고 말씀하셨습니다. 나는 쉽게 아프지 않을 것이다😷\n",
      "content_zh": "姐姐，我上初中时老师对我们说一天一个苹果🍎，医生就会远离我。我就不会那么容易生病了😷",
      "post_time": "2025-07-03 11:07:30",
      "image_count": 0,
      "image_urls": null,
      "local_image_paths": null,
      "likes": 0,
      "comments": 0,
      "views": 0,
      "board": "Dear. IU",
      "members_only": 0,
      "author_username": "IU的Uaena爱娜",
      "author_avatar": "https://dearimage.iu101.org/images/avatars/avatar_169.jpeg",
      "author_local_avatar": "https://dearimage.iu101.org/images/avatars/avatar_169.jpeg",
      "fan_comments": [],
      "direct_iu_replies": [
        {
          "id": 1120,
          "content_ko": "하루에 사과를 하나씩 먹으면 건강에 좋으니까\n의사선생님을 만날 일이 없어진다! 이런 뜻인 거죠? 🍎🥴",
          "content_zh": "一天吃一个苹果对身体好，所以就不用见医生了！是这个意思吧？🍎🥴",
          "image_count": 0,
          "image_urls": null,
          "local_image_paths": null,
          "replied_at": "2025-07-03 11:23:20"
        }
      ]
    },
    {
      "id": 353,
      "post_uuid": "0197cfd9-6ec1-e659-b444-9abb1812b4b0",
      "title_ko": null,
      "title_zh": null,
      "content_ko": "언니~ 시간이 좀 지난 후에 예전에 받았던 팬레터를 다시 읽어본 적 있어요? ",
      "content_zh": "姐姐~ 过一段时间后重新读以前收到的粉丝信吗？",
      "post_time": "2025-07-03 10:33:42",
      "image_count": 0,
      "image_urls": null,
      "local_image_paths": null,
      "likes": 0,
      "comments": 0,
      "views": 0,
      "board": "Dear. IU",
      "members_only": 0,
      "author_username": "Zazu's핫딸기차",
      "author_avatar": "https://dearimage.iu101.org/images/avatars/avatar_48.jpeg",
      "author_local_avatar": "https://dearimage.iu101.org/images/avatars/avatar_48.jpeg",
      "fan_comments": [],
      "direct_iu_replies": [
        {
          "id": 1119,
          "content_ko": "그럼 그럼! 핸드폰으로 찍어놓고 생각날 때마다 읽어보는 편지들도 있어 유애나 중에는 정말 편지를 잘 쓰는 분들이 많아",
          "content_zh": "对对！用手机拍下来，想起来的时候就读一读的信件也有，其中有很多人真的写得很好",
          "image_count": 0,
          "image_urls": null,
          "local_image_paths": null,
          "replied_at": "2025-07-03 11:29:03"
        }
      ]
    },
    {
      "id": 352,
      "post_uuid": "0197cfd6-c154-13a7-05b0-2cc128159deb",
      "title_ko": null,
      "title_zh": null,
      "content_ko": "오늘 묵은지참치김밥 처음먹어봄~\n왜 좋아하는지 알겠다🤣",
      "content_zh": "今天第一次吃泡菜金枪鱼紫菜包饭~",
      "post_time": "2025-07-03 10:30:47",
      "image_count": 1,
      "image_urls": "https://dearimage.iu101.org/images/posts/post_352_914201974.jpeg",
      "local_image_paths": "https://dearimage.iu101.org/images/posts/post_352_914201974.jpeg",
      "likes": 0,
      "comments": 0,
      "views": 0,
      "board": "Dear. IU",
      "members_only": 0,
      "author_username": "최애유",
      "author_avatar": null,
      "author_local_avatar": null,
      "fan_comments": [],
      "direct_iu_replies": [
        {
          "id": 1118,
          "content_ko": "이야 단단하게 잘 말았다 사장님 너무 좋아요",
          "content_zh": "哇结结实实地夸奖了一番老板太喜欢了",
          "image_count": 0,
          "image_urls": null,
          "local_image_paths": null,
          "replied_at": "2025-07-03 11:30:14"
        }
      ]
    },
    {
      "id": 351,
      "post_uuid": "0197cfc7-2ec0-b73d-3189-2c5d17254513",
      "title_ko": null,
      "title_zh": null,
      "content_ko": "친구와 함께 강아지 그림자에 도전합니다🐶\n닮았어요? 사진 찍고 나니 목이 너무 뻐근해요😂\n언니 강아지 그림자에 도전해 볼래요😆 저는 고양이 그림자보다 쉬울 것 같아요ㅋㅋㅋ",
      "content_zh": "和朋友一起挑战小狗影子模仿🐶  \n像吗？拍完照后脖子好僵硬😂  \n姐姐也来挑战小狗影子吧😆 我觉得比猫咪影子要简单些ㅋㅋㅋ",
      "post_time": "2025-07-03 10:13:46",
      "image_count": 2,
      "image_urls": "https://dearimage.iu101.org/images/posts/post_351_1232127519.jpg",
      "local_image_paths": "https://dearimage.iu101.org/images/posts/post_351_1232127519.jpg|https://dearimage.iu101.org/images/posts/post_351_1230543364.jpg",
      "likes": 0,
      "comments": 0,
      "views": 0,
      "board": "Dear. IU",
      "members_only": 0,
      "author_username": "버블티",
      "author_avatar": "https://dearimage.iu101.org/images/avatars/avatar_3.jpg",
      "author_local_avatar": "https://dearimage.iu101.org/images/avatars/avatar_3.jpg",
      "fan_comments": [],
      "direct_iu_replies": [
        {
          "id": 1117,
          "content_ko": "국자 들고 있는 강아지잖아 🥴",
          "content_zh": "那是拿着勺子的狗狗啊 🥴",
          "image_count": 0,
          "image_urls": null,
          "local_image_paths": null,
          "replied_at": "2025-07-03 11:32:19"
        }
      ]
    },
    {
      "id": 359,
      "post_uuid": "0197cf60-55eb-9fad-ba6f-6156926574ad",
      "title_ko": null,
      "title_zh": null,
      "content_ko": "지은아 사진에서 같은 점을 찾아고 발견할 수 있어요?",
      "content_zh": "知恩啊，你能从照片中找出相同点并发现它们吗？",
      "post_time": "2025-07-03 08:21:26",
      "image_count": 1,
      "image_urls": "https://dearimage.iu101.org/images/posts/post_359_2082546985.jpeg",
      "local_image_paths": "https://dearimage.iu101.org/images/posts/post_359_2082546985.jpeg",
      "likes": 0,
      "comments": 0,
      "views": 0,
      "board": "Dear. IU",
      "members_only": 0,
      "author_username": "검문문",
      "author_avatar": null,
      "author_local_avatar": null,
      "fan_comments": [],
      "direct_iu_replies": [
        {
          "id": 1125,
          "content_ko": "정답! 머리카락이 까맣다!",
          "content_zh": "正确答案！头发是黑色的！",
          "image_count": 0,
          "image_urls": null,
          "local_image_paths": null,
          "replied_at": "2025-07-03 08:38:57"
        }
      ]
    },
    {
      "id": 363,
      "post_uuid": "0197cf14-ecd1-74c4-0162-896a706b22ab",
      "title_ko": null,
      "title_zh": null,
      "content_ko": "언니 나 어때?\n싹싹하고 친구도 많고 어른들한테 예의 차려\n근데 나이가 13살인데 나 어때 언니?",
      "content_zh": "姐姐我怎么样？很干净朋友也多对长辈有礼貌，但年龄才13岁我怎么样姐姐？",
      "post_time": "2025-07-03 06:59:04",
      "image_count": 0,
      "image_urls": null,
      "local_image_paths": null,
      "likes": 0,
      "comments": 0,
      "views": 0,
      "board": "Dear. IU",
      "members_only": 0,
      "author_username": "注销的用户",
      "author_avatar": null,
      "author_local_avatar": null,
      "fan_comments": [],
      "direct_iu_replies": [
        {
          "id": 1129,
          "content_ko": "너무 기특해 \n어른들한테 예의 차려ㅋㅋㅋ🥴 귀여워 기절",
          "content_zh": "太懂事了",
          "image_count": 0,
          "image_urls": null,
          "local_image_paths": null,
          "replied_at": "2025-07-03 07:03:18"
        }
      ]
    },
    {
      "id": 362,
      "post_uuid": "0197cf13-a2f4-76da-605a-6196f61c6994",
      "title_ko": null,
      "title_zh": null,
      "content_ko": "에오니, 케이팝 데몬헌터 보셨나요? ",
      "content_zh": "EONI，看过K-pop猎魔人吗？",
      "post_time": "2025-07-03 06:57:40",
      "image_count": 0,
      "image_urls": null,
      "local_image_paths": null,
      "likes": 0,
      "comments": 0,
      "views": 0,
      "board": "Dear. IU",
      "members_only": 0,
      "author_username": "adrizz",
      "author_avatar": null,
      "author_local_avatar": null,
      "fan_comments": [],
      "direct_iu_replies": [
        {
          "id": 1128,
          "content_ko": "아직 못 봤는데 그렇게 재밌다면서요?",
          "content_zh": "还没看到不过那么有趣吗？",
          "image_count": 0,
          "image_urls": null,
          "local_image_paths": null,
          "replied_at": "2025-07-03 07:03:49"
        }
      ]
    },
    {
      "id": 361,
      "post_uuid": "0197cefe-4458-0f96-f7d8-643814301e6a",
      "title_ko": null,
      "title_zh": null,
      "content_ko": "어제 시원한 커피는 잘 마셨습니까?",
      "content_zh": "昨天清爽的咖啡喝得还好吗？",
      "post_time": "2025-07-03 06:34:19",
      "image_count": 1,
      "image_urls": "https://dearimage.iu101.org/images/posts/post_361_1478399290.jpg",
      "local_image_paths": "https://dearimage.iu101.org/images/posts/post_361_1478399290.jpg",
      "likes": 0,
      "comments": 0,
      "views": 0,
      "board": "Dear. IU",
      "members_only": 0,
      "author_username": "프리앤피스",
      "author_avatar": "https://dearimage.iu101.org/images/avatars/avatar_505.jpg",
      "author_local_avatar": "https://dearimage.iu101.org/images/avatars/avatar_505.jpg",
      "fan_comments": [],
      "direct_iu_replies": [
        {
          "id": 1127,
          "content_ko": "나는 미숫가루 마셨지~~~😚😚",
          "content_zh": "我喝了麦麸茶~~~😚😚",
          "image_count": 0,
          "image_urls": null,
          "local_image_paths": null,
          "replied_at": "2025-07-03 07:07:06"
        }
      ]
    },
    {
      "id": 360,
      "post_uuid": "0197ceed-9722-9a92-38ff-a19ccb1b3afa",
      "title_ko": null,
      "title_zh": null,
      "content_ko": "언니, 저 오늘 28번째 생일이에요! 생일 축하해 줄래요? 사랑해요💕",
      "content_zh": "姐姐，我今天28岁生日！能祝我生日快乐吗？爱你💕",
      "post_time": "2025-07-03 06:16:06",
      "image_count": 0,
      "image_urls": null,
      "local_image_paths": null,
      "likes": 0,
      "comments": 0,
      "views": 0,
      "board": "Dear. IU",
      "members_only": 0,
      "author_username": "iu爱娜李",
      "author_avatar": null,
      "author_local_avatar": null,
      "fan_comments": [],
      "direct_iu_replies": [
        {
          "id": 1126,
          "content_ko": "축하해 💜🥰🥴",
          "content_zh": "恭喜你 💜🥰🥴",
          "image_count": 0,
          "image_urls": null,
          "local_image_paths": null,
          "replied_at": "2025-07-03 07:09:00"
        }
      ]
    },
    {
      "id": 371,
      "post_uuid": "0197c870-f893-e75d-7f2b-f0bafe2cb526",
      "title_ko": null,
      "title_zh": null,
      "content_ko": "제 프로필 사진이 정말 마음에 들어요🫱🏻💗🫲🏻\n이 사진을 쓰기 시작한 이후로 왠지 모르게 좋은 일들이 하나둘 생기기 시작했어요🍀🌟\n시험에서는 운 좋게 전과목 A를 받았고, 음악 시험에서도 좋은 결과를 얻었어요☺️\n이게 언니가 가져다준 행운 덕분인지🍀, 아니면 그 사진을 볼 때마다 느끼는 위로와 힘 때문인지💪🏻 잘 모르겠지만… 정말 감사한 마음이에요🙌🏻\n우리 유애나도 가끔은 언니에게 행운과 행복을 드릴 수 있었으면 좋겠어요🍀🫶🏻\n사랑해요😽\n우리 징니 태어나줘서 고마워요✨ 태어나줘서 고마워요🐥 태어나줘서 고마워요🤍\n(중요한 말은 세 번 해야 하니까요!)",
      "content_zh": "我的头像照片真的让我特别喜欢🫱🏻💗🫲🏻\n从开始用这张照片以来，不知为何好事一件接一件地发生了🍀🌟\n考试时幸运地所有科目都拿到了A，音乐考试也取得了好成绩☺️\n不知道是不是姐姐带来的好运🍀，还是每次看到那张照片时感受到的安慰和力量的原因💪🏻虽然不太确定…但真的非常感谢你🙌🏻\n也希望我们友爱娜偶尔也能给姐姐带来好运和幸福呢🍀🫶🏻\n爱你😽\n谢谢你出生在这个世界上，我们的珍妮✨ 谢谢你来到这个世界🐥 谢谢你存在这世上🤍\n（因为重要的话要说三遍！）",
      "post_time": "2025-07-02 00:02:16",
      "image_count": 0,
      "image_urls": null,
      "local_image_paths": null,
      "likes": 0,
      "comments": 0,
      "views": 0,
      "board": "Dear. IU",
      "members_only": 0,
      "author_username": "m1ntch0c0",
      "author_avatar": "https://dearimage.iu101.org/images/avatars/avatar_516.jpeg",
      "author_local_avatar": "https://dearimage.iu101.org/images/avatars/avatar_516.jpeg",
      "fan_comments": [],
      "direct_iu_replies": [
        {
          "id": 1137,
          "content_ko": "나도 그 사진 좋아해❤️ \n사진은 거들 뿐 초코의 능력이겠지 😌\n잘했어 잘했어 잘했어\n축하해 축하해 축하해 \n최고야 최고야 최고야💜  (중요한 말은 세 번!)",
          "content_zh": "我也很喜欢那张照片❤️\n照片只是辅助，都是巧克力的功劳吧 😌\n做得好做得好做得好\n恭喜恭喜恭喜\n最棒最棒最棒💜（重要的事情说三遍！）",
          "image_count": 0,
          "image_urls": null,
          "local_image_paths": null,
          "replied_at": "2025-07-02 00:09:15"
        }
      ]
    },
    {
      "id": 370,
      "post_uuid": "0197c86f-84db-87e2-cbe9-e42c75ef7087",
      "title_ko": null,
      "title_zh": null,
      "content_ko": "언니~좋은아침 💗\n오늘 아침 텐션은 1부터 10 중에 몇 정도예요~?",
      "content_zh": "姐姐~早安 💗 今天早晨的情绪值是1到10分的话大概几分呢？",
      "post_time": "2025-07-02 00:00:41",
      "image_count": 0,
      "image_urls": null,
      "local_image_paths": null,
      "likes": 0,
      "comments": 0,
      "views": 0,
      "board": "Dear. IU",
      "members_only": 0,
      "author_username": "아이유의해바라기~이신",
      "author_avatar": "https://dearimage.iu101.org/images/avatars/avatar_174.jpg",
      "author_local_avatar": "https://dearimage.iu101.org/images/avatars/avatar_174.jpg",
      "fan_comments": [],
      "direct_iu_replies": [
        {
          "id": 1136,
          "content_ko": "2~쯤? 😏",
          "content_zh": "2点左右？ 😏",
          "image_count": 0,
          "image_urls": null,
          "local_image_paths": null,
          "replied_at": "2025-07-02 00:09:36"
        }
      ]
    }
  ]
}