{
  "page": 38,
  "totalPages": 45,
  "total": 895,
  "data": [
    {
      "id": 817,
      "post_uuid": "01971ef9-8268-8d4e-2e96-60b7a4819d51",
      "title_ko": null,
      "title_zh": null,
      "content_ko": "언니 밥 먹었어요?",
      "content_zh": "姐姐吃饭了吗？",
      "post_time": "2025-05-30 02:15:57",
      "image_count": 0,
      "image_urls": null,
      "local_image_paths": null,
      "likes": 0,
      "comments": 0,
      "views": 0,
      "board": "Dear. IU",
      "members_only": 0,
      "author_username": "김현아",
      "author_avatar": null,
      "author_local_avatar": null,
      "fan_comments": [],
      "direct_iu_replies": [
        {
          "id": 1648,
          "content_ko": "아직! 좀 더 자구 먹을래요🤤",
          "content_zh": "还要！再吃点再睡 🤤",
          "image_count": 0,
          "image_urls": null,
          "local_image_paths": null,
          "replied_at": "2025-05-30 05:17:53"
        }
      ]
    },
    {
      "id": 832,
      "post_uuid": "019712c2-a04e-2ca2-82a5-826015862fcd",
      "title_ko": null,
      "title_zh": null,
      "content_ko": "7 시간 뒤에 시험있어요...ㅠ.ㅠ 불안해서 잠이 안와요",
      "content_zh": "7 小时后有考试...ㅠ.ㅠ因为紧张睡不着。",
      "post_time": "2025-05-27 17:20:34",
      "image_count": 0,
      "image_urls": null,
      "local_image_paths": null,
      "likes": 0,
      "comments": 0,
      "views": 0,
      "board": "Dear. IU",
      "members_only": 0,
      "author_username": "용용쓰",
      "author_avatar": null,
      "author_local_avatar": null,
      "fan_comments": [],
      "direct_iu_replies": [
        {
          "id": 1663,
          "content_ko": "얼릉 자자 용용아 잘하고 와!!",
          "content_zh": "快点睡吧勇勇好好休息回来！！",
          "image_count": 0,
          "image_urls": null,
          "local_image_paths": null,
          "replied_at": "2025-05-27 17:21:35"
        }
      ]
    },
    {
      "id": 831,
      "post_uuid": "019712c2-9a7a-8589-bc41-a94061cb7971",
      "title_ko": null,
      "title_zh": null,
      "content_ko": "언니 넘 늦었는데 언제 잠들어요~?!",
      "content_zh": "姐姐太晚了，什么时候睡觉呀~？！",
      "post_time": "2025-05-27 17:20:32",
      "image_count": 0,
      "image_urls": null,
      "local_image_paths": null,
      "likes": 0,
      "comments": 0,
      "views": 0,
      "board": "Dear. IU",
      "members_only": 0,
      "author_username": "이지운",
      "author_avatar": null,
      "author_local_avatar": null,
      "fan_comments": [],
      "direct_iu_replies": [
        {
          "id": 1662,
          "content_ko": "이거 혹시 시끄러운 알람 가나? 내가 깨웠으면 미안!!! 😱",
          "content_zh": "这个会不会很吵啊？如果把你吵醒了对不起！！",
          "image_count": 0,
          "image_urls": null,
          "local_image_paths": null,
          "replied_at": "2025-05-27 17:22:28"
        }
      ]
    },
    {
      "id": 830,
      "post_uuid": "019712c2-8d46-bbf4-b826-5d828b540419",
      "title_ko": null,
      "title_zh": null,
      "content_ko": "언니도 이번 앨범도 많이 사랑행😊💜\n번역해서 많이 들을께!! 더 멋진 선물 고마워!!\n지금부터 씻고 잘거야 오늘도 일상의 소소한 힘이 되어줘서 고마워~ 언니 잘자ㅏ☘️\n\n＋언니ㅠㅠㅠㅠ 지금 너무 행복해🥹🥹🥹\n진짜 마ㅏ니 사랑해💖 너무 기뻐서 잘 수가 없어ㅓ",
      "content_zh": "姐姐这次的专辑也超级喜欢😊💜\n我会经常听的！谢谢你送这么棒的礼物！！\n现在要去洗漱睡觉了，今天也谢谢你能成为我日常中的小小力量～姐姐晚安☘️\n\n＋姐姐ㅠㅠㅠㅠ 现在真的好幸福🥹🥹🥹\n真的超～级爱你💖 太开心了都睡不着觉了",
      "post_time": "2025-05-27 17:20:29",
      "image_count": 0,
      "image_urls": null,
      "local_image_paths": null,
      "likes": 0,
      "comments": 0,
      "views": 0,
      "board": "Dear. IU",
      "members_only": 0,
      "author_username": "뿅뿅!!",
      "author_avatar": null,
      "author_local_avatar": null,
      "fan_comments": [],
      "direct_iu_replies": [
        {
          "id": 1661,
          "content_ko": "뿅뿅아 고마워 잘 자🫶",
          "content_zh": "蹦蹦谢谢晚安好好睡",
          "image_count": 0,
          "image_urls": null,
          "local_image_paths": null,
          "replied_at": "2025-05-27 17:23:31"
        }
      ]
    },
    {
      "id": 829,
      "post_uuid": "019712c2-57ba-f79a-61ac-5f8b7c3223d5",
      "title_ko": null,
      "title_zh": null,
      "content_ko": "언니 꽃갈피 셋 6 곡 중에서 애순이 금명이를 나타내는 곡이 있다면? 뭘 선택할거에요?? 저는 애순이한테는 미인! 금명이는 네모의꿈 ㅋㅋㅋ",
      "content_zh": "姐姐，在花夹子三辑 6 首歌中，如果有代表爱顺和金明的歌曲，会选择哪首？我觉得爱顺是《美人》！金明是《方块的梦》ㅋㅋㅋ",
      "post_time": "2025-05-27 17:20:15",
      "image_count": 0,
      "image_urls": null,
      "local_image_paths": null,
      "likes": 0,
      "comments": 0,
      "views": 0,
      "board": "Dear. IU",
      "members_only": 0,
      "author_username": "몽몽몽몽",
      "author_avatar": null,
      "author_local_avatar": null,
      "fan_comments": [],
      "direct_iu_replies": [
        {
          "id": 1660,
          "content_ko": "10월 4일 후렴구에 ‘너는 여우 같아~’를 듣고 ‘키가 즉고 여시상’이 생각났다는 문자(?)를 보고 난 이상 애순=10월 4일이다..",
          "content_zh": "10月4日副歌听到\"你像狐狸一样~\"时想到\"身高挺拔女时相\"的短信（？）之后我就觉得爱顺=10月4日..",
          "image_count": 0,
          "image_urls": null,
          "local_image_paths": null,
          "replied_at": "2025-05-27 17:25:57"
        }
      ]
    },
    {
      "id": 828,
      "post_uuid": "019712c2-3e5a-3644-a226-ddb031ade855",
      "title_ko": null,
      "title_zh": null,
      "content_ko": "늦게자는 유애나가 아이유를 본다 😳😳",
      "content_zh": "熬夜的优爱娜看到了 IU 😳😳",
      "post_time": "2025-05-27 17:20:09",
      "image_count": 0,
      "image_urls": null,
      "local_image_paths": null,
      "likes": 0,
      "comments": 0,
      "views": 0,
      "board": "Dear. IU",
      "members_only": 0,
      "author_username": "깅이",
      "author_avatar": null,
      "author_local_avatar": null,
      "fan_comments": [],
      "direct_iu_replies": [
        {
          "id": 1659,
          "content_ko": "일찍 일어나는 유애나가 아쉬워 한다",
          "content_zh": "早起的有爱之人感到惋惜",
          "image_count": 0,
          "image_urls": null,
          "local_image_paths": null,
          "replied_at": "2025-05-27 17:27:05"
        }
      ]
    },
    {
      "id": 827,
      "post_uuid": "019712c2-1f4e-25b6-6517-045be17bc15d",
      "title_ko": null,
      "title_zh": null,
      "content_ko": "몀미 멈믐 마묘!!!\n(=언니 얼른 자요!!)",
      "content_zh": "快睡快睡快睡觉！！（=姐姐快点睡觉！！）",
      "post_time": "2025-05-27 17:20:01",
      "image_count": 0,
      "image_urls": null,
      "local_image_paths": null,
      "likes": 0,
      "comments": 0,
      "views": 0,
      "board": "Dear. IU",
      "members_only": 0,
      "author_username": "망찌",
      "author_avatar": null,
      "author_local_avatar": null,
      "fan_comments": [],
      "direct_iu_replies": [
        {
          "id": 1658,
          "content_ko": "맘미 뫠 만마미!! [망찌 왜 안 자니]",
          "content_zh": "妈妈咪呀万岁妈妈咪！！【望子为什么不睡】",
          "image_count": 0,
          "image_urls": null,
          "local_image_paths": null,
          "replied_at": "2025-05-27 17:33:36"
        }
      ]
    },
    {
      "id": 826,
      "post_uuid": "019712c1-61ef-94bd-4068-8790de52bad4",
      "title_ko": null,
      "title_zh": null,
      "content_ko": "언니, 혹시 이 글을 보시게 된다면요, 제일 먼저 말씀드리고 싶은 건 이번 컴백, 아니 리메이크 앨범 덕분에 유애나로서 너무 많은 사랑을 받아서 정말 감사하다는 거예요. 그리고 저는 5 월 20 일에 생일을 맞았는데요, 제 소원은 언니가 제게 늦었지만 생일 축하를 해주시는 거예요. 이렇게 욕심부려도 될까요????",
      "content_zh": "姐姐，如果能看到这段话，我想先说，这次回归，不，应该说是多亏了这张翻唱专辑，作为柳爱娜得到了很多人的喜爱，真的非常感谢。还有，我 5 月 20 日过生日，我的愿望是希望姐姐能给我迟到的生日祝福。这样贪心可以吗？？？？",
      "post_time": "2025-05-27 17:19:12",
      "image_count": 0,
      "image_urls": null,
      "local_image_paths": null,
      "likes": 0,
      "comments": 0,
      "views": 0,
      "board": "Dear. IU",
      "members_only": 0,
      "author_username": "leejia20",
      "author_avatar": null,
      "author_local_avatar": null,
      "fan_comments": [],
      "direct_iu_replies": [
        {
          "id": 1657,
          "content_ko": "늦은 생일 축하!!! 🫶 행복한 생일 보냈길",
          "content_zh": "迟来的生日祝福！！祝你生日快乐",
          "image_count": 0,
          "image_urls": null,
          "local_image_paths": null,
          "replied_at": "2025-05-27 17:36:01"
        }
      ]
    },
    {
      "id": 825,
      "post_uuid": "019712c1-560e-add8-4bb6-885935cb8719",
      "title_ko": null,
      "title_zh": null,
      "content_ko": "언니야.. 제발.. 자.. sleep please.. ㅋㅋㅋㅋ 언니가 잠을 자지 않으면, 나도 잠을 자지 않아 ㅋㅋㅋㅋㅋㅋㅋㅋㅋㅋㅋㅋㅋㅋㅋㅋㅋㅋㅋㅋㅋ lullaby~~~~",
      "content_zh": "姐姐..拜托..睡吧..sleep please.. ㅋㅋㅋㅋ 如果姐姐不睡觉，我也不会睡觉 ㅋㅋㅋㅋㅋㅋㅋㅋㅋㅋㅋㅋㅋㅋㅋㅋㅋㅋㅋㅋㅋ lullaby~~~~",
      "post_time": "2025-05-27 17:19:09",
      "image_count": 0,
      "image_urls": null,
      "local_image_paths": null,
      "likes": 0,
      "comments": 0,
      "views": 0,
      "board": "Dear. IU",
      "members_only": 0,
      "author_username": "Joev",
      "author_avatar": null,
      "author_local_avatar": null,
      "fan_comments": [],
      "direct_iu_replies": [
        {
          "id": 1656,
          "content_ko": "바로 자러 간당 🏃‍♀️🌙",
          "content_zh": "马上去睡觉了",
          "image_count": 0,
          "image_urls": null,
          "local_image_paths": null,
          "replied_at": "2025-05-27 17:36:34"
        }
      ]
    },
    {
      "id": 824,
      "post_uuid": "019712c1-1d4f-284b-fcf9-7c83220d6a40",
      "title_ko": null,
      "title_zh": null,
      "content_ko": "아이유님 베리즈 프롬유 사진은 공카 프롬유랑 다르게 공유해도 되는거 맞아요? 아이유님이 가르마 타줘야 우리가 속편하게 공유해요😢",
      "content_zh": "IU 老师，Berryz From You 的照片可以像官方卡的 From You 那样分享吗？IU 老师给我们分个流派，我们才能放心分享啊😢",
      "post_time": "2025-05-27 17:18:55",
      "image_count": 2,
      "image_urls": "https://dearimage.iu101.org/images/posts/post_824_1482196537.jpg",
      "local_image_paths": "https://dearimage.iu101.org/images/posts/post_824_1476530779.jpg|https://dearimage.iu101.org/images/posts/post_824_1482196537.jpg",
      "likes": 0,
      "comments": 0,
      "views": 0,
      "board": "Dear. IU",
      "members_only": 0,
      "author_username": "미니언",
      "author_avatar": "https://dearimage.iu101.org/images/avatars/avatar_89.gif",
      "author_local_avatar": "https://dearimage.iu101.org/images/avatars/avatar_89.gif",
      "fan_comments": [],
      "direct_iu_replies": [
        {
          "id": 1655,
          "content_ko": "가르마를 탄다? 🤔 사진 공유는 얼마든지요! 🙂‍↕️",
          "content_zh": "分界线？照片随便分享！",
          "image_count": 0,
          "image_urls": null,
          "local_image_paths": null,
          "replied_at": "2025-05-27 17:38:05"
        }
      ]
    },
    {
      "id": 844,
      "post_uuid": "01971255-1b0d-9dfb-d7fe-2537f353e26b",
      "title_ko": null,
      "title_zh": null,
      "content_ko": "네엔스 뮤비에서 여주인공 직업이 뭐에요?\n왜 호루라기 갖고 다녀요?? ",
      "content_zh": "《霓裳》MV 中女主角的职业是什么？为什么带着口哨？",
      "post_time": "2025-05-27 15:20:56",
      "image_count": 0,
      "image_urls": null,
      "local_image_paths": null,
      "likes": 0,
      "comments": 0,
      "views": 0,
      "board": "Dear. IU",
      "members_only": 0,
      "author_username": "사랑사랑사랑",
      "author_avatar": null,
      "author_local_avatar": null,
      "fan_comments": [],
      "direct_iu_replies": [
        {
          "id": 1676,
          "content_ko": "단속반!!",
          "content_zh": "对哪个部分比较好我很纠结..",
          "image_count": 0,
          "image_urls": null,
          "local_image_paths": null,
          "replied_at": "2025-05-27 15:34:05"
        }
      ]
    },
    {
      "id": 843,
      "post_uuid": "01971255-1733-6d66-bd1e-5241b48cb3c4",
      "title_ko": null,
      "title_zh": null,
      "content_ko": "언니랑 마지막 통화를 했어….\n또 전화 걸게 해줄거지..? 우리 또 전화할 수 있는거지..?",
      "content_zh": "和姐姐最后通了一次电话…还会再给我打电话吧..？我们还能再通话吧..？",
      "post_time": "2025-05-27 15:20:55",
      "image_count": 0,
      "image_urls": null,
      "local_image_paths": null,
      "likes": 0,
      "comments": 0,
      "views": 0,
      "board": "Dear. IU",
      "members_only": 0,
      "author_username": "허정은",
      "author_avatar": "https://dearimage.iu101.org/images/avatars/avatar_283.jpeg",
      "author_local_avatar": "https://dearimage.iu101.org/images/avatars/avatar_283.jpeg",
      "fan_comments": [],
      "direct_iu_replies": [
        {
          "id": 1675,
          "content_ko": "벌써 마지막이야???",
          "content_zh": "检查组！！",
          "image_count": 0,
          "image_urls": null,
          "local_image_paths": null,
          "replied_at": "2025-05-27 15:34:17"
        }
      ]
    },
    {
      "id": 855,
      "post_uuid": "01971255-16aa-1e9b-f092-7a7633dcc562",
      "title_ko": null,
      "title_zh": null,
      "content_ko": "언니 노래 최고! 이번 앨범에서 최애 트랙이 뭐예요?🥺",
      "content_zh": "姐姐的歌最棒！这张专辑最喜欢的音轨是什么？🥺",
      "post_time": "2025-05-27 15:20:55",
      "image_count": 0,
      "image_urls": null,
      "local_image_paths": null,
      "likes": 0,
      "comments": 0,
      "views": 0,
      "board": "Dear. IU",
      "members_only": 0,
      "author_username": "예찐",
      "author_avatar": null,
      "author_local_avatar": null,
      "fan_comments": [],
      "direct_iu_replies": [
        {
          "id": 1687,
          "content_ko": "꽃갈피는 늘 최애를 뽑는 게 좀 무색하네 원래도 너무 좋아했던 곡들을 부르는 거라서 그런가 봐요 🙂‍↕️",
          "content_zh": "花夹子总是很难选出最爱的歌，大概是因为原本就太喜欢那些歌曲了 🙂‍↕️",
          "image_count": 0,
          "image_urls": null,
          "local_image_paths": null,
          "replied_at": "2025-05-27 15:22:29"
        }
      ]
    },
    {
      "id": 854,
      "post_uuid": "01971255-105e-fab3-73ed-ae59cc1605b9",
      "title_ko": null,
      "title_zh": null,
      "content_ko": "아이유 씨,\n당신의 노래는 밤하늘에 피는 별빛 같았죠.\n조용한 내 마음에 스며들어, 어느새 전부가 되었어요.\n\n당신의 미소는 봄바람 같아,\n차가운 날도 내게 따스함을 남겼죠.\n그 짧은 눈빛 하나에, 나는 하루를 살아냈어요.\n\n말하지 않아도, 당신은 내 마음을 알아줬고\n가까이 있지 않아도, 나는 당신을 느꼈어요.\n세상 가장 고운 목소리로\n내 아픔을 감싸 안아준 건, 바로 당신이었어요.\n\n사랑했어요, 정말 많이.\n눈물로도, 미소로도 다 말할 수 없을 만큼.\n시간이 흘러도,\n그 사랑은 잊히지 않고… 조용히 노래가 되네요.\n\n당신을 향한 내 마음,\n노래처럼 영원히 울리고 있어요.\n\n🥰🥰🥰😍😍😍",
      "content_zh": "IU，\n你的歌声如同夜空中绽放的星光，\n悄悄渗入我安静的心里，不知何时已成为我的全部。\n\n你的微笑如春风般温暖，\n即使在寒冷的日子里也给我留下了暖意。\n就在那短暂的眼神交汇中，我度过了一整天。\n\n即使不用言语，你也懂得我的心意，\n即使不在身边，我也能感受到你。\n用这世间最美妙的声音，\n将我的痛苦轻轻拥抱的，正是你。\n\n我曾那样深深地爱过，\n这份爱无法用眼泪或笑容完全表达。\n纵然时光流逝，\n那份爱也不会被遗忘……静静地化作一首歌。\n\n我对你的这份心意，\n如歌声般永远回响着。\n\n🥰🥰🥰😍😍😍",
      "post_time": "2025-05-27 15:20:54",
      "image_count": 0,
      "image_urls": null,
      "local_image_paths": null,
      "likes": 0,
      "comments": 0,
      "views": 0,
      "board": "Dear. IU",
      "members_only": 0,
      "author_username": "앤16",
      "author_avatar": null,
      "author_local_avatar": null,
      "fan_comments": [],
      "direct_iu_replies": [
        {
          "id": 1686,
          "content_ko": "🫶 ",
          "content_zh": "我来得太晚了！！我来了！！",
          "image_count": 0,
          "image_urls": null,
          "local_image_paths": null,
          "replied_at": "2025-05-27 15:23:40"
        }
      ]
    },
    {
      "id": 852,
      "post_uuid": "01971255-0894-8856-e860-e8ac5d84121b",
      "title_ko": null,
      "title_zh": null,
      "content_ko": "언니야 안읽씹하는 친구 어떻게 퇴치해",
      "content_zh": "姐姐，对那种已读不回的朋友怎么对付？",
      "post_time": "2025-05-27 15:20:52",
      "image_count": 0,
      "image_urls": null,
      "local_image_paths": null,
      "likes": 0,
      "comments": 0,
      "views": 0,
      "board": "Dear. IU",
      "members_only": 0,
      "author_username": "공부해야되는사람",
      "author_avatar": null,
      "author_local_avatar": null,
      "fan_comments": [],
      "direct_iu_replies": [
        {
          "id": 1684,
          "content_ko": "‘차라리 읽씹해라’라고 보내는 건 어떨까요?",
          "content_zh": "我也经历过 🥹太吓人了吧..",
          "image_count": 0,
          "image_urls": null,
          "local_image_paths": null,
          "replied_at": "2025-05-27 15:25:34"
        }
      ]
    },
    {
      "id": 853,
      "post_uuid": "01971255-0ac1-68b4-056b-396374fba782",
      "title_ko": null,
      "title_zh": null,
      "content_ko": "아이유 언니!\n오늘 제일 기대했던 꽃갈피 3… 드디어 나왔네요! 🔖🤩\n그 중 ‘Never Ending Story’는 정말 감동 그 자체였어요. 하루 종일 20 번 넘게 반복해서 들었어요🥹\n그뿐만 아니라 다른 수록곡들도 전부 너무 좋아서 지금 제 플레이리스트는 24 시간 풀가동 중이에요🎧💜\n\n사실 오늘 퇴근 직전에 큰 실수가 있었는데,\n하루 종일 쓴 보고서를 저장 안 하고 ‘아니오’를 눌러버렸어요…🙂\n딱 열어보니 오전 버전만 남아 있어서 멘붕했지만,\n언니 노래 들으면서 마음을 다잡고 결국 다시 다 썼어요!\n\n오늘은 감동과 멘붕이 공존한 하루였지만,\n언니 노래 덕분에 마지막엔 웃으면서 마무리했어요.\n언니도 오늘 언니만의 소소한 승리를 꼭 찾으셨길 바라요!\n",
      "content_zh": "IU 欧尼！\n今天最期待的花书签 3 终于发布了！🔖🤩\n其中《Never Ending Story》真的太感人了，我一整天反复听了 20 多遍🥹\n不仅如此，其他收录歌曲也都特别好听，现在我的播放列表正 24 小时全天候循环播放中🎧💜\n\n其实今天下班前出了个大乌龙，\n一整天写的报告忘记保存就按了\"否\"…🙂\n打开一看只有早上的版本，当时整个人都崩溃了，\n但听着欧尼的歌重新振作起来，最后还是全部重新写完了！\n\n今天虽然又是感动又是崩溃，\n但因为有欧尼的歌，最终还是笑着收尾了。\n也希望欧尼今天也能找到属于自己的小小胜利！",
      "post_time": "2025-05-27 15:20:52",
      "image_count": 1,
      "image_urls": "https://dearimage.iu101.org/images/posts/post_853_134017921.jpeg",
      "local_image_paths": "https://dearimage.iu101.org/images/posts/post_853_134017921.jpeg",
      "likes": 0,
      "comments": 0,
      "views": 0,
      "board": "Dear. IU",
      "members_only": 0,
      "author_username": "IUaenaLiangYU",
      "author_avatar": null,
      "author_local_avatar": null,
      "fan_comments": [],
      "direct_iu_replies": [
        {
          "id": 1685,
          "content_ko": "나도 그랬던 적 있어 🥹 너무 놀랐겠다..",
          "content_zh": "花夹子总是选最喜爱有点无色，因为本来就很喜欢那些歌 🙂‍↕️",
          "image_count": 0,
          "image_urls": null,
          "local_image_paths": null,
          "replied_at": "2025-05-27 15:24:40"
        }
      ]
    },
    {
      "id": 851,
      "post_uuid": "01971254-fbb0-73e5-fc28-733bb21c8ecb",
      "title_ko": null,
      "title_zh": null,
      "content_ko": "언니!!미인 마지막 부분은 언니 목소리 맞죠???",
      "content_zh": "姐姐！！美人最后部分是姐姐的声音对吧？",
      "post_time": "2025-05-27 15:20:48",
      "image_count": 0,
      "image_urls": null,
      "local_image_paths": null,
      "likes": 0,
      "comments": 0,
      "views": 0,
      "board": "Dear. IU",
      "members_only": 0,
      "author_username": "난너를사랑해",
      "author_avatar": null,
      "author_local_avatar": null,
      "fan_comments": [],
      "direct_iu_replies": [
        {
          "id": 1683,
          "content_ko": "소금님과 제 목소리가 섞여있어요!",
          "content_zh": "发个\"还不如读完无视\"怎么样？",
          "image_count": 0,
          "image_urls": null,
          "local_image_paths": null,
          "replied_at": "2025-05-27 15:26:12"
        }
      ]
    },
    {
      "id": 850,
      "post_uuid": "01971254-d722-3103-33e3-1407d9f14b70",
      "title_ko": null,
      "title_zh": null,
      "content_ko": "언니, 너 때문에 내 오월은 정말 즐거웠어요🫶🏻🫶🏻🫶🏻",
      "content_zh": "姐姐，因为有你我的五月真的很愉快🫶🏻🫶🏻🫶🏻",
      "post_time": "2025-05-27 15:20:39",
      "image_count": 0,
      "image_urls": null,
      "local_image_paths": null,
      "likes": 0,
      "comments": 0,
      "views": 0,
      "board": "Dear. IU",
      "members_only": 0,
      "author_username": "MonicaMonica",
      "author_avatar": null,
      "author_local_avatar": null,
      "fan_comments": [],
      "direct_iu_replies": [
        {
          "id": 1682,
          "content_ko": "나도 마찬가지야 5월 정말 좋았다..",
          "content_zh": "和盐女士的声音混合在一起了！",
          "image_count": 0,
          "image_urls": null,
          "local_image_paths": null,
          "replied_at": "2025-05-27 15:28:27"
        }
      ]
    },
    {
      "id": 849,
      "post_uuid": "01971254-d18d-7570-c027-b137594a67e3",
      "title_ko": null,
      "title_zh": null,
      "content_ko": "10 월 4 일 처음듣고충격먹었어요…. 너무좋아서",
      "content_zh": "10 月 4 日第一次听就被震撼了….太喜欢了",
      "post_time": "2025-05-27 15:20:38",
      "image_count": 0,
      "image_urls": null,
      "local_image_paths": null,
      "likes": 0,
      "comments": 0,
      "views": 0,
      "board": "Dear. IU",
      "members_only": 0,
      "author_username": "몽몽몽몽",
      "author_avatar": null,
      "author_local_avatar": null,
      "fan_comments": [],
      "direct_iu_replies": [
        {
          "id": 1681,
          "content_ko": "인트로가 진짜 좋죠🥹",
          "content_zh": "我也是5月真的很好..",
          "image_count": 0,
          "image_urls": null,
          "local_image_paths": null,
          "replied_at": "2025-05-27 15:29:21"
        }
      ]
    },
    {
      "id": 848,
      "post_uuid": "01971254-b77b-9a1f-72a2-73c4e3493fb3",
      "title_ko": null,
      "title_zh": null,
      "content_ko": "언니 조간신문 스마트폰으로 바꾸는 \n아이디어는 누가 낸거에요??😗",
      "content_zh": "姐姐把晨间新闻改成智能手机的想法是谁提出来的？😗",
      "post_time": "2025-05-27 15:20:31",
      "image_count": 0,
      "image_urls": null,
      "local_image_paths": null,
      "likes": 0,
      "comments": 0,
      "views": 0,
      "board": "Dear. IU",
      "members_only": 0,
      "author_username": "서여닝",
      "author_avatar": null,
      "author_local_avatar": null,
      "fan_comments": [],
      "direct_iu_replies": [
        {
          "id": 1680,
          "content_ko": "나..ㅋㅋㅋ😀",
          "content_zh": "开头真的很好",
          "image_count": 0,
          "image_urls": null,
          "local_image_paths": null,
          "replied_at": "2025-05-27 15:30:08"
        }
      ]
    }
  ]
}
