{
  "page": 17,
  "totalPages": 45,
  "total": 895,
  "data": [
    {
      "id": 394,
      "post_uuid": "0197b970-a1b6-7dd7-71ac-9f65a22a3eaf",
      "title_ko": null,
      "title_zh": null,
      "content_ko": "언니는 오늘 뭐해요?? 일하러 가겟죠..??",
      "content_zh": "姐姐今天做什么？去工作吗？",
      "post_time": "2025-06-29 02:07:35",
      "image_count": 0,
      "image_urls": null,
      "local_image_paths": null,
      "likes": 0,
      "comments": 0,
      "views": 0,
      "board": "Dear. IU",
      "members_only": 0,
      "author_username": "지은데쓰요",
      "author_avatar": null,
      "author_local_avatar": null,
      "fan_comments": [],
      "direct_iu_replies": [
        {
          "id": 1197,
          "content_ko": "오늘은 쉬는 날! 이삿집 대충 싸고 작업을 좀 해볼까 해요",
          "content_zh": "今天是休息日！随便收拾一下搬家的东西 做点工作",
          "image_count": 0,
          "image_urls": null,
          "local_image_paths": null,
          "replied_at": "2025-06-29 02:09:05"
        }
      ]
    },
    {
      "id": 393,
      "post_uuid": "0197b970-27a4-f203-9ce9-acfccb9897aa",
      "title_ko": null,
      "title_zh": null,
      "content_ko": "언니가 선택 문제!✅ 당신은 나의 심쿵 여자 게스트! 말랑한 복숭아 아니면 딱딱한 복숭아? 부드러운 면 or 하드 면? 국물을 많이 드시겠습니까, 적게 드시겠습니까?🍜🍑",
      "content_zh": "姐姐来选择问题！✅ 你就是我的心动女嘉宾！软桃子还是硬桃子？柔软面还是硬朗面？汤要多喝还是少喝？🍜🍑",
      "post_time": "2025-06-29 02:07:04",
      "image_count": 0,
      "image_urls": null,
      "local_image_paths": null,
      "likes": 0,
      "comments": 0,
      "views": 0,
      "board": "Dear. IU",
      "members_only": 0,
      "author_username": "예영짱",
      "author_avatar": "https://dearimage.iu101.org/images/avatars/avatar_407.jpeg",
      "author_local_avatar": "https://dearimage.iu101.org/images/avatars/avatar_407.jpeg",
      "fan_comments": [],
      "direct_iu_replies": [
        {
          "id": 1196,
          "content_ko": "난 물복파!",
          "content_zh": "我是水瓶座！",
          "image_count": 0,
          "image_urls": null,
          "local_image_paths": null,
          "replied_at": "2025-06-29 02:09:35"
        }
      ]
    },
    {
      "id": 392,
      "post_uuid": "0197b96f-bd5a-c7d6-cd78-9ceb97969ad3",
      "title_ko": null,
      "title_zh": null,
      "content_ko": "언니 집에서 혼자 쉬면 아침 식사가 세련될까요? 요구르트 그릇 같은 거? 아니면 주스 한 잔 짜실까요? 지금 뭐 마셔요?🥣",
      "content_zh": "姐姐一个人在家休息时早餐会精致吗？像酸奶碗那样的？还是榨一杯果汁？现在喝什么？🥣",
      "post_time": "2025-06-29 02:06:37",
      "image_count": 0,
      "image_urls": null,
      "local_image_paths": null,
      "likes": 0,
      "comments": 0,
      "views": 0,
      "board": "Dear. IU",
      "members_only": 0,
      "author_username": "예영짱",
      "author_avatar": "https://dearimage.iu101.org/images/avatars/avatar_407.jpeg",
      "author_local_avatar": "https://dearimage.iu101.org/images/avatars/avatar_407.jpeg",
      "fan_comments": [],
      "direct_iu_replies": [
        {
          "id": 1195,
          "content_ko": "나 꽤 든든히 먹는데 \n사과 한 알이랑 땅콩 버터, 고구마의 치즈, 샐러드!",
          "content_zh": "我吃得挺饱的 一个苹果和花生酱、红薯芝士、沙拉！",
          "image_count": 0,
          "image_urls": null,
          "local_image_paths": null,
          "replied_at": "2025-06-29 02:11:01"
        }
      ]
    },
    {
      "id": 391,
      "post_uuid": "0197b96c-d8f1-73a7-9e0c-c0ce5b92c82a",
      "title_ko": null,
      "title_zh": null,
      "content_ko": "어떤 노래를 쓰는 데 가장 오랜 시간이 걸렸나요?",
      "content_zh": "写哪首歌花费的时间最长？",
      "post_time": "2025-06-29 02:03:27",
      "image_count": 0,
      "image_urls": null,
      "local_image_paths": null,
      "likes": 0,
      "comments": 0,
      "views": 0,
      "board": "Dear. IU",
      "members_only": 0,
      "author_username": "줄리앙",
      "author_avatar": "https://dearimage.iu101.org/images/avatars/avatar_145.jpeg",
      "author_local_avatar": "https://dearimage.iu101.org/images/avatars/avatar_145.jpeg",
      "fan_comments": [],
      "direct_iu_replies": [
        {
          "id": 1194,
          "content_ko": "이름에게..?",
          "content_zh": "给名字..？",
          "image_count": 0,
          "image_urls": null,
          "local_image_paths": null,
          "replied_at": "2025-06-29 02:12:38"
        }
      ]
    },
    {
      "id": 390,
      "post_uuid": "0197b96c-7ef3-c38a-7e7c-dbaf57282c74",
      "title_ko": null,
      "title_zh": null,
      "content_ko": "징짱!!! 저 오늘 생일이에요🥰 징짱이 축하해 주면 진짜 최고로 행복한 생일이 될 거 같아요.😆",
      "content_zh": "珍珍！！我今天生日🥰 如果珍珍祝贺的话真的会是最幸福的生日。😆",
      "post_time": "2025-06-29 02:03:04",
      "image_count": 0,
      "image_urls": null,
      "local_image_paths": null,
      "likes": 0,
      "comments": 0,
      "views": 0,
      "board": "Dear. IU",
      "members_only": 0,
      "author_username": "사랑愛",
      "author_avatar": null,
      "author_local_avatar": null,
      "fan_comments": [],
      "direct_iu_replies": [
        {
          "id": 1193,
          "content_ko": "생일 축하해❤️",
          "content_zh": "生日快乐❤️",
          "image_count": 0,
          "image_urls": null,
          "local_image_paths": null,
          "replied_at": "2025-06-29 02:13:14"
        }
      ]
    },
    {
      "id": 389,
      "post_uuid": "0197b96c-44d4-3b2d-02a3-617110849015",
      "title_ko": null,
      "title_zh": null,
      "content_ko": "지은아, O 형 사람이랑 B 형 사람은 친구가 될 수 있다고 생각해?",
      "content_zh": "知恩啊，O 型血和 B 型血的人能成为朋友吗？",
      "post_time": "2025-06-29 02:02:49",
      "image_count": 0,
      "image_urls": null,
      "local_image_paths": null,
      "likes": 0,
      "comments": 0,
      "views": 0,
      "board": "Dear. IU",
      "members_only": 0,
      "author_username": "파김치",
      "author_avatar": "https://dearimage.iu101.org/images/avatars/avatar_39.jpeg",
      "author_local_avatar": "https://dearimage.iu101.org/images/avatars/avatar_39.jpeg",
      "fan_comments": [],
      "direct_iu_replies": [
        {
          "id": 1192,
          "content_ko": "ㅋㅋㅋ그럼! 완전 ",
          "content_zh": "ㅋㅋㅋ那样！完全",
          "image_count": 0,
          "image_urls": null,
          "local_image_paths": null,
          "replied_at": "2025-06-29 02:13:34"
        }
      ]
    },
    {
      "id": 387,
      "post_uuid": "0197b968-4017-ca08-8025-eb7f9509ef93",
      "title_ko": null,
      "title_zh": null,
      "content_ko": "언니, 오늘은 시크한 검정? 아니면 청순한 하양? 모자 선택 도와주세요!",
      "content_zh": "姐姐，今天是酷炫黑色？还是清纯白色？帮我选择帽子！",
      "post_time": "2025-06-29 01:58:26",
      "image_count": 0,
      "image_urls": null,
      "local_image_paths": null,
      "likes": 0,
      "comments": 0,
      "views": 0,
      "board": "Dear. IU",
      "members_only": 0,
      "author_username": "IU현여친유구아",
      "author_avatar": null,
      "author_local_avatar": null,
      "fan_comments": [],
      "direct_iu_replies": [
        {
          "id": 1190,
          "content_ko": "뭐 쓰고 나갔으려나? 늦었지만 시크한 검정에 한 표!",
          "content_zh": "出去的时候穿什么了？虽然晚了但投给酷酷黑色一票！",
          "image_count": 0,
          "image_urls": null,
          "local_image_paths": null,
          "replied_at": "2025-06-29 05:54:22"
        }
      ]
    },
    {
      "id": 396,
      "post_uuid": "0197b2ce-2897-835d-4904-4af29eb3d2f2",
      "title_ko": null,
      "title_zh": null,
      "content_ko": "누나 근데 요번 녹음영상은 모자 뒤로 안 썼네요",
      "content_zh": "姐姐这次录音视频没戴帽子",
      "post_time": "2025-06-27 19:12:24",
      "image_count": 0,
      "image_urls": null,
      "local_image_paths": null,
      "likes": 0,
      "comments": 0,
      "views": 0,
      "board": "Dear. IU",
      "members_only": 0,
      "author_username": "JAEHUN",
      "author_avatar": null,
      "author_local_avatar": null,
      "fan_comments": [],
      "direct_iu_replies": [
        {
          "id": 1199,
          "content_ko": "쓴 것도 있어",
          "content_zh": "也有写的",
          "image_count": 0,
          "image_urls": null,
          "local_image_paths": null,
          "replied_at": "2025-06-27 19:17:31"
        }
      ]
    },
    {
      "id": 405,
      "post_uuid": "0197b2bc-396b-fb12-49e4-72ae5e564bfc",
      "title_ko": null,
      "title_zh": null,
      "content_ko": "언니는 이지은으로 산 세월과 아이유로 산 세월 중에 어떤 삶이 더 기억에 남고 애틋해요?",
      "content_zh": "姐姐，在以李知恩身份生活的岁月和以 IU 身份生活的岁月中，哪个更令人难忘和怀念？",
      "post_time": "2025-06-27 18:52:49",
      "image_count": 0,
      "image_urls": null,
      "local_image_paths": null,
      "likes": 0,
      "comments": 0,
      "views": 0,
      "board": "Dear. IU",
      "members_only": 0,
      "author_username": "찌구리",
      "author_avatar": "https://dearimage.iu101.org/images/avatars/avatar_16.jpeg",
      "author_local_avatar": "https://dearimage.iu101.org/images/avatars/avatar_16.jpeg",
      "fan_comments": [],
      "direct_iu_replies": [
        {
          "id": 1208,
          "content_ko": "후자! 전자는 사실  기억도 가물가물함..",
          "content_zh": "后者！前者其实已经记不太清了..",
          "image_count": 0,
          "image_urls": null,
          "local_image_paths": null,
          "replied_at": "2025-06-27 19:00:05"
        }
      ]
    },
    {
      "id": 404,
      "post_uuid": "0197b2bc-0dd1-e54b-dcac-9e476f0dcb63",
      "title_ko": null,
      "title_zh": null,
      "content_ko": "삶이 힘들어질 때 어떻게 대처하시나요? 🥹",
      "content_zh": "生活变得艰难时你怎么应对？ 🥹",
      "post_time": "2025-06-27 18:52:38",
      "image_count": 0,
      "image_urls": null,
      "local_image_paths": null,
      "likes": 0,
      "comments": 0,
      "views": 0,
      "board": "Dear. IU",
      "members_only": 0,
      "author_username": "TurkishDelight",
      "author_avatar": null,
      "author_local_avatar": null,
      "fan_comments": [],
      "direct_iu_replies": [
        {
          "id": 1207,
          "content_ko": "버티죠 맷집으로 아자자!!",
          "content_zh": "用耐打的身体加油加油！！",
          "image_count": 0,
          "image_urls": null,
          "local_image_paths": null,
          "replied_at": "2025-06-27 19:01:08"
        }
      ]
    },
    {
      "id": 403,
      "post_uuid": "0197b2bb-b13d-ae56-b9f7-6158ec625e7e",
      "title_ko": null,
      "title_zh": null,
      "content_ko": "언니! 최근에 사서 만족한 물건 있어요?",
      "content_zh": "姐姐！最近买了什么满意的东西吗？",
      "post_time": "2025-06-27 18:52:14",
      "image_count": 0,
      "image_urls": null,
      "local_image_paths": null,
      "likes": 0,
      "comments": 0,
      "views": 0,
      "board": "Dear. IU",
      "members_only": 0,
      "author_username": "うさぎ",
      "author_avatar": "https://dearimage.iu101.org/images/avatars/avatar_43.jpeg",
      "author_local_avatar": "https://dearimage.iu101.org/images/avatars/avatar_43.jpeg",
      "fan_comments": [],
      "direct_iu_replies": [
        {
          "id": 1206,
          "content_ko": "누드 빼빼로?",
          "content_zh": "裸色百奇？",
          "image_count": 0,
          "image_urls": null,
          "local_image_paths": null,
          "replied_at": "2025-06-27 19:06:58"
        }
      ]
    },
    {
      "id": 402,
      "post_uuid": "0197b2bb-82d1-444f-e311-cc859457c423",
      "title_ko": null,
      "title_zh": null,
      "content_ko": "언니 요즘 카페나 커피차 통해서 어떤 음료 주로 마셔요?",
      "content_zh": "姐姐最近主要通过咖啡店或咖啡车喝什么饮料？",
      "post_time": "2025-06-27 18:52:02",
      "image_count": 0,
      "image_urls": null,
      "local_image_paths": null,
      "likes": 0,
      "comments": 0,
      "views": 0,
      "board": "Dear. IU",
      "members_only": 0,
      "author_username": "보현",
      "author_avatar": null,
      "author_local_avatar": null,
      "fan_comments": [],
      "direct_iu_replies": [
        {
          "id": 1205,
          "content_ko": "딸기라떼랑... 팥빙수!!",
          "content_zh": "草莓拿铁和...红豆冰沙！！",
          "image_count": 0,
          "image_urls": null,
          "local_image_paths": null,
          "replied_at": "2025-06-27 19:07:39"
        }
      ]
    },
    {
      "id": 401,
      "post_uuid": "0197b2bb-4541-2e72-1eb7-a4643388802d",
      "title_ko": null,
      "title_zh": null,
      "content_ko": "유애나를 과일에 대입한다면 무슨 과일같아요?🤭",
      "content_zh": "如果把友爱娜比作水果的话像什么水果？🤭",
      "post_time": "2025-06-27 18:51:46",
      "image_count": 0,
      "image_urls": null,
      "local_image_paths": null,
      "likes": 0,
      "comments": 0,
      "views": 0,
      "board": "Dear. IU",
      "members_only": 0,
      "author_username": "찌구리",
      "author_avatar": "https://dearimage.iu101.org/images/avatars/avatar_16.jpeg",
      "author_local_avatar": "https://dearimage.iu101.org/images/avatars/avatar_16.jpeg",
      "fan_comments": [],
      "direct_iu_replies": [
        {
          "id": 1204,
          "content_ko": "블루베리 종알종알 동글동글 귀여워",
          "content_zh": "蓝莓嘟囔嘟囔圆滚滚好可爱",
          "image_count": 0,
          "image_urls": null,
          "local_image_paths": null,
          "replied_at": "2025-06-27 19:08:49"
        }
      ]
    },
    {
      "id": 400,
      "post_uuid": "0197b2bb-2fa5-ab6e-1c5e-f63d38040d13",
      "title_ko": null,
      "title_zh": null,
      "content_ko": "오늘 밤 나를 잠들게 해줄 노래?",
      "content_zh": "今晚让我入睡的歌曲？",
      "post_time": "2025-06-27 18:51:41",
      "image_count": 0,
      "image_urls": null,
      "local_image_paths": null,
      "likes": 0,
      "comments": 0,
      "views": 0,
      "board": "Dear. IU",
      "members_only": 0,
      "author_username": "aleezus",
      "author_avatar": null,
      "author_local_avatar": null,
      "fan_comments": [],
      "direct_iu_replies": [
        {
          "id": 1203,
          "content_ko": "팀 선배님의\n자장가",
          "content_zh": "团队前辈的摇篮曲",
          "image_count": 0,
          "image_urls": null,
          "local_image_paths": null,
          "replied_at": "2025-06-27 19:09:29"
        }
      ]
    },
    {
      "id": 399,
      "post_uuid": "0197b2bb-2e1a-a55d-134c-aae304fdcd1a",
      "title_ko": null,
      "title_zh": null,
      "content_ko": "스케줄 있을 땐 과자나 초콜릿도 맘대로 못먹죠?..ㅠ",
      "content_zh": "有日程时连饼干或巧克力也不能随便吃..ㅠ",
      "post_time": "2025-06-27 18:51:40",
      "image_count": 0,
      "image_urls": null,
      "local_image_paths": null,
      "likes": 0,
      "comments": 0,
      "views": 0,
      "board": "Dear. IU",
      "members_only": 0,
      "author_username": "12월24일",
      "author_avatar": null,
      "author_local_avatar": null,
      "fan_comments": [],
      "direct_iu_replies": [
        {
          "id": 1202,
          "content_ko": "아니야 그것만 먹어 거의..🥴",
          "content_zh": "不是 只吃那个几乎..🥴",
          "image_count": 0,
          "image_urls": null,
          "local_image_paths": null,
          "replied_at": "2025-06-27 19:09:57"
        }
      ]
    },
    {
      "id": 397,
      "post_uuid": "0197b2b9-6107-9278-6c52-ffe26be67831",
      "title_ko": null,
      "title_zh": null,
      "content_ko": "지은아!어서 자러 가!!!",
      "content_zh": "知恩！快去睡觉！！",
      "post_time": "2025-06-27 18:49:42",
      "image_count": 0,
      "image_urls": null,
      "local_image_paths": null,
      "likes": 0,
      "comments": 0,
      "views": 0,
      "board": "Dear. IU",
      "members_only": 0,
      "author_username": "마미뮤girlfriend",
      "author_avatar": "https://dearimage.iu101.org/images/avatars/avatar_312.png",
      "author_local_avatar": "https://dearimage.iu101.org/images/avatars/avatar_312.png",
      "fan_comments": [],
      "direct_iu_replies": [
        {
          "id": 1200,
          "content_ko": "자러 갈게\n마이 갈후렌두도 어서 자러 가❤️",
          "content_zh": "我要去睡觉了  我的朋友也快去睡觉❤️",
          "image_count": 0,
          "image_urls": null,
          "local_image_paths": null,
          "replied_at": "2025-06-27 19:13:22"
        }
      ]
    },
    {
      "id": 415,
      "post_uuid": "0197b2a8-fbb9-55dd-cc84-ff0459a145e1",
      "title_ko": null,
      "title_zh": null,
      "content_ko": "지은아, 지금 자고 있어? 아니면 또 열심히 일하는 중이야? 뭐 하고 있든지 항상 응원하고 있어 😊💖",
      "content_zh": "知恩啊，现在在睡觉吗？还是又在努力工作？不管在做什么都一直为你加油 😊💖",
      "post_time": "2025-06-27 18:31:48",
      "image_count": 0,
      "image_urls": null,
      "local_image_paths": null,
      "likes": 0,
      "comments": 0,
      "views": 0,
      "board": "Dear. IU",
      "members_only": 0,
      "author_username": "paulabianca",
      "author_avatar": "https://dearimage.iu101.org/images/avatars/avatar_74.jpeg",
      "author_local_avatar": "https://dearimage.iu101.org/images/avatars/avatar_74.jpeg",
      "fan_comments": [],
      "direct_iu_replies": [
        {
          "id": 1218,
          "content_ko": "나 이제 자려고 누웠어 ☺️ 고마워 나도 응원할게 비앙카야 ❤️",
          "content_zh": "我现在要躺下睡觉了☺️ 谢谢我也为你加油Bianca ❤️",
          "image_count": 0,
          "image_urls": null,
          "local_image_paths": null,
          "replied_at": "2025-06-27 18:33:25"
        }
      ]
    },
    {
      "id": 414,
      "post_uuid": "0197b2a6-665e-a0b9-13be-27b8699e136f",
      "title_ko": null,
      "title_zh": null,
      "content_ko": "Ji-eun unnie~ Good morning, honey <3",
      "content_zh": "Ji-eun 姐姐~ Good morning, honey <3",
      "post_time": "2025-06-27 18:28:59",
      "image_count": 1,
      "image_urls": "https://dearimage.iu101.org/images/posts/post_414_466659119.jpg",
      "local_image_paths": "https://dearimage.iu101.org/images/posts/post_414_466659119.jpg",
      "likes": 0,
      "comments": 0,
      "views": 0,
      "board": "Dear. IU",
      "members_only": 0,
      "author_username": "Ilnh",
      "author_avatar": null,
      "author_local_avatar": null,
      "fan_comments": [],
      "direct_iu_replies": [
        {
          "id": 1217,
          "content_ko": "Where are you? Sleep more sweetie",
          "content_zh": "Where are you? Sleep more sweetie",
          "image_count": 0,
          "image_urls": null,
          "local_image_paths": null,
          "replied_at": "2025-06-27 18:34:23"
        }
      ]
    },
    {
      "id": 413,
      "post_uuid": "0197b2a5-bacd-bc4c-06f8-101076b98abb",
      "title_ko": null,
      "title_zh": null,
      "content_ko": "첫 상경을 혼자 하게 됐어요..!! 공부 때문에 가는 건데 처음 사는 거라 잠이 잘 안와요..ㅜㅜ 푸르던을 들어도 뭔가 공허한 마음은 좀처럼 꺼지질 않네요ㅠ 저에게 꼭 한마디를 해주고 싶다면 어떤 말을 해주고 싶나요요??\n\n오늘도 화이팅! ",
      "content_zh": "第一次一个人去首尔了！！因为要学习所以去了，但这是第一次独自生活，有点睡不着...呜呜 即使听着《푸르던》心里还是空落落的，久久无法平静ㅠ 如果想对我说句话的话，你会说些什么呢？？\n\n今天也要加油！",
      "post_time": "2025-06-27 18:28:15",
      "image_count": 0,
      "image_urls": null,
      "local_image_paths": null,
      "likes": 0,
      "comments": 0,
      "views": 0,
      "board": "Dear. IU",
      "members_only": 0,
      "author_username": "Zero_given",
      "author_avatar": null,
      "author_local_avatar": null,
      "fan_comments": [],
      "direct_iu_replies": [
        {
          "id": 1216,
          "content_ko": "지나가면 다 추억이 될 거예요 그것도 가장 예쁜 추억🥰 푸르던을 들어도 달래지지 않는다면 \n새신발이나 빨간 운동화를 듣고 걱정을 설렘으로 바꿔 버려!",
          "content_zh": "过去后都会成为回忆，而且是最美的回忆🥰如果听了蒲公英也不觉得舒缓的话，就听听新鞋子或红色运动鞋，把担心变成期待吧！",
          "image_count": 0,
          "image_urls": null,
          "local_image_paths": null,
          "replied_at": "2025-06-27 18:36:10"
        }
      ]
    },
    {
      "id": 412,
      "post_uuid": "0197b2a4-1964-227e-2e1f-a1680ed19af1",
      "title_ko": null,
      "title_zh": null,
      "content_ko": "언니 안녕히 주무세요, 내일 행운이 가득하시길 바랍니다! 아닙니다, 오늘입니다!💤💤💤",
      "content_zh": "姐姐晚安，祝明天好运满满！不对，是今天！💤💤💤",
      "post_time": "2025-06-27 18:26:28",
      "image_count": 0,
      "image_urls": null,
      "local_image_paths": null,
      "likes": 0,
      "comments": 0,
      "views": 0,
      "board": "Dear. IU",
      "members_only": 0,
      "author_username": "rongmomo",
      "author_avatar": null,
      "author_local_avatar": null,
      "fan_comments": [],
      "direct_iu_replies": [
        {
          "id": 1215,
          "content_ko": "오늘이네요 오늘도 잘 살고 올게요☺️",
          "content_zh": "就是今天呢今天也要好好活着回来☺️",
          "image_count": 0,
          "image_urls": null,
          "local_image_paths": null,
          "replied_at": "2025-06-27 18:36:41"
        }
      ]
    }
  ]
}
