{
  "page": 19,
  "totalPages": 45,
  "total": 895,
  "data": [
    {
      "id": 421,
      "post_uuid": "0197aa33-a7bc-cc41-f8de-327a072cbbff",
      "title_ko": null,
      "title_zh": null,
      "content_ko": "사랑하는 김밥,김치,떡볶이 전문가 아이유 님👩🏻‍🍳\n저 같은 초보자에게 꼭 추천해 주고 싶은 음식이 있을까요? 😋🤤언니가 그렇게 좋아하니까 더 궁금해졌어요! 저도 꼭 먹어볼게요😍💗",
      "content_zh": "最爱的紫菜包饭、泡菜、辣炒年糕专家 IU 姐姐👩🏻‍🍳\n有没有特别想推荐给像我这样的新手的美食呢？😋🤤因为姐姐这么喜欢，我就更好奇了！我也一定要去尝尝看😍💗",
      "post_time": "2025-06-26 03:06:41",
      "image_count": 0,
      "image_urls": null,
      "local_image_paths": null,
      "likes": 0,
      "comments": 0,
      "views": 0,
      "board": "Dear. IU",
      "members_only": 0,
      "author_username": "시나(•ө•)♡",
      "author_avatar": "https://dearimage.iu101.org/images/avatars/avatar_439.jpeg",
      "author_local_avatar": "https://dearimage.iu101.org/images/avatars/avatar_439.jpeg",
      "fan_comments": [],
      "direct_iu_replies": [
        {
          "id": 1245,
          "content_ko": "잡채..!",
          "content_zh": "杂菜..！",
          "image_count": 0,
          "image_urls": null,
          "local_image_paths": null,
          "replied_at": "2025-06-26 03:39:21"
        }
      ]
    },
    {
      "id": 420,
      "post_uuid": "0197aa33-9f44-62bb-4fd9-b3f0f191b010",
      "title_ko": null,
      "title_zh": null,
      "content_ko": "엥 오랜만에 베리즈 들어왔는데 방금 전 댓글 뭐야...? 점심 메뉴 추천해주세요",
      "content_zh": "咦好久没进 V LIVE 了，刚才的评论什么情况...？推荐一下午餐菜单吧",
      "post_time": "2025-06-26 03:06:39",
      "image_count": 0,
      "image_urls": null,
      "local_image_paths": null,
      "likes": 0,
      "comments": 0,
      "views": 0,
      "board": "Dear. IU",
      "members_only": 0,
      "author_username": "트위티애나",
      "author_avatar": null,
      "author_local_avatar": null,
      "fan_comments": [],
      "direct_iu_replies": [
        {
          "id": 1244,
          "content_ko": "오무라이스..?",
          "content_zh": "蛋包饭..？",
          "image_count": 0,
          "image_urls": null,
          "local_image_paths": null,
          "replied_at": "2025-06-26 03:39:46"
        }
      ]
    },
    {
      "id": 419,
      "post_uuid": "0197aa33-0f4e-826f-fc73-5f65942055d1",
      "title_ko": null,
      "title_zh": null,
      "content_ko": "히히 언니 잘 잤어용??\n이따가 떡볶이랑 잔치국수 먹을거에요?!",
      "content_zh": "嘻嘻姐姐睡得好吗？？",
      "post_time": "2025-06-26 03:06:02",
      "image_count": 0,
      "image_urls": null,
      "local_image_paths": null,
      "likes": 0,
      "comments": 0,
      "views": 0,
      "board": "Dear. IU",
      "members_only": 0,
      "author_username": "선희",
      "author_avatar": null,
      "author_local_avatar": null,
      "fan_comments": [],
      "direct_iu_replies": [
        {
          "id": 1243,
          "content_ko": "떡볶이는 여전히 땡기는군!!",
          "content_zh": "辣炒年糕还是那么诱人！！",
          "image_count": 0,
          "image_urls": null,
          "local_image_paths": null,
          "replied_at": "2025-06-26 03:40:30"
        }
      ]
    },
    {
      "id": 447,
      "post_uuid": "0197aa2b-935e-96fb-923f-f262559cac77",
      "title_ko": null,
      "title_zh": null,
      "content_ko": "지은아, 점심은 뭐 먹었어?\n오늘 흐린 날씨 같던데, 흐린 날엔 뭐가 먹고 싶어져? 🌥️🍜",
      "content_zh": "知恩啊，今天中午吃了什么？\n今天好像天气阴沉，阴天的时候你想吃什么呢？🌥️🍜",
      "post_time": "2025-06-26 02:57:51",
      "image_count": 0,
      "image_urls": null,
      "local_image_paths": null,
      "likes": 0,
      "comments": 0,
      "views": 0,
      "board": "Dear. IU",
      "members_only": 0,
      "author_username": "파김치",
      "author_avatar": "https://dearimage.iu101.org/images/avatars/avatar_39.jpeg",
      "author_local_avatar": "https://dearimage.iu101.org/images/avatars/avatar_39.jpeg",
      "fan_comments": [],
      "direct_iu_replies": [
        {
          "id": 1273,
          "content_ko": "나 어제 늦게 자서 지금 일어났어 🤤 조금 더 잘까도 생각 중\n음 흐린 날엔... 참치김밥에 잔치국수! 김치 송송 썰어서?",
          "content_zh": "我昨天睡得晚，现在才刚起床 🤤 还想再睡一会儿\n阴天的话...就吃金枪鱼紫菜包饭和韩式冷面！再切点kimchi？",
          "image_count": 0,
          "image_urls": null,
          "local_image_paths": null,
          "replied_at": "2025-06-26 02:58:54"
        }
      ]
    },
    {
      "id": 446,
      "post_uuid": "0197aa2a-05e5-1b19-106d-e09a89bba0dd",
      "title_ko": null,
      "title_zh": null,
      "content_ko": "언니 오늘 뭐 해요?​​\n​​어제 쉬는 날에 잔치국수 먹을 계획이었는데 먹었어요?\n계란은 얼마나 익히신 걸 좋아해요?​​",
      "content_zh": "姐姐今天做什么呀？\n昨天休息日本来打算吃冷面的，吃了吗？\n你喜欢吃几分熟的鸡蛋？",
      "post_time": "2025-06-26 02:56:10",
      "image_count": 1,
      "image_urls": "https://dearimage.iu101.org/images/posts/post_446_1698394731.png",
      "local_image_paths": "https://dearimage.iu101.org/images/posts/post_446_1698394731.png",
      "likes": 0,
      "comments": 0,
      "views": 0,
      "board": "Dear. IU",
      "members_only": 0,
      "author_username": "하나예요",
      "author_avatar": "https://dearimage.iu101.org/images/avatars/avatar_509.jpeg",
      "author_local_avatar": "https://dearimage.iu101.org/images/avatars/avatar_509.jpeg",
      "fan_comments": [],
      "direct_iu_replies": [
        {
          "id": 1272,
          "content_ko": "잔치국수 어제 먹었어요! 😍",
          "content_zh": "昨天吃了庆典冷面！😍",
          "image_count": 0,
          "image_urls": null,
          "local_image_paths": null,
          "replied_at": "2025-06-26 02:59:41"
        }
      ]
    },
    {
      "id": 445,
      "post_uuid": "0197aa29-44c8-a53d-0d43-356d6ed25e63",
      "title_ko": null,
      "title_zh": null,
      "content_ko": "이제 답글 남기기 기능 생겼네용~ 신기하다!!",
      "content_zh": "现在有了留言回复功能了~真神奇！！",
      "post_time": "2025-06-26 02:55:20",
      "image_count": 1,
      "image_urls": "https://dearimage.iu101.org/images/posts/post_445_1402295522.jpeg",
      "local_image_paths": "https://dearimage.iu101.org/images/posts/post_445_1402295522.jpeg",
      "likes": 0,
      "comments": 0,
      "views": 0,
      "board": "Dear. IU",
      "members_only": 0,
      "author_username": "김현아",
      "author_avatar": null,
      "author_local_avatar": null,
      "fan_comments": [],
      "direct_iu_replies": [
        {
          "id": 1271,
          "content_ko": "오오오오 그런 건가?!",
          "content_zh": "哦哦哦哦原来是这样？！",
          "image_count": 0,
          "image_urls": null,
          "local_image_paths": null,
          "replied_at": "2025-06-26 03:00:20"
        },
        {
          "id": 1270,
          "content_ko": "그렇네? 😆",
          "content_zh": "是吗？😆",
          "image_count": 0,
          "image_urls": null,
          "local_image_paths": null,
          "replied_at": "2025-06-26 03:00:30"
        },
        {
          "id": 1269,
          "content_ko": "아 아직 사진은 안 된다 ㅋㅋㅋ그래도 고무적인 발전!!",
          "content_zh": "啊照片还不能发哈哈哈不过是积极的进步！！",
          "image_count": 0,
          "image_urls": null,
          "local_image_paths": null,
          "replied_at": "2025-06-26 03:01:35"
        }
      ]
    },
    {
      "id": 444,
      "post_uuid": "0197aa23-19c2-4c78-aba9-13451f315d1c",
      "title_ko": null,
      "title_zh": null,
      "content_ko": "언니 엘리오 vs 드래곤 길들이기 중 골라주세요! 언니도 둘 다 안봤을 거 같은데 그래도 하나만!🌸",
      "content_zh": "姐姐在《艾利欧》vs《驯龙高手》中选一个！姐姐可能两个都没看过但选一个！🌸",
      "post_time": "2025-06-26 02:48:36",
      "image_count": 0,
      "image_urls": null,
      "local_image_paths": null,
      "likes": 0,
      "comments": 0,
      "views": 0,
      "board": "Dear. IU",
      "members_only": 0,
      "author_username": "이혜인",
      "author_avatar": "https://dearimage.iu101.org/images/avatars/avatar_101.jpg",
      "author_local_avatar": "https://dearimage.iu101.org/images/avatars/avatar_101.jpg",
      "fan_comments": [],
      "direct_iu_replies": [
        {
          "id": 1268,
          "content_ko": "아 나 엘리오 보고 싶다아",
          "content_zh": "啊我想看ELLEO了",
          "image_count": 0,
          "image_urls": null,
          "local_image_paths": null,
          "replied_at": "2025-06-26 03:02:29"
        }
      ]
    },
    {
      "id": 443,
      "post_uuid": "0197aa1e-b57d-7872-1832-a8a3ff5456c7",
      "title_ko": null,
      "title_zh": null,
      "content_ko": "즨언니 진짜 여성편력 대단한거가터..🙂‍↕️\n디어유에 온통 언니부르는 별사탕 한가득이네✨🍬",
      "content_zh": "朱姐姐真的女性魅力很厉害呢..🙂‍↕️ Dear IU 里满满都是叫姐姐的星星糖果呢✨🍬",
      "post_time": "2025-06-26 02:43:48",
      "image_count": 0,
      "image_urls": null,
      "local_image_paths": null,
      "likes": 0,
      "comments": 0,
      "views": 0,
      "board": "Dear. IU",
      "members_only": 0,
      "author_username": "이나에옹",
      "author_avatar": null,
      "author_local_avatar": null,
      "fan_comments": [],
      "direct_iu_replies": [
        {
          "id": 1267,
          "content_ko": "건빵들 힘 좀 써 봐아😌😌😌",
          "content_zh": "兄弟们使点劲儿吧😌😌😌",
          "image_count": 0,
          "image_urls": null,
          "local_image_paths": null,
          "replied_at": "2025-06-26 03:03:03"
        }
      ]
    },
    {
      "id": 442,
      "post_uuid": "0197aa1a-3c97-fa2f-bb2c-77bd45e224b3",
      "title_ko": null,
      "title_zh": null,
      "content_ko": "언니 혹시 “사랑히” 라는 말은 어쩌다가 만들게 됐어??\n\n그냥 갑자기 생각 난거야? 아니면 만들어볼려고 열심히 생각해서 만든거양?",
      "content_zh": "姐姐，那个\"사랑히\"（爱你）这个词是怎么创造出来的呀？\n\n是突然想到的吗？还是努力思考后创造出来的？",
      "post_time": "2025-06-26 02:38:55",
      "image_count": 0,
      "image_urls": null,
      "local_image_paths": null,
      "likes": 0,
      "comments": 0,
      "views": 0,
      "board": "Dear. IU",
      "members_only": 0,
      "author_username": "ぼみ보밍밍",
      "author_avatar": null,
      "author_local_avatar": null,
      "fan_comments": [],
      "direct_iu_replies": [
        {
          "id": 1266,
          "content_ko": "그낭\n툭 생각이 났어 대체할 표현이 생각이 안 났어",
          "content_zh": "就是",
          "image_count": 0,
          "image_urls": null,
          "local_image_paths": null,
          "replied_at": "2025-06-26 03:04:08"
        }
      ]
    },
    {
      "id": 441,
      "post_uuid": "0197aa19-752a-c8b0-c1a9-bb403086d186",
      "title_ko": null,
      "title_zh": null,
      "content_ko": "천만 유튜버 이지금님께 조회수 대박날 컨텐츠 추천드립니다! 🤩🤩🤩 \n(추천이라 쓰고 간절히 바란다고 읽는..)\n\n1️⃣ 왓츠 인 마이 클로젯 \n: 사복이 체크셔츠 체크셔크 쳌셔 모자 모자 모자인 징니의 옷장이 궁금한 사람 짱 많음\n\n2️⃣ 셀프 메이크업 겟 레디 윗 미\n: 효리네 민박 시절 셀프 상큼 과즙 메이크업이 엄청난 인기였어요! 업데이트된 2025 버전 궁금합니다!!!",
      "content_zh": "千万级 YouTube 博主李今欧尼，为您推荐一个能爆火的内容！🤩🤩🤩 \n（说是推荐，其实是真心希望...）\n\n1️⃣ 我的衣橱里有什么 \n：想知道珍妮衣橱里那些格子衬衫、帽子等私服的人超多 \n\n2️⃣ 自助化妆 Get Ready With Me \n：之前《孝利家民宿》时期的自助清新果汁妆容非常受欢迎！很期待更新的 2025 版本！！！",
      "post_time": "2025-06-26 02:38:04",
      "image_count": 0,
      "image_urls": null,
      "local_image_paths": null,
      "likes": 0,
      "comments": 0,
      "views": 0,
      "board": "Dear. IU",
      "members_only": 0,
      "author_username": "말랑찹쌀떡",
      "author_avatar": "https://dearimage.iu101.org/images/avatars/avatar_29.jpeg",
      "author_local_avatar": "https://dearimage.iu101.org/images/avatars/avatar_29.jpeg",
      "fan_comments": [],
      "direct_iu_replies": [
        {
          "id": 1265,
          "content_ko": "ㅋㅋㅋㄴ이사 가면ㅋㅋㅋ\n시도해 볼게... 나 근데\n메이크업 진짜 못한다..?",
          "content_zh": "哈哈哈，搬家的话哈哈哈\n我试试看...不过\n我真的不会化妆..？",
          "image_count": 0,
          "image_urls": null,
          "local_image_paths": null,
          "replied_at": "2025-06-26 03:04:52"
        }
      ]
    },
    {
      "id": 440,
      "post_uuid": "0197aa0c-e1ca-9034-02c5-dcbe585d02df",
      "title_ko": null,
      "title_zh": null,
      "content_ko": "완전 수채화 같았던 어제의 제주도 하늘 공유 ~🎨🫟💖\n예쁜 건 다 같이 봐야징 ~~🌅🌄❤️",
      "content_zh": "昨天济州岛的天空像水彩画一样美丽，分享给大家~🎨🫟💖\n美好的事物要一起欣赏~~🌅🌄❤️",
      "post_time": "2025-06-26 02:24:20",
      "image_count": 4,
      "image_urls": "https://dearimage.iu101.org/images/posts/post_440_1354668556.jpeg",
      "local_image_paths": "https://dearimage.iu101.org/images/posts/post_440_1349331973.jpeg|https://dearimage.iu101.org/images/posts/post_440_1343599728.jpeg|https://dearimage.iu101.org/images/posts/post_440_1349381862.jpeg|https://dearimage.iu101.org/images/posts/post_440_1354668556.jpeg",
      "likes": 0,
      "comments": 0,
      "views": 0,
      "board": "Dear. IU",
      "members_only": 0,
      "author_username": "♥ㅏ꼬운유애나아효밍♥",
      "author_avatar": "https://dearimage.iu101.org/images/avatars/avatar_197.gif",
      "author_local_avatar": "https://dearimage.iu101.org/images/avatars/avatar_197.gif",
      "fan_comments": [],
      "direct_iu_replies": [
        {
          "id": 1264,
          "content_ko": "모든 영감은 우리 삶속애 있다",
          "content_zh": "所有的灵感都在我们的生活中",
          "image_count": 0,
          "image_urls": null,
          "local_image_paths": null,
          "replied_at": "2025-06-26 03:07:08"
        }
      ]
    },
    {
      "id": 439,
      "post_uuid": "0197aa0c-c94c-62c8-0ccd-97cefd0d17e4",
      "title_ko": null,
      "title_zh": null,
      "content_ko": "언니, 촬영하고 있어요? 힘내요 우리 희주",
      "content_zh": "姐姐，在拍摄吗？加油我们希珠",
      "post_time": "2025-06-26 02:24:14",
      "image_count": 0,
      "image_urls": null,
      "local_image_paths": null,
      "likes": 0,
      "comments": 0,
      "views": 0,
      "board": "Dear. IU",
      "members_only": 0,
      "author_username": "圈圈圈",
      "author_avatar": null,
      "author_local_avatar": null,
      "fan_comments": [],
      "direct_iu_replies": [
        {
          "id": 1263,
          "content_ko": "아니\n오늘\n쉬는 날! 이삿짐 정리 좀 하려 해",
          "content_zh": "不是",
          "image_count": 0,
          "image_urls": null,
          "local_image_paths": null,
          "replied_at": "2025-06-26 03:07:56"
        }
      ]
    },
    {
      "id": 438,
      "post_uuid": "0197aa0b-6ccd-8ed9-b235-28e4a0451761",
      "title_ko": null,
      "title_zh": null,
      "content_ko": "언니는 물파예요? 차파예요? ㅎㅎ\n(저는 완전 물파예요! 차도 좋지만 물이 최고죠)",
      "content_zh": "姐姐是水派吗？还是茶派？哈哈\n（我是完全的水派！虽然茶也不错，但水才是最好的）",
      "post_time": "2025-06-26 02:22:44",
      "image_count": 0,
      "image_urls": null,
      "local_image_paths": null,
      "likes": 0,
      "comments": 0,
      "views": 0,
      "board": "Dear. IU",
      "members_only": 0,
      "author_username": "Keila",
      "author_avatar": "https://dearimage.iu101.org/images/avatars/avatar_259.jpeg",
      "author_local_avatar": "https://dearimage.iu101.org/images/avatars/avatar_259.jpeg",
      "fan_comments": [],
      "direct_iu_replies": [
        {
          "id": 1262,
          "content_ko": "완전히 물러버 🩵",
          "content_zh": "完全软烂了 🩵",
          "image_count": 0,
          "image_urls": null,
          "local_image_paths": null,
          "replied_at": "2025-06-26 03:09:09"
        }
      ]
    },
    {
      "id": 437,
      "post_uuid": "0197aa06-b50c-5fc8-67f5-eff606df4ccb",
      "title_ko": null,
      "title_zh": null,
      "content_ko": "언니 오늘 바쁘세요? 바쁘시더라도 오늘 아침은 꼭 뭐라도 드세요 ❤️ 좋은 하루 보내세요, 잘 지내세요. 오늘 일정이 있으시다면 촬영을 즐기세요.\nIngat \nBawal magkasakit \nMAHAL KITA JI-EUN!!!! 지구에서 화성까지",
      "content_zh": "姐姐今天忙吗？再忙也一定要吃点早餐哦❤️ 祝你度过美好的一天，要照顾好自己。如果今天有行程的话，拍摄愉快。\n注意身体\n不能生病\n我爱你 JI-EUN！！！从地球到火星",
      "post_time": "2025-06-26 02:17:35",
      "image_count": 0,
      "image_urls": null,
      "local_image_paths": null,
      "likes": 0,
      "comments": 0,
      "views": 0,
      "board": "Dear. IU",
      "members_only": 0,
      "author_username": "Damaris",
      "author_avatar": null,
      "author_local_avatar": null,
      "fan_comments": [],
      "direct_iu_replies": [
        {
          "id": 1261,
          "content_ko": "오늘은 아이유보다 이지은으로 바쁜 날!! \n휴차된 김에 이삿짐 정리 간다!!!",
          "content_zh": "今天比起IU更像李知恩一样忙碌的一天！！",
          "image_count": 0,
          "image_urls": null,
          "local_image_paths": null,
          "replied_at": "2025-06-26 03:10:52"
        }
      ]
    },
    {
      "id": 436,
      "post_uuid": "0197a9fc-d8e3-5ad0-b05d-2a1619e9976d",
      "title_ko": null,
      "title_zh": null,
      "content_ko": "언니 궁금한게 있는데...\n드라마 찍을 때 같은 장면을 여러 테이크로 찍는거야??\n그럼 막 같은 장면을 여러번찍는거야??\n",
      "content_zh": "姐姐，我有个好奇的问题...\n拍电视剧的时候，同一个场景要拍很多遍吗？\n就是说同样的场景要反复拍摄很多次吗？",
      "post_time": "2025-06-26 02:06:49",
      "image_count": 0,
      "image_urls": null,
      "local_image_paths": null,
      "likes": 0,
      "comments": 0,
      "views": 0,
      "board": "Dear. IU",
      "members_only": 0,
      "author_username": "쵸코우유",
      "author_avatar": null,
      "author_local_avatar": null,
      "fan_comments": [],
      "direct_iu_replies": [
        {
          "id": 1260,
          "content_ko": "응 여러 각도로 여러번! 360도 돌면서 ㅋㅋ",
          "content_zh": "嗯，从各个角度拍很多次！360度转着拍哈哈哈",
          "image_count": 0,
          "image_urls": null,
          "local_image_paths": null,
          "replied_at": "2025-06-26 03:12:56"
        }
      ]
    },
    {
      "id": 435,
      "post_uuid": "0197a9fc-66d2-e2fa-bc81-f496e1100035",
      "title_ko": null,
      "title_zh": null,
      "content_ko": "언니 골라봐~참치김밥 v. s. 라면 \n아니면 버블티🤭🤭",
      "content_zh": "姐姐选一个~金枪鱼紫菜包饭 v.s. 方便面",
      "post_time": "2025-06-26 02:06:20",
      "image_count": 0,
      "image_urls": null,
      "local_image_paths": null,
      "likes": 0,
      "comments": 0,
      "views": 0,
      "board": "Dear. IU",
      "members_only": 0,
      "author_username": "버블티",
      "author_avatar": "https://dearimage.iu101.org/images/avatars/avatar_3.jpg",
      "author_local_avatar": "https://dearimage.iu101.org/images/avatars/avatar_3.jpg",
      "fan_comments": [],
      "direct_iu_replies": [
        {
          "id": 1259,
          "content_ko": "라|~~~~면",
          "content_zh": "拉~~~~面",
          "image_count": 0,
          "image_urls": null,
          "local_image_paths": null,
          "replied_at": "2025-06-26 03:13:22"
        }
      ]
    },
    {
      "id": 434,
      "post_uuid": "0197a9f8-f097-a8e5-d195-23b5ec6b7b91",
      "title_ko": null,
      "title_zh": null,
      "content_ko": "사랑하는 김밥,김치,떡볶이 전문가 아이유 님👩🏻‍🍳\n저 같은 초보자에게 꼭 추천해 주고 싶은 음식이 있을까요? 😋🤤언니가 그렇게 좋아하니까 더 궁금해졌어요! 저도 꼭 먹어볼게요😍💗",
      "content_zh": "最爱的紫菜包饭、泡菜、辣炒年糕专家 IU 姐姐👩🏻‍🍳\n有没有特别想推荐给像我这样的新手的美食呢？😋🤤因为姐姐这么喜欢，所以更加好奇了！我也一定要去尝尝看😍💗",
      "post_time": "2025-06-26 02:02:33",
      "image_count": 0,
      "image_urls": null,
      "local_image_paths": null,
      "likes": 0,
      "comments": 0,
      "views": 0,
      "board": "Dear. IU",
      "members_only": 0,
      "author_username": "시나(•ө•)♡",
      "author_avatar": "https://dearimage.iu101.org/images/avatars/avatar_439.jpeg",
      "author_local_avatar": "https://dearimage.iu101.org/images/avatars/avatar_439.jpeg",
      "fan_comments": [],
      "direct_iu_replies": [
        {
          "id": 1258,
          "content_ko": "간단하게 먹고 싶으면 덮밥도 좋지! 제육덮밥 불고기 덮밥 오징어 덮밥 등!!",
          "content_zh": "想简单吃的话盖饭也不错！韩式烤肉盖饭、韩式牛肉盖饭、鱿鱼盖饭等等！！",
          "image_count": 0,
          "image_urls": null,
          "local_image_paths": null,
          "replied_at": "2025-06-26 03:15:12"
        }
      ]
    },
    {
      "id": 458,
      "post_uuid": "0197a251-5afe-201b-073b-f30a06ed4238",
      "title_ko": null,
      "title_zh": null,
      "content_ko": "징니웅니....늦지 않았어요....!!!셀카 풀어줘여....저기 찍은거 주셰여......💜",
      "content_zh": "嗯嗯....还没晚....!!!给我解开自拍吧....把刚才拍的给我吧......💜",
      "post_time": "2025-06-24 14:22:10",
      "image_count": 2,
      "image_urls": "https://dearimage.iu101.org/images/posts/post_458_1898190275.jpeg",
      "local_image_paths": "https://dearimage.iu101.org/images/posts/post_458_1897879479.jpeg|https://dearimage.iu101.org/images/posts/post_458_1898190275.jpeg",
      "likes": 0,
      "comments": 0,
      "views": 0,
      "board": "Dear. IU",
      "members_only": 0,
      "author_username": "인짜응",
      "author_avatar": "https://dearimage.iu101.org/images/avatars/avatar_430.jpeg",
      "author_local_avatar": "https://dearimage.iu101.org/images/avatars/avatar_430.jpeg",
      "fan_comments": [],
      "direct_iu_replies": [
        {
          "id": 1284,
          "content_ko": "저거 이담이 가지고 있는데!! 😮",
          "content_zh": "那个是伊丹拿去的！！😮",
          "image_count": 0,
          "image_urls": null,
          "local_image_paths": null,
          "replied_at": "2025-06-24 14:22:53"
        }
      ]
    },
    {
      "id": 457,
      "post_uuid": "0197a250-0a73-b2a4-6384-606ae0bfc877",
      "title_ko": null,
      "title_zh": null,
      "content_ko": "만족스럽게 희주로 살다왔나요 ~??!!!! 💗\n오후 내내 짱 큰 응원을 언니에게로 보냈는데 !!!!!!!! \n(ง •̀_•́)ง ",
      "content_zh": "满意地活到现在了吗？~？？？！ 💗\n整个下午都在向姐姐发送超大的应援！！！\n(ง •̀_•́)ง",
      "post_time": "2025-06-24 14:20:44",
      "image_count": 0,
      "image_urls": null,
      "local_image_paths": null,
      "likes": 0,
      "comments": 0,
      "views": 0,
      "board": "Dear. IU",
      "members_only": 0,
      "author_username": "말랑찹쌀떡",
      "author_avatar": "https://dearimage.iu101.org/images/avatars/avatar_29.jpeg",
      "author_local_avatar": "https://dearimage.iu101.org/images/avatars/avatar_29.jpeg",
      "fan_comments": [],
      "direct_iu_replies": [
        {
          "id": 1283,
          "content_ko": "그래서 내가 오늘 자신감 뿜뿜이었구나 고마워❤️",
          "content_zh": "所以说我今天自信满满呢谢谢❤️",
          "image_count": 0,
          "image_urls": null,
          "local_image_paths": null,
          "replied_at": "2025-06-24 14:23:56"
        }
      ]
    },
    {
      "id": 456,
      "post_uuid": "0197a24f-c128-667e-c6ac-0235034b03bf",
      "title_ko": null,
      "title_zh": null,
      "content_ko": "언니!!\n내가 롤케이크 만들었어‼︎\n잘했던거 같은데 어때⁇💗💗💗",
      "content_zh": "姐姐！！\n我做了卷蛋糕哦‼︎\n感觉做得还不错，你觉得呢⁇💗💗💗",
      "post_time": "2025-06-24 14:20:25",
      "image_count": 1,
      "image_urls": "https://dearimage.iu101.org/images/posts/post_456_1852708761.jpeg",
      "local_image_paths": "https://dearimage.iu101.org/images/posts/post_456_1852708761.jpeg",
      "likes": 0,
      "comments": 0,
      "views": 0,
      "board": "Dear. IU",
      "members_only": 0,
      "author_username": "♡토와♡",
      "author_avatar": "https://dearimage.iu101.org/images/avatars/avatar_215.jpeg",
      "author_local_avatar": "https://dearimage.iu101.org/images/avatars/avatar_215.jpeg",
      "fan_comments": [],
      "direct_iu_replies": [
        {
          "id": 1282,
          "content_ko": "당장 내 입으로!!! ",
          "content_zh": "马上就到我嘴里！！！",
          "image_count": 0,
          "image_urls": null,
          "local_image_paths": null,
          "replied_at": "2025-06-24 14:24:48"
        }
      ]
    }
  ]
}
