{
  "page": 18,
  "totalPages": 45,
  "total": 895,
  "data": [
    {
      "id": 411,
      "post_uuid": "0197b2a2-fdb2-283f-436b-f2302388b315",
      "title_ko": null,
      "title_zh": null,
      "content_ko": "지은 언니!\n이삿짐은 얼마나 싸셨어요?!\n몇 % 완료??🤔",
      "content_zh": "知恩姐姐！",
      "post_time": "2025-06-27 18:25:15",
      "image_count": 0,
      "image_urls": null,
      "local_image_paths": null,
      "likes": 0,
      "comments": 0,
      "views": 0,
      "board": "Dear. IU",
      "members_only": 0,
      "author_username": "지우",
      "author_avatar": "https://dearimage.iu101.org/images/avatars/avatar_56.jpg",
      "author_local_avatar": "https://dearimage.iu101.org/images/avatars/avatar_56.jpg",
      "fan_comments": [],
      "direct_iu_replies": [
        {
          "id": 1214,
          "content_ko": "70..?",
          "content_zh": "70..？",
          "image_count": 0,
          "image_urls": null,
          "local_image_paths": null,
          "replied_at": "2025-06-27 18:37:07"
        }
      ]
    },
    {
      "id": 410,
      "post_uuid": "0197b29e-bfa0-be5a-e3cc-552ab543c394",
      "title_ko": null,
      "title_zh": null,
      "content_ko": "🙂💕💗지은이💙잠 자는 중인거? 에고 ... 나는 금요일 험난하고 더운 하루였어 🛣🛣 수원~아산 다녀오는데 차들 너무 많아 길 꽉 막혔다오 저녁에 묵은지김치찌개 🍚 스타벅스 망고 먹고 하루를 종료 💙지은이💙는 하루 잘 보냈는지 궁금하네 푹 잠 자길 고생 많았어 더운데💗💗",
      "content_zh": "🙂💕💗知恩.BLUE睡着了吗？哎呀...我今天周五过得真艰难，好热的一天啊 🛣🛣 从水原到牙山跑了一趟，车子太多，路都堵死了 晚上吃了泡菜汤 🍚 吃了星巴克芒果结束了这一天 💙知恩.BLUE今天过得怎么样呢 美美地睡一觉吧 辛苦了 天气这么热💗💗",
      "post_time": "2025-06-27 18:20:37",
      "image_count": 0,
      "image_urls": null,
      "local_image_paths": null,
      "likes": 0,
      "comments": 0,
      "views": 0,
      "board": "Dear. IU",
      "members_only": 0,
      "author_username": "바다햇살",
      "author_avatar": "https://dearimage.iu101.org/images/avatars/avatar_426.jpg",
      "author_local_avatar": "https://dearimage.iu101.org/images/avatars/avatar_426.jpg",
      "fan_comments": [],
      "direct_iu_replies": [
        {
          "id": 1213,
          "content_ko": "아이고 고생은 유나바다가 했구만\n고생 많았어요 토닥 토닥🩵",
          "content_zh": "哎呀辛苦都是由娜芭达做的辛苦了拍拍安慰一下🩵",
          "image_count": 0,
          "image_urls": null,
          "local_image_paths": null,
          "replied_at": "2025-06-27 18:38:09"
        }
      ]
    },
    {
      "id": 409,
      "post_uuid": "0197b29a-7424-5dc1-42fb-925974020eef",
      "title_ko": null,
      "title_zh": null,
      "content_ko": "한밤중에 배가 고파요. 뭘 먹을지 모르겠어.",
      "content_zh": "半夜肚子饿了，不知道吃什么。",
      "post_time": "2025-06-27 18:15:56",
      "image_count": 0,
      "image_urls": null,
      "local_image_paths": null,
      "likes": 0,
      "comments": 0,
      "views": 0,
      "board": "Dear. IU",
      "members_only": 0,
      "author_username": "TweetyU",
      "author_avatar": null,
      "author_local_avatar": null,
      "fan_comments": [],
      "direct_iu_replies": [
        {
          "id": 1212,
          "content_ko": "브로콜리? 크림빵? 너무 간극이 큰가..?",
          "content_zh": "西兰花？奶油包？差距是不是太大了..？",
          "image_count": 0,
          "image_urls": null,
          "local_image_paths": null,
          "replied_at": "2025-06-27 18:39:09"
        }
      ]
    },
    {
      "id": 408,
      "post_uuid": "0197b290-85c3-ee03-bb83-0d613d3c279d",
      "title_ko": null,
      "title_zh": null,
      "content_ko": "힘든 일 끝내고 지금 녹음 비하인드 올라온거 봤는데 진짜 언니 왜케 멋있어?!!???ㅠㅠㅠㅠ ",
      "content_zh": "辛苦的工作结束了，现在看了录音幕后花絮，真的姐姐怎么这么帅？！！？？ㅠㅠㅠㅠ",
      "post_time": "2025-06-27 18:05:05",
      "image_count": 0,
      "image_urls": null,
      "local_image_paths": null,
      "likes": 0,
      "comments": 0,
      "views": 0,
      "board": "Dear. IU",
      "members_only": 0,
      "author_username": "가을조아",
      "author_avatar": "https://dearimage.iu101.org/images/avatars/avatar_214.jpeg",
      "author_local_avatar": "https://dearimage.iu101.org/images/avatars/avatar_214.jpeg",
      "fan_comments": [],
      "direct_iu_replies": [
        {
          "id": 1211,
          "content_ko": "멋있었어어? 초ㅑ 나 코러스 잘한다고 이 바닥에서 좀 유명해 😌😎",
          "content_zh": "很帅吧？在这圈子里我合唱唱得还不错还挺有名的😌😎",
          "image_count": 0,
          "image_urls": null,
          "local_image_paths": null,
          "replied_at": "2025-06-27 18:40:42"
        }
      ]
    },
    {
      "id": 407,
      "post_uuid": "0197b28a-cd01-c98e-f28f-401545743c88",
      "title_ko": null,
      "title_zh": null,
      "content_ko": "언니는 왼쪽 얼굴이랑 오른쪽 얼굴 중에 어느 쪽을 더 선호하나요~? 저는 정면이요 ㅎㅎㅎ",
      "content_zh": "姐姐更喜欢左脸还是右脸呢~？我喜欢正面 ㅎㅎㅎ",
      "post_time": "2025-06-27 17:58:50",
      "image_count": 0,
      "image_urls": null,
      "local_image_paths": null,
      "likes": 0,
      "comments": 0,
      "views": 0,
      "board": "Dear. IU",
      "members_only": 0,
      "author_username": "해유니",
      "author_avatar": "https://dearimage.iu101.org/images/avatars/avatar_383.jpeg",
      "author_local_avatar": "https://dearimage.iu101.org/images/avatars/avatar_383.jpeg",
      "fan_comments": [],
      "direct_iu_replies": [
        {
          "id": 1210,
          "content_ko": "나느은 광고 찍을 땐 오른쪽 \n연기할 땐 왼 쪽 !",
          "content_zh": "拍广告时是右边，演戏时是左边！",
          "image_count": 0,
          "image_urls": null,
          "local_image_paths": null,
          "replied_at": "2025-06-27 18:42:32"
        }
      ]
    },
    {
      "id": 406,
      "post_uuid": "0197b282-8e12-166c-9cfb-423356800d09",
      "title_ko": null,
      "title_zh": null,
      "content_ko": "아이유님 핸드폰 글꼴 어떤거 쓰세요? 저는 10년전쯤에 삼성 앱스토어에서 공짜로뿌린 'Aa뽀롱뽀롱'이라는 글꼴을 그때부터 지금까지 쭉 쓰고있거든요? 이거 가독성도 나쁘지않고 예쁘고 안질려요!",
      "content_zh": "IU你用的什么手机字体呀？我从大概十年前开始一直在用三星应用商店免费发放的一个叫\"Aa 뽀롱뽀롱\"的字体。这个字体 readability也不差，还好看不腻！",
      "post_time": "2025-06-27 17:49:49",
      "image_count": 1,
      "image_urls": "https://dearimage.iu101.org/images/posts/post_406_369157793.jpg",
      "local_image_paths": "https://dearimage.iu101.org/images/posts/post_406_369157793.jpg",
      "likes": 0,
      "comments": 0,
      "views": 0,
      "board": "Dear. IU",
      "members_only": 0,
      "author_username": "미니언",
      "author_avatar": "https://dearimage.iu101.org/images/avatars/avatar_89.gif",
      "author_local_avatar": "https://dearimage.iu101.org/images/avatars/avatar_89.gif",
      "fan_comments": [],
      "direct_iu_replies": [
        {
          "id": 1209,
          "content_ko": "그냥 폰에 설정돼 있는 폰트로 쭉 쓰는데 바꿀 수 있는 건지 몰랐음😐 근데 지금 폰트도 좋음",
          "content_zh": "只是用手机设置好的字体一直写下来，不知道还能换呢😐不过现在这个字体也很好",
          "image_count": 0,
          "image_urls": null,
          "local_image_paths": null,
          "replied_at": "2025-06-27 18:55:41"
        }
      ]
    },
    {
      "id": 416,
      "post_uuid": "0197aaa2-d844-75fb-1a52-9c338ff3a49b",
      "title_ko": null,
      "title_zh": null,
      "content_ko": "언니 이거 사과예요?",
      "content_zh": "姐姐这个是道歉吗？",
      "post_time": "2025-06-26 05:08:08",
      "image_count": 1,
      "image_urls": "https://dearimage.iu101.org/images/posts/post_416_1949551855.png",
      "local_image_paths": "https://dearimage.iu101.org/images/posts/post_416_1949551855.png",
      "likes": 0,
      "comments": 0,
      "views": 0,
      "board": "Dear. IU",
      "members_only": 0,
      "author_username": "마미뮤girlfriend",
      "author_avatar": "https://dearimage.iu101.org/images/avatars/avatar_312.png",
      "author_local_avatar": "https://dearimage.iu101.org/images/avatars/avatar_312.png",
      "fan_comments": [],
      "direct_iu_replies": [
        {
          "id": 1219,
          "content_ko": "신비 복숭아 🍑",
          "content_zh": "神秘桃子🍑",
          "image_count": 0,
          "image_urls": null,
          "local_image_paths": null,
          "replied_at": "2025-06-26 05:09:23"
        }
      ]
    },
    {
      "id": 418,
      "post_uuid": "0197aa52-9c75-c9c1-e4c7-0fabcf3df961",
      "title_ko": null,
      "title_zh": null,
      "content_ko": "언니, 초콜릿은 여전히 최애 음식인 거 알지만…\n떡볶이는 아직도 언니 최애예요? 아니면 요즘은 김밥으로 바뀌었어요? ㅎㅎ",
      "content_zh": "姐姐，虽然知道巧克力依然是你最爱的食物……\n但辣炒年糕还是你的最爱吗？还是说最近改吃紫菜包饭了？呵呵",
      "post_time": "2025-06-26 03:40:30",
      "image_count": 0,
      "image_urls": null,
      "local_image_paths": null,
      "likes": 0,
      "comments": 0,
      "views": 0,
      "board": "Dear. IU",
      "members_only": 0,
      "author_username": "Keila",
      "author_avatar": "https://dearimage.iu101.org/images/avatars/avatar_259.jpeg",
      "author_local_avatar": "https://dearimage.iu101.org/images/avatars/avatar_259.jpeg",
      "fan_comments": [],
      "direct_iu_replies": [
        {
          "id": 1242,
          "content_ko": "아니야 내 최애는 탕수육이야!",
          "content_zh": "不是啊我最爱的是糖醋肉！",
          "image_count": 0,
          "image_urls": null,
          "local_image_paths": null,
          "replied_at": "2025-06-26 03:43:23"
        }
      ]
    },
    {
      "id": 433,
      "post_uuid": "0197aa3d-856f-82b2-fc1c-6d9f05f13667",
      "title_ko": null,
      "title_zh": null,
      "content_ko": "알람이 안와여 ",
      "content_zh": "没有收到闹钟",
      "post_time": "2025-06-26 03:17:28",
      "image_count": 0,
      "image_urls": null,
      "local_image_paths": null,
      "likes": 0,
      "comments": 0,
      "views": 0,
      "board": "Dear. IU",
      "members_only": 0,
      "author_username": "대이지은",
      "author_avatar": "https://dearimage.iu101.org/images/avatars/avatar_539.jpeg",
      "author_local_avatar": "https://dearimage.iu101.org/images/avatars/avatar_539.jpeg",
      "fan_comments": [],
      "direct_iu_replies": [
        {
          "id": 1257,
          "content_ko": "꺼놓은 거 아니야 ?ㅜㅜ",
          "content_zh": "不是关掉了吗？ㅜㅜ",
          "image_count": 0,
          "image_urls": null,
          "local_image_paths": null,
          "replied_at": "2025-06-26 03:19:05"
        }
      ]
    },
    {
      "id": 432,
      "post_uuid": "0197aa3c-2554-77f5-8430-7ec4b8c61cb2",
      "title_ko": null,
      "title_zh": null,
      "content_ko": "평생 참치김밥만 먹기 vs 평생 흰밥에 김치만 먹기",
      "content_zh": "一辈子只吃金枪鱼紫菜包饭 vs 一辈子只吃白米饭配泡菜",
      "post_time": "2025-06-26 03:15:57",
      "image_count": 0,
      "image_urls": null,
      "local_image_paths": null,
      "likes": 0,
      "comments": 0,
      "views": 0,
      "board": "Dear. IU",
      "members_only": 0,
      "author_username": "서연이이",
      "author_avatar": null,
      "author_local_avatar": null,
      "fan_comments": [],
      "direct_iu_replies": [
        {
          "id": 1256,
          "content_ko": "2...번 물에 말아 먹어도 되는 거죠?",
          "content_zh": "第2次用水泡着吃也可以对吧？",
          "image_count": 0,
          "image_urls": null,
          "local_image_paths": null,
          "replied_at": "2025-06-26 03:21:46"
        }
      ]
    },
    {
      "id": 431,
      "post_uuid": "0197aa39-9a4a-d689-d2c0-690f54b22c5d",
      "title_ko": null,
      "title_zh": null,
      "content_ko": "동생뻘인 팬들을 상대로 어떻게 불러주길 원하십니까? ( 언니제외), 저와 언니는 10년 차이가 납니다!🤨🤨🤨",
      "content_zh": "对于比我小的粉丝们，希望怎么称呼她们？（除姐姐外），我和姐姐差10岁！🤨🤨🤨",
      "post_time": "2025-06-26 03:13:11",
      "image_count": 0,
      "image_urls": null,
      "local_image_paths": null,
      "likes": 0,
      "comments": 0,
      "views": 0,
      "board": "Dear. IU",
      "members_only": 0,
      "author_username": "사어",
      "author_avatar": "https://dearimage.iu101.org/images/avatars/avatar_198.jpeg",
      "author_local_avatar": "https://dearimage.iu101.org/images/avatars/avatar_198.jpeg",
      "fan_comments": [],
      "direct_iu_replies": [
        {
          "id": 1255,
          "content_ko": "지은언니! 지은아! 아이유언니! 언니! 징짱!!! \n드 좋아요",
          "content_zh": "知恩欧尼！知恩啊！IU欧尼！欧尼！最棒了！！",
          "image_count": 0,
          "image_urls": null,
          "local_image_paths": null,
          "replied_at": "2025-06-26 03:24:55"
        }
      ]
    },
    {
      "id": 430,
      "post_uuid": "0197aa39-0625-5eb7-5d96-b6538d13b421",
      "title_ko": null,
      "title_zh": null,
      "content_ko": "아이유 언니한테 답장 받는 기분… 대체 어떤 거예요? 저 지금 미쳐요 ㅠㅠ😭",
      "content_zh": "收到IU姐姐回复的感觉...到底是什么样的？我现在疯了 ㅠㅠ😭",
      "post_time": "2025-06-26 03:12:33",
      "image_count": 0,
      "image_urls": null,
      "local_image_paths": null,
      "likes": 0,
      "comments": 0,
      "views": 0,
      "board": "Dear. IU",
      "members_only": 0,
      "author_username": "IU'sBabyUAENA",
      "author_avatar": "https://dearimage.iu101.org/images/avatars/avatar_506.jpg",
      "author_local_avatar": "https://dearimage.iu101.org/images/avatars/avatar_506.jpg",
      "fan_comments": [],
      "direct_iu_replies": [
        {
          "id": 1254,
          "content_ko": "이런 거예요 막상 별거 없죠? 🥰",
          "content_zh": "就是这种东西，其实也没什么特别的吧？🥰",
          "image_count": 0,
          "image_urls": null,
          "local_image_paths": null,
          "replied_at": "2025-06-26 03:26:09"
        }
      ]
    },
    {
      "id": 429,
      "post_uuid": "0197aa38-7d11-1d53-b85f-ea05fe5f863c",
      "title_ko": null,
      "title_zh": null,
      "content_ko": "이지은 저 칠레 사람이에요! 한국 음식 먹어보고 싶은데 추천해줄 수 있어요?",
      "content_zh": "我是知恩的智利粉丝！想尝试韩国食物，能推荐一下吗？",
      "post_time": "2025-06-26 03:11:58",
      "image_count": 0,
      "image_urls": null,
      "local_image_paths": null,
      "likes": 0,
      "comments": 0,
      "views": 0,
      "board": "Dear. IU",
      "members_only": 0,
      "author_username": "Rachell",
      "author_avatar": null,
      "author_local_avatar": null,
      "fan_comments": [],
      "direct_iu_replies": [
        {
          "id": 1253,
          "content_ko": "음.. 볼고기 갈비찜!!?",
          "content_zh": "嗯.. 牛肉排骨炖菜!!?",
          "image_count": 0,
          "image_urls": null,
          "local_image_paths": null,
          "replied_at": "2025-06-26 03:27:02"
        }
      ]
    },
    {
      "id": 428,
      "post_uuid": "0197aa38-7537-889e-9b5a-a07050f5aecd",
      "title_ko": null,
      "title_zh": null,
      "content_ko": "지은아, 너는 어떤 걸 선택할래? 너 초콜릿 좋아하지?🤤🤤",
      "content_zh": "知恩啊，你要选择哪个？你喜欢巧克力吧？🤤🤤",
      "post_time": "2025-06-26 03:11:56",
      "image_count": 2,
      "image_urls": "https://dearimage.iu101.org/images/posts/post_428_1023341849.jpeg",
      "local_image_paths": "https://dearimage.iu101.org/images/posts/post_428_1023341849.jpeg|https://dearimage.iu101.org/images/posts/post_428_1021179011.jpeg",
      "likes": 0,
      "comments": 0,
      "views": 0,
      "board": "Dear. IU",
      "members_only": 0,
      "author_username": "灰大猪",
      "author_avatar": null,
      "author_local_avatar": null,
      "fan_comments": [],
      "direct_iu_replies": [
        {
          "id": 1252,
          "content_ko": "당연히 초코!!",
          "content_zh": "当然是巧克力！！",
          "image_count": 0,
          "image_urls": null,
          "local_image_paths": null,
          "replied_at": "2025-06-26 03:27:39"
        }
      ]
    },
    {
      "id": 427,
      "post_uuid": "0197aa38-59aa-5760-c7d6-fdb98b2b48d3",
      "title_ko": null,
      "title_zh": null,
      "content_ko": "언니 아직 이사 안 했던 거예요?!😳",
      "content_zh": "姐姐还没搬家吗？！😳",
      "post_time": "2025-06-26 03:11:49",
      "image_count": 0,
      "image_urls": null,
      "local_image_paths": null,
      "likes": 0,
      "comments": 0,
      "views": 0,
      "board": "Dear. IU",
      "members_only": 0,
      "author_username": "시나(•ө•)♡",
      "author_avatar": "https://dearimage.iu101.org/images/avatars/avatar_439.jpeg",
      "author_local_avatar": "https://dearimage.iu101.org/images/avatars/avatar_439.jpeg",
      "fan_comments": [],
      "direct_iu_replies": [
        {
          "id": 1251,
          "content_ko": "아마 누가 살고 있을지도 몰라",
          "content_zh": "可能有人住着呢",
          "image_count": 0,
          "image_urls": null,
          "local_image_paths": null,
          "replied_at": "2025-06-26 03:28:00"
        }
      ]
    },
    {
      "id": 426,
      "post_uuid": "0197aa38-453d-b080-c858-5a8374399d95",
      "title_ko": null,
      "title_zh": null,
      "content_ko": "짐 싸는 거 안 좋아하는 지은 언니에게 질문이에요! ✨\n언니는 보통 짐 쌀 때 얼마나 걸려요??\n빠르게 후다닥 싸는 타입인가요, 아니면 천천히 여유롭게 챙기는 스타일인가요? 🧳✈️\n",
      "content_zh": "不喜欢收拾行李的知恩欧尼，有个问题想问你！✨\n欧尼平时收拾行李要花多长时间呀？？\n是快速利索地收拾完的类型，还是慢慢悠悠从容不迫的风格呢？🧳✈️",
      "post_time": "2025-06-26 03:11:43",
      "image_count": 0,
      "image_urls": null,
      "local_image_paths": null,
      "likes": 0,
      "comments": 0,
      "views": 0,
      "board": "Dear. IU",
      "members_only": 0,
      "author_username": "Zazu's핫딸기차",
      "author_avatar": "https://dearimage.iu101.org/images/avatars/avatar_48.jpeg",
      "author_local_avatar": "https://dearimage.iu101.org/images/avatars/avatar_48.jpeg",
      "fan_comments": [],
      "direct_iu_replies": [
        {
          "id": 1250,
          "content_ko": "천천히 여유롭게 형펀없는\n동선으로\n꼭 뭘 하나씩 빼먹으며..",
          "content_zh": "慢慢悠闲地没有行程安排的路线，总是一样漏掉什么..",
          "image_count": 0,
          "image_urls": null,
          "local_image_paths": null,
          "replied_at": "2025-06-26 03:28:45"
        }
      ]
    },
    {
      "id": 425,
      "post_uuid": "0197aa37-ecf4-1e73-3cd1-27a0a0301892",
      "title_ko": null,
      "title_zh": null,
      "content_ko": "근데..유애나분들 이거 댓글 알림 어떻게 켜요.???\n저 기계치라... 좀 알려주세요ㅠㅠㅠㅠㅠ",
      "content_zh": "但是..IU粉丝们这个评论提醒怎么打开？？？",
      "post_time": "2025-06-26 03:11:21",
      "image_count": 0,
      "image_urls": null,
      "local_image_paths": null,
      "likes": 0,
      "comments": 0,
      "views": 0,
      "board": "Dear. IU",
      "members_only": 0,
      "author_username": "가을✨",
      "author_avatar": null,
      "author_local_avatar": null,
      "fan_comments": [],
      "direct_iu_replies": [
        {
          "id": 1249,
          "content_ko": "알려죠라!!!!!",
          "content_zh": "告诉我吧！！！",
          "image_count": 0,
          "image_urls": null,
          "local_image_paths": null,
          "replied_at": "2025-06-26 03:29:31"
        }
      ]
    },
    {
      "id": 424,
      "post_uuid": "0197aa37-60d1-2c3d-2dd6-87079b264d79",
      "title_ko": null,
      "title_zh": null,
      "content_ko": "언니, 노래가 뭔지 기억나?\n작년에 네가 〈유일〉을 커버한 걸 듣고... 난 울었어🥹🥹...\n언니가 어떻게 노래를 이렇게 잘 고를 수 있어...연습할 때 힘들었지🫶🏻💓\n언니가 중국어 노래를 부를 때마다 나를 놀라게 했어🤯너무 잘했어!",
      "content_zh": "姐姐，还记得那首歌吗？\n去年听到你翻唱《唯一》的时候……我哭了🥹🥹……\n姐姐怎么能把歌曲选得这么好……练习时一定很辛苦吧🫶🏻💓\n每次姐姐唱中文歌都让我很惊喜🤯太棒了！",
      "post_time": "2025-06-26 03:10:45",
      "image_count": 1,
      "image_urls": "https://dearimage.iu101.org/images/posts/post_424_775264626.jpeg",
      "local_image_paths": "https://dearimage.iu101.org/images/posts/post_424_775264626.jpeg",
      "likes": 0,
      "comments": 0,
      "views": 0,
      "board": "Dear. IU",
      "members_only": 0,
      "author_username": "7iu^^",
      "author_avatar": "https://dearimage.iu101.org/images/avatars/avatar_4.jpeg",
      "author_local_avatar": "https://dearimage.iu101.org/images/avatars/avatar_4.jpeg",
      "fan_comments": [],
      "direct_iu_replies": [
        {
          "id": 1248,
          "content_ko": "곡이 너무 좋아서 연습할 때 크게 힘들지 않았어!",
          "content_zh": "歌曲太好了练习时没有太辛苦！",
          "image_count": 0,
          "image_urls": null,
          "local_image_paths": null,
          "replied_at": "2025-06-26 03:34:22"
        }
      ]
    },
    {
      "id": 423,
      "post_uuid": "0197aa37-08db-f5e4-d59d-e43dbd03bcfb",
      "title_ko": null,
      "title_zh": null,
      "content_ko": "지은아, 핸드폰 배터리 충전은 얼마부터 할까?",
      "content_zh": "知恩啊，手机电量充到多少开始充电好？",
      "post_time": "2025-06-26 03:10:22",
      "image_count": 0,
      "image_urls": null,
      "local_image_paths": null,
      "likes": 0,
      "comments": 0,
      "views": 0,
      "board": "Dear. IU",
      "members_only": 0,
      "author_username": "ZMY.",
      "author_avatar": null,
      "author_local_avatar": null,
      "fan_comments": [],
      "direct_iu_replies": [
        {
          "id": 1247,
          "content_ko": "음...85...?",
          "content_zh": "嗯...85...？",
          "image_count": 0,
          "image_urls": null,
          "local_image_paths": null,
          "replied_at": "2025-06-26 03:35:04"
        }
      ]
    },
    {
      "id": 422,
      "post_uuid": "0197aa34-d7d9-e295-4d1a-73d9022fd58a",
      "title_ko": null,
      "title_zh": null,
      "content_ko": "언니 유튜브 알고리즘 모예요???",
      "content_zh": "姐姐YouTube算法是这样吗？？？",
      "post_time": "2025-06-26 03:07:59",
      "image_count": 0,
      "image_urls": null,
      "local_image_paths": null,
      "likes": 0,
      "comments": 0,
      "views": 0,
      "board": "Dear. IU",
      "members_only": 0,
      "author_username": "꽃냥이",
      "author_avatar": null,
      "author_local_avatar": null,
      "fan_comments": [],
      "direct_iu_replies": [
        {
          "id": 1246,
          "content_ko": "대부분 ASMR 😌",
          "content_zh": "大部分是ASMR 😌",
          "image_count": 0,
          "image_urls": null,
          "local_image_paths": null,
          "replied_at": "2025-06-26 03:38:02"
        }
      ]
    }
  ]
}