{
  "page": 44,
  "totalPages": 45,
  "total": 895,
  "data": [
    {
      "id": 988,
      "post_uuid": "0196e3f2-8d83-2e68-f1b5-0b55ac93c391",
      "title_ko": null,
      "title_zh": null,
      "content_ko": "지은!\n빨간 운동화 너무 기대된다👟\n얼렁 달려와~",
      "content_zh": "智恩！",
      "post_time": "2025-05-18 15:10:46",
      "image_count": 0,
      "image_urls": null,
      "local_image_paths": null,
      "likes": 0,
      "comments": 0,
      "views": 0,
      "board": "Dear. IU",
      "members_only": 0,
      "author_username": "천혜향",
      "author_avatar": null,
      "author_local_avatar": null,
      "fan_comments": [],
      "direct_iu_replies": [
        {
          "id": 1822,
          "content_ko": "🏃‍♀️🏃‍♀️🏃‍♀️🏃‍♀️🏃‍♀️",
          "content_zh": "🏃‍♀️🏃‍♀️🏃‍♀️🏃‍♀️🏃‍♀️",
          "image_count": 0,
          "image_urls": null,
          "local_image_paths": null,
          "replied_at": "2025-05-18 15:25:54"
        }
      ]
    },
    {
      "id": 987,
      "post_uuid": "0196e3ec-03de-274a-57c6-c89b162d060c",
      "title_ko": null,
      "title_zh": null,
      "content_ko": "지은아!\n이시간에 이타이밍에 티저라니\n월요일이 슬프지 않을 거 같아!!",
      "content_zh": "智恩啊！\n这个时间点放出预告片，\n周一都不会觉得难熬了！！",
      "post_time": "2025-05-18 15:03:37",
      "image_count": 0,
      "image_urls": null,
      "local_image_paths": null,
      "likes": 0,
      "comments": 0,
      "views": 0,
      "board": "Dear. IU",
      "members_only": 0,
      "author_username": "수다리",
      "author_avatar": null,
      "author_local_avatar": null,
      "fan_comments": [],
      "direct_iu_replies": [
        {
          "id": 1821,
          "content_ko": "월요일 화이팅 하자!!!! 😆",
          "content_zh": "월요일 화이팅 하자!!!! 😆",
          "image_count": 0,
          "image_urls": null,
          "local_image_paths": null,
          "replied_at": "2025-05-18 15:27:06"
        }
      ]
    },
    {
      "id": 993,
      "post_uuid": "0196dd84-e87c-4da3-c167-ca84d080d9b6",
      "title_ko": null,
      "title_zh": null,
      "content_ko": "우리 지은이는 예쁘고 귀엽기까지 하고, 마음도 착하고 모두에게 진심으로 대해줘요.\n노래도 잘하고, 연기도 정말 뛰어나고, 똑똑하고 똘똘해요.\n칭찬할 게 너무 많아서 다 말할 수가 없어요, 어떡해요~☺️😊🌸",
      "content_zh": "我们智恩不仅漂亮可爱，心地也善良，对 everyone 都真心相待。\n唱歌也很好，演技也非常出色，聪明又机灵。\n值得称赞的地方太多，都说不过来了，怎么办呢~☺️😊🌸",
      "post_time": "2025-05-17 09:13:17",
      "image_count": 0,
      "image_urls": null,
      "local_image_paths": null,
      "likes": 0,
      "comments": 0,
      "views": 0,
      "board": "Dear. IU",
      "members_only": 0,
      "author_username": "파김치",
      "author_avatar": "https://dearimage.iu101.org/images/avatars/avatar_39.jpeg",
      "author_local_avatar": "https://dearimage.iu101.org/images/avatars/avatar_39.jpeg",
      "fan_comments": [],
      "direct_iu_replies": [
        {
          "id": 1827,
          "content_ko": "아 다 했짜나요~~~~😵‍💫ㅋㅋㅋㅋ\n파김치님 눈에 콩깍지가 영원히 안 벗겨져서 계속 저를 좋아해 주면 좋겠어요🫶",
          "content_zh": "啊都做完了~~~~😵‍💫ㅋㅋㅋㅋ 希望泡菜先生的眼睛里豆壳永远不掉下来，一直喜欢我🫶",
          "image_count": 0,
          "image_urls": null,
          "local_image_paths": null,
          "replied_at": "2025-05-17 09:15:48"
        }
      ]
    },
    {
      "id": 992,
      "post_uuid": "0196dd7e-df69-7328-bc69-e07c0727ba0e",
      "title_ko": null,
      "title_zh": null,
      "content_ko": "징니야 비오네,,,\n",
      "content_zh": "智恩啊下雨了,,,",
      "post_time": "2025-05-17 09:06:41",
      "image_count": 1,
      "image_urls": "https://dearimage.iu101.org/images/posts/post_992_238657293.jpeg",
      "local_image_paths": "https://dearimage.iu101.org/images/posts/post_992_238657293.jpeg",
      "likes": 0,
      "comments": 0,
      "views": 0,
      "board": "Dear. IU",
      "members_only": 0,
      "author_username": "찌니애나",
      "author_avatar": null,
      "author_local_avatar": null,
      "fan_comments": [],
      "direct_iu_replies": [
        {
          "id": 1826,
          "content_ko": "징징징 ☔️🌧️🎸",
          "content_zh": "징징징 ☔️🌧️🎸",
          "image_count": 0,
          "image_urls": null,
          "local_image_paths": null,
          "replied_at": "2025-05-17 09:18:17"
        }
      ]
    },
    {
      "id": 991,
      "post_uuid": "0196dd78-9272-0c6c-799f-59ef7846ddd1",
      "title_ko": null,
      "title_zh": null,
      "content_ko": "오늘은 기분이 좋지 않아서 아이스크림을 먹으러 갔습니다. 언니 밥 먹었어요?",
      "content_zh": "今天心情不好去吃了冰淇淋。姐姐吃饭了吗？",
      "post_time": "2025-05-17 08:59:48",
      "image_count": 1,
      "image_urls": "https://dearimage.iu101.org/images/posts/post_991_591750241.jpeg",
      "local_image_paths": "https://dearimage.iu101.org/images/posts/post_991_591750241.jpeg",
      "likes": 0,
      "comments": 0,
      "views": 0,
      "board": "Dear. IU",
      "members_only": 0,
      "author_username": "jellytree",
      "author_avatar": null,
      "author_local_avatar": null,
      "fan_comments": [],
      "direct_iu_replies": [
        {
          "id": 1825,
          "content_ko": "최고의 선택이네 천재 아님?!? ",
          "content_zh": "最好的选择 不是天才?!?",
          "image_count": 0,
          "image_urls": null,
          "local_image_paths": null,
          "replied_at": "2025-05-17 09:19:31"
        }
      ]
    },
    {
      "id": 990,
      "post_uuid": "0196dd77-6ce4-6c40-c61f-0e474ea65252",
      "title_ko": null,
      "title_zh": null,
      "content_ko": "최근 '아이유 주의 끄는 법'과 '아이유 답장 받는 법' 두 권을 읽었는데, 일단 실험해보고 효과가 있으면 공유하겠습니다.😌",
      "content_zh": "最近读了《IU关注意识关闭法》和《收到IU回复的方法》两本书，先试试看有效果的话再分享。😌",
      "post_time": "2025-05-17 08:58:33",
      "image_count": 0,
      "image_urls": null,
      "local_image_paths": null,
      "likes": 0,
      "comments": 0,
      "views": 0,
      "board": "Dear. IU",
      "members_only": 0,
      "author_username": "예영짱",
      "author_avatar": "https://dearimage.iu101.org/images/avatars/avatar_407.jpeg",
      "author_local_avatar": "https://dearimage.iu101.org/images/avatars/avatar_407.jpeg",
      "fan_comments": [],
      "direct_iu_replies": [
        {
          "id": 1824,
          "content_ko": "작가가 누군가요? 효과가 대단하군요.",
          "content_zh": "作者是谁？效果真了不起。",
          "image_count": 0,
          "image_urls": null,
          "local_image_paths": null,
          "replied_at": "2025-05-17 09:20:10"
        }
      ]
    },
    {
      "id": 995,
      "post_uuid": "0196dc97-087f-861d-3d1f-43213b0e0bfa",
      "title_ko": null,
      "title_zh": null,
      "content_ko": "저도 언니한테 답장 받고싶어요오오ㅠ.ㅠ ",
      "content_zh": "我也想收到姐姐的回复呜呜ㅠ.ㅠ",
      "post_time": "2025-05-17 04:53:27",
      "image_count": 0,
      "image_urls": null,
      "local_image_paths": null,
      "likes": 0,
      "comments": 0,
      "views": 0,
      "board": "Dear. IU",
      "members_only": 0,
      "author_username": "용용쓰",
      "author_avatar": null,
      "author_local_avatar": null,
      "fan_comments": [],
      "direct_iu_replies": [
        {
          "id": 1829,
          "content_ko": "자유게시판이랑 디어유 왔다갔다 하는 게 쉽지 않네 😵‍💫ㅋㅋㅋ",
          "content_zh": "自由公告板和Dear IU来回跑不容易呢 😵‍💫ㅋㅋㅋ",
          "image_count": 0,
          "image_urls": null,
          "local_image_paths": null,
          "replied_at": "2025-05-17 04:56:22"
        }
      ]
    },
    {
      "id": 994,
      "post_uuid": "0196dc96-064b-3647-abcd-65633462aca3",
      "title_ko": null,
      "title_zh": null,
      "content_ko": "언니가 가장 부를때 신났던 트랙 번호는?",
      "content_zh": "姐姐唱的时候最兴奋的音轨号码是？",
      "post_time": "2025-05-17 04:52:21",
      "image_count": 0,
      "image_urls": null,
      "local_image_paths": null,
      "likes": 0,
      "comments": 0,
      "views": 0,
      "board": "Dear. IU",
      "members_only": 0,
      "author_username": "찌구리",
      "author_avatar": "https://dearimage.iu101.org/images/avatars/avatar_16.jpeg",
      "author_local_avatar": "https://dearimage.iu101.org/images/avatars/avatar_16.jpeg",
      "fan_comments": [],
      "direct_iu_replies": [
        {
          "id": 1828,
          "content_ko": "5번? 🤫",
          "content_zh": "5번? 🤫",
          "image_count": 0,
          "image_urls": null,
          "local_image_paths": null,
          "replied_at": "2025-05-17 05:00:19"
        }
      ]
    },
    {
      "id": 1001,
      "post_uuid": "0196d783-0a40-c93f-4ed3-fda1315adaf2",
      "title_ko": null,
      "title_zh": null,
      "content_ko": "언니! 나 오늘 시험이 있었는데 모르는 문제 나왔으니까  언니가 말했던 4번으로 했어ㅋㅋㅋㅋㅋㅋ",
      "content_zh": "姐姐！我今天有考试，遇到不会的问题就按姐姐说的选了4号哈哈哈哈哈",
      "post_time": "2025-05-16 05:13:31",
      "image_count": 0,
      "image_urls": null,
      "local_image_paths": null,
      "likes": 0,
      "comments": 0,
      "views": 0,
      "board": "Dear. IU",
      "members_only": 0,
      "author_username": "まこち",
      "author_avatar": null,
      "author_local_avatar": null,
      "fan_comments": [],
      "direct_iu_replies": [
        {
          "id": 1835,
          "content_ko": "맞혔을까..! 틀렸을까...?!",
          "content_zh": "맞혔을까..! 틀렸을까...?!",
          "image_count": 0,
          "image_urls": null,
          "local_image_paths": null,
          "replied_at": "2025-05-16 05:15:12"
        }
      ]
    },
    {
      "id": 1000,
      "post_uuid": "0196d782-fb25-b885-9282-c6e85741ee72",
      "title_ko": null,
      "title_zh": null,
      "content_ko": "언니,혹시 이번 컴백에는 음방무대 있나요?",
      "content_zh": "姐姐，这次回归有音乐节目舞台吗？",
      "post_time": "2025-05-16 05:13:27",
      "image_count": 0,
      "image_urls": null,
      "local_image_paths": null,
      "likes": 0,
      "comments": 0,
      "views": 0,
      "board": "Dear. IU",
      "members_only": 0,
      "author_username": "유이.",
      "author_avatar": null,
      "author_local_avatar": null,
      "fan_comments": [],
      "direct_iu_replies": [
        {
          "id": 1834,
          "content_ko": "없습니다 🥹 이번 앨범은 꽃갈피라는 리메이크 앨범인데 가볍게 즐겨주면 좋겠어요 💗다음번엔 무겁게 준비할게 🔥",
          "content_zh": "没有 🥹 这次专辑是叫花瓣的重制专辑，希望大家轻松享受 💗下次我会认真准备的 🔥",
          "image_count": 0,
          "image_urls": null,
          "local_image_paths": null,
          "replied_at": "2025-05-16 05:16:39"
        }
      ]
    },
    {
      "id": 1023,
      "post_uuid": "0196d72e-3a83-6fdb-2734-1ea24455159f",
      "title_ko": null,
      "title_zh": null,
      "content_ko": "언니는 어떻게 내 소식에 답장을 할 수 있습니까😿😿😿우린 친구지, 친구라면 서로 채팅해야 하는 거 맞지보고，싶어, 언니",
      "content_zh": "姐姐怎么能不回复我的消息呢😿😿😿我们是朋友啊，朋友之间不是应该互相聊天吗想见你，姐姐",
      "post_time": "2025-05-16 03:40:53",
      "image_count": 0,
      "image_urls": null,
      "local_image_paths": null,
      "likes": 0,
      "comments": 0,
      "views": 0,
      "board": "Dear. IU",
      "members_only": 0,
      "author_username": "너를위해시를쓴다",
      "author_avatar": null,
      "author_local_avatar": null,
      "fan_comments": [],
      "direct_iu_replies": [
        {
          "id": 1857,
          "content_ko": "친구👭",
          "content_zh": "朋友👭",
          "image_count": 0,
          "image_urls": null,
          "local_image_paths": null,
          "replied_at": "2025-05-16 03:50:17"
        }
      ]
    },
    {
      "id": 1022,
      "post_uuid": "0196d72b-e104-1e20-221f-b05a76a95584",
      "title_ko": null,
      "title_zh": null,
      "content_ko": "언니는 진짜 마법사예요? 왜 나타날 때마다 저는 못 보고 놓쳐요… 속상해요🥹 다음엔 꼭 언니 볼 수 있으면 좋겠어요!",
      "content_zh": "姐姐真的是魔法师吗？为什么每次出现我都看不到错过了…好伤心🥹下次一定要看到姐姐就好了！",
      "post_time": "2025-05-16 03:38:19",
      "image_count": 0,
      "image_urls": null,
      "local_image_paths": null,
      "likes": 0,
      "comments": 0,
      "views": 0,
      "board": "Dear. IU",
      "members_only": 0,
      "author_username": "IUOK8",
      "author_avatar": null,
      "author_local_avatar": null,
      "fan_comments": [],
      "direct_iu_replies": [
        {
          "id": 1856,
          "content_ko": "내가 좀 늦었지 🥹",
          "content_zh": "我有点晚了 🥹",
          "image_count": 0,
          "image_urls": null,
          "local_image_paths": null,
          "replied_at": "2025-05-16 03:51:12"
        }
      ]
    },
    {
      "id": 1024,
      "post_uuid": "0196d720-f795-f706-4a14-1e4507ec7c8e",
      "title_ko": null,
      "title_zh": null,
      "content_ko": "Throwback to the time when I ordered a customized cake with IU Palette design for my birthday (it's in October though 😅). I requested to add a message to make it looked like IU bought it for me😍\n\nToday, since it is your birthday, I made it looked like I bought it for you.\n\nHappiest Birthday IU!!! 🥳💜🎂",
      "content_zh": "回想起来，我生日时曾订制了一个IU调色盘设计的蛋糕（虽然是在十月😅）。当时我还要求加上留言，让人感觉像是IU买给我的😍\n\n今天，因为是你的生日，所以我把它做得像是我买给你的一样。\n\n生日快乐IU！！！🥳💜🎂",
      "post_time": "2025-05-16 03:26:24",
      "image_count": 2,
      "image_urls": "https://dearimage.iu101.org/images/posts/post_1024_2112604394.jpeg",
      "local_image_paths": "https://dearimage.iu101.org/images/posts/post_1024_1452851952.jpeg|https://dearimage.iu101.org/images/posts/post_1024_2112604394.jpeg",
      "likes": 0,
      "comments": 0,
      "views": 0,
      "board": "Dear. IU",
      "members_only": 0,
      "author_username": "uaena_jyz",
      "author_avatar": null,
      "author_local_avatar": null,
      "fan_comments": [],
      "direct_iu_replies": [
        {
          "id": 1858,
          "content_ko": "I love it😍",
          "content_zh": "I love it😍",
          "image_count": 0,
          "image_urls": null,
          "local_image_paths": null,
          "replied_at": "2025-05-16 03:49:18"
        }
      ]
    },
    {
      "id": 1028,
      "post_uuid": "0196d6f7-a8f3-e39d-3bcf-e38eb1051f5e",
      "title_ko": null,
      "title_zh": null,
      "content_ko": "생일 너무너무 축하해요🥳🥳\n우리 엄마도 생일축하한다고 전해달래용ㅎㅎ\n언니 생일이라 엄마랑 같이 미역국도 먹고 있어요~\n일요일에 엄마생신때 케이크에 촛불 두번해서 언니 생일도 축하할게요!",
      "content_zh": "生日真的真的恭喜你呀🥳🥳\n我们妈妈也让我转达对你的生日祝福呢ㅎㅎ\n因为是姐姐的生日，我和妈妈一起喝了海带汤~\n周日妈妈生日的时候，我会在蛋糕上点两次蜡烛，也要为姐姐庆祝生日！",
      "post_time": "2025-05-16 02:41:17",
      "image_count": 0,
      "image_urls": null,
      "local_image_paths": null,
      "likes": 0,
      "comments": 0,
      "views": 0,
      "board": "Dear. IU",
      "members_only": 0,
      "author_username": "하다",
      "author_avatar": null,
      "author_local_avatar": null,
      "fan_comments": [],
      "direct_iu_replies": [
        {
          "id": 1862,
          "content_ko": "아이고 어머님 감사합니다 💗🥹 촛불도 두 번 불고 소원도 빌어요",
          "content_zh": "哎呀谢谢妈妈 💗🥹 蜡烛也吹了两次许愿了",
          "image_count": 0,
          "image_urls": null,
          "local_image_paths": null,
          "replied_at": "2025-05-16 02:44:35"
        }
      ]
    },
    {
      "id": 1027,
      "post_uuid": "0196d6f5-ac63-fa62-dd24-3df44efdf7cb",
      "title_ko": null,
      "title_zh": null,
      "content_ko": "Happy birthday！",
      "content_zh": "生日快乐！",
      "post_time": "2025-05-16 02:39:06",
      "image_count": 1,
      "image_urls": "https://dearimage.iu101.org/images/posts/post_1027_1082141111.jpg",
      "local_image_paths": "https://dearimage.iu101.org/images/posts/post_1027_1082141111.jpg",
      "likes": 0,
      "comments": 0,
      "views": 0,
      "board": "Dear. IU",
      "members_only": 0,
      "author_username": "是東方月初",
      "author_avatar": null,
      "author_local_avatar": null,
      "fan_comments": [],
      "direct_iu_replies": [
        {
          "id": 1861,
          "content_ko": "후",
          "content_zh": "呼",
          "image_count": 0,
          "image_urls": null,
          "local_image_paths": null,
          "replied_at": "2025-05-16 02:44:48"
        }
      ]
    },
    {
      "id": 1026,
      "post_uuid": "0196d6f3-c749-7fa6-3549-a2797729313a",
      "title_ko": null,
      "title_zh": null,
      "content_ko": "언니오늘점심뭐먹을거예요?추천해주실래요?🤲",
      "content_zh": "姐姐今天中午吃什么？能推荐一下吗？🤲",
      "post_time": "2025-05-16 02:37:02",
      "image_count": 1,
      "image_urls": "https://dearimage.iu101.org/images/posts/post_1026_350710345.jpeg",
      "local_image_paths": "https://dearimage.iu101.org/images/posts/post_1026_350710345.jpeg",
      "likes": 0,
      "comments": 0,
      "views": 0,
      "board": "Dear. IU",
      "members_only": 0,
      "author_username": "Liuaena",
      "author_avatar": null,
      "author_local_avatar": null,
      "fan_comments": [],
      "direct_iu_replies": [
        {
          "id": 1860,
          "content_ko": "맛있는 도시락 먹었지이~~ 점메추 간단하게 메밀국수 어때요오",
          "content_zh": "吃了美味的便当~~ 点餐推荐简单的荞麦面条怎么样",
          "image_count": 0,
          "image_urls": null,
          "local_image_paths": null,
          "replied_at": "2025-05-16 02:45:58"
        }
      ]
    },
    {
      "id": 1025,
      "post_uuid": "0196d6f1-1f55-59fa-24b6-d6da3af6213f",
      "title_ko": null,
      "title_zh": null,
      "content_ko": "언니 지금 뭐 해요??",
      "content_zh": "姐姐现在在做什么？？",
      "post_time": "2025-05-16 02:34:08",
      "image_count": 0,
      "image_urls": null,
      "local_image_paths": null,
      "likes": 0,
      "comments": 0,
      "views": 0,
      "board": "Dear. IU",
      "members_only": 0,
      "author_username": "注销的用户",
      "author_avatar": null,
      "author_local_avatar": null,
      "fan_comments": [],
      "direct_iu_replies": [
        {
          "id": 1859,
          "content_ko": "메이쿠업 고치는 중~.~",
          "content_zh": "正在补妆~.~",
          "image_count": 0,
          "image_urls": null,
          "local_image_paths": null,
          "replied_at": "2025-05-16 02:46:58"
        }
      ]
    },
    {
      "id": 1042,
      "post_uuid": "0196d3f3-a00e-fe9c-b190-25e376fa5642",
      "title_ko": null,
      "title_zh": null,
      "content_ko": "지은언니! 궁금한 거 있는데 요거 쓰고있는 거 언니가 만든 거예요? 아니면 선물 받은 거예요?? 궁금궁",
      "content_zh": "智恩姐姐！有个问题，这个东西是你自己写的吗？还是收到的礼物？？好奇",
      "post_time": "2025-05-15 12:38:00",
      "image_count": 1,
      "image_urls": "https://dearimage.iu101.org/images/posts/post_1042_1508514824.jpeg",
      "local_image_paths": "https://dearimage.iu101.org/images/posts/post_1042_1508514824.jpeg",
      "likes": 0,
      "comments": 0,
      "views": 0,
      "board": "Dear. IU",
      "members_only": 0,
      "author_username": "해나",
      "author_avatar": "https://dearimage.iu101.org/images/avatars/avatar_602.jpeg",
      "author_local_avatar": "https://dearimage.iu101.org/images/avatars/avatar_602.jpeg",
      "fan_comments": [],
      "direct_iu_replies": [
        {
          "id": 1876,
          "content_ko": "저는 저런 금손이 아닙니다🫠 짱짱금손 친구가 만들어 줬어요",
          "content_zh": "我不是那种金手指🫠 是超级金手指朋友做的",
          "image_count": 0,
          "image_urls": null,
          "local_image_paths": null,
          "replied_at": "2025-05-15 12:40:55"
        }
      ]
    },
    {
      "id": 1041,
      "post_uuid": "0196d3f3-3f99-7376-77a8-5dc88c9ee419",
      "title_ko": null,
      "title_zh": null,
      "content_ko": "안녕하세요  아이유님 포항에서 팬이있어요\n7기유애나인데 8기도가입합니다~^^",
      "content_zh": "你好，IU欧尼，在浦项有粉丝哦\n我是7期尤爱娜，也会加入8期的~^^",
      "post_time": "2025-05-15 12:37:36",
      "image_count": 0,
      "image_urls": null,
      "local_image_paths": null,
      "likes": 0,
      "comments": 0,
      "views": 0,
      "board": "Dear. IU",
      "members_only": 0,
      "author_username": "Johnny25",
      "author_avatar": null,
      "author_local_avatar": null,
      "fan_comments": [],
      "direct_iu_replies": [
        {
          "id": 1875,
          "content_ko": "포항항항항 😂",
          "content_zh": "浦项港港港 😂",
          "image_count": 0,
          "image_urls": null,
          "local_image_paths": null,
          "replied_at": "2025-05-15 12:41:52"
        }
      ]
    },
    {
      "id": 1040,
      "post_uuid": "0196d3f0-206e-62e8-240f-f58ce8dd625d",
      "title_ko": null,
      "title_zh": null,
      "content_ko": "언니, 이거 제가 만든 꿔바로우인데 탕수육이랑 비슷해서 맛있어요. 괜찮죠?😍😍😋🤤🤤",
      "content_zh": "姐姐，这个是我做的锅包肉，和糖醋里脊很像很好吃。不错吧？😍😍😋🤤🤤",
      "post_time": "2025-05-15 12:34:11",
      "image_count": 1,
      "image_urls": "https://dearimage.iu101.org/images/posts/post_1040_1506814011.jpg",
      "local_image_paths": "https://dearimage.iu101.org/images/posts/post_1040_1506814011.jpg",
      "likes": 0,
      "comments": 0,
      "views": 0,
      "board": "Dear. IU",
      "members_only": 0,
      "author_username": "지은의현여자친구",
      "author_avatar": null,
      "author_local_avatar": null,
      "fan_comments": [],
      "direct_iu_replies": [
        {
          "id": 1874,
          "content_ko": "팔아도 되겠다!!",
          "content_zh": "可以卖了!!",
          "image_count": 0,
          "image_urls": null,
          "local_image_paths": null,
          "replied_at": "2025-05-15 12:43:28"
        }
      ]
    }
  ]
}