{
  "page": 41,
  "totalPages": 45,
  "total": 895,
  "data": [
    {
      "id": 887,
      "post_uuid": "01970493-1e2a-92c8-f46a-b902fc4c77fe",
      "title_ko": null,
      "title_zh": null,
      "content_ko": "’GANADARA’를 함께 불렀던 박재범님이 오늘 콘서트 한다는데 놀러가시나용?ㅎ꙼̈ㅎ꙼̈일찍부터 댓글 올려주신거보니깐 오늘도 바쁜 하루를 위해 메이크업을 받고 계실 수도 있겠네요~ 오늘도 화이팅!!",
      "content_zh": "一起唱过《GANADARA》的朴宰范今天有演唱会，大家要去玩吗？呵呵～看到这么早就有留言，看来为了今天忙碌的一天，现在可能正在化妆呢～今天也加油！！",
      "post_time": "2025-05-24 23:13:59",
      "image_count": 0,
      "image_urls": null,
      "local_image_paths": null,
      "likes": 0,
      "comments": 0,
      "views": 0,
      "board": "Dear. IU",
      "members_only": 0,
      "author_username": "아르뮤애나",
      "author_avatar": null,
      "author_local_avatar": null,
      "fan_comments": [],
      "direct_iu_replies": [
        {
          "id": 1719,
          "content_ko": "메이크업은 다섯 시에 이미 끝났어요🙂‍↕️ \n화이티이이잉!!!",
          "content_zh": "化妆五点就已经完成了🙂‍↕️ 加油油油!!!",
          "image_count": 0,
          "image_urls": null,
          "local_image_paths": null,
          "replied_at": "2025-05-24 23:15:09"
        }
      ]
    },
    {
      "id": 891,
      "post_uuid": "0197046a-6b32-9eb9-4c34-cef7963da83e",
      "title_ko": null,
      "title_zh": null,
      "content_ko": "너의 짧은 보브 헤어가 다시 화제라서일까, 오늘 문득 미용실에 앉아 긴 머리를 싹둑 자르고 말았어. 다가올 6 월의 여름엔 이 선택이 분명 시원한 바람처럼 다가오겠지.\n\n그러다 불현듯 떠오른 건, 너의 Jay Park ‘Yacht’ 커버였어. 너의 노래는 언제나 마음을 흔들어.\n모든 커버를 모아 하나의 팔레트처럼, 작은 앨범으로 남겨도 참 좋을 텐데. 🎨\n\n아름다운 일요일 되기를 바라.\n 🍓😊🍓😊",
      "content_zh": "是不是因为你的短波浪卷发又成为话题了呢，今天突然坐在理发店里把长发咔嚓一下剪掉了。即将到来的六月夏日里，这个选择一定会像清爽的风一样让人舒畅吧。\n\n忽然间想起的是你翻唱的 Jay Park《Yacht》。你的歌声总能触动人心。\n如果能把所有的翻唱作品收集起来，像调色板一样制成一张小小的专辑就好了。🎨\n\n愿你拥有美好的周日。\n🍓😊🍓😊",
      "post_time": "2025-05-24 22:29:32",
      "image_count": 0,
      "image_urls": null,
      "local_image_paths": null,
      "likes": 0,
      "comments": 0,
      "views": 0,
      "board": "Dear. IU",
      "members_only": 0,
      "author_username": "WEspecial",
      "author_avatar": null,
      "author_local_avatar": null,
      "fan_comments": [],
      "direct_iu_replies": [
        {
          "id": 1723,
          "content_ko": "너무 시원하겠다 사르륵 머리카락 소리🥴",
          "content_zh": "一定很凉爽吧，头发沙沙的声音🥴",
          "image_count": 0,
          "image_urls": null,
          "local_image_paths": null,
          "replied_at": "2025-05-24 22:30:37"
        }
      ]
    },
    {
      "id": 890,
      "post_uuid": "01970429-21cc-0722-3fa2-d087e16c2736",
      "title_ko": null,
      "title_zh": null,
      "content_ko": "흔치않는 하루보내길바라♥︎♡",
      "content_zh": "希望度过珍贵的一天♥︎♡",
      "post_time": "2025-05-24 21:18:13",
      "image_count": 1,
      "image_urls": "https://dearimage.iu101.org/images/posts/post_890_1647379066.jpg",
      "local_image_paths": "https://dearimage.iu101.org/images/posts/post_890_1647379066.jpg",
      "likes": 0,
      "comments": 0,
      "views": 0,
      "board": "Dear. IU",
      "members_only": 0,
      "author_username": "허니레몬소다",
      "author_avatar": null,
      "author_local_avatar": null,
      "fan_comments": [],
      "direct_iu_replies": [
        {
          "id": 1722,
          "content_ko": "아이 오늘 흔치 않지!! 특별한 날이지!",
          "content_zh": "哎呀今天不常见!! 是特别的日子!",
          "image_count": 0,
          "image_urls": null,
          "local_image_paths": null,
          "replied_at": "2025-05-24 22:31:25"
        }
      ]
    },
    {
      "id": 889,
      "post_uuid": "019702f8-29f5-6251-f054-77f52205cf4d",
      "title_ko": null,
      "title_zh": null,
      "content_ko": "오랜만에 만난 친구와 만나서 식사 VS 언니의 콘서트를 보러 가다, 어떻게 선택해야 하나요?",
      "content_zh": "很久没见的朋友约吃饭 VS 去看姐姐的演唱会，该怎么选择呢？",
      "post_time": "2025-05-24 15:45:07",
      "image_count": 0,
      "image_urls": null,
      "local_image_paths": null,
      "likes": 0,
      "comments": 0,
      "views": 0,
      "board": "Dear. IU",
      "members_only": 0,
      "author_username": "Wenny",
      "author_avatar": null,
      "author_local_avatar": null,
      "fan_comments": [],
      "direct_iu_replies": [
        {
          "id": 1721,
          "content_ko": "친구와 같이 밥 먹고 콘서트 보러 같이 간다!",
          "content_zh": "和朋友一起吃饭然后一起去看演唱会!",
          "image_count": 0,
          "image_urls": null,
          "local_image_paths": null,
          "replied_at": "2025-05-24 22:34:45"
        }
      ]
    },
    {
      "id": 888,
      "post_uuid": "019702c5-7cdb-f738-cea5-2cfa4b335ecb",
      "title_ko": null,
      "title_zh": null,
      "content_ko": "왠지 12 시에 타이틀 티저가 나올거 같은 느낌인데요ㅎㅎ",
      "content_zh": "总觉得 12 点会发布标题预告呢 hh",
      "post_time": "2025-05-24 14:49:46",
      "image_count": 0,
      "image_urls": null,
      "local_image_paths": null,
      "likes": 0,
      "comments": 0,
      "views": 0,
      "board": "Dear. IU",
      "members_only": 0,
      "author_username": "아이유여왕님",
      "author_avatar": null,
      "author_local_avatar": null,
      "fan_comments": [],
      "direct_iu_replies": [
        {
          "id": 1720,
          "content_ko": "노놉 그것은 오늘이다 🙂‍↕️",
          "content_zh": "No Nope 那个是今天 🙂‍↕️",
          "image_count": 0,
          "image_urls": null,
          "local_image_paths": null,
          "replied_at": "2025-05-24 22:37:21"
        }
      ]
    },
    {
      "id": 896,
      "post_uuid": "0196f2a6-83ec-739c-3755-96bc871aebe3",
      "title_ko": null,
      "title_zh": null,
      "content_ko": "언니 요즘 고양이 자세 다음에 개구리 자세가 유행이래요..!! 어때요오~~???🐸🐸🐸🐸",
      "content_zh": "姐姐最近猫咪姿势后流行青蛙姿势了..！！怎么样~~???🐸🐸🐸🐸",
      "post_time": "2025-05-21 11:42:01",
      "image_count": 1,
      "image_urls": "https://dearimage.iu101.org/images/posts/post_896_286253227.jpg",
      "local_image_paths": "https://dearimage.iu101.org/images/posts/post_896_286253227.jpg",
      "likes": 0,
      "comments": 0,
      "views": 0,
      "board": "Dear. IU",
      "members_only": 0,
      "author_username": "채현",
      "author_avatar": null,
      "author_local_avatar": null,
      "fan_comments": [],
      "direct_iu_replies": [
        {
          "id": 1728,
          "content_ko": "ㅋㅋㅋㅋㅋㅋ아니!!! 난 고양이만 할 거야!!! 🫨",
          "content_zh": "ㅋㅋㅋㅋㅋㅋ不!!! 我只用猫咪!!! 🫨",
          "image_count": 0,
          "image_urls": null,
          "local_image_paths": null,
          "replied_at": "2025-05-21 12:02:42"
        }
      ]
    },
    {
      "id": 895,
      "post_uuid": "0196f2a6-4cd8-3de7-bad2-e54f0fdf988a",
      "title_ko": null,
      "title_zh": null,
      "content_ko": "언니 일기장은 주로 어디서 구매해요?",
      "content_zh": "姐姐的日记本主要在哪里买的？",
      "post_time": "2025-05-21 11:41:47",
      "image_count": 0,
      "image_urls": null,
      "local_image_paths": null,
      "likes": 0,
      "comments": 0,
      "views": 0,
      "board": "Dear. IU",
      "members_only": 0,
      "author_username": "우리무슨사이야고멘나사이",
      "author_avatar": null,
      "author_local_avatar": null,
      "fan_comments": [],
      "direct_iu_replies": [
        {
          "id": 1727,
          "content_ko": "언젠가부터 그냥 아무거나 쓰는 편이에요! ",
          "content_zh": "从某时开始就随便用什么都行!",
          "image_count": 0,
          "image_urls": null,
          "local_image_paths": null,
          "replied_at": "2025-05-21 12:03:27"
        }
      ]
    },
    {
      "id": 894,
      "post_uuid": "0196f2a6-2dda-cd8a-6347-85e7d5c1ee91",
      "title_ko": null,
      "title_zh": null,
      "content_ko": "웅니! 에일이랑 이언이 중에 조금 더 정이 가는 캐릭터는?😆",
      "content_zh": "雄尼！艾尔和伊安中，哪个角色更喜欢一点？😆",
      "post_time": "2025-05-21 11:41:39",
      "image_count": 0,
      "image_urls": null,
      "local_image_paths": null,
      "likes": 0,
      "comments": 0,
      "views": 0,
      "board": "Dear. IU",
      "members_only": 0,
      "author_username": "혜빈(징니한테이름불리고싶어",
      "author_avatar": null,
      "author_local_avatar": null,
      "fan_comments": [],
      "direct_iu_replies": [
        {
          "id": 1726,
          "content_ko": "난 왠지 많은 유애나가 에일이를 더 좋아할 것 같다고 생각했어 그래서 난 이언이를 조금 더 좋아하기로 했어!! 😽",
          "content_zh": "我总觉得很多尤爱娜会更喜欢艾利，所以我决定更喜欢艾利!! 😽",
          "image_count": 0,
          "image_urls": null,
          "local_image_paths": null,
          "replied_at": "2025-05-21 12:04:25"
        }
      ]
    },
    {
      "id": 893,
      "post_uuid": "0196f2a5-f41d-854a-498e-185c44b5e482",
      "title_ko": null,
      "title_zh": null,
      "content_ko": "너무 귀엽잖아.. 키링이나 인형 생겼으면 좋겠어!! 가방에 무조건 달고 다녀야지!! ㅠ",
      "content_zh": "太可爱了..希望出钥匙扣或玩偶！！一定要挂在包上！！ ㅠ",
      "post_time": "2025-05-21 11:41:24",
      "image_count": 1,
      "image_urls": "https://dearimage.iu101.org/images/posts/post_893_338998813.jpeg",
      "local_image_paths": "https://dearimage.iu101.org/images/posts/post_893_338998813.jpeg",
      "likes": 0,
      "comments": 0,
      "views": 0,
      "board": "Dear. IU",
      "members_only": 0,
      "author_username": "딸기의봄",
      "author_avatar": null,
      "author_local_avatar": null,
      "fan_comments": [],
      "direct_iu_replies": [
        {
          "id": 1725,
          "content_ko": "딸기야 내가 키링 안 줄 것 같아? 🍓\n봄아 어떻게 생각해 내가 우리 애나들한테 키링 진짜 안 줄 거 같아? 🥰",
          "content_zh": "草莓呀，我会不给钥匙扣吗？ 🍓 春啊你怎么想，我真的会不给爱娜们钥匙扣吗？ 🥰",
          "image_count": 0,
          "image_urls": null,
          "local_image_paths": null,
          "replied_at": "2025-05-21 12:05:19"
        }
      ]
    },
    {
      "id": 892,
      "post_uuid": "0196f2a4-ab83-a4a2-af9c-17c431ef26b9",
      "title_ko": null,
      "title_zh": null,
      "content_ko": "I have never seen an idol who truly cares for their fans like you do. Thank you so much for taking the time to chat with us every day despite your busy schedule, and for putting so much effort into organizing so many activities. Whenever I face difficulties, I think about how you overcome challenges in your singing career, and it feels like you’re right there with me, helping me through tough times. 감사합니다, 사랑해요!🫶🏽🫶🏽🫶🏽❤️❤️❤️",
      "content_zh": "我从未见过像你这样真正关心粉丝的偶像。非常感谢你在繁忙的日程中每天抽时间与我们聊天，费心安排这么多活动。每当我遇到困难时，就会想到你在歌唱事业中如何克服挑战，感觉你就在我身边，帮助我度过难关。谢谢，我爱你！🫶🏽🫶🏽🫶🏽❤️❤️❤️",
      "post_time": "2025-05-21 11:40:00",
      "image_count": 0,
      "image_urls": null,
      "local_image_paths": null,
      "likes": 0,
      "comments": 0,
      "views": 0,
      "board": "Dear. IU",
      "members_only": 0,
      "author_username": "MatthewLam",
      "author_avatar": null,
      "author_local_avatar": null,
      "fan_comments": [],
      "direct_iu_replies": [
        {
          "id": 1724,
          "content_ko": "That's the joy of my life\nYou are the joy of my life",
          "content_zh": "That's the joy of my life You are the joy of my life",
          "image_count": 0,
          "image_urls": null,
          "local_image_paths": null,
          "replied_at": "2025-05-21 12:07:16"
        }
      ]
    },
    {
      "id": 897,
      "post_uuid": "0196f2a1-91a5-e7c2-fc70-f05c38928ccd",
      "title_ko": null,
      "title_zh": null,
      "content_ko": "언니!! 캐릭터 소개 영상 아이디어는 누구였어요??\n영상이 너무 귀엽고 창의적이에요! 😍😍\n",
      "content_zh": "姐姐！！角色介绍视频的创意是谁想出来的？？\n视频太可爱了，很有创意！😍😍",
      "post_time": "2025-05-21 11:36:37",
      "image_count": 1,
      "image_urls": "https://dearimage.iu101.org/images/posts/post_897_1166017554.jpeg",
      "local_image_paths": "https://dearimage.iu101.org/images/posts/post_897_1166017554.jpeg",
      "likes": 0,
      "comments": 0,
      "views": 0,
      "board": "Dear. IU",
      "members_only": 0,
      "author_username": "Zazu's핫딸기차",
      "author_avatar": "https://dearimage.iu101.org/images/avatars/avatar_48.jpeg",
      "author_local_avatar": "https://dearimage.iu101.org/images/avatars/avatar_48.jpeg",
      "fan_comments": [],
      "direct_iu_replies": [
        {
          "id": 1729,
          "content_ko": "작년에 제가 유애나에게 ‘살면서 되도록 많이 발견하자’고 말하면서 준 선물 기억하나요? \n더 위닝 때부터 우리에게 있어서 쌍안경이라는 물건이 특별한 의미가 생겼기 때문에 쌍안경 시야 앵글로 시작했으면 좋겠고 (마침 8 모양이잖아! 😍) 그 쌍안경으로 처음으로 발견하는 게 우리 8기였으면 좋겠다고 스토리라인을 부탁드렸어요!",
          "content_zh": "记得去年我跟尤爱娜说'生活中尽量多发现'时送的那个礼物吗？ 从The Winning开始，双筒望远镜对我们来说有了特别的意义，所以希望以双筒望远镜视角开始（正好是8形状! 😍）第一个用那个双筒望远镜发现的就是我们8期，我拜托了这个故事线!",
          "image_count": 0,
          "image_urls": null,
          "local_image_paths": null,
          "replied_at": "2025-05-21 11:41:09"
        }
      ]
    },
    {
      "id": 905,
      "post_uuid": "0196f292-5519-59fe-6201-b0714dbb97c9",
      "title_ko": null,
      "title_zh": null,
      "content_ko": "언니 설마 고양이 챌린지 올린 거 스포였던것야?????",
      "content_zh": "姐姐难道上传猫咪挑战是为了剧透？？？？",
      "post_time": "2025-05-21 11:19:58",
      "image_count": 2,
      "image_urls": "https://dearimage.iu101.org/images/posts/post_905_902625310.jpeg",
      "local_image_paths": "https://dearimage.iu101.org/images/posts/post_905_902377229.jpeg|https://dearimage.iu101.org/images/posts/post_905_902625310.jpeg",
      "likes": 0,
      "comments": 0,
      "views": 0,
      "board": "Dear. IU",
      "members_only": 0,
      "author_username": "금사탕_goldcandy",
      "author_avatar": null,
      "author_local_avatar": null,
      "fan_comments": [],
      "direct_iu_replies": [
        {
          "id": 1737,
          "content_ko": "그렇다고 볼 수 있지 🙂‍↕️",
          "content_zh": "그렇다고 볼 수 있지 🙂‍↕️",
          "image_count": 0,
          "image_urls": null,
          "local_image_paths": null,
          "replied_at": "2025-05-21 11:22:17"
        }
      ]
    },
    {
      "id": 904,
      "post_uuid": "0196f291-5ac8-71f0-d55f-70b4c719e27a",
      "title_ko": null,
      "title_zh": null,
      "content_ko": "에일이는 T 고 이언이는 F 구나, 맞죠?",
      "content_zh": "艾尔是 T 型，伊安是 F 型，对吧？",
      "post_time": "2025-05-21 11:18:54",
      "image_count": 0,
      "image_urls": null,
      "local_image_paths": null,
      "likes": 0,
      "comments": 0,
      "views": 0,
      "board": "Dear. IU",
      "members_only": 0,
      "author_username": "루미로",
      "author_avatar": null,
      "author_local_avatar": null,
      "fan_comments": [],
      "direct_iu_replies": [
        {
          "id": 1736,
          "content_ko": "저는 반대로 생각했어요 😀",
          "content_zh": "我反过来想啦 😀",
          "image_count": 0,
          "image_urls": null,
          "local_image_paths": null,
          "replied_at": "2025-05-21 11:22:56"
        }
      ]
    },
    {
      "id": 903,
      "post_uuid": "0196f291-4608-1375-f723-89430605ce0d",
      "title_ko": null,
      "title_zh": null,
      "content_ko": "🙂‍↕️",
      "content_zh": "🙂‍↕️",
      "post_time": "2025-05-21 11:18:49",
      "image_count": 0,
      "image_urls": null,
      "local_image_paths": null,
      "likes": 0,
      "comments": 0,
      "views": 0,
      "board": "Dear. IU",
      "members_only": 0,
      "author_username": "Rich",
      "author_avatar": null,
      "author_local_avatar": null,
      "fan_comments": [],
      "direct_iu_replies": [
        {
          "id": 1735,
          "content_ko": "🙂‍↕️",
          "content_zh": "🙂‍↕️",
          "image_count": 0,
          "image_urls": null,
          "local_image_paths": null,
          "replied_at": "2025-05-21 11:23:10"
        }
      ]
    },
    {
      "id": 902,
      "post_uuid": "0196f290-3b05-c388-8c24-fb4ecf696e40",
      "title_ko": null,
      "title_zh": null,
      "content_ko": "˗ˋˏ와ˎˊ˗ 에일이언 전혀 생각도 못한 애칭이다\n 8 기 애칭 해파리 / 똥파리 / 눈사람 / 조랭이 떡 / 나팔꽃 / 나비 / 양 / 안경 / 팔레트 이중에 있지 않을까🤔🤔 했었는데 🫣",
      "content_zh": "艾尔伊安完全没想到的昵称\n第 8 期昵称海蜇/粪蝇/雪人/元宵/牵牛花/蝴蝶/羊/眼镜/调色板 中应该没有吧🤔🤔 我曾这样想过 🫣",
      "post_time": "2025-05-21 11:17:40",
      "image_count": 1,
      "image_urls": "https://dearimage.iu101.org/images/posts/post_902_763108028.jpg",
      "local_image_paths": "https://dearimage.iu101.org/images/posts/post_902_763108028.jpg",
      "likes": 0,
      "comments": 0,
      "views": 0,
      "board": "Dear. IU",
      "members_only": 0,
      "author_username": "잔물결",
      "author_avatar": null,
      "author_local_avatar": null,
      "fan_comments": [],
      "direct_iu_replies": [
        {
          "id": 1734,
          "content_ko": "예 똥파리요...?",
          "content_zh": "예 똥파리요...?",
          "image_count": 0,
          "image_urls": null,
          "local_image_paths": null,
          "replied_at": "2025-05-21 11:24:00"
        }
      ]
    },
    {
      "id": 901,
      "post_uuid": "0196f28f-ad7d-a77e-eceb-94769267f230",
      "title_ko": null,
      "title_zh": null,
      "content_ko": "마미뮤... 메밀리먼 매침 너무너무 귀몁다👾🛸",
      "content_zh": "妈咪呜...荞麦里门麦钦太可爱了👾🛸",
      "post_time": "2025-05-21 11:17:04",
      "image_count": 0,
      "image_urls": null,
      "local_image_paths": null,
      "likes": 0,
      "comments": 0,
      "views": 0,
      "board": "Dear. IU",
      "members_only": 0,
      "author_username": "유유정",
      "author_avatar": null,
      "author_local_avatar": null,
      "fan_comments": [],
      "direct_iu_replies": [
        {
          "id": 1733,
          "content_ko": "메밀 미먼미먀",
          "content_zh": "荞麦 mi-meon-mi-mya",
          "image_count": 0,
          "image_urls": null,
          "local_image_paths": null,
          "replied_at": "2025-05-21 11:24:38"
        }
      ]
    },
    {
      "id": 900,
      "post_uuid": "0196f28f-86b8-ef7b-dc05-3b46a16ed58c",
      "title_ko": null,
      "title_zh": null,
      "content_ko": "이번 8 기 애칭 언니 아이디어인가요 이다미들 아이디어인가요??🥹\n진짜 역대급으로 잘뽑힌것같아요ㅠㅠㅠ",
      "content_zh": "这次第八期的昵称是安喜英姐姐的想法还是李多美的想法？🥹\n真的感觉选得特别好，史上最佳的感觉ㅠㅠㅠ",
      "post_time": "2025-05-21 11:16:54",
      "image_count": 0,
      "image_urls": null,
      "local_image_paths": null,
      "likes": 0,
      "comments": 0,
      "views": 0,
      "board": "Dear. IU",
      "members_only": 0,
      "author_username": "지은이여친",
      "author_avatar": null,
      "author_local_avatar": null,
      "fan_comments": [],
      "direct_iu_replies": [
        {
          "id": 1732,
          "content_ko": "이번에는 서로의 아이디어를 보태고 보태다가 나온 결과라 콜라보레이션인 걸로🙂‍↕️",
          "content_zh": "这次是互相添加想法想法得出的结果，算是合作作品🙂‍↕️",
          "image_count": 0,
          "image_urls": null,
          "local_image_paths": null,
          "replied_at": "2025-05-21 11:25:18"
        }
      ]
    },
    {
      "id": 899,
      "post_uuid": "0196f28d-a6df-0a3d-c8d2-41fb4bfe34a4",
      "title_ko": null,
      "title_zh": null,
      "content_ko": "언니 에일이랑 이언이 언니가 그렸어용? 너~~무 귀여워요!!",
      "content_zh": "姐姐艾尔和伊安是你画的吗？太可爱了！！",
      "post_time": "2025-05-21 11:14:51",
      "image_count": 1,
      "image_urls": "https://dearimage.iu101.org/images/posts/post_899_981660091.jpeg",
      "local_image_paths": "https://dearimage.iu101.org/images/posts/post_899_981660091.jpeg",
      "likes": 0,
      "comments": 0,
      "views": 0,
      "board": "Dear. IU",
      "members_only": 0,
      "author_username": "서우서우",
      "author_avatar": "https://dearimage.iu101.org/images/avatars/avatar_191.jpeg",
      "author_local_avatar": "https://dearimage.iu101.org/images/avatars/avatar_191.jpeg",
      "fan_comments": [],
      "direct_iu_replies": [
        {
          "id": 1731,
          "content_ko": "제가 그린 거 아닙니다!! 🙂‍↔️ 전문가 선생님께서 그려 주셨습니다!",
          "content_zh": "不是我画的!! 🙂‍↔️ 是专业老师画的!",
          "image_count": 0,
          "image_urls": null,
          "local_image_paths": null,
          "replied_at": "2025-05-21 11:28:59"
        }
      ]
    },
    {
      "id": 898,
      "post_uuid": "0196f28c-c51b-9571-b682-6a83b0d73475",
      "title_ko": null,
      "title_zh": null,
      "content_ko": "지은아... 한국어 연습장 한가득 채운 끝에 용낸 쓴 편지예요. 글씨가 어색해도, 이 마음만은 반짝일 거예요✨ 'Uaena'라는 이름으로 언니와 같은 하늘을 바라볼 수 있어서 행복해요. 우리 함께 빛나자구요! 💫💜❤️💜😍",
      "content_zh": "知恩啊... 这是在练习本上满满当当地练字后鼓起勇气写下的信。虽然字迹有些生疏，但这份心意一定会闪闪发光✨ 能够和姐姐用同一个名字\"Uaena\"仰望同一片天空，我感到很幸福。让我们一起闪耀吧！💫💜❤️💜😍",
      "post_time": "2025-05-21 11:13:53",
      "image_count": 1,
      "image_urls": "https://dearimage.iu101.org/images/posts/post_898_1701979895.jpeg",
      "local_image_paths": "https://dearimage.iu101.org/images/posts/post_898_1701979895.jpeg",
      "likes": 0,
      "comments": 0,
      "views": 0,
      "board": "Dear. IU",
      "members_only": 0,
      "author_username": "uaenacandy",
      "author_avatar": null,
      "author_local_avatar": null,
      "fan_comments": [],
      "direct_iu_replies": [
        {
          "id": 1730,
          "content_ko": "나보다 잘 쓴다!!! 😍",
          "content_zh": "나보다 잘 쓴다!!! 😍",
          "image_count": 0,
          "image_urls": null,
          "local_image_paths": null,
          "replied_at": "2025-05-21 11:29:44"
        }
      ]
    },
    {
      "id": 909,
      "post_uuid": "0196e82e-197d-986d-e188-5a7efcab5df5",
      "title_ko": null,
      "title_zh": null,
      "content_ko": "🥖🍢🥖🍢\n🍢 🐱 🥖\n 🍢🥖 지은 언니😻",
      "content_zh": "🥖🍢🥖🍢",
      "post_time": "2025-05-19 10:54:17",
      "image_count": 0,
      "image_urls": null,
      "local_image_paths": null,
      "likes": 0,
      "comments": 0,
      "views": 0,
      "board": "Dear. IU",
      "members_only": 0,
      "author_username": "1004_s2",
      "author_avatar": null,
      "author_local_avatar": null,
      "fan_comments": [],
      "direct_iu_replies": [
        {
          "id": 1741,
          "content_ko": "헉 너무 잘 만들었다 바게트 하트!!",
          "content_zh": "哇做得真好 法棍心!!",
          "image_count": 0,
          "image_urls": null,
          "local_image_paths": null,
          "replied_at": "2025-05-19 10:55:40"
        }
      ]
    }
  ]
}
