{
  "page": 42,
  "totalPages": 45,
  "total": 895,
  "data": [
    {
      "id": 916,
      "post_uuid": "0196e801-b0f5-6f06-3030-8bb9bd3dbb17",
      "title_ko": null,
      "title_zh": null,
      "content_ko": "지은 언니 🥹 텃세 있는 직종이라 매일매일이 괴롭힘에 눈물바람인데 내가 똑똑해지면 덜 그러겠지 싶은 마음에 공부하고.. 또 언니 노래 들으면서 위로를 받아요. 이런 나도 언니에겐 관객이고, 셀레브리티고, 소중한 유애나 중 한명일테니까 🥲 \n\n언니가 콘서트에서 한 말 처럼,\n언젠가 진짜 좋은 날이 갑자기 올테니\n잘 버텨볼게요. 사랑하는 언니 말은 다 믿어요. 아자자. \n\n언니는 힘들지 않길.. 행복만 해요 언니",
      "content_zh": "知恩欧尼 🥹 因为是容易受到排挤的职业，每天都在欺凌中以泪洗面，想着如果自己变聪明了就会好一些，所以努力学习...还会听着欧尼的歌来安慰自己。这样的我对于欧尼来说也是观众，是 celebrity，是珍贵的友情中的一个人吧 🥲\n\n就像欧尼在演唱会上说的那样，\n总有一天真正美好的日子会突然到来\n我会好好坚持下去的。相信亲爱的欧尼说的每一句话。加油！\n\n希望欧尼不要辛苦...只愿欧尼幸福",
      "post_time": "2025-05-19 10:05:47",
      "image_count": 0,
      "image_urls": null,
      "local_image_paths": null,
      "likes": 0,
      "comments": 0,
      "views": 0,
      "board": "Dear. IU",
      "members_only": 0,
      "author_username": "흑당꿀사과12",
      "author_avatar": null,
      "author_local_avatar": null,
      "fan_comments": [],
      "direct_iu_replies": [
        {
          "id": 1748,
          "content_ko": "누가 괴롭혀 가만 안 둬 열받네 진짜!!!! 😡😡😡😡 ",
          "content_zh": "누가 괴롭혀 가만 안 둬 열받네 진짜!!!! 😡😡😡😡",
          "image_count": 0,
          "image_urls": null,
          "local_image_paths": null,
          "replied_at": "2025-05-19 10:15:18"
        }
      ]
    },
    {
      "id": 915,
      "post_uuid": "0196e7f9-b5e7-c915-3f30-de1675cd7528",
      "title_ko": null,
      "title_zh": null,
      "content_ko": "주위를 둘러보면 모두 네모난 것들뿐인데??",
      "content_zh": "环顾四周都是方方正正的东西？？",
      "post_time": "2025-05-19 09:57:04",
      "image_count": 1,
      "image_urls": "https://dearimage.iu101.org/images/posts/post_915_721311745.jpg",
      "local_image_paths": "https://dearimage.iu101.org/images/posts/post_915_721311745.jpg",
      "likes": 0,
      "comments": 0,
      "views": 0,
      "board": "Dear. IU",
      "members_only": 0,
      "author_username": "마잉",
      "author_avatar": null,
      "author_local_avatar": null,
      "fan_comments": [],
      "direct_iu_replies": [
        {
          "id": 1747,
          "content_ko": "우린 언제나 듣지? 잘난 어른의 멋진 이 말?? 세상은??? 어떻게 살아야 해???",
          "content_zh": "我们什么时候不听？ 了不起的大人这句帅话？？ 世界是??? 该怎么生活???",
          "image_count": 0,
          "image_urls": null,
          "local_image_paths": null,
          "replied_at": "2025-05-19 10:20:39"
        }
      ]
    },
    {
      "id": 917,
      "post_uuid": "0196e7e1-6c9d-3186-982f-727934511005",
      "title_ko": null,
      "title_zh": null,
      "content_ko": "유애나 친구랑 여행하고 있어요!\n언니 생일 파티도 열고 함께 신나게 놀았어요💙\n언니 덕분에 소중한 친구도 생겨서 정말 행복해요🥹항상 고마워요🤍",
      "content_zh": "正在和尤爱娜朋友一起旅行呢！\n还举办了姐姐的生日派对，大家一起开心地玩了💙\n多亏了姐姐，才有了珍贵的朋友，真的好幸福🥹一直很感谢你🤍",
      "post_time": "2025-05-19 09:30:32",
      "image_count": 1,
      "image_urls": "https://dearimage.iu101.org/images/posts/post_917_2020289135.jpeg",
      "local_image_paths": "https://dearimage.iu101.org/images/posts/post_917_2020289135.jpeg",
      "likes": 0,
      "comments": 0,
      "views": 0,
      "board": "Dear. IU",
      "members_only": 0,
      "author_username": "카즈키",
      "author_avatar": "https://dearimage.iu101.org/images/avatars/avatar_192.jpeg",
      "author_local_avatar": "https://dearimage.iu101.org/images/avatars/avatar_192.jpeg",
      "fan_comments": [],
      "direct_iu_replies": [
        {
          "id": 1749,
          "content_ko": "다들 귀여워 😆🫶",
          "content_zh": "大家都可爱 😆🫶",
          "image_count": 0,
          "image_urls": null,
          "local_image_paths": null,
          "replied_at": "2025-05-19 09:34:01"
        }
      ]
    },
    {
      "id": 922,
      "post_uuid": "0196e7b6-d3f3-720c-3625-90b31fbf2f23",
      "title_ko": null,
      "title_zh": null,
      "content_ko": "\"Reply to me, REPLY! If you don't answer, Unnie...** \n**I'll do a dramatic backflip right here and now!!!** 💥🤸 ",
      "content_zh": "回复我，快回复！如果你不回答，欧尼...我现在就在这里做一个华丽的后空翻！！！💥🤸",
      "post_time": "2025-05-19 08:44:00",
      "image_count": 0,
      "image_urls": null,
      "local_image_paths": null,
      "likes": 0,
      "comments": 0,
      "views": 0,
      "board": "Dear. IU",
      "members_only": 0,
      "author_username": "Guliguli",
      "author_avatar": "https://dearimage.iu101.org/images/avatars/avatar_427.jpeg",
      "author_local_avatar": "https://dearimage.iu101.org/images/avatars/avatar_427.jpeg",
      "fan_comments": [],
      "direct_iu_replies": [
        {
          "id": 1754,
          "content_ko": "깜짝 놀랐잖아 🥰ㅋㅋㅋㅋ",
          "content_zh": "吓了我一跳🥰ㅋㅋㅋㅋ",
          "image_count": 0,
          "image_urls": null,
          "local_image_paths": null,
          "replied_at": "2025-05-19 08:44:42"
        }
      ]
    },
    {
      "id": 921,
      "post_uuid": "0196e7b6-5043-1ae8-c77d-1f0dca802577",
      "title_ko": null,
      "title_zh": null,
      "content_ko": "언니, 내 인형 좀 봐! 그들은 언니와 똑같이 생겼는데, 나는 아직 그들에게 이름을 지어주지 않았는데, 언니가 나를 도와 이름을 갈 수 있을까?😌",
      "content_zh": "姐姐，你快看我的娃娃！它们长得和姐姐一模一样，不过我还没给它们起名字呢，姐姐能帮我起个名字吗？😌",
      "post_time": "2025-05-19 08:43:27",
      "image_count": 1,
      "image_urls": "https://dearimage.iu101.org/images/posts/post_921_105090009.jpg",
      "local_image_paths": "https://dearimage.iu101.org/images/posts/post_921_105090009.jpg",
      "likes": 0,
      "comments": 0,
      "views": 0,
      "board": "Dear. IU",
      "members_only": 0,
      "author_username": "dlwlrmaaaaa",
      "author_avatar": "https://dearimage.iu101.org/images/avatars/avatar_422.jpg",
      "author_local_avatar": "https://dearimage.iu101.org/images/avatars/avatar_422.jpg",
      "fan_comments": [],
      "direct_iu_replies": [
        {
          "id": 1753,
          "content_ko": "삐야옹 어때요",
          "content_zh": "哔呀嗡怎么样",
          "image_count": 0,
          "image_urls": null,
          "local_image_paths": null,
          "replied_at": "2025-05-19 09:00:08"
        }
      ]
    },
    {
      "id": 933,
      "post_uuid": "0196e785-43ee-01df-62b1-194461745f09",
      "title_ko": null,
      "title_zh": null,
      "content_ko": "언니 인스타 사진 고르규 있었어요?! ㅋㅋㅋㅋㅋ",
      "content_zh": "欧尼 Instagram 照片挑选过吗？！哈哈哈",
      "post_time": "2025-05-19 07:49:52",
      "image_count": 1,
      "image_urls": "https://dearimage.iu101.org/images/posts/post_933_49001643.jpeg",
      "local_image_paths": "https://dearimage.iu101.org/images/posts/post_933_49001643.jpeg",
      "likes": 0,
      "comments": 0,
      "views": 0,
      "board": "Dear. IU",
      "members_only": 0,
      "author_username": "유랑이",
      "author_avatar": "https://dearimage.iu101.org/images/avatars/avatar_433.jpeg",
      "author_local_avatar": "https://dearimage.iu101.org/images/avatars/avatar_433.jpeg",
      "fan_comments": [],
      "direct_iu_replies": [
        {
          "id": 1765,
          "content_ko": "아 인스타 사진 고르기는 늘 쉽지 않아~~🙃",
          "content_zh": "啊Instagram照片选择总是不容易~~🙃",
          "image_count": 0,
          "image_urls": null,
          "local_image_paths": null,
          "replied_at": "2025-05-19 07:50:38"
        }
      ]
    },
    {
      "id": 932,
      "post_uuid": "0196e77a-fced-cb75-2dce-ab00717717fe",
      "title_ko": null,
      "title_zh": null,
      "content_ko": "베리즈 앱에서 하고 있어요? 아나면 웹에서 하고 있어요??",
      "content_zh": "在 Berryz app 里玩吗？还是在网页上玩？？",
      "post_time": "2025-05-19 07:38:39",
      "image_count": 0,
      "image_urls": null,
      "local_image_paths": null,
      "likes": 0,
      "comments": 0,
      "views": 0,
      "board": "Dear. IU",
      "members_only": 0,
      "author_username": "뮈푀",
      "author_avatar": null,
      "author_local_avatar": null,
      "fan_comments": [],
      "direct_iu_replies": [
        {
          "id": 1764,
          "content_ko": "앱 깔았지이 😉",
          "content_zh": "下载了app 😉",
          "image_count": 0,
          "image_urls": null,
          "local_image_paths": null,
          "replied_at": "2025-05-19 07:56:57"
        }
      ]
    },
    {
      "id": 931,
      "post_uuid": "0196e773-65ec-35eb-becd-9433274fb599",
      "title_ko": null,
      "title_zh": null,
      "content_ko": "언니 답장 안 하면 게임하러 갈게요👀",
      "content_zh": "欧尼不回消息的话我就去玩游戏了👀",
      "post_time": "2025-05-19 07:30:21",
      "image_count": 0,
      "image_urls": null,
      "local_image_paths": null,
      "likes": 0,
      "comments": 0,
      "views": 0,
      "board": "Dear. IU",
      "members_only": 0,
      "author_username": "일반berriz사용자516",
      "author_avatar": "https://dearimage.iu101.org/images/avatars/avatar_568.jpeg",
      "author_local_avatar": "https://dearimage.iu101.org/images/avatars/avatar_568.jpeg",
      "fan_comments": [],
      "direct_iu_replies": [
        {
          "id": 1763,
          "content_ko": "일단 게임은 해야지~~~~",
          "content_zh": "总之先玩游戏吧~~~~",
          "image_count": 0,
          "image_urls": null,
          "local_image_paths": null,
          "replied_at": "2025-05-19 08:00:34"
        }
      ]
    },
    {
      "id": 930,
      "post_uuid": "0196e771-28d8-d2a6-9f64-a55b7888159d",
      "title_ko": null,
      "title_zh": null,
      "content_ko": "언니, 소규모 공연 참여 가능한지 여쭤봐도 될까요? 행사 흐름대로만 따라오시면 돼요. 마지막에 '네, 동의해요' 한 마디만 해주시면 끝나고 다이아몬드 반지 선물이 있어요👰🏻‍♀️💍💕",
      "content_zh": "姐姐，可以问一下能参加小型演出吗？只要跟着活动流程走就行，最后说一句\"好，我同意\"就结束了，还有钻石戒指礼物哦👰🏻‍♀️💍💕",
      "post_time": "2025-05-19 07:27:55",
      "image_count": 0,
      "image_urls": null,
      "local_image_paths": null,
      "likes": 0,
      "comments": 0,
      "views": 0,
      "board": "Dear. IU",
      "members_only": 0,
      "author_username": "Zziuo",
      "author_avatar": null,
      "author_local_avatar": null,
      "fan_comments": [],
      "direct_iu_replies": [
        {
          "id": 1762,
          "content_ko": "ㅋㅋㅋㅋㅋ잘한다 잘해!!!",
          "content_zh": "ㅋㅋㅋㅋㅋ做得好做得好！！！",
          "image_count": 0,
          "image_urls": null,
          "local_image_paths": null,
          "replied_at": "2025-05-19 08:02:22"
        }
      ]
    },
    {
      "id": 929,
      "post_uuid": "0196e76d-d3c1-722f-a7a9-955eaa8aa76e",
      "title_ko": null,
      "title_zh": null,
      "content_ko": "언니 스티커 사진은 진짜 그 시절 감성이에용?",
      "content_zh": "欧尼贴纸照片真的是那个时代的感性啊？",
      "post_time": "2025-05-19 07:24:16",
      "image_count": 0,
      "image_urls": null,
      "local_image_paths": null,
      "likes": 0,
      "comments": 0,
      "views": 0,
      "board": "Dear. IU",
      "members_only": 0,
      "author_username": "수림잉",
      "author_avatar": "https://dearimage.iu101.org/images/avatars/avatar_180.jpeg",
      "author_local_avatar": "https://dearimage.iu101.org/images/avatars/avatar_180.jpeg",
      "fan_comments": [],
      "direct_iu_replies": [
        {
          "id": 1761,
          "content_ko": "완전 완전히!!",
          "content_zh": "完完全全地！！",
          "image_count": 0,
          "image_urls": null,
          "local_image_paths": null,
          "replied_at": "2025-05-19 08:04:21"
        }
      ]
    },
    {
      "id": 928,
      "post_uuid": "0196e76c-a728-ff56-acf4-791b72af43c4",
      "title_ko": null,
      "title_zh": null,
      "content_ko": "이번 꽃셋 곡선정 기준은 어떻게했나요???\n좋아하는곡? 팬들이좋아할것같은곡? 유명한곡?",
      "content_zh": "这次花絮曲的选曲标准是什么？\n是自己喜欢的歌？还是觉得粉丝们会喜欢的歌？还是有名的歌曲？",
      "post_time": "2025-05-19 07:22:59",
      "image_count": 0,
      "image_urls": null,
      "local_image_paths": null,
      "likes": 0,
      "comments": 0,
      "views": 0,
      "board": "Dear. IU",
      "members_only": 0,
      "author_username": "말차빵",
      "author_avatar": null,
      "author_local_avatar": null,
      "fan_comments": [],
      "direct_iu_replies": [
        {
          "id": 1760,
          "content_ko": "셋 다요!! 🐥",
          "content_zh": "三个都要！！🐥",
          "image_count": 0,
          "image_urls": null,
          "local_image_paths": null,
          "replied_at": "2025-05-19 08:06:14"
        }
      ]
    },
    {
      "id": 950,
      "post_uuid": "0196e437-0b98-03b2-f40c-f1904259ab93",
      "title_ko": null,
      "title_zh": null,
      "content_ko": "언니, 기침이 안 나아요. 다른 방법 있어요",
      "content_zh": "欧尼，咳嗽还没好，有其他方法吗",
      "post_time": "2025-05-18 16:25:34",
      "image_count": 0,
      "image_urls": null,
      "local_image_paths": null,
      "likes": 0,
      "comments": 0,
      "views": 0,
      "board": "Dear. IU",
      "members_only": 0,
      "author_username": "Betty",
      "author_avatar": null,
      "author_local_avatar": null,
      "fan_comments": [],
      "direct_iu_replies": [
        {
          "id": 1782,
          "content_ko": "기침엔 따뜻한 물\n기침엔 따뜻한 물!! 차가운 물 No!!",
          "content_zh": "咳嗽要喝温水",
          "image_count": 0,
          "image_urls": null,
          "local_image_paths": null,
          "replied_at": "2025-05-18 16:28:12"
        }
      ]
    },
    {
      "id": 949,
      "post_uuid": "0196e437-069a-30d0-b523-544bba7ab461",
      "title_ko": null,
      "title_zh": null,
      "content_ko": "Did the developer already fixed the app upon your review/request?",
      "content_zh": "Did the developer already fixed the app upon your review/request?",
      "post_time": "2025-05-18 16:25:33",
      "image_count": 0,
      "image_urls": null,
      "local_image_paths": null,
      "likes": 0,
      "comments": 0,
      "views": 0,
      "board": "Dear. IU",
      "members_only": 0,
      "author_username": "注销的用户",
      "author_avatar": null,
      "author_local_avatar": null,
      "fan_comments": [],
      "direct_iu_replies": [
        {
          "id": 1781,
          "content_ko": "Yessss! 😆",
          "content_zh": "Yessss! 😆",
          "image_count": 0,
          "image_urls": null,
          "local_image_paths": null,
          "replied_at": "2025-05-18 16:28:39"
        }
      ]
    },
    {
      "id": 948,
      "post_uuid": "0196e435-dd5e-bed0-1b33-7cbfa03d5504",
      "title_ko": null,
      "title_zh": null,
      "content_ko": "언니잌!!!!!! 나야 나 애나!!!!!!!!!!!!!!!! 끊지마악‼️‼️‼️‼️‼️",
      "content_zh": "欧尼!!!!!! 是我啊 IUana!!!!!!!!!!!!!!!! 别挂断‼️‼️‼️‼️‼️",
      "post_time": "2025-05-18 16:24:17",
      "image_count": 1,
      "image_urls": "https://dearimage.iu101.org/images/posts/post_948_913665601.jpg",
      "local_image_paths": "https://dearimage.iu101.org/images/posts/post_948_913665601.jpg",
      "likes": 0,
      "comments": 0,
      "views": 0,
      "board": "Dear. IU",
      "members_only": 0,
      "author_username": "잔물결",
      "author_avatar": null,
      "author_local_avatar": null,
      "fan_comments": [],
      "direct_iu_replies": [
        {
          "id": 1780,
          "content_ko": "혹시 콜렉트콜이야..? 미안...",
          "content_zh": "是收藏来电吗..？对不起...",
          "image_count": 0,
          "image_urls": null,
          "local_image_paths": null,
          "replied_at": "2025-05-18 16:30:46"
        }
      ]
    },
    {
      "id": 980,
      "post_uuid": "0196e411-f305-cad7-68f4-e7319fe01d3b",
      "title_ko": null,
      "title_zh": null,
      "content_ko": "신이 정성껏 다듬어 세상에 보낸 구슬 같은 아이 지은아 안녕하세요:\n생일 축하합니다! 오늘 맛있는 미역국 먹었죠? 버스 응원 정말 예쁘죠?\n이번은 내가 너와 함께 보낸 다섯 번째 생일이에요. 요즘 잘 지내고 있어요? 밥은요? 귀가 점점 나아지고 있어요? 몸은 전보다 건강해졌어요? 나는 서울의 날씨를 느낄 수 없고 오직 온라인 너머로 너를 볼 수 있고, 모든 생각으로 너를 그리운 뿐이에요. 월기에서 말한 것처럼 ueana 의 삶이 궁금하고 ueana 가 듣고 있다고 생각하면 잔소리가 많아졌어요. 나는 똑같애요. \n언니, 나 솔직히 한국말 잘 못하죠. 시간은 언니의 나이에 흔적을 남아니까 시간이 느리게 흘릴 수 있으면 좋겠어요. 근데 빨리 만나고 싶어서 시간이 빠르게 지나가면 좋을텐데요. 모순이네요 그쵸?\n우리 지은이는 모든 걸 다 잘해요. 우리 구슬이 정말 어디에서도 반짝 반짝이네요. 항상 자랑스러워요. 정말 잘해요!\n언니는 내 곁에 없지만 함께 하는 순간순간이 다 소중해요. 내 삶은 너가 있어서 더 행복해지니까 미안한단 말 하지마세요. 언니가 자주 말해주던 건처럼 나도 항상 네 편이에요. 한 걸음 한 걸음씩, 우리는 항상 함께 할 거예요.\n절대 아프지 말고 우리가 서로에게 최선을 다해 웃어보자! 얼마나 멀어도 달려가서 널 만날게요. 나보다 사랑이 넘치는 응원이 먼저 너에 곁으로! 기다려주세요! 당신이 항상 행복하고 하고 싶은 것을 다 하고, 좋아하는 것을 다 했으면 좋겠어요. 언니의 피땀은 결코 헛되지 않을 거예요. 언니의 행복은 나의 가장 큰 행복이에요. 모든 것이 잘 되고 하늘이 내린 복 많이 받기를 바래요. 항상 너를 위해 기도할게요. 오늘 밤뿐만 아니라, 모든 밤 다 잘자.\n지은아, 내가 너의 이름을 천번 만번 외치고 우리가 만나는 순간까지.\n넌 나의 3 분 열정만 있는 내 인생속에 제 181 초예요. 다시 태어나도 uaena 가 될 거예요. 태어나줘서 고맙고 존재해줘서 고마워요. 사랑합니다",
      "content_zh": "如同珍珠般被上天精心雕琢后送到世间的宝贝知恩，你好：\n生日快乐！今天喝了美味的海带汤吧？公交车上的应援真的很漂亮呢？\n这次是我陪你度过的第五个生日了。最近过得好吗？吃饭怎么样？耳朵渐渐好些了吗？身体比以前健康了吗？我感受不到首尔的天气，只能通过网络看到你，满心都是对你的思念。就像月记说的那样，我很想知道 ueana 的生活，想到 ueana 在听这些话，就变得啰嗦起来了。我也是这样的。\n姐姐，说实话我的韩语不太好。时间会在姐姐的年龄上留下痕迹，所以希望时间能过得慢一些。但又因为想快点见到你，希望时间过得快一点。很矛盾吧？\n我们的知恩什么都能做好。我们这颗小珠子无论在哪里都闪闪发光呢。总是让我感到骄傲。真的做得很好！\n虽然姐姐不在身边，但与你共度的每一刻都很珍贵。我的生活因你而更加幸福，所以请不要说抱歉的话。就像姐姐经常对我说的那样，我也永远站在你这边。一步一步地，我们会一直在一起。\n千万要保重身体，让我们彼此尽力微笑吧！无论多远我都会跑着去见你。比我还充满爱意的应援先到你身边！请等待吧！希望你能一直幸福，做所有想做的事，拥有所有喜欢的东西。姐姐付出的汗水绝不会白费。姐姐的幸福就是我最大的幸福。愿一切顺利，得到上天的诸多福佑。我会一直为你祈祷。不仅是今晚，每个夜晚都要好好休息。\n知恩啊，在我一遍遍呼唤你的名字直到我们相遇的那一刻。\n你是我人生中仅有三分钟热情里的第 181 秒。即使重新投胎我也要做 ueana。谢谢你来到这个世界，感谢你的存在。我爱你",
      "post_time": "2025-05-18 15:45:03",
      "image_count": 0,
      "image_urls": null,
      "local_image_paths": null,
      "likes": 0,
      "comments": 0,
      "views": 0,
      "board": "Dear. IU",
      "members_only": 0,
      "author_username": "지은의현여자친구",
      "author_avatar": null,
      "author_local_avatar": null,
      "fan_comments": [],
      "direct_iu_replies": [
        {
          "id": 1814,
          "content_ko": "한국어 얘기하기 전까지 당연히 한국 분인 줄 알았어요 한국어 너무 잘해요 고마워요 🙂‍↕️💗",
          "content_zh": "直到提到韩语为止当然以为是韩国人。韩语真的很好。谢谢 🙂‍↕️💗",
          "image_count": 0,
          "image_urls": null,
          "local_image_paths": null,
          "replied_at": "2025-05-18 15:48:31"
        }
      ]
    },
    {
      "id": 979,
      "post_uuid": "0196e411-d126-0b38-8290-fc0ca741ceaf",
      "title_ko": null,
      "title_zh": null,
      "content_ko": "이번 앨범에서 특별히 좋아하는 노래가 있나요💕?",
      "content_zh": "这次专辑里有特别喜欢的歌吗💕？",
      "post_time": "2025-05-18 15:44:55",
      "image_count": 0,
      "image_urls": null,
      "local_image_paths": null,
      "likes": 0,
      "comments": 0,
      "views": 0,
      "board": "Dear. IU",
      "members_only": 0,
      "author_username": "Teddy",
      "author_avatar": null,
      "author_local_avatar": null,
      "fan_comments": [],
      "direct_iu_replies": [
        {
          "id": 1813,
          "content_ko": "유난히 한 곡만 고르기 어렵다 🥹",
          "content_zh": "唯独很难只选一首 🥹",
          "image_count": 0,
          "image_urls": null,
          "local_image_paths": null,
          "replied_at": "2025-05-18 15:49:15"
        }
      ]
    },
    {
      "id": 978,
      "post_uuid": "0196e411-b3ea-b439-ef1c-7ab6d73945ce",
      "title_ko": null,
      "title_zh": null,
      "content_ko": "언니는 왜 아직 잠을 자지 않습니까? 방금 일 끝났어요?",
      "content_zh": "姐姐为什么还不睡觉？刚忙完工作吗？",
      "post_time": "2025-05-18 15:44:47",
      "image_count": 0,
      "image_urls": null,
      "local_image_paths": null,
      "likes": 0,
      "comments": 0,
      "views": 0,
      "board": "Dear. IU",
      "members_only": 0,
      "author_username": "지은언니짱이야♡보니",
      "author_avatar": "https://dearimage.iu101.org/images/avatars/avatar_68.jpg",
      "author_local_avatar": "https://dearimage.iu101.org/images/avatars/avatar_68.jpg",
      "fan_comments": [],
      "direct_iu_replies": [
        {
          "id": 1812,
          "content_ko": "이제 곧 잘 예정입니다 내일은 쉬는 날이기 때문에 좀 천천히 자도 괜찮다😆",
          "content_zh": "现在马上要睡了。因为明天是休息日，可以慢慢睡😆",
          "image_count": 0,
          "image_urls": null,
          "local_image_paths": null,
          "replied_at": "2025-05-18 15:50:17"
        }
      ]
    },
    {
      "id": 977,
      "post_uuid": "0196e411-95ae-0bcd-765a-bdad22a45e5f",
      "title_ko": null,
      "title_zh": null,
      "content_ko": "꽃갈피 수록곡은 전부 온전히 지은이 픽인가요??\n추천 받거나 한 곡도 있어요??🤔",
      "content_zh": "花夹子收录曲全部都是知恩自己选的吗？？",
      "post_time": "2025-05-18 15:44:39",
      "image_count": 0,
      "image_urls": null,
      "local_image_paths": null,
      "likes": 0,
      "comments": 0,
      "views": 0,
      "board": "Dear. IU",
      "members_only": 0,
      "author_username": "지은이와좋은날",
      "author_avatar": "https://dearimage.iu101.org/images/avatars/avatar_33.jpeg",
      "author_local_avatar": "https://dearimage.iu101.org/images/avatars/avatar_33.jpeg",
      "fan_comments": [],
      "direct_iu_replies": [
        {
          "id": 1811,
          "content_ko": "추천 받은 곡도 있어요! 다음에 알려 줄게요🤫",
          "content_zh": "也有被推荐的歌! 下次告诉你🤫",
          "image_count": 0,
          "image_urls": null,
          "local_image_paths": null,
          "replied_at": "2025-05-18 15:51:05"
        }
      ]
    },
    {
      "id": 976,
      "post_uuid": "0196e411-7e01-823d-37bc-c6521138e09d",
      "title_ko": null,
      "title_zh": null,
      "content_ko": "I need to find a New Balance red sneakers because of youuu",
      "content_zh": "I need to find a New Balance red sneakers because of youuu",
      "post_time": "2025-05-18 15:44:33",
      "image_count": 0,
      "image_urls": null,
      "local_image_paths": null,
      "likes": 0,
      "comments": 0,
      "views": 0,
      "board": "Dear. IU",
      "members_only": 0,
      "author_username": "apauro",
      "author_avatar": null,
      "author_local_avatar": null,
      "fan_comments": [],
      "direct_iu_replies": [
        {
          "id": 1810,
          "content_ko": "A friend below you found it 😆👇",
          "content_zh": "下面的一位朋友找到了 😆👇",
          "image_count": 0,
          "image_urls": null,
          "local_image_paths": null,
          "replied_at": "2025-05-18 15:53:43"
        }
      ]
    },
    {
      "id": 975,
      "post_uuid": "0196e411-4c98-cf5e-6187-518960b0637e",
      "title_ko": null,
      "title_zh": null,
      "content_ko": "출근해야해서 자야하는데 티저보고 베리즈보느라\n못자겠어😵‍💫😵‍💫",
      "content_zh": "因为要上班得睡觉，但看了预告片又想看 Vlive",
      "post_time": "2025-05-18 15:44:21",
      "image_count": 0,
      "image_urls": null,
      "local_image_paths": null,
      "likes": 0,
      "comments": 0,
      "views": 0,
      "board": "Dear. IU",
      "members_only": 0,
      "author_username": "순2",
      "author_avatar": null,
      "author_local_avatar": null,
      "fan_comments": [],
      "direct_iu_replies": [
        {
          "id": 1809,
          "content_ko": "얼른 자 베리즈는 내일도 올 거야 🤫",
          "content_zh": "快睡吧 Berries明天也会来的 🤫",
          "image_count": 0,
          "image_urls": null,
          "local_image_paths": null,
          "replied_at": "2025-05-18 15:54:35"
        }
      ]
    }
  ]
}
