{
  "page": 5,
  "totalPages": 45,
  "total": 895,
  "data": [
    {
      "id": 111,
      "post_uuid": "019a27c9-a082-8838-03eb-a77adb187c24",
      "title_ko": null,
      "title_zh": null,
      "content_ko": "언니 어제 새알 단호박죽 먹었어요??",
      "content_zh": "姐姐昨天吃了小米南瓜粥吗？？",
      "post_time": "2025-10-27 22:28:36",
      "image_count": 0,
      "image_urls": null,
      "local_image_paths": null,
      "likes": 0,
      "comments": 0,
      "views": 0,
      "board": "Dear. IU",
      "members_only": 0,
      "author_username": "김서아",
      "author_avatar": "https://dearimage.iu101.org/images/avatars/avatar_53.jpeg",
      "author_local_avatar": "https://dearimage.iu101.org/images/avatars/avatar_53.jpeg",
      "fan_comments": [],
      "direct_iu_replies": [
        {
          "id": 585,
          "content_ko": "응..🫶 새알도 추가해서",
          "content_zh": "嗯..🫶 加上鸟蛋",
          "image_count": 0,
          "image_urls": null,
          "local_image_paths": null,
          "replied_at": "2025-10-27 22:29:29"
        }
      ]
    },
    {
      "id": 110,
      "post_uuid": "019a27c9-3235-b9b1-ecfd-9ea1d592a98f",
      "title_ko": null,
      "title_zh": null,
      "content_ko": "오늘 헤메샵 출근 복장은 두툼한 체크셔츠죠?👔 신발은 흰색 통굽 슬리퍼죠?👡 아침 식사는 김밥이죠?🍚 잠이 들 깨서 한쪽 눈은 아직 반쯤 감겼죠?😉 촬영 장소는 스튜디오죠?😖 제 촉이 진짜 대단하죠?😌 복채는 맞춘 개수만큼 사진을 받겠습니다 엣헴~~🥴",
      "content_zh": "今天 Heme Shop 上班的穿搭是厚格子衬衫对吧？👟 白色厚底拖鞋对吧？ rice roll 作为早餐对吧？ 😴睡醒后一只眼睛还半睁着对吧？ 😉拍摄地点是摄影棚对吧？ 😖我的直觉真的很准对吧？😌 猜对几个就拿几张照片，嗯哼～🥴",
      "post_time": "2025-10-27 22:28:08",
      "image_count": 0,
      "image_urls": null,
      "local_image_paths": null,
      "likes": 0,
      "comments": 0,
      "views": 0,
      "board": "Dear. IU",
      "members_only": 0,
      "author_username": "미니언",
      "author_avatar": "https://dearimage.iu101.org/images/avatars/avatar_89.gif",
      "author_local_avatar": "https://dearimage.iu101.org/images/avatars/avatar_89.gif",
      "fan_comments": [],
      "direct_iu_replies": [
        {
          "id": 584,
          "content_ko": "와! 진짜! 한 개도! 못 맞혔어..!! 와! 너무 신기해!! 😍",
          "content_zh": "哇！真的！一个都没猜对..！！哇！太神奇了！！😍",
          "image_count": 0,
          "image_urls": null,
          "local_image_paths": null,
          "replied_at": "2025-10-27 22:30:40"
        }
      ]
    },
    {
      "id": 109,
      "post_uuid": "019a27bf-d625-4cf3-0443-dc91b64608e9",
      "title_ko": null,
      "title_zh": null,
      "content_ko": "지은! 지금모해!",
      "content_zh": "知恩！现在在做什么！",
      "post_time": "2025-10-27 22:17:54",
      "image_count": 0,
      "image_urls": null,
      "local_image_paths": null,
      "likes": 0,
      "comments": 0,
      "views": 0,
      "board": "Dear. IU",
      "members_only": 0,
      "author_username": "까치까치",
      "author_avatar": null,
      "author_local_avatar": null,
      "fan_comments": [],
      "direct_iu_replies": [
        {
          "id": 583,
          "content_ko": "메이크업 중이야 까치야!",
          "content_zh": "化妆中呢喜鹊！",
          "image_count": 0,
          "image_urls": null,
          "local_image_paths": null,
          "replied_at": "2025-10-27 22:38:58"
        }
      ]
    },
    {
      "id": 108,
      "post_uuid": "019a27bd-2fec-c0aa-f0bf-2f697630d182",
      "title_ko": null,
      "title_zh": null,
      "content_ko": "언니 이거 진짜 뭐예요…?😦😦😦",
      "content_zh": "姐姐这个真的什么情况…？😦😦😦",
      "post_time": "2025-10-27 22:15:01",
      "image_count": 1,
      "image_urls": "https://dearimage.iu101.org/images/remote/post_108_0.jpeg",
      "local_image_paths": "https://dearimage.iu101.org/images/posts/post_108_165304238.jpeg",
      "likes": 0,
      "comments": 0,
      "views": 0,
      "board": "Dear. IU",
      "members_only": 0,
      "author_username": "우리집알감자",
      "author_avatar": "https://dearimage.iu101.org/images/avatars/avatar_44.jpeg",
      "author_local_avatar": "https://dearimage.iu101.org/images/avatars/avatar_44.jpeg",
      "fan_comments": [],
      "direct_iu_replies": [
        {
          "id": 582,
          "content_ko": "ㅋㅋ기장 피스!!",
          "content_zh": "哈哈基长piece！！",
          "image_count": 0,
          "image_urls": null,
          "local_image_paths": null,
          "replied_at": "2025-10-27 22:42:44"
        }
      ]
    },
    {
      "id": 115,
      "post_uuid": "019a27ac-f25f-6cfa-6390-9a6781dd4594",
      "title_ko": null,
      "title_zh": null,
      "content_ko": "언니 귀도리 챙겼어???!!\n나 무지 궁금한데 보여줄 수 있어요?????\n귀도리가 기엽나 이지은이 기엽나 봐야겠어\n아무래도 귀도리를 한 언니가ㅜ귀엽겠지ㅠㅠ",
      "content_zh": "姐姐戴了发箍吗？！\n我超级好奇，能给我看看吗？？？\n得看看是发箍可爱还是李知恩可爱\n反正戴了发箍的姐姐应该很可爱吧ㅠㅠ",
      "post_time": "2025-10-27 21:57:17",
      "image_count": 0,
      "image_urls": null,
      "local_image_paths": null,
      "likes": 0,
      "comments": 0,
      "views": 0,
      "board": "Dear. IU",
      "members_only": 0,
      "author_username": "영아",
      "author_avatar": "https://dearimage.iu101.org/images/avatars/avatar_88.jpg",
      "author_local_avatar": "https://dearimage.iu101.org/images/avatars/avatar_88.jpg",
      "fan_comments": [],
      "direct_iu_replies": [
        {
          "id": 589,
          "content_ko": "아.. 귀도리.. 잃어버렸다..",
          "content_zh": "啊..耳钉..弄丢了..",
          "image_count": 0,
          "image_urls": null,
          "local_image_paths": null,
          "replied_at": "2025-10-27 22:04:28"
        }
      ]
    },
    {
      "id": 114,
      "post_uuid": "019a27a0-2153-c0a1-e1ff-9faa9a70a044",
      "title_ko": null,
      "title_zh": null,
      "content_ko": "언니가 음악을 듣는 타이밍은 어떤 때야~⁇",
      "content_zh": "姐姐什么时候听音乐~⁇",
      "post_time": "2025-10-27 21:43:17",
      "image_count": 0,
      "image_urls": null,
      "local_image_paths": null,
      "likes": 0,
      "comments": 0,
      "views": 0,
      "board": "Dear. IU",
      "members_only": 0,
      "author_username": "♡토와♡",
      "author_avatar": "https://dearimage.iu101.org/images/avatars/avatar_215.jpeg",
      "author_local_avatar": "https://dearimage.iu101.org/images/avatars/avatar_215.jpeg",
      "fan_comments": [],
      "direct_iu_replies": [
        {
          "id": 588,
          "content_ko": "촬영 멀리 갔다가 퇴근하면서 집에 돌아가는 길?",
          "content_zh": "拍摄去了远地方然后下班回家的路上？",
          "image_count": 0,
          "image_urls": null,
          "local_image_paths": null,
          "replied_at": "2025-10-27 22:05:42"
        }
      ]
    },
    {
      "id": 113,
      "post_uuid": "019a2692-696f-06e9-4e2a-ecf01fa969c8",
      "title_ko": null,
      "title_zh": null,
      "content_ko": "언니는 커피를 못마신다고 했잖아 그러면 평소에 어떤 음료를 마셔요?",
      "content_zh": "姐姐说不能喝咖啡，那平时喝什么饮料？",
      "post_time": "2025-10-27 16:48:40",
      "image_count": 0,
      "image_urls": null,
      "local_image_paths": null,
      "likes": 0,
      "comments": 0,
      "views": 0,
      "board": "Dear. IU",
      "members_only": 0,
      "author_username": "지은언니여동생",
      "author_avatar": null,
      "author_local_avatar": null,
      "fan_comments": [],
      "direct_iu_replies": [
        {
          "id": 587,
          "content_ko": "미숫가루나 핫초코 딸기라떼?!",
          "content_zh": "麦麸粉还是热巧克力草莓拿铁？！",
          "image_count": 0,
          "image_urls": null,
          "local_image_paths": null,
          "replied_at": "2025-10-27 22:08:48"
        }
      ]
    },
    {
      "id": 112,
      "post_uuid": "019a268c-ba4e-7ce2-65f0-4f9d2a2e53b8",
      "title_ko": null,
      "title_zh": null,
      "content_ko": "언니~ 잘자고 있나요?\n저는 뭐가 그렇게 불안한지 잠에 들기가 어렵네요..\n멍하니 있다보니.. 언니가 생각이 나고\n언니는 걱정 불안 없이 푹 잤으면 하는 마음이 들어서\n몇 자 남겨보려고 왔어요\n가끔 복잡해질땐 단순하게 생각하는 법도 필요한 것 같아요. 언니의 되도록 많이 행복하라는 행복의 주문을 생각하며 최대한 자봐야겠어요 잘자요💜\n",
      "content_zh": "姐姐~ 你睡得好吗？\n我也不知道为什么这么不安，很难入睡..\n呆呆地待着的时候.. 就会想起姐姐\n希望姐姐能无忧无虑地好好睡觉\n所以想留几句话给你\n有时候复杂的时候，也需要学会简单思考的方法。想着对姐姐说的幸福咒语——希望你尽可能多地获得幸福，我也要尽量好好睡觉了。晚安💜",
      "post_time": "2025-10-27 16:42:28",
      "image_count": 0,
      "image_urls": null,
      "local_image_paths": null,
      "likes": 0,
      "comments": 0,
      "views": 0,
      "board": "Dear. IU",
      "members_only": 0,
      "author_username": "효아",
      "author_avatar": null,
      "author_local_avatar": null,
      "fan_comments": [],
      "direct_iu_replies": [
        {
          "id": 586,
          "content_ko": "지금은 잘 자고 있길 😴❤️",
          "content_zh": "现在好好睡觉呢 😴❤️",
          "image_count": 0,
          "image_urls": null,
          "local_image_paths": null,
          "replied_at": "2025-10-27 22:09:25"
        }
      ]
    },
    {
      "id": 118,
      "post_uuid": "0199ede1-223c-1b1f-3fd6-22d107a346f0",
      "title_ko": null,
      "title_zh": null,
      "content_ko": "잘 자요 저도 자러 갈게요 \n새벽에 깨면 또 놀자 \n늦잠 자지 않게 알람 잘 맞춰 놓구!\n내일 또 놀러 올게 다들 숙면해 🩷 쪽",
      "content_zh": "晚安，我也要去睡觉了。\n凌晨醒来的话再玩吧。\n别睡懒觉，记得调好闹钟哦！\n明天还会再来玩的，大家好好休息吧 🩷",
      "post_time": "2025-10-16 16:36:18",
      "image_count": 0,
      "image_urls": null,
      "local_image_paths": null,
      "likes": 0,
      "comments": 0,
      "views": 0,
      "board": "Dear. IU",
      "members_only": 0,
      "author_username": "아이유",
      "author_avatar": "https://dearimage.iu101.org/images/iu-avatar.jpg",
      "author_local_avatar": null,
      "fan_comments": [],
      "direct_iu_replies": [
        {
          "id": 643,
          "content_ko": "잘 자요 저도 자러 갈게요 \n새벽에 깨면 또 놀자 \n늦잠 자지 않게 알람 잘 맞춰 놓구!\n내일 또 놀러 올게 다들 숙면해 🩷 쪽",
          "content_zh": "晚安，我也要去睡觉了。\n凌晨醒来的话再玩吧。\n别睡懒觉，闹钟要设好哦！\n明天再来找你们玩，大家好好休息吧 🩷 嘟嘴",
          "image_count": 0,
          "image_urls": null,
          "local_image_paths": null,
          "replied_at": "2025-10-16 16:36:18"
        },
        {
          "id": 642,
          "content_ko": "진짜로 아이폰 자판이 이상한 듯🙄",
          "content_zh": "真的iPhone键盘很奇怪呢🙄",
          "image_count": 0,
          "image_urls": null,
          "local_image_paths": null,
          "replied_at": "2025-10-17 04:43:36"
        },
        {
          "id": 641,
          "content_ko": "아.. 이건 내 실수 맞음..🫨",
          "content_zh": "啊..这个确实是我的错误..🫨",
          "image_count": 0,
          "image_urls": null,
          "local_image_paths": null,
          "replied_at": "2025-10-17 04:44:50"
        },
        {
          "id": 640,
          "content_ko": "지금 앎..",
          "content_zh": "现在知道了..",
          "image_count": 0,
          "image_urls": null,
          "local_image_paths": null,
          "replied_at": "2025-10-17 04:45:20"
        },
        {
          "id": 639,
          "content_ko": "오늘은 다른 스케줄이에요! 🥱",
          "content_zh": "今天有其他日程！🥱",
          "image_count": 0,
          "image_urls": null,
          "local_image_paths": null,
          "replied_at": "2025-10-17 04:46:07"
        },
        {
          "id": 638,
          "content_ko": "출근 중 ~.~",
          "content_zh": "上班中～.～",
          "image_count": 0,
          "image_urls": null,
          "local_image_paths": null,
          "replied_at": "2025-10-17 04:47:21"
        },
        {
          "id": 637,
          "content_ko": "오늘 희주 아니라서 없다~~🙂‍↕️",
          "content_zh": "今天不是熙珠，所以没有~~🙂‍↕️",
          "image_count": 0,
          "image_urls": null,
          "local_image_paths": null,
          "replied_at": "2025-10-17 04:49:18"
        }
      ]
    },
    {
      "id": 119,
      "post_uuid": "0199edce-3c26-6641-6c9b-8d8040f8892a",
      "title_ko": null,
      "title_zh": null,
      "content_ko": "언니～지금 폭싹 한 장면 캡처해서 보여주면,\n그게 어느 장면인지 알아볼 수 있어요~? 🍊\n저는 할 수 있을 것 같아요! 이미 N 번은 봤거든요🤩저는 진짜 폭싹이랑 언니 찐팬이에요💗",
      "content_zh": "姐姐～如果现在截个爆笑片段给你看，\n你能认出是哪一段吗？🍊\n我觉得我可以！已经看了 N 遍了🤩 我可是真真的爆笑和姐姐的铁粉哦💗",
      "post_time": "2025-10-16 16:15:40",
      "image_count": 0,
      "image_urls": null,
      "local_image_paths": null,
      "likes": 0,
      "comments": 0,
      "views": 0,
      "board": "Dear. IU",
      "members_only": 0,
      "author_username": "우함Yvonne",
      "author_avatar": null,
      "author_local_avatar": null,
      "fan_comments": [],
      "direct_iu_replies": [
        {
          "id": 644,
          "content_ko": "당연 가능할 것 같음 !",
          "content_zh": "当然应该可以！",
          "image_count": 0,
          "image_urls": null,
          "local_image_paths": null,
          "replied_at": "2025-10-16 16:18:01"
        }
      ]
    },
    {
      "id": 121,
      "post_uuid": "0199edc5-e048-8cec-a33a-1ef88cf9851f",
      "title_ko": null,
      "title_zh": null,
      "content_ko": "언니 오늘은 무슨 스케줄이었어요? 너무 궁그메요",
      "content_zh": "姐姐今天有什么日程啊？太好奇了",
      "post_time": "2025-10-16 16:06:32",
      "image_count": 0,
      "image_urls": null,
      "local_image_paths": null,
      "likes": 0,
      "comments": 0,
      "views": 0,
      "board": "Dear. IU",
      "members_only": 0,
      "author_username": "경민이",
      "author_avatar": "https://dearimage.iu101.org/images/avatars/avatar_186.jpeg",
      "author_local_avatar": "https://dearimage.iu101.org/images/avatars/avatar_186.jpeg",
      "fan_comments": [],
      "direct_iu_replies": [
        {
          "id": 646,
          "content_ko": "오늘 뭐 배우러 가는 일정이었어요!",
          "content_zh": "今天是去学习什么的日程！",
          "image_count": 0,
          "image_urls": null,
          "local_image_paths": null,
          "replied_at": "2025-10-16 16:08:29"
        }
      ]
    },
    {
      "id": 120,
      "post_uuid": "0199edc5-cd21-37e2-98f2-ea4441c745b6",
      "title_ko": null,
      "title_zh": null,
      "content_ko": "와, 너무 좋다! Part 2 도 나왔네요!\n언니~ 저는 언니의 합주 비하인드 보는 걸 진짜 좋아해요😻\n일하시는 언니의 모습이 진짜 너무 멋있어요!\n그리고 뭐랄까⋯⋯ 너무 설레요💓\n합주하실 때도 설레고, 회의하실 때도 설레요💞\n무대 위의 언니와는 또 다른 매력이 있어서\n저는 그 모든 모습이 다 좋아요😍\n언니, 제가 제일 사랑해요❤️\n\n그리고 마이크랑 인이어에 대해서\n진짜 친절하게 설명해 주셔서 감사했어요!\n덕분에 하나 배웠어요!\n그런데⋯⋯ ‘썸머’🎤는 지금 괜찮아요?🥹\n설마 진짜 “BYE~~👋썸머”가 된 건 아니겠죠?🥹\n\n언니 언니~ 제가 몰래 말씀드릴게요,\n‘썸머’한테는 비밀이에요🤫\n사실 저도 은색 마이크가 더 좋더라구요🥹\n제가 전문가는 아니지만, 그냥 들을 때 느낌이\n은색 마이크 쪽이 더 마음에 들어요🥹\n\n근데 진짜 신기한 것 같아요!\n똑같이 커스텀으로 만든 마이크랑 인이어인데\n각자 성격이 그렇게 다르다니요!\n왜 그런 걸까요?😲\n만약 한 번에 여러 개를 주문하면,\n그 마이크들이나 인이어들도 전부 개성이 다를까요?😮\n아니면 복제된 쌍둥이처럼 거의 똑같을까요?😮",
      "content_zh": "哇，太好了！Part 2 也出来了呢！\n姐姐～我真的很喜欢看姐姐的合奏幕后花絮😻\n工作中的姐姐真的太帅了！\n然后怎么说呢……太让人心动了💓\n合奏的时候让人心动，开会的时候也让人心动💞\n舞台上的姐姐和私下又有不同的魅力\n我就是喜欢姐姐所有的样子😍\n姐姐，我最爱你了❤️\n\n还有关于麦克风和入耳监听器\n您真的非常亲切地给我讲解了，谢谢！\n因此我也学到了一些！\n不过……\"Summer\"🎤现在还好吗？🥹\n不会真的变成\"BYE~~👋Summer\"了吧？🥹\n\n姐姐姐姐～我悄悄跟您说哦，\n这件事对'Summer'要保密🤫\n其实我也更喜欢银色麦克风呢🥹\n虽然我不是专业人士，但只是听的感觉\n银色麦克风那边听起来更让我心动呢🥹\n\n不过真的觉得很神奇！\n明明是同样定制制作的麦克风和入耳监听器\n各自的个性却这么不同！\n为什么会这样呢？😲\n如果一次性订购多个的话，\n那些麦克风或入耳监听器也会全部都有不同的个性吗？😮\n还是会像克隆双胞胎一样几乎完全相同呢？😮",
      "post_time": "2025-10-16 16:06:27",
      "image_count": 1,
      "image_urls": "https://dearimage.iu101.org/images/posts/post_120_394798498.jpeg",
      "local_image_paths": "https://dearimage.iu101.org/images/posts/post_120_394798498.jpeg",
      "likes": 0,
      "comments": 0,
      "views": 0,
      "board": "Dear. IU",
      "members_only": 0,
      "author_username": "황샤오츄Dionus1996",
      "author_avatar": "https://dearimage.iu101.org/images/avatars/avatar_80.jpeg",
      "author_local_avatar": "https://dearimage.iu101.org/images/avatars/avatar_80.jpeg",
      "fan_comments": [],
      "direct_iu_replies": [
        {
          "id": 645,
          "content_ko": "마이크마다 착붙인 장르가 따로 있는 것 같아요 이번 공연에서 썸머는 깔끔한 소리로 잘해줬어요 앞으로도 무대에서 종종 볼 수 있을 거예요!",
          "content_zh": "每个麦克风似乎都有各自擅长的曲风，这次演出中Summer用清澈的声音表现得很棒，以后在舞台上也经常会看到她吧！",
          "image_count": 0,
          "image_urls": null,
          "local_image_paths": null,
          "replied_at": "2025-10-16 16:11:56"
        }
      ]
    },
    {
      "id": 125,
      "post_uuid": "0199edbb-eb5a-33c3-067d-5dffdfbd63ad",
      "title_ko": null,
      "title_zh": null,
      "content_ko": "졸려요💤 언니 일찍 자요~ 저 자러 갈게요! 안녕히 주무셔요!😴🥱",
      "content_zh": "困了💤 姐姐早点睡~我去睡觉了！晚安！😴🥱",
      "post_time": "2025-10-16 15:55:39",
      "image_count": 0,
      "image_urls": null,
      "local_image_paths": null,
      "likes": 0,
      "comments": 0,
      "views": 0,
      "board": "Dear. IU",
      "members_only": 0,
      "author_username": "ZIULEN숭아",
      "author_avatar": null,
      "author_local_avatar": null,
      "fan_comments": [],
      "direct_iu_replies": [
        {
          "id": 650,
          "content_ko": "잘 자아~~~! 나도 일찍 잘 거야!",
          "content_zh": "晚安～～～！我也早点睡！",
          "image_count": 0,
          "image_urls": null,
          "local_image_paths": null,
          "replied_at": "2025-10-16 15:57:44"
        }
      ]
    },
    {
      "id": 124,
      "post_uuid": "0199edb5-9d00-e2a5-953d-49e915416220",
      "title_ko": null,
      "title_zh": null,
      "content_ko": "언니이~ 볼살 어떻게 빼요??☹️\n내 얼굴이 좀 동그래요ㅎㅎㅎㅎ",
      "content_zh": "姐姐~脸上的肉怎么减掉??☹️",
      "post_time": "2025-10-16 15:48:46",
      "image_count": 0,
      "image_urls": null,
      "local_image_paths": null,
      "likes": 0,
      "comments": 0,
      "views": 0,
      "board": "Dear. IU",
      "members_only": 0,
      "author_username": "zhannnah_쯔한",
      "author_avatar": null,
      "author_local_avatar": null,
      "fan_comments": [],
      "direct_iu_replies": [
        {
          "id": 649,
          "content_ko": "나이 먹으면 자연스럽게 빠져! ",
          "content_zh": "年纪大了自然就戒掉了！",
          "image_count": 0,
          "image_urls": null,
          "local_image_paths": null,
          "replied_at": "2025-10-16 15:59:42"
        }
      ]
    },
    {
      "id": 123,
      "post_uuid": "0199eda5-3d64-d974-0e39-d6623835518c",
      "title_ko": null,
      "title_zh": null,
      "content_ko": "언니! 뭐해???? 난 이제 자려구 누웠어 언니~~~잘 자😘",
      "content_zh": "姐姐！在做什么????我要去睡觉了，姐姐~~~晚安😘",
      "post_time": "2025-10-16 15:30:53",
      "image_count": 0,
      "image_urls": null,
      "local_image_paths": null,
      "likes": 0,
      "comments": 0,
      "views": 0,
      "board": "Dear. IU",
      "members_only": 0,
      "author_username": "째리",
      "author_avatar": null,
      "author_local_avatar": null,
      "fan_comments": [],
      "direct_iu_replies": [
        {
          "id": 648,
          "content_ko": "나두야 잘 자라고 인사하러 왔어",
          "content_zh": "我也来跟你说晚安",
          "image_count": 0,
          "image_urls": null,
          "local_image_paths": null,
          "replied_at": "2025-10-16 16:01:26"
        }
      ]
    },
    {
      "id": 122,
      "post_uuid": "0199ed9e-7bdf-0596-87f8-8308bf607743",
      "title_ko": null,
      "title_zh": null,
      "content_ko": "언니 저 어떤 글 보다가 언니는 우리가 알고 있는 것보다 훨씬 더 좋은 사람이란 생각이 또 들어서(당연한 얘기) 너무 뻐렁쳐서 디어유 달려왔어요.. 언니랑 한 시대를 같이 살아간다는 게 너무 좋아요 사랑해요😀🩷",
      "content_zh": "姐姐，我刚才看某篇文章的时候，又觉得姐姐比我们所知道的还要好得多（这是理所当然的话），感动得不得了，所以赶紧跑来 DearU 了……能和姐姐生活在同一个时代真的太好了，我爱你😀🩷",
      "post_time": "2025-10-16 15:23:30",
      "image_count": 0,
      "image_urls": null,
      "local_image_paths": null,
      "likes": 0,
      "comments": 0,
      "views": 0,
      "board": "Dear. IU",
      "members_only": 0,
      "author_username": "삐약아현",
      "author_avatar": "https://dearimage.iu101.org/images/avatars/avatar_111.gif",
      "author_local_avatar": "https://dearimage.iu101.org/images/avatars/avatar_111.gif",
      "fan_comments": [],
      "direct_iu_replies": [
        {
          "id": 647,
          "content_ko": "Khasto 라는 브랜드 🥰",
          "content_zh": "Khasto这个品牌 🥰",
          "image_count": 0,
          "image_urls": null,
          "local_image_paths": null,
          "replied_at": "2025-10-16 16:05:11"
        }
      ]
    },
    {
      "id": 136,
      "post_uuid": "0199d533-a5e7-eef5-62d2-e2ccfdeba531",
      "title_ko": null,
      "title_zh": null,
      "content_ko": "언니 오늘 아침은 사과랑 묵참 중에 뭐 먹었어?",
      "content_zh": "姐姐今天早餐在苹果和黑豆茶中吃了哪个？",
      "post_time": "2025-10-11 21:35:55",
      "image_count": 0,
      "image_urls": null,
      "local_image_paths": null,
      "likes": 0,
      "comments": 0,
      "views": 0,
      "board": "Dear. IU",
      "members_only": 0,
      "author_username": "제비꽃주스꿈",
      "author_avatar": null,
      "author_local_avatar": null,
      "fan_comments": [],
      "direct_iu_replies": [
        {
          "id": 663,
          "content_ko": "오늘은 입맛이 없어서 아침은 패스하려고!",
          "content_zh": "今天没胃口想跳过早餐！",
          "image_count": 0,
          "image_urls": null,
          "local_image_paths": null,
          "replied_at": "2025-10-11 21:38:36"
        }
      ]
    },
    {
      "id": 135,
      "post_uuid": "0199d533-8178-72d2-9569-7535a4d273bc",
      "title_ko": null,
      "title_zh": null,
      "content_ko": "언니는 사생활에서는 자주 화장해요? 아니면 선크림만 발라요?👶🏻",
      "content_zh": "姐姐私底下经常化妆吗？还是只涂防晒霜？👶🏻",
      "post_time": "2025-10-11 21:35:46",
      "image_count": 0,
      "image_urls": null,
      "local_image_paths": null,
      "likes": 0,
      "comments": 0,
      "views": 0,
      "board": "Dear. IU",
      "members_only": 0,
      "author_username": "채현^ㅅ^",
      "author_avatar": "https://dearimage.iu101.org/images/avatars/avatar_366.jpeg",
      "author_local_avatar": "https://dearimage.iu101.org/images/avatars/avatar_366.jpeg",
      "fan_comments": [],
      "direct_iu_replies": [
        {
          "id": 662,
          "content_ko": "일 안 할 때는 화장 잘 안 하게 돼요!",
          "content_zh": "不工作的时候就不怎么化妆了！",
          "image_count": 0,
          "image_urls": null,
          "local_image_paths": null,
          "replied_at": "2025-10-11 21:40:46"
        }
      ]
    },
    {
      "id": 134,
      "post_uuid": "0199d533-5ae1-b24a-b245-60b1164a7117",
      "title_ko": null,
      "title_zh": null,
      "content_ko": "지은아, 너를 대표하는 이모지는 🐥잖아.\n나를 대신할 이모지도 하나 골라줄래?",
      "content_zh": "知恩啊，代表你的表情符号是🐥。",
      "post_time": "2025-10-11 21:35:36",
      "image_count": 0,
      "image_urls": null,
      "local_image_paths": null,
      "likes": 0,
      "comments": 0,
      "views": 0,
      "board": "Dear. IU",
      "members_only": 0,
      "author_username": "파김치",
      "author_avatar": "https://dearimage.iu101.org/images/avatars/avatar_39.jpeg",
      "author_local_avatar": "https://dearimage.iu101.org/images/avatars/avatar_39.jpeg",
      "fan_comments": [],
      "direct_iu_replies": [
        {
          "id": 661,
          "content_ko": "✌️",
          "content_zh": "✌️",
          "image_count": 0,
          "image_urls": null,
          "local_image_paths": null,
          "replied_at": "2025-10-11 21:41:41"
        }
      ]
    },
    {
      "id": 133,
      "post_uuid": "0199d533-4030-ede3-9d52-8859d47c3438",
      "title_ko": null,
      "title_zh": null,
      "content_ko": "언니 오늘 나의 생일이야!!생일 축하 말 말해줄래?🥺\n그리고 저녁 추천 해 주세요! 혼자 먹고 해야 돼ㅠㅠ\n나 혼자 한국에서 살아요….친구가 없었어…..",
      "content_zh": "姐姐，今天是我生日！！能祝我生日快乐吗？🥺\n还有请推荐一下晚餐！我要一个人吃ㅠㅠ\n我在韩国一个人生活……没有朋友…..",
      "post_time": "2025-10-11 21:35:29",
      "image_count": 0,
      "image_urls": null,
      "local_image_paths": null,
      "likes": 0,
      "comments": 0,
      "views": 0,
      "board": "Dear. IU",
      "members_only": 0,
      "author_username": "후이팅",
      "author_avatar": null,
      "author_local_avatar": null,
      "fan_comments": [],
      "direct_iu_replies": [
        {
          "id": 660,
          "content_ko": "생일 축하해 뿌이핑 🥳🎂\n저녁은 스테이크덮밥이나 잔치국수 어때? ",
          "content_zh": "生日快乐 puffing 🥳🎂",
          "image_count": 0,
          "image_urls": null,
          "local_image_paths": null,
          "replied_at": "2025-10-11 21:43:48"
        }
      ]
    }
  ]
}
