{
  "page": 40,
  "totalPages": 45,
  "total": 895,
  "data": [
    {
      "id": 881,
      "post_uuid": "0197108f-81b2-709e-c1a6-b74f8c245273",
      "title_ko": null,
      "title_zh": null,
      "content_ko": "언니, 내가 그린 거 어때요? 언니한테 칭찬 듣고 싶어~🤩🤩🤩",
      "content_zh": "姐姐，我画的怎么样？想得到姐姐的夸奖~🤩🤩🤩",
      "post_time": "2025-05-27 07:05:29",
      "image_count": 1,
      "image_urls": "https://dearimage.iu101.org/images/posts/post_881_711461150.jpeg",
      "local_image_paths": "https://dearimage.iu101.org/images/posts/post_881_711461150.jpeg",
      "likes": 0,
      "comments": 0,
      "views": 0,
      "board": "Dear. IU",
      "members_only": 0,
      "author_username": "♡李知金사랑IU的CuiCui",
      "author_avatar": "https://dearimage.iu101.org/images/avatars/avatar_309.jpeg",
      "author_local_avatar": "https://dearimage.iu101.org/images/avatars/avatar_309.jpeg",
      "fan_comments": [],
      "direct_iu_replies": [
        {
          "id": 1713,
          "content_ko": "완전 느낌 있어🥴",
          "content_zh": "很有感觉🥴",
          "image_count": 0,
          "image_urls": null,
          "local_image_paths": null,
          "replied_at": "2025-05-27 07:05:59"
        }
      ]
    },
    {
      "id": 880,
      "post_uuid": "0197108f-7e43-d4f5-821f-fb31862ed46a",
      "title_ko": null,
      "title_zh": null,
      "content_ko": "지금 주변에 뭐가 보이죠?",
      "content_zh": "现在周围能看到什么？",
      "post_time": "2025-05-27 07:05:28",
      "image_count": 0,
      "image_urls": null,
      "local_image_paths": null,
      "likes": 0,
      "comments": 0,
      "views": 0,
      "board": "Dear. IU",
      "members_only": 0,
      "author_username": "하이!애나",
      "author_avatar": null,
      "author_local_avatar": null,
      "fan_comments": [],
      "direct_iu_replies": [
        {
          "id": 1712,
          "content_ko": "분주히 움직이는 바쁜 사람들... 🫨",
          "content_zh": "忙碌奔波的人们... 🫨",
          "image_count": 0,
          "image_urls": null,
          "local_image_paths": null,
          "replied_at": "2025-05-27 07:08:10"
        }
      ]
    },
    {
      "id": 879,
      "post_uuid": "0197108f-6f4a-329b-010b-250e544c534e",
      "title_ko": null,
      "title_zh": null,
      "content_ko": "언니 점심에 뭐 먹었냐고요? 저녁 추천 좀 해주세요.",
      "content_zh": "姐姐中午吃了什么？推荐一下晚餐吧。",
      "post_time": "2025-05-27 07:05:25",
      "image_count": 0,
      "image_urls": null,
      "local_image_paths": null,
      "likes": 0,
      "comments": 0,
      "views": 0,
      "board": "Dear. IU",
      "members_only": 0,
      "author_username": "지은의현여자친구",
      "author_avatar": null,
      "author_local_avatar": null,
      "fan_comments": [],
      "direct_iu_replies": [
        {
          "id": 1711,
          "content_ko": "점심은 어쩌다보니 거르게 됐네 🤫 \n저녁은..... 냉면 어떨까요? 아니면~~~ (나한텐) 오랜만에 떡볶이?!",
          "content_zh": "午餐不知不觉就错过了 🤫 晚餐的话..... 冷面怎么样？还是~~~ (对我来说)久违的炒年糕？！",
          "image_count": 0,
          "image_urls": null,
          "local_image_paths": null,
          "replied_at": "2025-05-27 07:11:21"
        }
      ]
    },
    {
      "id": 878,
      "post_uuid": "0197108f-58eb-2176-22a9-d9e5b7786d53",
      "title_ko": null,
      "title_zh": null,
      "content_ko": "언니 오늘 좋은 날이지, 그렇지?🥹",
      "content_zh": "姐姐今天是好日子对吧，对吧？🥹",
      "post_time": "2025-05-27 07:05:19",
      "image_count": 0,
      "image_urls": null,
      "local_image_paths": null,
      "likes": 0,
      "comments": 0,
      "views": 0,
      "board": "Dear. IU",
      "members_only": 0,
      "author_username": "IU의소고",
      "author_avatar": "https://dearimage.iu101.org/images/avatars/avatar_190.jpeg",
      "author_local_avatar": "https://dearimage.iu101.org/images/avatars/avatar_190.jpeg",
      "fan_comments": [],
      "direct_iu_replies": [
        {
          "id": 1710,
          "content_ko": "오늘 날씨가 정말 좋아!! 😆😆",
          "content_zh": "今天天气真的很好!! 😆😆",
          "image_count": 0,
          "image_urls": null,
          "local_image_paths": null,
          "replied_at": "2025-05-27 07:11:49"
        }
      ]
    },
    {
      "id": 877,
      "post_uuid": "0197108f-560e-9219-d98e-d89c6b836f5b",
      "title_ko": null,
      "title_zh": null,
      "content_ko": "今天不开心☹️ 考试大意的把题目弄错了 失去了一半的分😭 真的很伤心",
      "content_zh": "今天不开心☹️ 考试时粗心大意把题目搞错了，失去了一半分数😭 真的很难过",
      "post_time": "2025-05-27 07:05:18",
      "image_count": 0,
      "image_urls": null,
      "local_image_paths": null,
      "likes": 0,
      "comments": 0,
      "views": 0,
      "board": "Dear. IU",
      "members_only": 0,
      "author_username": "ywennn",
      "author_avatar": null,
      "author_local_avatar": null,
      "fan_comments": [],
      "direct_iu_replies": [
        {
          "id": 1709,
          "content_ko": "실수를 잊지 말자!! 그러면 돼!! ",
          "content_zh": "不要忘记失误!! 这样就行!!",
          "image_count": 0,
          "image_urls": null,
          "local_image_paths": null,
          "replied_at": "2025-05-27 07:12:28"
        }
      ]
    },
    {
      "id": 876,
      "post_uuid": "0197108f-3321-2428-bc1b-311c84264f0b",
      "title_ko": null,
      "title_zh": null,
      "content_ko": "애기한테 감기옮아 감기몸살에 걸렸지만 신곡 공개는 놓칠수 없지!!",
      "content_zh": "被小孩子传染感冒，得了流感，但新歌发布绝不能错过！！",
      "post_time": "2025-05-27 07:05:09",
      "image_count": 0,
      "image_urls": null,
      "local_image_paths": null,
      "likes": 0,
      "comments": 0,
      "views": 0,
      "board": "Dear. IU",
      "members_only": 0,
      "author_username": "한다",
      "author_avatar": null,
      "author_local_avatar": null,
      "fan_comments": [],
      "direct_iu_replies": [
        {
          "id": 1708,
          "content_ko": "아이고 요즘 감기 독하다는데 어떡해 😫 병원은 다녀왔나아?",
          "content_zh": "哎呀最近感冒病毒很厉害怎么办 😫 去医院了吗？",
          "image_count": 0,
          "image_urls": null,
          "local_image_paths": null,
          "replied_at": "2025-05-27 07:13:29"
        }
      ]
    },
    {
      "id": 875,
      "post_uuid": "0197108f-0790-50b5-67fe-1e660b6ce0ad",
      "title_ko": null,
      "title_zh": null,
      "content_ko": "언니 가볍게 들으라면서 두 손 무겁게 오기 있어 ??",
      "content_zh": "姐姐说轻松听听，却让双手变得沉重？？",
      "post_time": "2025-05-27 07:04:58",
      "image_count": 0,
      "image_urls": null,
      "local_image_paths": null,
      "likes": 0,
      "comments": 0,
      "views": 0,
      "board": "Dear. IU",
      "members_only": 0,
      "author_username": "수림잉",
      "author_avatar": "https://dearimage.iu101.org/images/avatars/avatar_180.jpeg",
      "author_local_avatar": "https://dearimage.iu101.org/images/avatars/avatar_180.jpeg",
      "fan_comments": [],
      "direct_iu_replies": [
        {
          "id": 1707,
          "content_ko": "ㅋㅋㅋ그래두 가볍게 들어줘 😆",
          "content_zh": "ㅋㅋㅋ但还是轻轻听我说 😆",
          "image_count": 0,
          "image_urls": null,
          "local_image_paths": null,
          "replied_at": "2025-05-27 07:14:28"
        }
      ]
    },
    {
      "id": 874,
      "post_uuid": "0197108f-04fc-3cf2-66ee-b78f7e04ed51",
      "title_ko": null,
      "title_zh": null,
      "content_ko": "언니도 설레죠",
      "content_zh": "姐姐也很心动吧",
      "post_time": "2025-05-27 07:04:57",
      "image_count": 0,
      "image_urls": null,
      "local_image_paths": null,
      "likes": 0,
      "comments": 0,
      "views": 0,
      "board": "Dear. IU",
      "members_only": 0,
      "author_username": "Dana",
      "author_avatar": null,
      "author_local_avatar": null,
      "fan_comments": [],
      "direct_iu_replies": [
        {
          "id": 1706,
          "content_ko": "오랜만에 꽃갈피라 엄청 설레네 🥰",
          "content_zh": "好久不见的花瓣，很激动呢 🥰",
          "image_count": 0,
          "image_urls": null,
          "local_image_paths": null,
          "replied_at": "2025-05-27 07:14:46"
        }
      ]
    },
    {
      "id": 873,
      "post_uuid": "0197108e-ead2-8546-0cc8-519715662040",
      "title_ko": null,
      "title_zh": null,
      "content_ko": "네버엔딩 스토리 세 번인 이유: 타이틀이라서~",
      "content_zh": "《Never Ending Story》三次的原因：因为是标题曲~",
      "post_time": "2025-05-27 07:04:51",
      "image_count": 0,
      "image_urls": null,
      "local_image_paths": null,
      "likes": 0,
      "comments": 0,
      "views": 0,
      "board": "Dear. IU",
      "members_only": 0,
      "author_username": "청르던",
      "author_avatar": null,
      "author_local_avatar": null,
      "fan_comments": [],
      "direct_iu_replies": [
        {
          "id": 1705,
          "content_ko": "애나들은 다 계획이 있구나..",
          "content_zh": "爱娜们都有计划呢..",
          "image_count": 0,
          "image_urls": null,
          "local_image_paths": null,
          "replied_at": "2025-05-27 07:15:21"
        }
      ]
    },
    {
      "id": 872,
      "post_uuid": "0197108e-df76-ef18-6c73-644d5ed94ac4",
      "title_ko": null,
      "title_zh": null,
      "content_ko": "안녕하세요!\n가끔은 한국 사람들이 조금 부러워요… 무슨 얘기하면서 노는지 너무 궁금하거든요! (ㅎㅎ)\n그래서 요즘 한국어 더 열심히 공부하고 있어요. IU님 때문이에요!\nIU님 작품들 진짜 진짜 좋아해요.\n마음이 복잡하고 모든 게 한꺼번에 몰려오는 날엔 진짜 너무 무겁게 느껴지거든요…\n근데 IU님 노래 들으면 마음이 좀 차분해지고, 힘든 것도 천천히 괜찮아지는 느낌이에요.\n이렇게 좋은 작품 만들어 주셔서 정말 감사해요. 덕분에 많은 사람들이 위로받고 힘낼 수 있는 것 같아요!\n항상 응원할게요!\n💙💜🥹",
      "content_zh": "你好！\n有时候会有点羡慕韩国人……很想知道他们聊天时都在说些什么！（哈哈）\n所以最近我在更努力地学习韩语，这都是因为IU！\n我真的很喜欢IU的作品。\n当心情复杂、所有事情一下子涌来的时候，真的会觉得很沉重……\n但是听了IU的歌，心情就会变得平静一些，感觉那些痛苦也在慢慢变好。\n非常感谢你创作了这么好的作品，很多人因此得到了安慰和力量！\n我会一直支持你的！\n💙💜🥹",
      "post_time": "2025-05-27 07:04:48",
      "image_count": 0,
      "image_urls": null,
      "local_image_paths": null,
      "likes": 0,
      "comments": 0,
      "views": 0,
      "board": "Dear. IU",
      "members_only": 0,
      "author_username": "Twenty",
      "author_avatar": null,
      "author_local_avatar": null,
      "fan_comments": [],
      "direct_iu_replies": [
        {
          "id": 1704,
          "content_ko": "한국말을 저보다 잘하시는데요 무슨 말씀? 😍",
          "content_zh": "您的韩语比我还好，这是什么话 😍",
          "image_count": 0,
          "image_urls": null,
          "local_image_paths": null,
          "replied_at": "2025-05-27 07:15:59"
        }
      ]
    },
    {
      "id": 871,
      "post_uuid": "0197108e-d294-91fc-65e1-4004d71b2ac1",
      "title_ko": null,
      "title_zh": null,
      "content_ko": "네버엔딩스토리 뮤비 많이 슬픈가요 ㅠ",
      "content_zh": "《Never Ending Story》的MV很悲伤吗 ㅠ",
      "post_time": "2025-05-27 07:04:44",
      "image_count": 0,
      "image_urls": null,
      "local_image_paths": null,
      "likes": 0,
      "comments": 0,
      "views": 0,
      "board": "Dear. IU",
      "members_only": 0,
      "author_username": "몽몽몽몽",
      "author_avatar": null,
      "author_local_avatar": null,
      "fan_comments": [],
      "direct_iu_replies": [
        {
          "id": 1703,
          "content_ko": "슬프다기보다는 뭉근하게 아리는? 😀",
          "content_zh": "比起悲伤，更像是一种隐隐作痛的感觉？ 😀",
          "image_count": 0,
          "image_urls": null,
          "local_image_paths": null,
          "replied_at": "2025-05-27 07:16:46"
        }
      ]
    },
    {
      "id": 869,
      "post_uuid": "0197108e-b5d6-1e23-498d-df12d58b33a1",
      "title_ko": null,
      "title_zh": null,
      "content_ko": "언니 가끔 까칠한 동료 만나면 어떡해🥹",
      "content_zh": "姐姐偶尔遇到刻薄的同事怎么办呢🥹",
      "post_time": "2025-05-27 07:04:37",
      "image_count": 0,
      "image_urls": null,
      "local_image_paths": null,
      "likes": 0,
      "comments": 0,
      "views": 0,
      "board": "Dear. IU",
      "members_only": 0,
      "author_username": "일근정౨ৎ",
      "author_avatar": null,
      "author_local_avatar": null,
      "fan_comments": [],
      "direct_iu_replies": [
        {
          "id": 1701,
          "content_ko": "지지 말고 다정하게 대해 줘 🙂‍↕️",
          "content_zh": "别输，要温柔对待 🙂‍↕️",
          "image_count": 0,
          "image_urls": null,
          "local_image_paths": null,
          "replied_at": "2025-05-27 07:18:02"
        }
      ]
    },
    {
      "id": 870,
      "post_uuid": "0197108e-b67e-4b22-da56-2174f894ee79",
      "title_ko": null,
      "title_zh": null,
      "content_ko": "언니 나 매장에 오늘 6시 발매하는 다른 가수 팬도 있어서 6시에 플레이리스트 쟁탈전으로 불꽃튀는 싸움이 있을 예정이야 나의 승리를 응원해줘 🔥🔥🔥🔥🔥🔥",
      "content_zh": "姐姐我店里今天6点有其他歌手粉丝也要发售，所以6点会有一场争夺播放列表的激烈战斗，为我的胜利加油吧 🔥🔥🔥🔥🔥🔥",
      "post_time": "2025-05-27 07:04:37",
      "image_count": 0,
      "image_urls": null,
      "local_image_paths": null,
      "likes": 0,
      "comments": 0,
      "views": 0,
      "board": "Dear. IU",
      "members_only": 0,
      "author_username": "이나에옹",
      "author_avatar": null,
      "author_local_avatar": null,
      "fan_comments": [],
      "direct_iu_replies": [
        {
          "id": 1702,
          "content_ko": "ㅋㅋㅋㅋㅋㅋ울 애나 이겨라!!!! 😆😆😆",
          "content_zh": "哈哈哈哈我们的Uaena赢!!!! 😆😆😆",
          "image_count": 0,
          "image_urls": null,
          "local_image_paths": null,
          "replied_at": "2025-05-27 07:17:24"
        }
      ]
    },
    {
      "id": 868,
      "post_uuid": "0197108e-97db-c6fa-8d98-2634a522b2a4",
      "title_ko": null,
      "title_zh": null,
      "content_ko": "제가 120살이었을 때 기자와 인터뷰를 했습니다. \"이 할머니의 장수 비결은 무엇입니까? 주머니에 있는 당신의 사진을 꺼내 흔들며 말했습니다. \"아이유예요. 그녀의 얼굴이 저를 몇 년 더 살게 했어요.\"",
      "content_zh": "我120岁时曾接受过记者的采访。\"这位老奶奶长寿的秘诀是什么呢？\"我边说着边从口袋里掏出她的照片摇晃着说：\"是IU，她的脸让我又多活了好几年。\"",
      "post_time": "2025-05-27 07:04:29",
      "image_count": 0,
      "image_urls": null,
      "local_image_paths": null,
      "likes": 0,
      "comments": 0,
      "views": 0,
      "board": "Dear. IU",
      "members_only": 0,
      "author_username": "아이유의팅이_婷²ᵂ",
      "author_avatar": null,
      "author_local_avatar": null,
      "fan_comments": [],
      "direct_iu_replies": [
        {
          "id": 1700,
          "content_ko": "캬캬캬캬 새롭다 신선하다 ",
          "content_zh": "哈哈哈战胜我的爱娜！！",
          "image_count": 0,
          "image_urls": null,
          "local_image_paths": null,
          "replied_at": "2025-05-27 07:18:35"
        }
      ]
    },
    {
      "id": 867,
      "post_uuid": "0197108e-835a-bad9-2bae-689a3561d15a",
      "title_ko": null,
      "title_zh": null,
      "content_ko": "지은언니! 한 달 전이 8레트 8주년이었는데\n8기 8LIEN들을 위해 이름에게 티저로 나왔던 영상 풀버전으로 풀어 줄 생각 없나요~?🥹🥹🙏🙏\n네버엔딩스토리랑 팔레트랑 구도가 너무 비슷한데에ㅔ~?",
      "content_zh": "智恩姐姐！一个月前是8辑8周年，为了8期8LIEN们，能不能把之前作为预告发布的那个视频完整版放出来呢~？🥹🥹🙏🙏 和《Never Ending Story》还有《Palette》的构图太相似了吧~？",
      "post_time": "2025-05-27 07:04:24",
      "image_count": 3,
      "image_urls": "https://dearimage.iu101.org/images/posts/post_867_777842398.jpeg",
      "local_image_paths": "https://dearimage.iu101.org/images/posts/post_867_776942944.jpeg|https://dearimage.iu101.org/images/posts/post_867_777842398.jpeg|https://dearimage.iu101.org/images/posts/post_867_776258877.jpeg",
      "likes": 0,
      "comments": 0,
      "views": 0,
      "board": "Dear. IU",
      "members_only": 0,
      "author_username": "✨리다✨",
      "author_avatar": null,
      "author_local_avatar": null,
      "fan_comments": [],
      "direct_iu_replies": [
        {
          "id": 1699,
          "content_ko": "이 영상은 풀버젼이 없는데애...? 저게 다임! 😀",
          "content_zh": "不要放弃温柔对待 🙂‍↕️",
          "image_count": 0,
          "image_urls": null,
          "local_image_paths": null,
          "replied_at": "2025-05-27 07:19:30"
        }
      ]
    },
    {
      "id": 866,
      "post_uuid": "0197108e-7494-3401-c289-8b26e99fa623",
      "title_ko": null,
      "title_zh": null,
      "content_ko": "언니 오늘도 촬영해요? 이따가 저희와 함께 뮤직비디오를 감상하고 노래를 들어볼래요?",
      "content_zh": "姐姐今天也拍摄吗？等一下要不要和我们一起欣赏音乐视频，听听歌曲？",
      "post_time": "2025-05-27 07:04:20",
      "image_count": 0,
      "image_urls": null,
      "local_image_paths": null,
      "likes": 0,
      "comments": 0,
      "views": 0,
      "board": "Dear. IU",
      "members_only": 0,
      "author_username": "qiqi_lilac",
      "author_avatar": null,
      "author_local_avatar": null,
      "fan_comments": [],
      "direct_iu_replies": [
        {
          "id": 1698,
          "content_ko": "딱 맞춰서 같이 감상하기는 어려울 것 같아요 🥺 늦게라도 올게!! ",
          "content_zh": "一起准时观看好像有点困难呢 🥺 不过我会尽量晚点过去！！",
          "image_count": 0,
          "image_urls": null,
          "local_image_paths": null,
          "replied_at": "2025-05-27 07:23:14"
        }
      ]
    },
    {
      "id": 865,
      "post_uuid": "0197108e-694c-271e-3624-c210a301b949",
      "title_ko": null,
      "title_zh": null,
      "content_ko": "뮤비부터 보기 vs 음원부터 듣기",
      "content_zh": "先看MV vs 先听音源",
      "post_time": "2025-05-27 07:04:17",
      "image_count": 0,
      "image_urls": null,
      "local_image_paths": null,
      "likes": 0,
      "comments": 0,
      "views": 0,
      "board": "Dear. IU",
      "members_only": 0,
      "author_username": "잔월효성",
      "author_avatar": null,
      "author_local_avatar": null,
      "fan_comments": [],
      "direct_iu_replies": [
        {
          "id": 1697,
          "content_ko": "마음이 가는대로 >.<",
          "content_zh": "这个视频没有完整版...那就是全部！",
          "image_count": 0,
          "image_urls": null,
          "local_image_paths": null,
          "replied_at": "2025-05-27 07:25:53"
        }
      ]
    },
    {
      "id": 864,
      "post_uuid": "0197108e-5a65-450f-7a4e-4a37bb10a023",
      "title_ko": null,
      "title_zh": null,
      "content_ko": "웅니 이제 완전 여름인가봐! 장미가 폈어🌹❤️",
      "content_zh": "雄尼，现在真的已经是夏天了吗！玫瑰开了呢🌹❤️",
      "post_time": "2025-05-27 07:04:14",
      "image_count": 1,
      "image_urls": "https://dearimage.iu101.org/images/posts/post_864_1217758393.jpeg",
      "local_image_paths": "https://dearimage.iu101.org/images/posts/post_864_1217758393.jpeg",
      "likes": 0,
      "comments": 0,
      "views": 0,
      "board": "Dear. IU",
      "members_only": 0,
      "author_username": "흑당꿀배차",
      "author_avatar": null,
      "author_local_avatar": null,
      "fan_comments": [],
      "direct_iu_replies": [
        {
          "id": 1696,
          "content_ko": "진짜 이쁘네!! 어릴 땐 잘 몰랐는데 점점 장미가  꽃 중의 왕이라는 게 느껴져🌹",
          "content_zh": "好像很难正好一起欣赏 🥺会晚点来的！！",
          "image_count": 0,
          "image_urls": null,
          "local_image_paths": null,
          "replied_at": "2025-05-27 07:27:08"
        }
      ]
    },
    {
      "id": 886,
      "post_uuid": "019704d3-e1d0-2a8f-2980-7bf23756e6d7",
      "title_ko": null,
      "title_zh": null,
      "content_ko": "저 오늘 생일이요!\n저한테도 스무 살의 봄 왔어요!\n오늘도 행복하세요✨사랑합니다❤️‍🔥❤️‍🔥",
      "content_zh": "我今天生日！\n我也迎来了二十岁的春天！\n今天也幸福快乐哦✨爱你们❤️‍🔥❤️‍🔥",
      "post_time": "2025-05-25 00:24:44",
      "image_count": 0,
      "image_urls": null,
      "local_image_paths": null,
      "likes": 0,
      "comments": 0,
      "views": 0,
      "board": "Dear. IU",
      "members_only": 0,
      "author_username": "8HAYAH8",
      "author_avatar": null,
      "author_local_avatar": null,
      "fan_comments": [],
      "direct_iu_replies": [
        {
          "id": 1718,
          "content_ko": "아이구 생일 축하해💗",
          "content_zh": "哎呀生日快乐💗",
          "image_count": 0,
          "image_urls": null,
          "local_image_paths": null,
          "replied_at": "2025-05-25 00:42:44"
        }
      ]
    },
    {
      "id": 885,
      "post_uuid": "019704cf-8d06-589e-fe21-a3eaab90d2f4",
      "title_ko": null,
      "title_zh": null,
      "content_ko": "징짱 오늘 기분 이모티콘으로 알려주세용",
      "content_zh": "今天的心情用表情符号告诉我吧",
      "post_time": "2025-05-25 00:20:00",
      "image_count": 0,
      "image_urls": null,
      "local_image_paths": null,
      "likes": 0,
      "comments": 0,
      "views": 0,
      "board": "Dear. IU",
      "members_only": 0,
      "author_username": "김현아",
      "author_avatar": null,
      "author_local_avatar": null,
      "fan_comments": [],
      "direct_iu_replies": [
        {
          "id": 1717,
          "content_ko": "🥱🥶🔥😽",
          "content_zh": "🥱🥶🔥😽",
          "image_count": 0,
          "image_urls": null,
          "local_image_paths": null,
          "replied_at": "2025-05-25 00:43:47"
        }
      ]
    }
  ]
}