{
  "page": 16,
  "totalPages": 45,
  "total": 895,
  "data": [
    {
      "id": 369,
      "post_uuid": "0197c86f-783d-7671-dcf4-1f7a8976cea5",
      "title_ko": null,
      "title_zh": null,
      "content_ko": "언니 유모닝~~일어났어요?🥱💗",
      "content_zh": "姐姐早安~~起床了吗？🥱💗",
      "post_time": "2025-07-02 00:00:37",
      "image_count": 0,
      "image_urls": null,
      "local_image_paths": null,
      "likes": 0,
      "comments": 0,
      "views": 0,
      "board": "Dear. IU",
      "members_only": 0,
      "author_username": "시나(•ө•)♡",
      "author_avatar": "https://dearimage.iu101.org/images/avatars/avatar_439.jpeg",
      "author_local_avatar": "https://dearimage.iu101.org/images/avatars/avatar_439.jpeg",
      "fan_comments": [],
      "direct_iu_replies": [
        {
          "id": 1135,
          "content_ko": "시모닝🩵 응 분장 중이야!",
          "content_zh": "准备中🩵嗯正在化妆！",
          "image_count": 0,
          "image_urls": null,
          "local_image_paths": null,
          "replied_at": "2025-07-02 00:09:57"
        }
      ]
    },
    {
      "id": 368,
      "post_uuid": "0197c865-aa15-fb9b-9add-2ea0621d6b99",
      "title_ko": null,
      "title_zh": null,
      "content_ko": "지은이，안녕하세요🤗， 날씨가 너무 더운데 조식은 뭐 먹을까요?",
      "content_zh": "智恩，你好🤗，天气太热了早餐要吃什么？",
      "post_time": "2025-07-01 23:49:55",
      "image_count": 0,
      "image_urls": null,
      "local_image_paths": null,
      "likes": 0,
      "comments": 0,
      "views": 0,
      "board": "Dear. IU",
      "members_only": 0,
      "author_username": "KumaLin",
      "author_avatar": null,
      "author_local_avatar": null,
      "fan_comments": [],
      "direct_iu_replies": [
        {
          "id": 1134,
          "content_ko": "안녕하세요 🥰 기본 김밥 어때요?",
          "content_zh": "你好 🥰基本紫菜包饭怎么样？",
          "image_count": 0,
          "image_urls": null,
          "local_image_paths": null,
          "replied_at": "2025-07-02 00:11:10"
        }
      ]
    },
    {
      "id": 367,
      "post_uuid": "0197c862-bdbe-3050-83da-b321ca5b5b42",
      "title_ko": null,
      "title_zh": null,
      "content_ko": "언니, 한국에 요즘 작은 벌레가 많다고 들었어요. 언니는 조심하고 자신을 잘 보호해야 해요.😣",
      "content_zh": "姐姐，听说最近韩国有很多小虫子。姐姐要小心保护好自己。😣",
      "post_time": "2025-07-01 23:46:43",
      "image_count": 0,
      "image_urls": null,
      "local_image_paths": null,
      "likes": 0,
      "comments": 0,
      "views": 0,
      "board": "Dear. IU",
      "members_only": 0,
      "author_username": "小羊love아이유",
      "author_avatar": null,
      "author_local_avatar": null,
      "fan_comments": [],
      "direct_iu_replies": [
        {
          "id": 1133,
          "content_ko": "그것들은 작지 않아",
          "content_zh": "那些并不小",
          "image_count": 0,
          "image_urls": null,
          "local_image_paths": null,
          "replied_at": "2025-07-02 00:11:40"
        }
      ]
    },
    {
      "id": 366,
      "post_uuid": "0197c853-a54c-a750-a803-37b79bc23741",
      "title_ko": null,
      "title_zh": null,
      "content_ko": "지은아 지은아,\n책상 위에 탕수육, 떡볶이, 라면, 짜장면, 스파게티가 있어!\n지금 너무 배고픈데 딱 하나만 고를 수 있다면, 뭐 먹을 거야?",
      "content_zh": "智恩啊智恩啊，桌子上有糖醋肉、辣年糕、方便面、炸酱面、意大利面！现在太饿了如果只能选一个的话，要吃什么？",
      "post_time": "2025-07-01 23:30:14",
      "image_count": 0,
      "image_urls": null,
      "local_image_paths": null,
      "likes": 0,
      "comments": 0,
      "views": 0,
      "board": "Dear. IU",
      "members_only": 0,
      "author_username": "파김치",
      "author_avatar": "https://dearimage.iu101.org/images/avatars/avatar_39.jpeg",
      "author_local_avatar": "https://dearimage.iu101.org/images/avatars/avatar_39.jpeg",
      "fan_comments": [],
      "direct_iu_replies": [
        {
          "id": 1132,
          "content_ko": "아침이니까 순하게 스파게티?\n저녁이면 탕수육!",
          "content_zh": "因为是早晨所以温和一点的意大利面？",
          "image_count": 0,
          "image_urls": null,
          "local_image_paths": null,
          "replied_at": "2025-07-02 00:13:12"
        }
      ]
    },
    {
      "id": 365,
      "post_uuid": "0197c849-b46e-3fbf-5bf9-8e0c130f418f",
      "title_ko": null,
      "title_zh": null,
      "content_ko": "姐姐～早上好，今天天气依旧非常好。你那边怎么样嘞？👀",
      "content_zh": "姐姐～早上好，今天天气依旧非常好。你那边怎么样嘞？👀",
      "post_time": "2025-07-01 23:19:22",
      "image_count": 0,
      "image_urls": null,
      "local_image_paths": null,
      "likes": 0,
      "comments": 0,
      "views": 0,
      "board": "Dear. IU",
      "members_only": 0,
      "author_username": "woooooofiu",
      "author_avatar": null,
      "author_local_avatar": null,
      "fan_comments": [],
      "direct_iu_replies": [
        {
          "id": 1131,
          "content_ko": "여기는 더워요 🥵",
          "content_zh": "这里好热啊 🥵",
          "image_count": 0,
          "image_urls": null,
          "local_image_paths": null,
          "replied_at": "2025-07-02 00:14:04"
        }
      ]
    },
    {
      "id": 364,
      "post_uuid": "0197c848-04e2-893a-abe8-bc6c1531d3ba",
      "title_ko": null,
      "title_zh": null,
      "content_ko": "머리 안말리고 자서 감기 걸렸는데 너무 더울 때\n언니는 에어컨을 킨다 만다..?",
      "content_zh": "没吹干头发就睡觉感冒了，太热的时候姐姐会开空调又关掉吗？",
      "post_time": "2025-07-01 23:17:32",
      "image_count": 0,
      "image_urls": null,
      "local_image_paths": null,
      "likes": 0,
      "comments": 0,
      "views": 0,
      "board": "Dear. IU",
      "members_only": 0,
      "author_username": "지우",
      "author_avatar": "https://dearimage.iu101.org/images/avatars/avatar_56.jpg",
      "author_local_avatar": "https://dearimage.iu101.org/images/avatars/avatar_56.jpg",
      "fan_comments": [],
      "direct_iu_replies": [
        {
          "id": 1130,
          "content_ko": "아이고 그럴 땐 선풍기!!",
          "content_zh": "啊那时候就要电风扇！！",
          "image_count": 0,
          "image_urls": null,
          "local_image_paths": null,
          "replied_at": "2025-07-02 00:14:29"
        }
      ]
    },
    {
      "id": 377,
      "post_uuid": "0197c4dc-4c63-41f7-b898-586a22a8f520",
      "title_ko": null,
      "title_zh": null,
      "content_ko": "언니~ 이번 AAA 시상식에 언니도 참석하나요?대만에서 열리는 거라 들었는데, 언니가 꼭 보고 싶어요🥺💗",
      "content_zh": "姐姐~这次AAA颁奖典礼姐姐也参加吗？听说在台湾举办，很想见姐姐🥺💗",
      "post_time": "2025-07-01 07:21:01",
      "image_count": 0,
      "image_urls": null,
      "local_image_paths": null,
      "likes": 0,
      "comments": 0,
      "views": 0,
      "board": "Dear. IU",
      "members_only": 0,
      "author_username": "지은언니짱이야♡보니",
      "author_avatar": "https://dearimage.iu101.org/images/avatars/avatar_68.jpg",
      "author_local_avatar": "https://dearimage.iu101.org/images/avatars/avatar_68.jpg",
      "fan_comments": [],
      "direct_iu_replies": [
        {
          "id": 1143,
          "content_ko": "가면 널 만날 수 있는 거야? 😍",
          "content_zh": "戴上面具就能见到你吗？ 😍",
          "image_count": 0,
          "image_urls": null,
          "local_image_paths": null,
          "replied_at": "2025-07-01 07:29:27"
        }
      ]
    },
    {
      "id": 376,
      "post_uuid": "0197c4db-76e2-e66d-3dc9-b76cfcaa55e4",
      "title_ko": null,
      "title_zh": null,
      "content_ko": "지은아, 너 여자 인맥 많지만 사실 나도 여자 인맥이 많아 김필숙, 장만월, 이지안, 이순신, 해수. ..내 여자들인데 언니 위기감 느끼나😼😼😼😼",
      "content_zh": "智恩啊，你女性朋友人脉很多但其实我女性朋友人脉也很多金弼淑、张曼月、李智安、李舜臣、海秀...这些都是我的女性朋友，姐姐感到危机感吗😼😼😼",
      "post_time": "2025-07-01 07:20:06",
      "image_count": 0,
      "image_urls": null,
      "local_image_paths": null,
      "likes": 0,
      "comments": 0,
      "views": 0,
      "board": "Dear. IU",
      "members_only": 0,
      "author_username": "사어야",
      "author_avatar": null,
      "author_local_avatar": null,
      "fan_comments": [],
      "direct_iu_replies": [
        {
          "id": 1142,
          "content_ko": "필숙 언니랑 해수 언니는 귀여워서 나도 좋아하는데...",
          "content_zh": "美淑姐姐和海秀姐姐也很可爱我也喜欢...",
          "image_count": 0,
          "image_urls": null,
          "local_image_paths": null,
          "replied_at": "2025-07-01 07:39:10"
        }
      ]
    },
    {
      "id": 375,
      "post_uuid": "0197c4db-6e6e-48b4-d74c-a486621fcaa3",
      "title_ko": null,
      "title_zh": null,
      "content_ko": "언니, 나도 너처럼 사과🍎를 좋아하는데 사과🍎를 많이 먹으면 치아🦷가 불편해 이게 왜",
      "content_zh": "姐姐，我也像你一样喜欢苹果🍎，但吃太多苹果🍎牙齿🦷就不舒服这是为什么",
      "post_time": "2025-07-01 07:20:04",
      "image_count": 0,
      "image_urls": null,
      "local_image_paths": null,
      "likes": 0,
      "comments": 0,
      "views": 0,
      "board": "Dear. IU",
      "members_only": 0,
      "author_username": "IU的Uaena爱娜",
      "author_avatar": "https://dearimage.iu101.org/images/avatars/avatar_169.jpeg",
      "author_local_avatar": "https://dearimage.iu101.org/images/avatars/avatar_169.jpeg",
      "fan_comments": [],
      "direct_iu_replies": [
        {
          "id": 1141,
          "content_ko": "내가 숟가락으로 긁어서 먹여줄까 할미처럼?",
          "content_zh": "要像奶奶一样用勺子刮着喂你吗？",
          "image_count": 0,
          "image_urls": null,
          "local_image_paths": null,
          "replied_at": "2025-07-01 07:44:20"
        }
      ]
    },
    {
      "id": 374,
      "post_uuid": "0197c4d9-63a2-d212-0b11-762a387a09d2",
      "title_ko": null,
      "title_zh": null,
      "content_ko": "언니, 어제는 제 생일이에요🥺나는 언니와 같은 케이크를 골랐다！어때요?🤣언니의 축복을 받을 수 있나요?🥹💗",
      "content_zh": "姐姐，昨天是我的生日🥺我选择了和姐姐一样的蛋糕！怎么样？🤣能收到姐姐的祝福吗？🥹💗",
      "post_time": "2025-07-01 07:17:50",
      "image_count": 1,
      "image_urls": "https://dearimage.iu101.org/images/posts/post_374_586979667.jpeg",
      "local_image_paths": "https://dearimage.iu101.org/images/posts/post_374_586979667.jpeg",
      "likes": 0,
      "comments": 0,
      "views": 0,
      "board": "Dear. IU",
      "members_only": 0,
      "author_username": "Lovepoemai",
      "author_avatar": null,
      "author_local_avatar": null,
      "fan_comments": [],
      "direct_iu_replies": [
        {
          "id": 1140,
          "content_ko": "천사야 생일 축하해💜",
          "content_zh": "天使生日快乐💜",
          "image_count": 0,
          "image_urls": null,
          "local_image_paths": null,
          "replied_at": "2025-07-01 07:47:11"
        }
      ]
    },
    {
      "id": 373,
      "post_uuid": "0197c4d6-ab82-b102-5f34-cd729e31b6dd",
      "title_ko": null,
      "title_zh": null,
      "content_ko": "아이유님이 몇번 말씀해주셨던거같은데 동갑은 머라고불러요?? 이 나이에 서로 통성명도 안했는데 지은아라고 하기엔 내 안의 공자님이 안 되고요.. 아이유님이나 지은씨보다 조금 거리감이 가까운 호칭이었으면 좋겠는디.. 징니는 너무 별사탕 전용 호칭같구...😓\n",
      "content_zh": "IU好像说过好几次，同龄人要怎么称呼啊？这个年纪了，互相连名字都没通就叫지은아的话，我内心的孔子不允许啊...想要比IU或지은小姐稍微亲近一点的称呼，但징니又太像专属糖果的称呼了...😓",
      "post_time": "2025-07-01 07:14:52",
      "image_count": 0,
      "image_urls": null,
      "local_image_paths": null,
      "likes": 0,
      "comments": 0,
      "views": 0,
      "board": "Dear. IU",
      "members_only": 0,
      "author_username": "미니언",
      "author_avatar": "https://dearimage.iu101.org/images/avatars/avatar_89.gif",
      "author_local_avatar": "https://dearimage.iu101.org/images/avatars/avatar_89.gif",
      "fan_comments": [],
      "direct_iu_replies": [
        {
          "id": 1139,
          "content_ko": "지은쓰~ 어때요?",
          "content_zh": "智恩~怎么样？",
          "image_count": 0,
          "image_urls": null,
          "local_image_paths": null,
          "replied_at": "2025-07-01 07:51:00"
        }
      ]
    },
    {
      "id": 372,
      "post_uuid": "0197c4d5-6606-4108-e1b5-b2232032e0b2",
      "title_ko": null,
      "title_zh": null,
      "content_ko": "🍊지은 언니 !! 이거 한라봉 진짜일까요 ~!? 가짜일까요 ~!?\n맞춰봐 어느쪽이게 !? 🤔\n뭐게요 ~ 맞춰봐요 ~! 😚🥳",
      "content_zh": "🍊智恩姐姐！！这个韩式橘子是真的吗~！？是假的吗~！？猜猜看哪个是真的！？ 🤔 是什么~猜猜看~！ 😚🥳",
      "post_time": "2025-07-01 07:13:29",
      "image_count": 1,
      "image_urls": "https://dearimage.iu101.org/images/posts/post_372_1997344830.jpeg",
      "local_image_paths": "https://dearimage.iu101.org/images/posts/post_372_1997344830.jpeg",
      "likes": 0,
      "comments": 0,
      "views": 0,
      "board": "Dear. IU",
      "members_only": 0,
      "author_username": "♥ㅏ꼬운유애나아효밍♥",
      "author_avatar": "https://dearimage.iu101.org/images/avatars/avatar_197.gif",
      "author_local_avatar": "https://dearimage.iu101.org/images/avatars/avatar_197.gif",
      "fan_comments": [],
      "direct_iu_replies": [
        {
          "id": 1138,
          "content_ko": "다 빵이네!",
          "content_zh": "都是面包啊！",
          "image_count": 0,
          "image_urls": null,
          "local_image_paths": null,
          "replied_at": "2025-07-01 07:53:23"
        }
      ]
    },
    {
      "id": 379,
      "post_uuid": "0197c4be-6a2e-c88b-a794-dc161e1ae3e9",
      "title_ko": null,
      "title_zh": null,
      "content_ko": "언니 김밥 왜 그렇게 좋아해? 진짜 그렇게 맛있어? 김밥이랑 초밥이랑 뭐가 달라? (저는 한국인이 아니라서 잘 몰라요🤔)",
      "content_zh": "姐姐为什么那么喜欢紫菜包饭？真的那么好吃吗？紫菜包饭和寿司有什么不同？（我不是韩国人所以不太了解🤔）",
      "post_time": "2025-07-01 06:48:22",
      "image_count": 0,
      "image_urls": null,
      "local_image_paths": null,
      "likes": 0,
      "comments": 0,
      "views": 0,
      "board": "Dear. IU",
      "members_only": 0,
      "author_username": "버블티",
      "author_avatar": "https://dearimage.iu101.org/images/avatars/avatar_3.jpg",
      "author_local_avatar": "https://dearimage.iu101.org/images/avatars/avatar_3.jpg",
      "fan_comments": [],
      "direct_iu_replies": [
        {
          "id": 1145,
          "content_ko": "김밥은 소금과 참기름으로 밑간을 한 밥에다가 \n각종 채소 (ex 시금치, 당근, 달걀, 단무지, 오이, 연근)와 햄이나 참치같은 걸 넣고 김에다 올려서 동그랗게 말아내는 요리야 \n초밥은 밥의 밑간을 배합초로 해 그리고 그 위에다가 날생선을 올리는 거지 \n김밥은 고소한 맛이고 초밥은 새콤 달콤한 맛이야 ",
          "content_zh": "紫菜包饭是在用盐和香油调味的米饭中加入各种蔬菜（如菠菜、胡萝卜、鸡蛋、萝卜干、黄瓜、莲藕）以及火腿或金枪鱼等食材，再用紫菜卷成圆柱形的料理。寿司则是用调过味的醋拌饭，在上面放上生鱼片。紫菜包饭口感香浓，而寿司则酸甜可口。",
          "image_count": 0,
          "image_urls": null,
          "local_image_paths": null,
          "replied_at": "2025-07-01 06:55:24"
        }
      ]
    },
    {
      "id": 386,
      "post_uuid": "0197ba41-648e-c284-3781-5f6365efd4bf",
      "title_ko": null,
      "title_zh": null,
      "content_ko": "언니, 20년대의 귀여운 치마와 멜빵바지를 지금 이사해도 그대로 둘 건가요?🥰",
      "content_zh": "姐姐，20年代可爱的裙子和背带裤现在搬家的话也会原样保留吗？🥰",
      "post_time": "2025-06-29 05:55:37",
      "image_count": 0,
      "image_urls": null,
      "local_image_paths": null,
      "likes": 0,
      "comments": 0,
      "views": 0,
      "board": "Dear. IU",
      "members_only": 0,
      "author_username": "예영짱",
      "author_avatar": "https://dearimage.iu101.org/images/avatars/avatar_407.jpeg",
      "author_local_avatar": "https://dearimage.iu101.org/images/avatars/avatar_407.jpeg",
      "fan_comments": [],
      "direct_iu_replies": [
        {
          "id": 1189,
          "content_ko": "ㅋㅋ입지 못해도 그거 못 버리지 🥹 추억이 얼만데..",
          "content_zh": "虽然穿不了但那个不能扔掉 🥹回忆有多少啊..",
          "image_count": 0,
          "image_urls": null,
          "local_image_paths": null,
          "replied_at": "2025-06-29 05:56:18"
        }
      ]
    },
    {
      "id": 385,
      "post_uuid": "0197ba41-57c7-d4fe-1ca9-f3ee80d13d93",
      "title_ko": null,
      "title_zh": null,
      "content_ko": "언니는 희주 MBTI 뭐라고 생각해요?",
      "content_zh": "姐姐觉得熙珠的MBTI是什么？",
      "post_time": "2025-06-29 05:55:33",
      "image_count": 0,
      "image_urls": null,
      "local_image_paths": null,
      "likes": 0,
      "comments": 0,
      "views": 0,
      "board": "Dear. IU",
      "members_only": 0,
      "author_username": "m1ntch0c0",
      "author_avatar": "https://dearimage.iu101.org/images/avatars/avatar_516.jpeg",
      "author_local_avatar": "https://dearimage.iu101.org/images/avatars/avatar_516.jpeg",
      "fan_comments": [],
      "direct_iu_replies": [
        {
          "id": 1188,
          "content_ko": "글쎄.... INTJ...? (INTJ에 대해 잘 모룸..)",
          "content_zh": "这个.... INTJ...? (不太了解INTJ..)",
          "image_count": 0,
          "image_urls": null,
          "local_image_paths": null,
          "replied_at": "2025-06-29 05:57:23"
        }
      ]
    },
    {
      "id": 384,
      "post_uuid": "0197ba41-5115-2696-562f-8c74bbd89a21",
      "title_ko": null,
      "title_zh": null,
      "content_ko": "아이유언니!어렸을 때 싫어했던 음식을 자라서 좋아할까?",
      "content_zh": "IU姐姐！小时候讨厌的食物长大后会喜欢吗？",
      "post_time": "2025-06-29 05:55:32",
      "image_count": 0,
      "image_urls": null,
      "local_image_paths": null,
      "likes": 0,
      "comments": 0,
      "views": 0,
      "board": "Dear. IU",
      "members_only": 0,
      "author_username": "yuluCafe.lulu",
      "author_avatar": null,
      "author_local_avatar": null,
      "fan_comments": [],
      "direct_iu_replies": [
        {
          "id": 1187,
          "content_ko": "그럼 그럼~~ 싫어하는 거 거의 없어지지!!",
          "content_zh": "那就那样~~不喜欢的东西几乎没有了！！",
          "image_count": 0,
          "image_urls": null,
          "local_image_paths": null,
          "replied_at": "2025-06-29 05:57:39"
        }
      ]
    },
    {
      "id": 382,
      "post_uuid": "0197ba41-3d25-c1f6-3053-949922f0aac6",
      "title_ko": null,
      "title_zh": null,
      "content_ko": "지은아 요즘 서울실외에 러브버그가 많아서 촬영에 지장이 있습니까?",
      "content_zh": "智恩啊，最近首尔户外有很多爱情虫会影响拍摄吗？",
      "post_time": "2025-06-29 05:55:27",
      "image_count": 0,
      "image_urls": null,
      "local_image_paths": null,
      "likes": 0,
      "comments": 0,
      "views": 0,
      "board": "Dear. IU",
      "members_only": 0,
      "author_username": "검문문",
      "author_avatar": null,
      "author_local_avatar": null,
      "fan_comments": [],
      "direct_iu_replies": [
        {
          "id": 1185,
          "content_ko": "아직은 습격을 받아본 적은 없어요! 🥶",
          "content_zh": "还没有被袭击过！ 🥶",
          "image_count": 0,
          "image_urls": null,
          "local_image_paths": null,
          "replied_at": "2025-06-29 05:58:54"
        }
      ]
    },
    {
      "id": 383,
      "post_uuid": "0197ba41-3ea1-34cb-823d-9ffb6caa677d",
      "title_ko": null,
      "title_zh": null,
      "content_ko": "언니 카톡에서도 이모지나 카톡 이모티콘 많이 써요? 👀",
      "content_zh": "姐姐在KakaoTalk也经常用表情符号或KakaoTalk表情包吗？ 👀",
      "post_time": "2025-06-29 05:55:27",
      "image_count": 0,
      "image_urls": null,
      "local_image_paths": null,
      "likes": 0,
      "comments": 0,
      "views": 0,
      "board": "Dear. IU",
      "members_only": 0,
      "author_username": "하네투",
      "author_avatar": null,
      "author_local_avatar": null,
      "fan_comments": [],
      "direct_iu_replies": [
        {
          "id": 1186,
          "content_ko": "별루 안 써요! ",
          "content_zh": "不太用！",
          "image_count": 0,
          "image_urls": null,
          "local_image_paths": null,
          "replied_at": "2025-06-29 05:58:20"
        }
      ]
    },
    {
      "id": 381,
      "post_uuid": "0197ba41-338d-42b9-b609-5287d3ec6dd9",
      "title_ko": null,
      "title_zh": null,
      "content_ko": "언니 오늘 쉬어요?",
      "content_zh": "姐姐今天休息吗？",
      "post_time": "2025-06-29 05:55:24",
      "image_count": 0,
      "image_urls": null,
      "local_image_paths": null,
      "likes": 0,
      "comments": 0,
      "views": 0,
      "board": "Dear. IU",
      "members_only": 0,
      "author_username": "Olivia",
      "author_avatar": null,
      "author_local_avatar": null,
      "fan_comments": [],
      "direct_iu_replies": [
        {
          "id": 1184,
          "content_ko": "오늘 이사 준비와 작업!! 🔥🔥 \n내일쯤 푹 쉬어볼까 해 😍",
          "content_zh": "今天搬家准备和工作！！ 🔥🔥  明天左右好好休息一下 😍",
          "image_count": 0,
          "image_urls": null,
          "local_image_paths": null,
          "replied_at": "2025-06-29 05:59:58"
        }
      ]
    },
    {
      "id": 395,
      "post_uuid": "0197b970-c167-9b38-f4c7-16cb44a20b1b",
      "title_ko": null,
      "title_zh": null,
      "content_ko": "언니랑 인생네컷 찍고 나서, 근처 마트를 구경했는데, 내가 뭐를 봤게요🤩!\n또 언니였어요! 🤩\n이게 바로 저의 작은 행운이었어요!\n바로 집으로 데려왔어요!\n원래 집에 소주잔이 없어서 살짝 고민이었는데, 이번에 같이 얻게 됐어요🥳\n역시 언니는 제 행운이에요🥰\n언니만 있으면 정말 행복해요💗\n\n언니는 참이슬 마실 때, 항상 오리지널을 드세요? 아니면 과일맛처럼 가향된 걸 드세요?🥃",
      "content_zh": "和姐姐拍了人生四格照片后，在附近超市逛的时候，你们猜我看到了什么？🤩\n又是姐姐！🤩\n这真是我的小幸运啊！\n直接带回家了！\n本来家里没有烧酒杯，还有点纠结，这次一起得到了🥳\n果然姐姐就是我的幸运女神🥰\n只要有姐姐在就真的好幸福💗\n\n姐姐喝真露的时候，是喜欢喝原味的还是水果味的呢？🥃",
      "post_time": "2025-06-29 02:07:43",
      "image_count": 1,
      "image_urls": "https://dearimage.iu101.org/images/posts/post_395_1182664602.jpeg",
      "local_image_paths": "https://dearimage.iu101.org/images/posts/post_395_1182664602.jpeg",
      "likes": 0,
      "comments": 0,
      "views": 0,
      "board": "Dear. IU",
      "members_only": 0,
      "author_username": "注销的用户",
      "author_avatar": null,
      "author_local_avatar": null,
      "fan_comments": [],
      "direct_iu_replies": [
        {
          "id": 1198,
          "content_ko": "아이고 일요일 아침부터 분주하구나아 😃 조심조심 다너요오",
          "content_zh": "哎呀 周日上午就开始忙碌了 😃小心小心哦",
          "image_count": 0,
          "image_urls": null,
          "local_image_paths": null,
          "replied_at": "2025-06-29 02:08:19"
        }
      ]
    }
  ]
}