{
  "page": 35,
  "totalPages": 45,
  "total": 895,
  "data": [
    {
      "id": 759,
      "post_uuid": "01973143-e76f-ff78-0885-c0d56f6e8715",
      "title_ko": null,
      "title_zh": null,
      "content_ko": "언니언니 오늘은 뭐했어요??",
      "content_zh": "姐姐姐姐今天做了什么？？",
      "post_time": "2025-06-02 15:30:23",
      "image_count": 0,
      "image_urls": null,
      "local_image_paths": null,
      "likes": 0,
      "comments": 0,
      "views": 0,
      "board": "Dear. IU",
      "members_only": 0,
      "author_username": "다연",
      "author_avatar": "https://dearimage.iu101.org/images/avatars/avatar_100.jpeg",
      "author_local_avatar": "https://dearimage.iu101.org/images/avatars/avatar_100.jpeg",
      "fan_comments": [],
      "direct_iu_replies": [
        {
          "id": 1589,
          "content_ko": "오늘은 여기까지 오니까 하루 끝나 있었엄",
          "content_zh": "今天到这里一天就结束了",
          "image_count": 0,
          "image_urls": null,
          "local_image_paths": null,
          "replied_at": "2025-06-02 15:35:40"
        }
      ]
    },
    {
      "id": 758,
      "post_uuid": "01973143-df91-4512-c74b-084be4d17dfb",
      "title_ko": null,
      "title_zh": null,
      "content_ko": "꽃갈피 3 에서는 앵콜요청곡에 어떤 곡이 가장 잘 어울릴 것 같아요??",
      "content_zh": "《花路 3》安可曲最适合哪首歌呢？？",
      "post_time": "2025-06-02 15:30:21",
      "image_count": 0,
      "image_urls": null,
      "local_image_paths": null,
      "likes": 0,
      "comments": 0,
      "views": 0,
      "board": "Dear. IU",
      "members_only": 0,
      "author_username": "자성",
      "author_avatar": null,
      "author_local_avatar": null,
      "fan_comments": [],
      "direct_iu_replies": [
        {
          "id": 1588,
          "content_ko": "미인? 혹은 네모의 꿈",
          "content_zh": "美人？还是正方形的梦想",
          "image_count": 0,
          "image_urls": null,
          "local_image_paths": null,
          "replied_at": "2025-06-02 15:36:49"
        }
      ]
    },
    {
      "id": 757,
      "post_uuid": "01973143-d6ad-786b-5f29-e41920b979fb",
      "title_ko": null,
      "title_zh": null,
      "content_ko": "프롬유에 언니가 스포해준 희주를 보니까, 희주도 만월이처럼 화려한 헤메스들을 기대해도 될까요? 😉✨",
      "content_zh": "看了 Promuse 里姐姐剧透的熙珠，熙珠也可以期待像满月一样华丽的赫密斯们吗？😉✨",
      "post_time": "2025-06-02 15:30:18",
      "image_count": 0,
      "image_urls": null,
      "local_image_paths": null,
      "likes": 0,
      "comments": 0,
      "views": 0,
      "board": "Dear. IU",
      "members_only": 0,
      "author_username": "하네투",
      "author_avatar": null,
      "author_local_avatar": null,
      "fan_comments": [],
      "direct_iu_replies": [
        {
          "id": 1587,
          "content_ko": "희주도 화려하긴 한데 좀 더 카리스마 있어요! 변형이 막 만월이처럼 많지는 않을 듯",
          "content_zh": "熙珠确实华丽但更有魅力！变形可能不会像满月那样多",
          "image_count": 0,
          "image_urls": null,
          "local_image_paths": null,
          "replied_at": "2025-06-02 15:38:46"
        }
      ]
    },
    {
      "id": 756,
      "post_uuid": "01973143-cf1a-3af7-9663-8bd3367f27cb",
      "title_ko": null,
      "title_zh": null,
      "content_ko": "언니 밥을 잘 먹고 있습니까? 언니 살이 많이 빠진 것 같아요...🥺",
      "content_zh": "姐姐吃饭了吗？姐姐好像瘦了很多...🥺",
      "post_time": "2025-06-02 15:30:16",
      "image_count": 0,
      "image_urls": null,
      "local_image_paths": null,
      "likes": 0,
      "comments": 0,
      "views": 0,
      "board": "Dear. IU",
      "members_only": 0,
      "author_username": "지은언니짱이야♡보니",
      "author_avatar": "https://dearimage.iu101.org/images/avatars/avatar_68.jpg",
      "author_local_avatar": "https://dearimage.iu101.org/images/avatars/avatar_68.jpg",
      "fan_comments": [],
      "direct_iu_replies": [
        {
          "id": 1586,
          "content_ko": "내일 좀 잘 챙겨 먹어야겠다",
          "content_zh": "明天要好好吃饭",
          "image_count": 0,
          "image_urls": null,
          "local_image_paths": null,
          "replied_at": "2025-06-02 15:39:41"
        }
      ]
    },
    {
      "id": 755,
      "post_uuid": "019730fc-15ff-67d5-413f-744b29a3855c",
      "title_ko": null,
      "title_zh": null,
      "content_ko": "왜 아무도 ‘Last Scene’을 얘기 안 하는 거야?\n이 노래 들을 때마다\n지은이가 멋지게 노래 부르고 있는 모습이 자꾸 떠올라.\n아무렇지 않게 돌아서서 걸어가는 그 표정…\n\n진짜 멋있어!!!! ",
      "content_zh": "为什么没有人提《Last Scene》这首歌啊？\n每次听到这首歌，\n知恩帅气地唱歌的样子就不断浮现在我脑海里。\n还有她若无其事地转身走开的那个表情……\n\n真的太帅了！！！",
      "post_time": "2025-06-02 14:11:56",
      "image_count": 0,
      "image_urls": null,
      "local_image_paths": null,
      "likes": 0,
      "comments": 0,
      "views": 0,
      "board": "Dear. IU",
      "members_only": 0,
      "author_username": "도리~",
      "author_avatar": "https://dearimage.iu101.org/images/avatars/avatar_372.jpeg",
      "author_local_avatar": "https://dearimage.iu101.org/images/avatars/avatar_372.jpeg",
      "fan_comments": [],
      "direct_iu_replies": [
        {
          "id": 1585,
          "content_ko": "나도나도 라스트씬 너무 조하😍",
          "content_zh": "我也我也最后场景太喜欢了😍",
          "image_count": 0,
          "image_urls": null,
          "local_image_paths": null,
          "replied_at": "2025-06-02 15:48:02"
        }
      ]
    },
    {
      "id": 754,
      "post_uuid": "019730eb-6535-4496-9504-350dd4f3ea4f",
      "title_ko": null,
      "title_zh": null,
      "content_ko": "언니야~ 포토카드 중에 동그랗게 초점 맞춰진 그 디자인 있잖아요!\n그거 누구 아이디어예요? 너무 귀엽고 센스 있어요 😍😍\n",
      "content_zh": "姐姐~ 照片卡里有那种圆形对焦设计的那款！\n那个是谁的想法呀？太可爱了，很有创意 😍😍",
      "post_time": "2025-06-02 13:53:42",
      "image_count": 1,
      "image_urls": "https://dearimage.iu101.org/images/posts/post_754_1355075332.jpg",
      "local_image_paths": "https://dearimage.iu101.org/images/posts/post_754_1355075332.jpg",
      "likes": 0,
      "comments": 0,
      "views": 0,
      "board": "Dear. IU",
      "members_only": 0,
      "author_username": "iuaena9699",
      "author_avatar": "https://dearimage.iu101.org/images/avatars/avatar_13.jpg",
      "author_local_avatar": "https://dearimage.iu101.org/images/avatars/avatar_13.jpg",
      "fan_comments": [],
      "direct_iu_replies": [
        {
          "id": 1584,
          "content_ko": "나 >.<",
          "content_zh": "我><",
          "image_count": 0,
          "image_urls": null,
          "local_image_paths": null,
          "replied_at": "2025-06-02 15:49:39"
        }
      ]
    },
    {
      "id": 753,
      "post_uuid": "0197308b-ad33-8a38-3658-ba8850d6e48b",
      "title_ko": null,
      "title_zh": null,
      "content_ko": "언니 오늘의 식단표 좀 보내주세요☝️☝️☝️",
      "content_zh": "姐姐把今天的食谱发给我吧☝️☝️☝️",
      "post_time": "2025-06-02 12:09:09",
      "image_count": 0,
      "image_urls": null,
      "local_image_paths": null,
      "likes": 0,
      "comments": 0,
      "views": 0,
      "board": "Dear. IU",
      "members_only": 0,
      "author_username": "이지은의강아지",
      "author_avatar": null,
      "author_local_avatar": null,
      "fan_comments": [],
      "direct_iu_replies": [
        {
          "id": 1583,
          "content_ko": "김밥과 김밥과 빼배로",
          "content_zh": "紫菜包饭和紫菜包饭和百奇",
          "image_count": 0,
          "image_urls": null,
          "local_image_paths": null,
          "replied_at": "2025-06-02 15:52:09"
        }
      ]
    },
    {
      "id": 766,
      "post_uuid": "01971fe4-286d-078f-4141-edc5f8165fb4",
      "title_ko": null,
      "title_zh": null,
      "content_ko": "언니한테 말 거는 거, 요즘 제일 즐거운 습관이야. 언제 답장 올까 상상하는 것도 꽤 괜찮아.",
      "content_zh": "和姐姐说话，现在是我最开心的习惯。想象着什么时候会回消息也很不错。",
      "post_time": "2025-05-30 06:32:15",
      "image_count": 0,
      "image_urls": null,
      "local_image_paths": null,
      "likes": 0,
      "comments": 0,
      "views": 0,
      "board": "Dear. IU",
      "members_only": 0,
      "author_username": "Jiannie",
      "author_avatar": null,
      "author_local_avatar": null,
      "fan_comments": [],
      "direct_iu_replies": [
        {
          "id": 1596,
          "content_ko": "그게 바로 지금이야 또 말 걸어 줘",
          "content_zh": "那就是现在啊再跟我说话吧",
          "image_count": 0,
          "image_urls": null,
          "local_image_paths": null,
          "replied_at": "2025-05-30 06:32:48"
        }
      ]
    },
    {
      "id": 767,
      "post_uuid": "01971fe1-919e-263a-5c99-c9ae60465095",
      "title_ko": null,
      "title_zh": null,
      "content_ko": "지은아, 빨리 봐! 예쁘다고 생각해? 🤗이건 내 친한 친구가 집에서 만들어 준 건데, 내가 널 많이 좋아하는 걸 알고 최근 1 년 동안 네일 아트 디자인도 해줬잖아. 💅방금 친구에게 AIL 과 IEN 을 보여줬는데, 다음에 콘서트에 가면 또 만들어준다고 했어요.🥹",
      "content_zh": "知恩啊，快看！你觉得好看吗？🤗 这是我好朋友在家里做的，知道我很喜欢你，最近一年也一直给你做美甲设计。💅 刚才给朋友看了 AIL 和 IEN，她说下次去演唱会的时候还会再做的。🥹",
      "post_time": "2025-05-30 06:29:26",
      "image_count": 4,
      "image_urls": "https://dearimage.iu101.org/images/posts/post_767_1349210285.jpeg",
      "local_image_paths": "https://dearimage.iu101.org/images/posts/post_767_1344664987.jpeg|https://dearimage.iu101.org/images/posts/post_767_1345684075.jpeg|https://dearimage.iu101.org/images/posts/post_767_1349210285.jpeg|https://dearimage.iu101.org/images/posts/post_767_1339287960.jpeg",
      "likes": 0,
      "comments": 0,
      "views": 0,
      "board": "Dear. IU",
      "members_only": 0,
      "author_username": "灰大猪",
      "author_avatar": null,
      "author_local_avatar": null,
      "fan_comments": [],
      "direct_iu_replies": [
        {
          "id": 1597,
          "content_ko": "쏘 큐트!!!!!",
          "content_zh": "太可爱了！！！！！",
          "image_count": 0,
          "image_urls": null,
          "local_image_paths": null,
          "replied_at": "2025-05-30 06:32:14"
        }
      ]
    },
    {
      "id": 777,
      "post_uuid": "01971fd7-d773-5032-5e69-d08cb53977bf",
      "title_ko": null,
      "title_zh": null,
      "content_ko": "언니…… 어떡해……센스있는 질문이 생각이 안나",
      "content_zh": "姐姐……怎么办……想不出有品味的问题",
      "post_time": "2025-05-30 06:18:48",
      "image_count": 0,
      "image_urls": null,
      "local_image_paths": null,
      "likes": 0,
      "comments": 0,
      "views": 0,
      "board": "Dear. IU",
      "members_only": 0,
      "author_username": "코코코쨩",
      "author_avatar": null,
      "author_local_avatar": null,
      "fan_comments": [],
      "direct_iu_replies": [
        {
          "id": 1607,
          "content_ko": "센스 없어두 돼 코코코야",
          "content_zh": "没关系的，可可可呀",
          "image_count": 0,
          "image_urls": null,
          "local_image_paths": null,
          "replied_at": "2025-05-30 06:20:00"
        }
      ]
    },
    {
      "id": 776,
      "post_uuid": "01971fd7-b9e0-f018-8c83-f09373a5de3d",
      "title_ko": null,
      "title_zh": null,
      "content_ko": "언니,저도 어젯밤에 밤을 새웠어요.그래서 저도 이제 자러 갈게요.잘 자라고 말해줄래?🥺🌙",
      "content_zh": "姐姐，我昨晚也没睡，所以我也要去睡觉了。能跟我说声晚安吗？🥺🌙",
      "post_time": "2025-05-30 06:18:40",
      "image_count": 0,
      "image_urls": null,
      "local_image_paths": null,
      "likes": 0,
      "comments": 0,
      "views": 0,
      "board": "Dear. IU",
      "members_only": 0,
      "author_username": "Lovepoemai",
      "author_avatar": null,
      "author_local_avatar": null,
      "fan_comments": [],
      "direct_iu_replies": [
        {
          "id": 1606,
          "content_ko": "자자 우리!!!!",
          "content_zh": "来来我们！！！",
          "image_count": 0,
          "image_urls": null,
          "local_image_paths": null,
          "replied_at": "2025-05-30 06:20:26"
        }
      ]
    },
    {
      "id": 775,
      "post_uuid": "01971fd7-98b9-4e53-2f86-38cf8a4c5f16",
      "title_ko": null,
      "title_zh": null,
      "content_ko": "베리즈 담당자님!!\n이모티콘도 있쓰면 좋겠어요!!! 아이유티콘이라든가~~~ㅜㅜ",
      "content_zh": "VERIZZ 负责人！！！ 如果有表情包就好了！！！IU 表情包什么的~~~ㅜㅜ",
      "post_time": "2025-05-30 06:18:32",
      "image_count": 0,
      "image_urls": null,
      "local_image_paths": null,
      "likes": 0,
      "comments": 0,
      "views": 0,
      "board": "Dear. IU",
      "members_only": 0,
      "author_username": "밍우",
      "author_avatar": "https://dearimage.iu101.org/images/avatars/avatar_78.jpeg",
      "author_local_avatar": "https://dearimage.iu101.org/images/avatars/avatar_78.jpeg",
      "fan_comments": [],
      "direct_iu_replies": [
        {
          "id": 1605,
          "content_ko": "아니 나는 그거그거 댓글에 사진 달기요 🥹",
          "content_zh": "不，我要在那个评论里发照片 🥹",
          "image_count": 0,
          "image_urls": null,
          "local_image_paths": null,
          "replied_at": "2025-05-30 06:21:02"
        }
      ]
    },
    {
      "id": 774,
      "post_uuid": "01971fd7-4234-1380-7961-c0a1c1dcadce",
      "title_ko": null,
      "title_zh": null,
      "content_ko": "언니! 자려고 하지 않았나😡😡😡😡😡😡빨리 가서 쉬어라, 나는 화가 났다😡😡😡😡😡😡😡😡😡😡😡😡😡😡😡😡😡",
      "content_zh": "姐姐！不是说要睡觉了吗😡😡😡😡😡😡快去休息，我很生气😡😡😡😡😡😡😡😡😡😡😡😡😡😡😡😡😡",
      "post_time": "2025-05-30 06:18:10",
      "image_count": 0,
      "image_urls": null,
      "local_image_paths": null,
      "likes": 0,
      "comments": 0,
      "views": 0,
      "board": "Dear. IU",
      "members_only": 0,
      "author_username": "4everwithIU",
      "author_avatar": "https://dearimage.iu101.org/images/avatars/avatar_600.jpg",
      "author_local_avatar": "https://dearimage.iu101.org/images/avatars/avatar_600.jpg",
      "fan_comments": [],
      "direct_iu_replies": [
        {
          "id": 1604,
          "content_ko": "🥶🥶🥶🥶🥶🥶무서워 당장 자러간다....",
          "content_zh": "🥶🥶🥶🥶🥶🥶好可怕，马上去睡觉了....",
          "image_count": 0,
          "image_urls": null,
          "local_image_paths": null,
          "replied_at": "2025-05-30 06:22:14"
        }
      ]
    },
    {
      "id": 773,
      "post_uuid": "01971fd7-15af-9ec1-ec08-a8074d60991f",
      "title_ko": null,
      "title_zh": null,
      "content_ko": "지은누나 진라면 조리법: 물 500ml 에 45 분 익히기!!",
      "content_zh": "知恩姐姐真拉面做法：500ml 水煮 45 分钟！！",
      "post_time": "2025-05-30 06:17:58",
      "image_count": 0,
      "image_urls": null,
      "local_image_paths": null,
      "likes": 0,
      "comments": 0,
      "views": 0,
      "board": "Dear. IU",
      "members_only": 0,
      "author_username": "한식당",
      "author_avatar": null,
      "author_local_avatar": null,
      "fan_comments": [],
      "direct_iu_replies": [
        {
          "id": 1603,
          "content_ko": "잉! 4-5분 익히기! ㅋㅋㅋ",
          "content_zh": "哎呀！4-5分钟热身！哈哈哈",
          "image_count": 0,
          "image_urls": null,
          "local_image_paths": null,
          "replied_at": "2025-05-30 06:23:13"
        }
      ]
    },
    {
      "id": 772,
      "post_uuid": "01971fd6-f6c6-d217-fd08-c2ba2b584331",
      "title_ko": null,
      "title_zh": null,
      "content_ko": "언니는 진짜 바쁜 시기에 체력이랑 마음 관리 어떻게 해요?\n이번주 매일 야근 했어요 ,, 😭",
      "content_zh": "姐姐在这么忙的时候体力和心情是怎么管理的？ 这周每天都在加班，，😭",
      "post_time": "2025-05-30 06:17:51",
      "image_count": 0,
      "image_urls": null,
      "local_image_paths": null,
      "likes": 0,
      "comments": 0,
      "views": 0,
      "board": "Dear. IU",
      "members_only": 0,
      "author_username": "아이유아이럽유",
      "author_avatar": null,
      "author_local_avatar": null,
      "fan_comments": [],
      "direct_iu_replies": [
        {
          "id": 1602,
          "content_ko": "그냥 그냥 하는 겁니다! 내가 하기로 한 거니까 그냥 일단 해!! 내일 거? 내일 것도 그냥 몰라 일단 현장 가!! 이런 식으로.. 마음 관리는\n프로젝트가 다 끝난 후에 😀",
          "content_zh": "就是随便做做的！既然我决定要做了，那就先做再说！！明天的事？明天的事也先不管了，总之先去现场！！就是这种风格...心态管理要在项目全部结束之后再说了 😀",
          "image_count": 0,
          "image_urls": null,
          "local_image_paths": null,
          "replied_at": "2025-05-30 06:25:06"
        }
      ]
    },
    {
      "id": 771,
      "post_uuid": "01971fd6-f2c8-f3b8-d54f-369526730438",
      "title_ko": null,
      "title_zh": null,
      "content_ko": "누나누나 \n\n라면 국물에 찬밥 말아먹기 vs 뜨거운 밥 말아먹기\n‼️‼️‼️‼️‼️",
      "content_zh": "姐姐姐姐\n\n用方便面汤泡冷饭吃 vs 用热饭泡着吃\n‼️‼️‼️‼️‼️",
      "post_time": "2025-05-30 06:17:50",
      "image_count": 0,
      "image_urls": null,
      "local_image_paths": null,
      "likes": 0,
      "comments": 0,
      "views": 0,
      "board": "Dear. IU",
      "members_only": 0,
      "author_username": "마음꽃갈피",
      "author_avatar": null,
      "author_local_avatar": null,
      "fan_comments": [],
      "direct_iu_replies": [
        {
          "id": 1601,
          "content_ko": "당연히 찬밥이 이거 예전에 스펀지에두 나왔다?",
          "content_zh": "当然是剩饭这个以前海绵宝宝里也出现过？",
          "image_count": 0,
          "image_urls": null,
          "local_image_paths": null,
          "replied_at": "2025-05-30 06:25:38"
        }
      ]
    },
    {
      "id": 769,
      "post_uuid": "01971fd6-03c2-5866-2da3-991e6eaa1fd2",
      "title_ko": null,
      "title_zh": null,
      "content_ko": "도전 실패🐱🙇🏼‍♀️",
      "content_zh": "挑战失败🐱🙇🏼‍♀️",
      "post_time": "2025-05-30 06:16:48",
      "image_count": 1,
      "image_urls": "https://dearimage.iu101.org/images/posts/post_769_1096555465.jpeg",
      "local_image_paths": "https://dearimage.iu101.org/images/posts/post_769_1096555465.jpeg",
      "likes": 0,
      "comments": 0,
      "views": 0,
      "board": "Dear. IU",
      "members_only": 0,
      "author_username": "우기77",
      "author_avatar": null,
      "author_local_avatar": null,
      "fan_comments": [],
      "direct_iu_replies": [
        {
          "id": 1599,
          "content_ko": "오! 완전 깔끔히 실패!",
          "content_zh": "哦！完全干净地失败了！",
          "image_count": 0,
          "image_urls": null,
          "local_image_paths": null,
          "replied_at": "2025-05-30 06:29:46"
        }
      ]
    },
    {
      "id": 803,
      "post_uuid": "01971fb3-65f2-9928-96c5-4d549d92015e",
      "title_ko": null,
      "title_zh": null,
      "content_ko": "언니, 1004 배경음 부분에서 '쓰담쓰담'라는 단어가 들리는 것 같은데 이 단어를 부르시나요🥹🥹 나의 가수, 17 년 동안 아낌없이 달려주셔서 감사합니다, 저도 언니의 머리를 쓰다듬고 싶어요, \"잘했어요 언니\"라고 말하고 싶어요.",
      "content_zh": "姐姐，在 1004 背景音乐部分好像能听到\"쓰담쓰담\"这个词，这是在唱的词吗🥹🥹 我的歌手，谢谢您 17 年来毫无保留地奔跑，我也想抚摸姐姐的头发，想对您说\"做得很好，姐姐\"。",
      "post_time": "2025-05-30 05:39:00",
      "image_count": 0,
      "image_urls": null,
      "local_image_paths": null,
      "likes": 0,
      "comments": 0,
      "views": 0,
      "board": "Dear. IU",
      "members_only": 0,
      "author_username": "아이유의크레페૮᎔•⩊•᎔ა",
      "author_avatar": "https://dearimage.iu101.org/images/avatars/avatar_7.jpeg",
      "author_local_avatar": "https://dearimage.iu101.org/images/avatars/avatar_7.jpeg",
      "fan_comments": [],
      "direct_iu_replies": [
        {
          "id": 1634,
          "content_ko": "울 크레페도 쓰담쓰담\n잘했어요",
          "content_zh": "我们的可丽饼也要摸摸",
          "image_count": 0,
          "image_urls": null,
          "local_image_paths": null,
          "replied_at": "2025-05-30 05:41:11"
        }
      ]
    },
    {
      "id": 804,
      "post_uuid": "01971fb3-679e-617d-2646-2c45b9cc99d8",
      "title_ko": null,
      "title_zh": null,
      "content_ko": "언니, berriz 덕분에 우리 외국 팬들도 당신의 메시지를 가장 먼저 받을 수 있습니다, 정말 이전보다 많이 편리해졌습니다, 당신의 10 년 이상의 팬으로서 저는 매우 행복합니다, 언니는 매번 컴백할 때마다 새로운 일이 발생합니다! 언니 감사합니다!!🥹🥹🥹🥹🥹🫶🫶🫶🫶🫶",
      "content_zh": "姐姐，多亏了 berriz，我们海外粉丝也能第一时间收到你的消息，真的比以前方便了很多，作为你十多年的粉丝，我感到非常开心，姐姐每次回归都有新的惊喜！姐姐谢谢你！！🥹🥹🥹🥹🥹🫶🫶🫶🫶🫶",
      "post_time": "2025-05-30 05:39:00",
      "image_count": 0,
      "image_urls": null,
      "local_image_paths": null,
      "likes": 0,
      "comments": 0,
      "views": 0,
      "board": "Dear. IU",
      "members_only": 0,
      "author_username": "Anan",
      "author_avatar": null,
      "author_local_avatar": null,
      "fan_comments": [],
      "direct_iu_replies": [
        {
          "id": 1635,
          "content_ko": "울 유애나와의 소통이 점점 더 편리해지기를 나두 계속 노력할게요!!",
          "content_zh": "我也会继续努力让与我们的友雅的交流越来越顺畅！！",
          "image_count": 0,
          "image_urls": null,
          "local_image_paths": null,
          "replied_at": "2025-05-30 05:40:30"
        }
      ]
    },
    {
      "id": 802,
      "post_uuid": "01971fb3-459a-51fc-48eb-59bdf9fd2bfa",
      "title_ko": null,
      "title_zh": null,
      "content_ko": "아이유 언니, '10 월 4 일' 마지막 3 분 21 초 정확히 나오는 고음 '우~' 부분의 코러스, 그 부분 진짜 쩔어서 말이 안 나와요! 레코딩 비하인드 영상 있을까요? 제 생각엔 그 코러스 언니가 만들어 낸 거죠?그 코러스 영상만 있으면 제 인생 완성인데요ㅠㅠ\n'10 월 4 일'이 노래는 제 one top 이에요～\n이 노래를 들으면, 마치 봄날 두 팔을 펼친 채 따사로운 바람을 맞이하는 것 같아요. 자유롭고도 몽환적인 느낌이에요. 그러면 아이유 언니를 알게 되어 정말 다행이라는 생각이 들어요. 정말 행복해요. 언니 덕분에 제 인생은 사랑으로 가득해졌고, 저 자신을 더 사랑하게 되었어요. 영원히 사랑할게요.🥺🥰",
      "content_zh": "IU 欧尼，在《10 月 4 日》最后 3 分 21 秒准确出现的那个高音\"呜~\"部分的副歌，那个部分真的太厉害了，让我无话可说！有录音花絮视频吗？我觉得那个副歌是欧尼自己创作的吧？如果能有那个副歌的视频，我的人生就圆满了ㅠㅠ\n《10 月 4 日》这首歌是我的最爱～\n听这首歌的时候，就像春天张开双臂迎接温暖微风的感觉一样，自由而梦幻。能够认识 IU 欧尼真的觉得很幸运，真的很幸福。因为欧尼，我的人生充满了爱，也更加爱自己了。永远爱你。🥺🥰",
      "post_time": "2025-05-30 05:38:51",
      "image_count": 0,
      "image_urls": null,
      "local_image_paths": null,
      "likes": 0,
      "comments": 0,
      "views": 0,
      "board": "Dear. IU",
      "members_only": 0,
      "author_username": "U혜이",
      "author_avatar": null,
      "author_local_avatar": null,
      "fan_comments": [],
      "direct_iu_replies": [
        {
          "id": 1633,
          "content_ko": "그 곡이 이번 앨범 첫 녹음이었는데 너무 상쾌하게 마쳤던 기억이 나요! 비하인드가 있을 거예요 6월에 기대해 주세요🫶",
          "content_zh": "那首歌是这次专辑的第一首录音，记得完成得很清爽！会有幕后花絮，6月敬请期待🫶",
          "image_count": 0,
          "image_urls": null,
          "local_image_paths": null,
          "replied_at": "2025-05-30 05:42:28"
        }
      ]
    }
  ]
}
