{
  "page": 20,
  "totalPages": 45,
  "total": 895,
  "data": [
    {
      "id": 455,
      "post_uuid": "0197a24f-9cb3-ff3e-3b3c-1118ba76be7f",
      "title_ko": null,
      "title_zh": null,
      "content_ko": "언니, 퇴근했어요?밥 잘 챙겨 먹었어요?일찍 쉬어요! 일찍 자야 해요! 언니~ 잘 자요오💗",
      "content_zh": "姐姐，下班了吗？好好吃饭了吗？早点休息！要早睡哦！姐姐~晚安💗",
      "post_time": "2025-06-24 14:20:15",
      "image_count": 0,
      "image_urls": null,
      "local_image_paths": null,
      "likes": 0,
      "comments": 0,
      "views": 0,
      "board": "Dear. IU",
      "members_only": 0,
      "author_username": "지은언니짱이야♡보니",
      "author_avatar": "https://dearimage.iu101.org/images/avatars/avatar_68.jpg",
      "author_local_avatar": "https://dearimage.iu101.org/images/avatars/avatar_68.jpg",
      "fan_comments": [],
      "direct_iu_replies": [
        {
          "id": 1281,
          "content_ko": "오늘은 좀 일찍 자려구! 역시 집이 최고네애 🥰",
          "content_zh": "今天想早点睡觉！果然家里最好了 🥰",
          "image_count": 0,
          "image_urls": null,
          "local_image_paths": null,
          "replied_at": "2025-06-24 14:25:26"
        }
      ]
    },
    {
      "id": 454,
      "post_uuid": "0197a24e-2b87-b1cd-0581-dae61fe56a98",
      "title_ko": null,
      "title_zh": null,
      "content_ko": "지은아, 둘 중에 하나만 골라봐!\n유애나가 해준 밥 먹기 vs 유애나가 너가 끓인 라면 먹기! 🍚🍜",
      "content_zh": "智恩啊，只能选其中一个哦！\n吃由爱娜做的饭 VS 吃由爱娜吃的你煮的拉面！ 🍚🍜",
      "post_time": "2025-06-24 14:18:41",
      "image_count": 0,
      "image_urls": null,
      "local_image_paths": null,
      "likes": 0,
      "comments": 0,
      "views": 0,
      "board": "Dear. IU",
      "members_only": 0,
      "author_username": "도리~",
      "author_avatar": "https://dearimage.iu101.org/images/avatars/avatar_372.jpeg",
      "author_local_avatar": "https://dearimage.iu101.org/images/avatars/avatar_372.jpeg",
      "fan_comments": [],
      "direct_iu_replies": [
        {
          "id": 1280,
          "content_ko": "나 라면 제법인데 날 더 좋아하지 않을 자신 있나 자네들?",
          "content_zh": "我泡面做得不错，你们有信心比我更喜欢面条吗？",
          "image_count": 0,
          "image_urls": null,
          "local_image_paths": null,
          "replied_at": "2025-06-24 14:26:18"
        }
      ]
    },
    {
      "id": 453,
      "post_uuid": "0197a24d-0f13-7ba5-af21-eb46e2d383cb",
      "title_ko": null,
      "title_zh": null,
      "content_ko": "지은아, 이제 퇴근했어…?",
      "content_zh": "智恩啊，现在下班了吗…？",
      "post_time": "2025-06-24 14:17:28",
      "image_count": 0,
      "image_urls": null,
      "local_image_paths": null,
      "likes": 0,
      "comments": 0,
      "views": 0,
      "board": "Dear. IU",
      "members_only": 0,
      "author_username": "파김치",
      "author_avatar": "https://dearimage.iu101.org/images/avatars/avatar_39.jpeg",
      "author_local_avatar": "https://dearimage.iu101.org/images/avatars/avatar_39.jpeg",
      "fan_comments": [],
      "direct_iu_replies": [
        {
          "id": 1279,
          "content_ko": "웅 집이야!!",
          "content_zh": "嗯在家呢！！",
          "image_count": 0,
          "image_urls": null,
          "local_image_paths": null,
          "replied_at": "2025-06-24 14:26:45"
        }
      ]
    },
    {
      "id": 452,
      "post_uuid": "0197a24b-9afe-7322-7fb3-bc8c4aeb9622",
      "title_ko": null,
      "title_zh": null,
      "content_ko": "언니!!\n대사가 많아서 힘들다고 했지만 희주는 일을 잘했어 ⁇",
      "content_zh": "姐姐！！",
      "post_time": "2025-06-24 14:15:53",
      "image_count": 0,
      "image_urls": null,
      "local_image_paths": null,
      "likes": 0,
      "comments": 0,
      "views": 0,
      "board": "Dear. IU",
      "members_only": 0,
      "author_username": "♡토와♡",
      "author_avatar": "https://dearimage.iu101.org/images/avatars/avatar_215.jpeg",
      "author_local_avatar": "https://dearimage.iu101.org/images/avatars/avatar_215.jpeg",
      "fan_comments": [],
      "direct_iu_replies": [
        {
          "id": 1278,
          "content_ko": "응! 엔지 없었어! 🤩",
          "content_zh": "嗯！没有NG！🤩",
          "image_count": 0,
          "image_urls": null,
          "local_image_paths": null,
          "replied_at": "2025-06-24 14:28:45"
        }
      ]
    },
    {
      "id": 451,
      "post_uuid": "0197a24a-618e-8a14-59e0-d002d503039f",
      "title_ko": null,
      "title_zh": null,
      "content_ko": "팥빙수 러버 울 언니 오늘 마시는 팥빙수에 과일까지 먹었다고 들었어용\n간식들이 완전 언니 취향 듬뿍이잖아~! 🍧\n\n멀리서도 잘 챙겨먹는 것 같아서 맘 좋타.. 오늘 하루 어땠어요~? 어떤 행운 발견했어~? 🍀🩵",
      "content_zh": "听说今天红豆刨冰爱好者乌尔欧尼喝的红豆刨冰里还加了水果呢\n这些小食完全都是欧尼喜欢的风格啊~！ 🍧\n\n看起来即使远在外地也好好照顾自己，真让人开心.. 今天过得怎么样~？有什么好运的发现吗~？ 🍀🩵",
      "post_time": "2025-06-24 14:14:33",
      "image_count": 1,
      "image_urls": "https://dearimage.iu101.org/images/posts/post_451_1437444647.jpeg",
      "local_image_paths": "https://dearimage.iu101.org/images/posts/post_451_1437444647.jpeg",
      "likes": 0,
      "comments": 0,
      "views": 0,
      "board": "Dear. IU",
      "members_only": 0,
      "author_username": "말랑찹쌀떡",
      "author_avatar": "https://dearimage.iu101.org/images/avatars/avatar_29.jpeg",
      "author_local_avatar": "https://dearimage.iu101.org/images/avatars/avatar_29.jpeg",
      "fan_comments": [],
      "direct_iu_replies": [
        {
          "id": 1277,
          "content_ko": "아 너뮤 맛있고 든든한 팥빙수 내일도 먹어야지",
          "content_zh": "啊又好吃又饱腹的红豆刨冰明天也要吃",
          "image_count": 0,
          "image_urls": null,
          "local_image_paths": null,
          "replied_at": "2025-06-24 14:29:44"
        }
      ]
    },
    {
      "id": 450,
      "post_uuid": "0197a245-febb-65dc-38c4-e2038ebf4567",
      "title_ko": null,
      "title_zh": null,
      "content_ko": "언니 저는 자려고 누웠어요~~~오늘 아침부터 촬영하느라 고생 많았어요🫳🫳🫳\n새벽퇴근은 아니길...푹 자길🤍꿈에서 만나길!!!!!!",
      "content_zh": "姐姐我躺下准备睡觉了~~~~ 今天早上开始拍摄辛苦了🫳🫳🫳\n希望不是凌晨下班...好好睡一觉吧🤍梦里见!!!!!!",
      "post_time": "2025-06-24 14:09:45",
      "image_count": 0,
      "image_urls": null,
      "local_image_paths": null,
      "likes": 0,
      "comments": 0,
      "views": 0,
      "board": "Dear. IU",
      "members_only": 0,
      "author_username": "졔림",
      "author_avatar": "https://dearimage.iu101.org/images/avatars/avatar_221.jpeg",
      "author_local_avatar": "https://dearimage.iu101.org/images/avatars/avatar_221.jpeg",
      "fan_comments": [],
      "direct_iu_replies": [
        {
          "id": 1276,
          "content_ko": "나도 누웠어! 짧고 굵은 출장이었다",
          "content_zh": "我也躺下了！短暂而充实的出差",
          "image_count": 0,
          "image_urls": null,
          "local_image_paths": null,
          "replied_at": "2025-06-24 14:31:33"
        }
      ]
    },
    {
      "id": 449,
      "post_uuid": "0197a243-e589-54af-e71a-ae26a34719f9",
      "title_ko": null,
      "title_zh": null,
      "content_ko": "언니 피부 뒤집혔을 때 어떻게 해야되나요ㅜㅜ 저 너무 서러워요😭 언제쯤 원상복귀 될 수 있을까…",
      "content_zh": "姐姐皮肤过敏的时候怎么办ㅜㅜ 我太委屈了😭什么时候才能恢复原状...",
      "post_time": "2025-06-24 14:07:28",
      "image_count": 0,
      "image_urls": null,
      "local_image_paths": null,
      "likes": 0,
      "comments": 0,
      "views": 0,
      "board": "Dear. IU",
      "members_only": 0,
      "author_username": "송은채",
      "author_avatar": null,
      "author_local_avatar": null,
      "fan_comments": [],
      "direct_iu_replies": [
        {
          "id": 1275,
          "content_ko": "나도 그런 적 있는데 그냥 아무것도 하지 말고 바르지 말아 봐!",
          "content_zh": "我也经历过，就什么都别做，也别擦试试看！",
          "image_count": 0,
          "image_urls": null,
          "local_image_paths": null,
          "replied_at": "2025-06-24 14:32:59"
        }
      ]
    },
    {
      "id": 448,
      "post_uuid": "0197a242-f03a-4a25-9cc0-8b9ccb0788db",
      "title_ko": null,
      "title_zh": null,
      "content_ko": "지은웅니~ 언니가 말한대로 오늘의 행운 하나 찾아왓어요!! 오늘 전 저녁으로 짜파게티를 먹은 게 행운이었어요🍀\n비록 살은 찌겠지만.. 행복했으니 장땡🤤\n언니에겐 매일 매일 행운과 행복이 가득했으면 좋겠어요💜",
      "content_zh": "知道了~按照姐姐说的，今天也找到了一个幸运！今天晚上吃炸酱面就是我的幸运🍀\n虽然可能会胖...但开心就好🤤\n希望姐姐每天都充满幸运和幸福💜",
      "post_time": "2025-06-24 14:06:25",
      "image_count": 0,
      "image_urls": null,
      "local_image_paths": null,
      "likes": 0,
      "comments": 0,
      "views": 0,
      "board": "Dear. IU",
      "members_only": 0,
      "author_username": "옙삐",
      "author_avatar": null,
      "author_local_avatar": null,
      "fan_comments": [],
      "direct_iu_replies": [
        {
          "id": 1274,
          "content_ko": "짜파게티.. 넘 맛있지🤤 난 내일 휴차 돼서 떡볶이랑 잔치국수 먹으려고!!",
          "content_zh": "炸酱面..太好吃了🤤我明天休息所以打算吃辣年糕和庆典冷面！！",
          "image_count": 0,
          "image_urls": null,
          "local_image_paths": null,
          "replied_at": "2025-06-24 14:34:06"
        }
      ]
    },
    {
      "id": 467,
      "post_uuid": "01979f19-2b3b-e97f-d31e-89f36524dcd2",
      "title_ko": null,
      "title_zh": null,
      "content_ko": "언니 오늘  뭐 먹고 싶어? 묵참김밥이요?",
      "content_zh": "姐姐今天想吃什么？紫菜包饭吗？",
      "post_time": "2025-06-23 23:21:56",
      "image_count": 0,
      "image_urls": null,
      "local_image_paths": null,
      "likes": 0,
      "comments": 0,
      "views": 0,
      "board": "Dear. IU",
      "members_only": 0,
      "author_username": "버블티",
      "author_avatar": "https://dearimage.iu101.org/images/avatars/avatar_3.jpg",
      "author_local_avatar": "https://dearimage.iu101.org/images/avatars/avatar_3.jpg",
      "fan_comments": [],
      "direct_iu_replies": [
        {
          "id": 1293,
          "content_ko": "참치샐러드 김밥 이미 먹고 있어🌝",
          "content_zh": "金枪鱼沙拉紫菜包饭已经在吃了🌝",
          "image_count": 0,
          "image_urls": null,
          "local_image_paths": null,
          "replied_at": "2025-06-23 23:24:01"
        }
      ]
    },
    {
      "id": 466,
      "post_uuid": "01979f15-2b4a-9345-1475-6b870f950bfc",
      "title_ko": null,
      "title_zh": null,
      "content_ko": "언니 촬영 화이팅!!!",
      "content_zh": "姐姐拍摄加油！！！",
      "post_time": "2025-06-23 23:17:34",
      "image_count": 0,
      "image_urls": null,
      "local_image_paths": null,
      "likes": 0,
      "comments": 0,
      "views": 0,
      "board": "Dear. IU",
      "members_only": 0,
      "author_username": "lover",
      "author_avatar": null,
      "author_local_avatar": null,
      "fan_comments": [],
      "direct_iu_replies": [
        {
          "id": 1292,
          "content_ko": "아 파이티이이이잉!!!! 😖😖😖",
          "content_zh": "啊加油加油加油！！！😖😖😖",
          "image_count": 0,
          "image_urls": null,
          "local_image_paths": null,
          "replied_at": "2025-06-23 23:24:40"
        }
      ]
    },
    {
      "id": 465,
      "post_uuid": "01979f14-8a29-3fc1-ac1e-3f8f202146b9",
      "title_ko": null,
      "title_zh": null,
      "content_ko": "오늘의 행운은 출근길 지하철에서 앉아서 갈수있다는 겁니당 ㅋㅋㅋㅋ 🍀 징쨩의 소소한 오늘의 행운은 뭔가요? \n\n",
      "content_zh": "今天的幸运是在上班路上的地铁里能坐着去 ㅋㅋㅋㅋ 🍀 智恩的小小今日幸运是什么呢？",
      "post_time": "2025-06-23 23:16:52",
      "image_count": 0,
      "image_urls": null,
      "local_image_paths": null,
      "likes": 0,
      "comments": 0,
      "views": 0,
      "board": "Dear. IU",
      "members_only": 0,
      "author_username": "데비드",
      "author_avatar": "https://dearimage.iu101.org/images/avatars/avatar_189.webp",
      "author_local_avatar": "https://dearimage.iu101.org/images/avatars/avatar_189.webp",
      "fan_comments": [],
      "direct_iu_replies": [
        {
          "id": 1291,
          "content_ko": "알람 시간보다 딱 1분 먼저 일어나서 시끄러운 알람 소리를 안 듣고 하루를 시작한 것입니다 😌",
          "content_zh": "比闹钟时间提前1分钟醒来，不听刺耳的闹钟声开始一天 😌",
          "image_count": 0,
          "image_urls": null,
          "local_image_paths": null,
          "replied_at": "2025-06-23 23:25:30"
        }
      ]
    },
    {
      "id": 464,
      "post_uuid": "01979f12-ed0f-eb52-e64f-ba8d209ec55a",
      "title_ko": null,
      "title_zh": null,
      "content_ko": "으아 언니! 저 오늘 생일 이에요! 벌써 행운 하나 찾았따! 🍀 오늘 하루  열심히 보내볼게요! 안녕~! ",
      "content_zh": "啊啊姐姐！我今天生日！已经找到了一个幸运！🍀今天一天会努力过的！再见~！",
      "post_time": "2025-06-23 23:15:07",
      "image_count": 0,
      "image_urls": null,
      "local_image_paths": null,
      "likes": 0,
      "comments": 0,
      "views": 0,
      "board": "Dear. IU",
      "members_only": 0,
      "author_username": "아이닝",
      "author_avatar": null,
      "author_local_avatar": null,
      "fan_comments": [],
      "direct_iu_replies": [
        {
          "id": 1290,
          "content_ko": "으아 생일 축하해!!!🥳🎂🎁",
          "content_zh": "啊生日快乐！！！🥳🎂🎁",
          "image_count": 0,
          "image_urls": null,
          "local_image_paths": null,
          "replied_at": "2025-06-23 23:25:58"
        }
      ]
    },
    {
      "id": 463,
      "post_uuid": "01979f0e-4311-c570-ec70-f9a84bc784e4",
      "title_ko": null,
      "title_zh": null,
      "content_ko": "언니 굿모닝~☀️(아직 잘 수도 있겠다..)\n오늘도 화이팅 해!!!\n늦게 잤으니까 오늘 늦잠 마니 자~",
      "content_zh": "姐姐早上好~☀️（可能还在睡吧..）\n今天也要加油哦！！\n因为睡得晚，今天要多睡一会儿~",
      "post_time": "2025-06-23 23:10:01",
      "image_count": 0,
      "image_urls": null,
      "local_image_paths": null,
      "likes": 0,
      "comments": 0,
      "views": 0,
      "board": "Dear. IU",
      "members_only": 0,
      "author_username": "lover",
      "author_avatar": null,
      "author_local_avatar": null,
      "fan_comments": [],
      "direct_iu_replies": [
        {
          "id": 1289,
          "content_ko": "일어났지 모야 😀 고마워!!! \n오늘 하루 파이팅!!",
          "content_zh": "醒了呀模呀😀 谢谢！！",
          "image_count": 0,
          "image_urls": null,
          "local_image_paths": null,
          "replied_at": "2025-06-23 23:27:21"
        }
      ]
    },
    {
      "id": 462,
      "post_uuid": "01979f09-1f0f-febe-d669-435e091c5b23",
      "title_ko": null,
      "title_zh": null,
      "content_ko": "자고 일어나면 제일 먼저 지은이랑 인사하는 거예요.💜💜",
      "content_zh": "睡醒后第一件事就是跟智恩打招呼。💜💜",
      "post_time": "2025-06-23 23:04:24",
      "image_count": 0,
      "image_urls": null,
      "local_image_paths": null,
      "likes": 0,
      "comments": 0,
      "views": 0,
      "board": "Dear. IU",
      "members_only": 0,
      "author_username": "IU의작은마이크",
      "author_avatar": null,
      "author_local_avatar": null,
      "fan_comments": [],
      "direct_iu_replies": [
        {
          "id": 1288,
          "content_ko": "안녕 잘 잤어? 💜",
          "content_zh": "你好睡得好吗？💜",
          "image_count": 0,
          "image_urls": null,
          "local_image_paths": null,
          "replied_at": "2025-06-23 23:27:56"
        }
      ]
    },
    {
      "id": 461,
      "post_uuid": "01979ef0-0bd5-a629-7762-0a872e7be9be",
      "title_ko": null,
      "title_zh": null,
      "content_ko": "설마 오늘 오전촬영인거 아니죠?",
      "content_zh": "难道今天上午是拍摄吗？",
      "post_time": "2025-06-23 22:37:01",
      "image_count": 1,
      "image_urls": "https://dearimage.iu101.org/images/posts/post_461_1268774265.gif",
      "local_image_paths": "https://dearimage.iu101.org/images/posts/post_461_1268774265.gif",
      "likes": 0,
      "comments": 0,
      "views": 0,
      "board": "Dear. IU",
      "members_only": 0,
      "author_username": "미니언",
      "author_avatar": "https://dearimage.iu101.org/images/avatars/avatar_89.gif",
      "author_local_avatar": "https://dearimage.iu101.org/images/avatars/avatar_89.gif",
      "fan_comments": [],
      "direct_iu_replies": [
        {
          "id": 1287,
          "content_ko": "(눈물 흘리는 금명이 짤..)",
          "content_zh": "（流泪的金明表情包..）",
          "image_count": 0,
          "image_urls": null,
          "local_image_paths": null,
          "replied_at": "2025-06-23 23:29:54"
        }
      ]
    },
    {
      "id": 460,
      "post_uuid": "01979eaa-b056-d15a-051a-58ff8b809d6d",
      "title_ko": null,
      "title_zh": null,
      "content_ko": "IU❤️오늘 미국 뉴욕으로 출발해요! 장거리 비행은 처음이라 좀 떨려요!!! 너무 피곤하지 마세요!",
      "content_zh": "IU❤️今天出发去美国纽约！第一次长途飞行有点紧张!!!不要太累哦！",
      "post_time": "2025-06-23 21:21:15",
      "image_count": 0,
      "image_urls": null,
      "local_image_paths": null,
      "likes": 0,
      "comments": 0,
      "views": 0,
      "board": "Dear. IU",
      "members_only": 0,
      "author_username": "IEvanU",
      "author_avatar": null,
      "author_local_avatar": null,
      "fan_comments": [],
      "direct_iu_replies": [
        {
          "id": 1286,
          "content_ko": "조심히 잘 다녀와요! 재밌는 시간 보내구!! 💗",
          "content_zh": "小心回来！度过愉快的时光！！💗",
          "image_count": 0,
          "image_urls": null,
          "local_image_paths": null,
          "replied_at": "2025-06-23 23:44:56"
        }
      ]
    },
    {
      "id": 459,
      "post_uuid": "01979e80-c002-576a-7e9a-f529cf26ee5e",
      "title_ko": null,
      "title_zh": null,
      "content_ko": "요새 여름 노을이 너무 이뻐서 해가지는 순간마다 기대하면서 창밖을 보게 돼!!!!! 요즘의 나의 행운이 매일 매순간 있어서 행복해 이유야~~",
      "content_zh": "最近夏天的晚霞太美了，每当太阳落下的瞬间都满怀期待地看着窗外!!!!!最近我的幸运时刻不断，所以很幸福呢~~",
      "post_time": "2025-06-23 20:35:27",
      "image_count": 1,
      "image_urls": "https://dearimage.iu101.org/images/posts/post_459_267243134.jpg",
      "local_image_paths": "https://dearimage.iu101.org/images/posts/post_459_267243134.jpg",
      "likes": 0,
      "comments": 0,
      "views": 0,
      "board": "Dear. IU",
      "members_only": 0,
      "author_username": "나도홀씨",
      "author_avatar": null,
      "author_local_avatar": null,
      "fan_comments": [],
      "direct_iu_replies": [
        {
          "id": 1285,
          "content_ko": "완전 저녁 7시 하늘의 팔레트 그 자체다!!!",
          "content_zh": "完全是晚上7点天空的调色板本身！！！",
          "image_count": 0,
          "image_urls": null,
          "local_image_paths": null,
          "replied_at": "2025-06-23 23:46:36"
        }
      ]
    },
    {
      "id": 471,
      "post_uuid": "0197978e-e0d6-fa30-366e-c33f5aff2307",
      "title_ko": null,
      "title_zh": null,
      "content_ko": "언니 오늘 왤케 자주와 감동받아서 눈물나게",
      "content_zh": "姐姐今天怎么这么频繁地来让我感动得流泪",
      "post_time": "2025-06-22 12:13:32",
      "image_count": 0,
      "image_urls": null,
      "local_image_paths": null,
      "likes": 0,
      "comments": 0,
      "views": 0,
      "board": "Dear. IU",
      "members_only": 0,
      "author_username": "정마니",
      "author_avatar": "https://dearimage.iu101.org/images/avatars/avatar_440.jpeg",
      "author_local_avatar": "https://dearimage.iu101.org/images/avatars/avatar_440.jpeg",
      "fan_comments": [],
      "direct_iu_replies": [
        {
          "id": 1297,
          "content_ko": "나 내일이랑 모레는 못 올 수도 있어! 🥺\n올 수 있을 때 최대한 많이 와야지!! ",
          "content_zh": "我明天和后天可能来不了！🥺\n能来的时候一定要尽量多来！！",
          "image_count": 0,
          "image_urls": null,
          "local_image_paths": null,
          "replied_at": "2025-06-22 12:16:38"
        }
      ]
    },
    {
      "id": 470,
      "post_uuid": "0197978e-cd1d-27a5-7794-9cd749b4d36c",
      "title_ko": null,
      "title_zh": null,
      "content_ko": "언니, 이제 짐 다 싸셨나요, 아니면 아직도 미루고 있나요? 😅",
      "content_zh": "姐姐，行李都收拾好了吗，还是还在拖延？😅",
      "post_time": "2025-06-22 12:13:27",
      "image_count": 0,
      "image_urls": null,
      "local_image_paths": null,
      "likes": 0,
      "comments": 0,
      "views": 0,
      "board": "Dear. IU",
      "members_only": 0,
      "author_username": "Elyka",
      "author_avatar": "https://dearimage.iu101.org/images/avatars/avatar_115.jpeg",
      "author_local_avatar": "https://dearimage.iu101.org/images/avatars/avatar_115.jpeg",
      "fan_comments": [],
      "direct_iu_replies": [
        {
          "id": 1296,
          "content_ko": "진짜 미치겠다 짐 싸기 싫어서...😻",
          "content_zh": "真的快疯了不想收拾行李...😻",
          "image_count": 0,
          "image_urls": null,
          "local_image_paths": null,
          "replied_at": "2025-06-22 12:17:18"
        }
      ]
    },
    {
      "id": 469,
      "post_uuid": "0197978e-1b11-941f-4be5-5177bddf6fa6",
      "title_ko": null,
      "title_zh": null,
      "content_ko": "언니, 내일 촬영 잘 되길 바래요🫶",
      "content_zh": "姐姐，希望明天拍摄顺利🫶",
      "post_time": "2025-06-22 12:12:42",
      "image_count": 0,
      "image_urls": null,
      "local_image_paths": null,
      "likes": 0,
      "comments": 0,
      "views": 0,
      "board": "Dear. IU",
      "members_only": 0,
      "author_username": "今天听Palette了吗",
      "author_avatar": "https://dearimage.iu101.org/images/avatars/avatar_304.jpeg",
      "author_local_avatar": "https://dearimage.iu101.org/images/avatars/avatar_304.jpeg",
      "fan_comments": [],
      "direct_iu_replies": [
        {
          "id": 1295,
          "content_ko": "고마워 🫶",
          "content_zh": "谢谢 🫶",
          "image_count": 0,
          "image_urls": null,
          "local_image_paths": null,
          "replied_at": "2025-06-22 12:21:32"
        }
      ]
    }
  ]
}