{
  "page": 25,
  "totalPages": 45,
  "total": 895,
  "data": [
    {
      "id": 558,
      "post_uuid": "01977feb-f07d-c4e7-c2dd-834090a50b98",
      "title_ko": null,
      "title_zh": null,
      "content_ko": "언니.. 나 모기 물렸어 ㅠㅠㅠ\n목에 물린건 첨이야아..🦟 사실 목 말고도 팔과 다리에 10 방 이상 물렸지이..🥲",
      "content_zh": "姐姐.. 我被蚊子咬了 ㅠㅠㅠ\n脖子被咬还是第一次呢..🦟 其实除了脖子，胳膊和腿也被咬了 10 多处..🥲",
      "post_time": "2025-06-17 22:04:18",
      "image_count": 1,
      "image_urls": "https://dearimage.iu101.org/images/posts/post_558_157813179.jpeg",
      "local_image_paths": "https://dearimage.iu101.org/images/posts/post_558_157813179.jpeg",
      "likes": 0,
      "comments": 0,
      "views": 0,
      "board": "Dear. IU",
      "members_only": 0,
      "author_username": "우리집알감자",
      "author_avatar": "https://dearimage.iu101.org/images/avatars/avatar_44.jpeg",
      "author_local_avatar": "https://dearimage.iu101.org/images/avatars/avatar_44.jpeg",
      "fan_comments": [],
      "direct_iu_replies": [
        {
          "id": 1385,
          "content_ko": "와..뭐 하는 xx냐 그거.. 너무 포식해서 날지도 못 하고 있을 듯...!!! 너무 열받음!! 🤬\n👏!! 처리 완료.",
          "content_zh": "哇..什么xx在做那个..太贪婪了都飞不起来了...！！太生气了！！ 🤬 👏！！处理完毕。",
          "image_count": 0,
          "image_urls": null,
          "local_image_paths": null,
          "replied_at": "2025-06-17 22:55:00"
        }
      ]
    },
    {
      "id": 557,
      "post_uuid": "01977feb-cd38-6ed4-8804-a4972d690dab",
      "title_ko": null,
      "title_zh": null,
      "content_ko": "언니 ㅠㅠ 저 악몽 꿨어요… 너무 무서웠어요… 위로해줘요…🥺😭😭",
      "content_zh": "姐姐，忙碌工作一天结束后，感到\"啊今天我做得很好\"的时候，",
      "post_time": "2025-06-17 22:04:09",
      "image_count": 0,
      "image_urls": null,
      "local_image_paths": null,
      "likes": 0,
      "comments": 0,
      "views": 0,
      "board": "Dear. IU",
      "members_only": 0,
      "author_username": "Qing",
      "author_avatar": null,
      "author_local_avatar": null,
      "fan_comments": [],
      "direct_iu_replies": [
        {
          "id": 1384,
          "content_ko": "아이공 무서워쪄... 꿈이야 🫂 괜찮아",
          "content_zh": "哎呀害怕...是梦 🫂 没事的",
          "image_count": 0,
          "image_urls": null,
          "local_image_paths": null,
          "replied_at": "2025-06-17 22:55:38"
        }
      ]
    },
    {
      "id": 556,
      "post_uuid": "01977fe9-802e-0285-4c68-f830fa7c888c",
      "title_ko": null,
      "title_zh": null,
      "content_ko": "언니,잠이모자란상태에서어떻게활력을유지할수있어요？",
      "content_zh": "姐姐！！毛茸茸的头发太可爱了！！😍💗",
      "post_time": "2025-06-17 22:01:38",
      "image_count": 1,
      "image_urls": "https://dearimage.iu101.org/images/posts/post_556_1519528890.jpg",
      "local_image_paths": "https://dearimage.iu101.org/images/posts/post_556_1519528890.jpg",
      "likes": 0,
      "comments": 0,
      "views": 0,
      "board": "Dear. IU",
      "members_only": 0,
      "author_username": "章瑜歌",
      "author_avatar": null,
      "author_local_avatar": null,
      "fan_comments": [],
      "direct_iu_replies": [
        {
          "id": 1383,
          "content_ko": "그 상태에서 가만 주변을 보면 반드시 나보다 더 활력이 떨어져 있는 사람이 있어! 그 사람한테 장난을 걸면 웃기면서 둘이 같이 활력 업 🙂‍↕️",
          "content_zh": "那种状态下，你只要静静观察周围，就一定能找到比我更没精神的人！跟那个人开开玩笑，两个人一起乐呵乐呵，活力值也就上来了 🙂‍↕️",
          "image_count": 0,
          "image_urls": null,
          "local_image_paths": null,
          "replied_at": "2025-06-17 22:58:32"
        }
      ]
    },
    {
      "id": 555,
      "post_uuid": "01977fe8-77df-47c9-579a-71e67a66edac",
      "title_ko": null,
      "title_zh": null,
      "content_ko": "언니는 바쁘게 일한 날 끝나고 ‘아 오늘 나 잘했어’라고 느낄 때,\n스스로한테 어떤 보상을 해줘요??",
      "content_zh": "姐姐真的好想你~这段时间太辛苦了。真的需要你，也需要幸福 ><",
      "post_time": "2025-06-17 22:00:30",
      "image_count": 0,
      "image_urls": null,
      "local_image_paths": null,
      "likes": 0,
      "comments": 0,
      "views": 0,
      "board": "Dear. IU",
      "members_only": 0,
      "author_username": "Keila",
      "author_avatar": "https://dearimage.iu101.org/images/avatars/avatar_259.jpeg",
      "author_local_avatar": "https://dearimage.iu101.org/images/avatars/avatar_259.jpeg",
      "fan_comments": [],
      "direct_iu_replies": [
        {
          "id": 1382,
          "content_ko": "크림빵....?",
          "content_zh": "奶油面包....？",
          "image_count": 0,
          "image_urls": null,
          "local_image_paths": null,
          "replied_at": "2025-06-17 22:58:56"
        }
      ]
    },
    {
      "id": 554,
      "post_uuid": "01977fe5-9f16-d71f-5bda-9ca6b6308107",
      "title_ko": null,
      "title_zh": null,
      "content_ko": "언니!! 복슬복슬 머리 너무 귀여워요!! 😍💗\n촬영 때문에 하신 거예요, 아니면 그냥 하고 싶으셨던 거예요? 🥰",
      "content_zh": "姐姐！！毛茸茸的头发太可爱了！！😍💗\n这是为了拍摄才做的造型吗，还是说你本来就想要这样呢？🥰",
      "post_time": "2025-06-17 21:57:24",
      "image_count": 2,
      "image_urls": "https://dearimage.iu101.org/images/posts/post_554_1713669592.jpeg",
      "local_image_paths": "https://dearimage.iu101.org/images/posts/post_554_1713669592.jpeg|https://dearimage.iu101.org/images/posts/post_554_1502550987.jpeg",
      "likes": 0,
      "comments": 0,
      "views": 0,
      "board": "Dear. IU",
      "members_only": 0,
      "author_username": "Zazu's핫딸기차",
      "author_avatar": "https://dearimage.iu101.org/images/avatars/avatar_48.jpeg",
      "author_local_avatar": "https://dearimage.iu101.org/images/avatars/avatar_48.jpeg",
      "fan_comments": [],
      "direct_iu_replies": [
        {
          "id": 1381,
          "content_ko": "이거 하루 종일 땋고 있다가 풀어서 저렇게 된 거예요ㅋㅋ",
          "content_zh": "这个整天编着辫子解开后变成那样的哈哈",
          "image_count": 0,
          "image_urls": null,
          "local_image_paths": null,
          "replied_at": "2025-06-17 23:00:23"
        }
      ]
    },
    {
      "id": 553,
      "post_uuid": "01977fe3-7e64-6da6-3de7-a5b187db6244",
      "title_ko": null,
      "title_zh": null,
      "content_ko": "언니가 정말 보고 싶어요~ 그동안 너무 힘들었어요. 정말 당신이 필요하고 행복도 필요해요 ><",
      "content_zh": "姐姐，今年有出道 17 周年 FAN CONCERT 吗🥹？（我想见姐姐 🥹，但担心姐姐休息时间不够 🥹 姐姐一定要健康！）",
      "post_time": "2025-06-17 21:55:04",
      "image_count": 0,
      "image_urls": null,
      "local_image_paths": null,
      "likes": 0,
      "comments": 0,
      "views": 0,
      "board": "Dear. IU",
      "members_only": 0,
      "author_username": "지은이초콜릿먹고싶어요",
      "author_avatar": null,
      "author_local_avatar": null,
      "fan_comments": [],
      "direct_iu_replies": [
        {
          "id": 1380,
          "content_ko": "그랬어? 힘들었구나 ㅜㅜ 이제 다 지나가고 있을 거야💗 행복해지자",
          "content_zh": "是吗？辛苦了 ㅜㅜ 现在都过去了💗 幸福起来吧",
          "image_count": 0,
          "image_urls": null,
          "local_image_paths": null,
          "replied_at": "2025-06-17 23:02:03"
        }
      ]
    },
    {
      "id": 552,
      "post_uuid": "01977fe1-df3d-4136-0071-633e89a00040",
      "title_ko": null,
      "title_zh": null,
      "content_ko": "아이유 언니~ 오늘 뭐 먹을까요??\n언니의 추천 메뉴 기다리는 중이에요 ",
      "content_zh": "\"姐姐，还记得这是什么时候吗🤫？\"",
      "post_time": "2025-06-17 21:53:18",
      "image_count": 0,
      "image_urls": null,
      "local_image_paths": null,
      "likes": 0,
      "comments": 0,
      "views": 0,
      "board": "Dear. IU",
      "members_only": 0,
      "author_username": "Keila",
      "author_avatar": "https://dearimage.iu101.org/images/avatars/avatar_259.jpeg",
      "author_local_avatar": "https://dearimage.iu101.org/images/avatars/avatar_259.jpeg",
      "fan_comments": [],
      "direct_iu_replies": [
        {
          "id": 1379,
          "content_ko": "아침이니까 마일드하게 기본 김밥?\n오늘 좀 든든하고 싶으면 참치 김밥\n오늘 특별하게 보내고 싶다? 소세지 김밥.",
          "content_zh": "早上就温和点基本泡菜卷？ 今天想吃得饱点就金枪鱼泡菜卷 今天想特别度过？香肠泡菜卷。",
          "image_count": 0,
          "image_urls": null,
          "local_image_paths": null,
          "replied_at": "2025-06-17 23:03:25"
        }
      ]
    },
    {
      "id": 551,
      "post_uuid": "01977fd9-12d7-7d1f-3640-9c02fa7d6880",
      "title_ko": null,
      "title_zh": null,
      "content_ko": "언니, 올해 데뷔 17 주년 FAN CONCERT 가 있나요🥹?（나는 언니를 만나고 싶어 🥹, 하지만 언니의 휴식 시간이 부족할까봐 걱정돼 🥹 언니는 반드시 건강해야 해!）",
      "content_zh": "姐姐，今年有出道 17 周年粉丝演唱会吗？🥹（我想见姐姐🥹，但又担心姐姐休息时间不够🥹 姐姐一定要保重身体！）",
      "post_time": "2025-06-17 21:43:42",
      "image_count": 0,
      "image_urls": null,
      "local_image_paths": null,
      "likes": 0,
      "comments": 0,
      "views": 0,
      "board": "Dear. IU",
      "members_only": 0,
      "author_username": "7iu^^",
      "author_avatar": "https://dearimage.iu101.org/images/avatars/avatar_4.jpeg",
      "author_local_avatar": "https://dearimage.iu101.org/images/avatars/avatar_4.jpeg",
      "fan_comments": [],
      "direct_iu_replies": [
        {
          "id": 1378,
          "content_ko": "올해는 만약 시간이 된다면 팬콘서트 말고 오랜만에 팬미팅을 하면 어떨까 생각 중이야 대화도 많이 하고. 가끔은 좀 예전처럼 오붓한 분위기에서 유애나와 놀고 싶어 🙂‍↕️",
          "content_zh": "今年如果时间允许的话，我想久违地办一次粉丝见面会，而不是演唱会，可以多聊聊天。偶尔也想像以前一样，在温馨的氛围中和尤爱玩一玩 🙂‍↕️",
          "image_count": 0,
          "image_urls": null,
          "local_image_paths": null,
          "replied_at": "2025-06-17 23:06:43"
        }
      ]
    },
    {
      "id": 550,
      "post_uuid": "01977fd1-c95c-1386-537b-bd41ee772c1d",
      "title_ko": null,
      "title_zh": null,
      "content_ko": "\"언니, 이게 언제였는지 기억하니🤫?\"",
      "content_zh": "我现在要去江原道参加弟弟的训练所结业典礼 😚",
      "post_time": "2025-06-17 21:35:44",
      "image_count": 1,
      "image_urls": "https://dearimage.iu101.org/images/posts/post_550_1575057923.jpeg",
      "local_image_paths": "https://dearimage.iu101.org/images/posts/post_550_1575057923.jpeg",
      "likes": 0,
      "comments": 0,
      "views": 0,
      "board": "Dear. IU",
      "members_only": 0,
      "author_username": "7iu^^",
      "author_avatar": "https://dearimage.iu101.org/images/avatars/avatar_4.jpeg",
      "author_local_avatar": "https://dearimage.iu101.org/images/avatars/avatar_4.jpeg",
      "fan_comments": [],
      "direct_iu_replies": [
        {
          "id": 1377,
          "content_ko": "기억나! 2016년이지?",
          "content_zh": "记得！2016年吧？",
          "image_count": 0,
          "image_urls": null,
          "local_image_paths": null,
          "replied_at": "2025-06-17 23:07:47"
        },
        {
          "id": 1376,
          "content_ko": "얼굴에 아직 해수가 있을 때네!",
          "content_zh": "脸上还有海水呢！",
          "image_count": 0,
          "image_urls": null,
          "local_image_paths": null,
          "replied_at": "2025-06-17 23:08:03"
        }
      ]
    },
    {
      "id": 549,
      "post_uuid": "01977fcf-4c58-aafc-bf8a-6d3a6eae2a87",
      "title_ko": null,
      "title_zh": null,
      "content_ko": "Dear IU unnie,\n\nThank you for existing. Your existence brings so much light, love, and inspiration to others.Especially for me who used to live a normal life, not feeling much happiness and still carrying some sadness. But when I got to know IU, my life changed.It might sound exaggerated, but listening to your songs makes me feel like I’m being hugged, even though I don’t understand the lyrics. Just hearing your voice makes me feel comforted. That has helped me get through bad days and long nights. (So please keep writing music and singing for a long time🥹🤣)\n\nMy darkest days have been brightened by your light, even though we’ve never met in person. You’ve been a huge source of happiness in my life.✨\n\nI truly never thought that you would impact me this much. You make my life so much better and full of happiness. You’ve helped me in so many ways that you might never know, so I owe you a lot.🙆🏻‍♀️\n\nThe love and care you have for your fans truly warms my heart. That’s why I admire and appreciate you so much. 🥺🫶🏻\n\nI hope you are always happy and stay healthy, because your happiness means a lot to us.😚💪🏻\n\nI love you and feel grateful for everything that led me to know IU, and I believe UAENA feels the same.💜\n\nMy hobby will always be you, IU unnie :)",
      "content_zh": "亲爱的 IU 欧尼：\n\n感谢你的存在。你的存在给他人带来了如此多的光明、爱和灵感。特别是对于曾经过着平凡生活、感受不到太多快乐、内心仍带着一些悲伤的我来说。但当我认识了 IU 之后，我的生活改变了。这听起来可能有些夸张，但听你的歌时，即使我不理解歌词的意思，也感觉像是被拥抱了一样。只是听到你的声音就让我感到安慰。这帮助我度过了许多糟糕的日子和漫长的夜晚。（所以请继续创作音乐、长久地歌唱下去🥹🤣）\n\n虽然我们从未见过面，但你光芒照亮了我最黑暗的日子。你已经成为我生活中巨大的幸福源泉。✨\n\n我真的从未想过你会对我产生这么大的影响。你让我的生活变得更好，充满幸福。你在很多方面帮助了我，而这些你可能永远不会知道，所以我欠你很多。🙆🏻‍♀️\n\n你对粉丝们的爱与关怀真的温暖着我的心。这就是我如此敬佩和感激你的原因。🥺🫶🏻\n\n希望你永远开心健康，因为你的快乐对我们来说意义重大。😚💪🏻\n\n我爱你，感谢所有让我认识 IU 的一切，我相信 UAENA 们也有同样的感受。💜\n\n我的爱好永远都是你，IU 欧尼 :)",
      "post_time": "2025-06-17 21:33:01",
      "image_count": 0,
      "image_urls": null,
      "local_image_paths": null,
      "likes": 0,
      "comments": 0,
      "views": 0,
      "board": "Dear. IU",
      "members_only": 0,
      "author_username": "pairy",
      "author_avatar": "https://dearimage.iu101.org/images/avatars/avatar_248.jpeg",
      "author_local_avatar": "https://dearimage.iu101.org/images/avatars/avatar_248.jpeg",
      "fan_comments": [],
      "direct_iu_replies": [
        {
          "id": 1375,
          "content_ko": "Your happiness also means a lot to me.\nI hope you'll be happy. More often\n Thank you💗",
          "content_zh": "Your happiness also means a lot to me. I hope you'll be happy. More often Thank you💗",
          "image_count": 0,
          "image_urls": null,
          "local_image_paths": null,
          "replied_at": "2025-06-17 23:09:52"
        }
      ]
    },
    {
      "id": 548,
      "post_uuid": "01977fc8-9f93-fb4a-7a21-393c48d0f79e",
      "title_ko": null,
      "title_zh": null,
      "content_ko": "저는!! 지금 강원도로 동생 훈련소 수료식 가요 😚",
      "content_zh": "能告诉我帽子的颜色吗？？ㅠㅠ 白色？奶油色？",
      "post_time": "2025-06-17 21:25:43",
      "image_count": 0,
      "image_urls": null,
      "local_image_paths": null,
      "likes": 0,
      "comments": 0,
      "views": 0,
      "board": "Dear. IU",
      "members_only": 0,
      "author_username": "마은이",
      "author_avatar": "https://dearimage.iu101.org/images/avatars/avatar_99.jpeg",
      "author_local_avatar": "https://dearimage.iu101.org/images/avatars/avatar_99.jpeg",
      "fan_comments": [],
      "direct_iu_replies": [
        {
          "id": 1374,
          "content_ko": "동생 너무 더울 때라 고생하겠다 🥺\n생각해 보니 난 안 갔어☺️ 마은이는 착한 누나구나\n",
          "content_zh": "弟弟现在这么热受苦了 🥺 想想的话我没去 ☺️ 玛恩真是善良的姐姐",
          "image_count": 0,
          "image_urls": null,
          "local_image_paths": null,
          "replied_at": "2025-06-17 23:11:13"
        }
      ]
    },
    {
      "id": 547,
      "post_uuid": "01977fc1-2fa7-1a94-4089-7c59ee74a97c",
      "title_ko": null,
      "title_zh": null,
      "content_ko": "지은아, 나 매일 야간 근무해서 너무 졸려…\n근데 너의 한마디면 하루 종일 잠이 확 깰 것 같아 ☕️💬\n기운 없을 땐 자연스럽게 너 생각나더라 ",
      "content_zh": "知恩啊，我每天晚上值班太困了...\n但是你的一句话好像能让我一整天都精神起来 ☕️💬\n没力气的时候自然而然就会想到你",
      "post_time": "2025-06-17 21:17:36",
      "image_count": 0,
      "image_urls": null,
      "local_image_paths": null,
      "likes": 0,
      "comments": 0,
      "views": 0,
      "board": "Dear. IU",
      "members_only": 0,
      "author_username": "paulabianca",
      "author_avatar": "https://dearimage.iu101.org/images/avatars/avatar_74.jpeg",
      "author_local_avatar": "https://dearimage.iu101.org/images/avatars/avatar_74.jpeg",
      "fan_comments": [],
      "direct_iu_replies": [
        {
          "id": 1373,
          "content_ko": "아이고 너무 힘들었지 ㅠㅠ!! \n기운 없을 때 내 생각을 한다니 뭔가 조금 슬프면서 설레네. 푹 자고 있길 바라고 일어나면 오늘은 내 생각 안 날 정도로 기운 넘치는 하루 보낼 수 있을 거야 🥰",
          "content_zh": "哎呀，太辛苦了ㅠㅠ！！\n没精神的时候想起我，心里有点难过又有点心动呢。希望你能好好睡一觉，醒来后今天能精神饱满到完全不想我的程度🥰",
          "image_count": 0,
          "image_urls": null,
          "local_image_paths": null,
          "replied_at": "2025-06-17 23:16:16"
        }
      ]
    },
    {
      "id": 546,
      "post_uuid": "01977fa7-d11d-993e-1def-ce2b383b1c24",
      "title_ko": null,
      "title_zh": null,
      "content_ko": "모자색깔이 뭔지 알수있을까요??ㅠㅠ 흰색? 크림색?",
      "content_zh": "最近看的电视剧或电影中，有什么印象深刻的作品吗？🥹🩵",
      "post_time": "2025-06-17 20:49:53",
      "image_count": 1,
      "image_urls": "https://dearimage.iu101.org/images/posts/post_546_1565918999.jpg",
      "local_image_paths": "https://dearimage.iu101.org/images/posts/post_546_1565918999.jpg",
      "likes": 0,
      "comments": 0,
      "views": 0,
      "board": "Dear. IU",
      "members_only": 0,
      "author_username": "뮈푀",
      "author_avatar": null,
      "author_local_avatar": null,
      "fan_comments": [],
      "direct_iu_replies": [
        {
          "id": 1372,
          "content_ko": "나 두 개 다 있어 🤫 \n크림색 추천",
          "content_zh": "我两个都有 🤫 推荐奶油色",
          "image_count": 0,
          "image_urls": null,
          "local_image_paths": null,
          "replied_at": "2025-06-17 23:17:28"
        }
      ]
    },
    {
      "id": 545,
      "post_uuid": "01977f99-a398-1e5b-6649-f530105e0e5c",
      "title_ko": null,
      "title_zh": null,
      "content_ko": "스카에서 공부하다가 배고파서 먹은 야식(?)..😋 언니도 끼니 잘 챙겨 드세요!",
      "content_zh": "最近重新看《我的解放日志》，真的太喜欢了🥰😍",
      "post_time": "2025-06-17 20:34:24",
      "image_count": 1,
      "image_urls": "https://dearimage.iu101.org/images/posts/post_545_1838371679.jpg",
      "local_image_paths": "https://dearimage.iu101.org/images/posts/post_545_1838371679.jpg",
      "likes": 0,
      "comments": 0,
      "views": 0,
      "board": "Dear. IU",
      "members_only": 0,
      "author_username": "듀기",
      "author_avatar": null,
      "author_local_avatar": null,
      "fan_comments": [],
      "direct_iu_replies": [
        {
          "id": 1371,
          "content_ko": "이야.. 아주 잘했어 아주 야물딱지고 든든한 타입이네!!!",
          "content_zh": "哇..做得真好 很能干很可靠的样子！！！",
          "image_count": 0,
          "image_urls": null,
          "local_image_paths": null,
          "replied_at": "2025-06-17 23:18:48"
        }
      ]
    },
    {
      "id": 544,
      "post_uuid": "01977f94-c366-52f7-666f-54e15183842d",
      "title_ko": null,
      "title_zh": null,
      "content_ko": "최근에 본 드라마나 영화 중에서 인상 깊었던 것이 있나요?🥹🩵",
      "content_zh": "IU，你每晚都在为我唱歌..但从不回我消息😭",
      "post_time": "2025-06-17 20:29:05",
      "image_count": 0,
      "image_urls": null,
      "local_image_paths": null,
      "likes": 0,
      "comments": 0,
      "views": 0,
      "board": "Dear. IU",
      "members_only": 0,
      "author_username": "uaenadiary_",
      "author_avatar": null,
      "author_local_avatar": null,
      "fan_comments": [],
      "direct_iu_replies": [
        {
          "id": 1370,
          "content_ko": "미지의 서울, 굿보이, 우리 영화!",
          "content_zh": "未知的首尔 Good boy 我们的电影！",
          "image_count": 0,
          "image_urls": null,
          "local_image_paths": null,
          "replied_at": "2025-06-17 23:20:15"
        }
      ]
    },
    {
      "id": 543,
      "post_uuid": "01977f84-4f80-352d-1224-544288773142",
      "title_ko": null,
      "title_zh": null,
      "content_ko": "요즘 폭싹 다시 보는 중인데,진짜 폭싹 너무 좋아🥰😍\n나노단위로 뜯어먹는중😌",
      "content_zh": "《未知的首尔》看到哪里了？后面美子会怎么样呢~~~~~~",
      "post_time": "2025-06-17 20:11:07",
      "image_count": 0,
      "image_urls": null,
      "local_image_paths": null,
      "likes": 0,
      "comments": 0,
      "views": 0,
      "board": "Dear. IU",
      "members_only": 0,
      "author_username": "8ㅔ일이",
      "author_avatar": null,
      "author_local_avatar": null,
      "fan_comments": [],
      "direct_iu_replies": [
        {
          "id": 1369,
          "content_ko": "헐 나돈데!! 나도 요즘 또 봐🫣",
          "content_zh": "哇是我的！我也最近在看🫣",
          "image_count": 0,
          "image_urls": null,
          "local_image_paths": null,
          "replied_at": "2025-06-17 23:21:01"
        }
      ]
    },
    {
      "id": 579,
      "post_uuid": "01977e1f-d189-5377-dc35-06c9aacf2fb2",
      "title_ko": null,
      "title_zh": null,
      "content_ko": "언니 바쁠 텐데 항상 우리 챙겨주고 따뜻한 말 남겨줘서 너무 고맙고 요즘 많이 행복해요🥹😊\n\n저는 내일 갑자기 면접을 보게 됐는데 준비가 하나도 안 된 상태라 걱정이 한가득.. 그래도 꽃갈피 들으면서 힘내볼 거예요. 붙었으면 좋겠다...\n\n언니도 힘든 일 없이 기분 좋은 일들만 가득하길! 💚💜💚",
      "content_zh": "姐姐应该很忙吧，却总是照顾我们，还留下温暖的话语，真的非常感谢，最近我感到特别幸福🥹😊\n\n我明天突然要面试，但什么都没准备，心里全是担忧...不过我会加油的，希望能顺利通过。\n\n也希望姐姐没有烦心事，每天都是开心的事！💚💜💚",
      "post_time": "2025-06-17 13:41:43",
      "image_count": 0,
      "image_urls": null,
      "local_image_paths": null,
      "likes": 0,
      "comments": 0,
      "views": 0,
      "board": "Dear. IU",
      "members_only": 0,
      "author_username": "오블리비아테가좋아",
      "author_avatar": null,
      "author_local_avatar": null,
      "fan_comments": [],
      "direct_iu_replies": [
        {
          "id": 1406,
          "content_ko": "뭐허라고 내일 면접이히라고호?!? 🤨\n떨지 말고 잘하고 와요!!! 내일 어차피 다 떨고 있을 텐데!! 우리 애가 다른 후보(?)들에 비해 즈언혀 쫄릴 게 없는 애입니다요!! 면접관님들 잘 봐주십쇼!! 🙂‍↕️",
          "content_zh": "什么？明天面试吗？！？ 🤨\n别紧张，好好表现回来！明天反正大家都会紧张的！！我们家孩子跟其他候选人（？）比起来根本不会怯场！！面试官们多多关照！！ 🙂‍↕️",
          "image_count": 0,
          "image_urls": null,
          "local_image_paths": null,
          "replied_at": "2025-06-17 13:47:08"
        }
      ]
    },
    {
      "id": 578,
      "post_uuid": "01977e1e-db86-a9f2-d9c2-d4f0311a58b1",
      "title_ko": null,
      "title_zh": null,
      "content_ko": "지은아 나 드림 무대인사때 정말 운 좋게 지은이랑 사진 찍었었는데\n그 날 이후로 내 모든 당첨운이 사라져버렸어 ㅠㅠㅠ\n나 원래 자잘한 당첨운 되게 좋은편인데 그 날 몰빵해버렸나바🥹\n이거 어떻게 다시 충전할 수 있을까??ㅠ \n물론 일생에 다시 없을 행복이었지만 인간의 욕심은 끝이없고….😂",
      "content_zh": "知恩啊，我在 Dream 舞台问候的时候真的是太幸运了，居然能和知恩拍了照片，\n但是从那天开始我的所有中奖运气都消失了 ㅠㅠㅠ\n我本来小奖中奖率还挺高的，难道那天把运气全用光了？🥹\n这个要怎么才能重新充值啊？ㅠ\n当然这是这辈子不会再有的幸福时刻，但人的欲望是没有尽头的…😂",
      "post_time": "2025-06-17 13:40:40",
      "image_count": 0,
      "image_urls": null,
      "local_image_paths": null,
      "likes": 0,
      "comments": 0,
      "views": 0,
      "board": "Dear. IU",
      "members_only": 0,
      "author_username": "지은이와좋은날",
      "author_avatar": "https://dearimage.iu101.org/images/avatars/avatar_33.jpeg",
      "author_local_avatar": "https://dearimage.iu101.org/images/avatars/avatar_33.jpeg",
      "fan_comments": [],
      "direct_iu_replies": [
        {
          "id": 1405,
          "content_ko": "그럼 느낌이 뭔가... 내년 콘서트 1열 각인데...? ",
          "content_zh": "那感觉有点...明年演唱会第一排预定...？",
          "image_count": 0,
          "image_urls": null,
          "local_image_paths": null,
          "replied_at": "2025-06-17 13:48:38"
        }
      ]
    },
    {
      "id": 577,
      "post_uuid": "01977e1d-cf41-e95c-0f37-589c42b95b13",
      "title_ko": null,
      "title_zh": null,
      "content_ko": "아이유 님 야밤까지 수고했어요. 저는 매일 5 시에 일어나니까이제 잠을 자요.\nおやすみなさい",
      "content_zh": "IU，深夜辛苦了。我每天 5 点起床，现在要去睡觉了。晚安",
      "post_time": "2025-06-17 13:39:32",
      "image_count": 0,
      "image_urls": null,
      "local_image_paths": null,
      "likes": 0,
      "comments": 0,
      "views": 0,
      "board": "Dear. IU",
      "members_only": 0,
      "author_username": "타카오",
      "author_avatar": null,
      "author_local_avatar": null,
      "fan_comments": [],
      "direct_iu_replies": [
        {
          "id": 1404,
          "content_ko": "스위트 드리-무🙂‍↕️💗",
          "content_zh": "甜蜜梦境🙂‍↕️💗",
          "image_count": 0,
          "image_urls": null,
          "local_image_paths": null,
          "replied_at": "2025-06-17 13:49:37"
        }
      ]
    },
    {
      "id": 576,
      "post_uuid": "01977e1b-765c-2cad-7836-c37a0c679388",
      "title_ko": null,
      "title_zh": null,
      "content_ko": "다른 사람을 못 믿는 이 기질은 언제쯤 고칠까요\n이 성향때문에 회사생활이 힘드네요..뜨악\n",
      "content_zh": "总是不信任别人的这种性格什么时候才能改掉呢 因为这个性格公司生活很辛苦..啊",
      "post_time": "2025-06-17 13:36:58",
      "image_count": 0,
      "image_urls": null,
      "local_image_paths": null,
      "likes": 0,
      "comments": 0,
      "views": 0,
      "board": "Dear. IU",
      "members_only": 0,
      "author_username": "사계절",
      "author_avatar": null,
      "author_local_avatar": null,
      "fan_comments": [],
      "direct_iu_replies": [
        {
          "id": 1403,
          "content_ko": "절대 사기 안 당할 스타일!! 아 오히려 좋아요!!",
          "content_zh": "绝对不被骗的风格！！反而很喜欢！！",
          "image_count": 0,
          "image_urls": null,
          "local_image_paths": null,
          "replied_at": "2025-06-17 13:51:24"
        }
      ]
    }
  ]
}
