{
  "page": 2,
  "totalPages": 45,
  "total": 895,
  "data": [
    {
      "id": 36,
      "post_uuid": "019bd85b-b038-f1c5-0129-5fd01f1f9cc7",
      "title_ko": null,
      "title_zh": null,
      "content_ko": "언니.. 오늘 도로주행 시험있는데 응원해주세요..",
      "content_zh": "姐姐...今天有路考，帮我加油吧...",
      "post_time": "2026-01-19 22:24:06",
      "image_count": 0,
      "image_urls": null,
      "local_image_paths": null,
      "likes": 0,
      "comments": 0,
      "views": 0,
      "board": "Dear. IU",
      "members_only": 0,
      "author_username": "이유민",
      "author_avatar": "https://dearimage.iu101.org/images/avatars/avatar_141.jpeg",
      "author_local_avatar": "https://dearimage.iu101.org/images/avatars/avatar_141.jpeg",
      "fan_comments": [],
      "direct_iu_replies": [
        {
          "id": 207,
          "content_ko": "떨지 말고 잘하고 오ㅏ라 유민이 파이팅!! ♥️",
          "content_zh": "不要紧张好好做哦雅凛加油！！♥️",
          "image_count": 0,
          "image_urls": null,
          "local_image_paths": null,
          "replied_at": "2026-01-19 22:31:41"
        }
      ]
    },
    {
      "id": 35,
      "post_uuid": "019bd85b-4e8f-6ec9-a9d3-1f7ee029cedf",
      "title_ko": null,
      "title_zh": null,
      "content_ko": "언니 모해 차 안이야?",
      "content_zh": "姐姐，这车里面是什么？",
      "post_time": "2026-01-19 22:23:41",
      "image_count": 0,
      "image_urls": null,
      "local_image_paths": null,
      "likes": 0,
      "comments": 0,
      "views": 0,
      "board": "Dear. IU",
      "members_only": 0,
      "author_username": "아영이야",
      "author_avatar": "https://dearimage.iu101.org/images/avatars/avatar_140.jpeg",
      "author_local_avatar": "https://dearimage.iu101.org/images/avatars/avatar_140.jpeg",
      "fan_comments": [],
      "direct_iu_replies": [
        {
          "id": 206,
          "content_ko": "웅 이동 중 ~.~",
          "content_zh": "嗯在移动中 ~.~",
          "image_count": 0,
          "image_urls": null,
          "local_image_paths": null,
          "replied_at": "2026-01-19 22:32:37"
        }
      ]
    },
    {
      "id": 34,
      "post_uuid": "019bd85b-1743-d54b-600d-403e4c8b1f23",
      "title_ko": null,
      "title_zh": null,
      "content_ko": "언니 머리 이렇게 다시 자르는 건 어때요? ",
      "content_zh": "姐姐，这样重新剪头发怎么样？",
      "post_time": "2026-01-19 22:23:27",
      "image_count": 1,
      "image_urls": "https://dearimage.iu101.org/images/remote/post_34_0.jpg",
      "local_image_paths": "https://dearimage.iu101.org/images/posts/post_34_1267357767.jpg",
      "likes": 0,
      "comments": 0,
      "views": 0,
      "board": "Dear. IU",
      "members_only": 0,
      "author_username": "samy",
      "author_avatar": null,
      "author_local_avatar": null,
      "fan_comments": [],
      "direct_iu_replies": [
        {
          "id": 205,
          "content_ko": "난 언제나 대환영😍",
          "content_zh": "我随时都热烈欢迎😍",
          "image_count": 0,
          "image_urls": null,
          "local_image_paths": null,
          "replied_at": "2026-01-19 22:33:26"
        }
      ]
    },
    {
      "id": 33,
      "post_uuid": "019bd85a-d5b8-6f83-c9f0-7d32fb28a0b7",
      "title_ko": null,
      "title_zh": null,
      "content_ko": "언니 나 오늘 편입면접보는데 응원해줄 수 있으까??🥹🥹",
      "content_zh": "姐姐，我今天要去参加插班面试，能为我加油吗？🥹🥹",
      "post_time": "2026-01-19 22:23:10",
      "image_count": 0,
      "image_urls": null,
      "local_image_paths": null,
      "likes": 0,
      "comments": 0,
      "views": 0,
      "board": "Dear. IU",
      "members_only": 0,
      "author_username": "콩떠",
      "author_avatar": null,
      "author_local_avatar": null,
      "fan_comments": [],
      "direct_iu_replies": [
        {
          "id": 204,
          "content_ko": "떨지 말고!!! 파이팅파이팅!!! 💖",
          "content_zh": "不要紧张！！加油加油！！💖",
          "image_count": 0,
          "image_urls": null,
          "local_image_paths": null,
          "replied_at": "2026-01-19 22:34:07"
        }
      ]
    },
    {
      "id": 32,
      "post_uuid": "019bd85a-be5a-eecb-2681-d95d0baa1100",
      "title_ko": null,
      "title_zh": null,
      "content_ko": "언니 대만의 수능 어제 끝났어요. 츄카해 좀 줄까요?",
      "content_zh": "姐姐，台湾的高考昨天结束了，要不要稍微庆祝一下？",
      "post_time": "2026-01-19 22:23:04",
      "image_count": 0,
      "image_urls": null,
      "local_image_paths": null,
      "likes": 0,
      "comments": 0,
      "views": 0,
      "board": "Dear. IU",
      "members_only": 0,
      "author_username": "IU_yayaya",
      "author_avatar": null,
      "author_local_avatar": null,
      "fan_comments": [],
      "direct_iu_replies": [
        {
          "id": 203,
          "content_ko": "추카추 😘🥳👏🎉🎂🙌 \n후회 없이 잘 봤어요?",
          "content_zh": "加油加油 😘🥳👏🎉🎂🙌",
          "image_count": 0,
          "image_urls": null,
          "local_image_paths": null,
          "replied_at": "2026-01-19 22:34:37"
        }
      ]
    },
    {
      "id": 31,
      "post_uuid": "019bd85a-965c-7e36-77f3-a39d484d6d33",
      "title_ko": null,
      "title_zh": null,
      "content_ko": "언니… 저 안아줘요. 저 진짜 다 부서질 것 같아요.",
      "content_zh": "姐姐...抱抱我吧。我感觉自己要碎掉了。",
      "post_time": "2026-01-19 22:22:54",
      "image_count": 0,
      "image_urls": null,
      "local_image_paths": null,
      "likes": 0,
      "comments": 0,
      "views": 0,
      "board": "Dear. IU",
      "members_only": 0,
      "author_username": "리베카",
      "author_avatar": null,
      "author_local_avatar": null,
      "fan_comments": [],
      "direct_iu_replies": [
        {
          "id": 202,
          "content_ko": "🫂\n조금만 버티자 ",
          "content_zh": "🫂",
          "image_count": 0,
          "image_urls": null,
          "local_image_paths": null,
          "replied_at": "2026-01-19 22:35:16"
        }
      ]
    },
    {
      "id": 30,
      "post_uuid": "019bd85a-4f71-0177-f9d8-e4e7011da839",
      "title_ko": null,
      "title_zh": null,
      "content_ko": "블루베리 어느정도 먹어요?\n한 줌..?",
      "content_zh": "蓝莓吃多少？\n一把？",
      "post_time": "2026-01-19 22:22:35",
      "image_count": 0,
      "image_urls": null,
      "local_image_paths": null,
      "likes": 0,
      "comments": 0,
      "views": 0,
      "board": "Dear. IU",
      "members_only": 0,
      "author_username": "항상변함없이",
      "author_avatar": "https://dearimage.iu101.org/images/avatars/avatar_18.jpg",
      "author_local_avatar": "https://dearimage.iu101.org/images/avatars/avatar_18.jpg",
      "fan_comments": [],
      "direct_iu_replies": [
        {
          "id": 201,
          "content_ko": "블루베리 요즘 너무 맛있어서.. 20알 정도?",
          "content_zh": "蓝莓最近太好吃了..20颗左右？",
          "image_count": 0,
          "image_urls": null,
          "local_image_paths": null,
          "replied_at": "2026-01-19 22:36:09"
        }
      ]
    },
    {
      "id": 44,
      "post_uuid": "019bd851-1357-6b66-2f03-7cc09a0ba449",
      "title_ko": null,
      "title_zh": null,
      "content_ko": "저희 할머니께서 곧 86 세가 되세요. 할머니는 오랫동안 당신의 팬이셨고, 저에게 당신의 음악을 소개해 주신 분이기도 해요. 할머니와 함께 UAENA 멤버가 될 수 있어서 정말 행복합니다. 할머니 생신 축하 인사 전해주세요. 사랑해요! 🥰🎂",
      "content_zh": "奶奶马上就要 86 岁了。奶奶一直是您的粉丝，也是她把您的音乐介绍给我的。能和奶奶一起成为 UAENA 的成员，我真的很开心。请向奶奶转达生日祝福，我爱您！🥰🎂",
      "post_time": "2026-01-19 22:12:30",
      "image_count": 0,
      "image_urls": null,
      "local_image_paths": null,
      "likes": 0,
      "comments": 0,
      "views": 0,
      "board": "Dear. IU",
      "members_only": 0,
      "author_username": "줄리앙",
      "author_avatar": "https://dearimage.iu101.org/images/avatars/avatar_145.jpeg",
      "author_local_avatar": "https://dearimage.iu101.org/images/avatars/avatar_145.jpeg",
      "fan_comments": [],
      "direct_iu_replies": [
        {
          "id": 215,
          "content_ko": "할머님 생신 축하드려요! ♥️ 건강하세요! \n줄리앙에게 절 소개시켜 주셔서 감사해요 🥰",
          "content_zh": "奶奶生日快乐！♥️身体健康！谢谢您给朱利安介绍我 🥰",
          "image_count": 0,
          "image_urls": null,
          "local_image_paths": null,
          "replied_at": "2026-01-19 22:20:56"
        }
      ]
    },
    {
      "id": 43,
      "post_uuid": "019bd849-25b2-bd5c-da11-f6b2bc823371",
      "title_ko": null,
      "title_zh": null,
      "content_ko": "언니야 다이어트할때 아침엔 머 먹는게 조아요?!",
      "content_zh": "姐姐，减肥的时候早餐吃什么比较好呀？！",
      "post_time": "2026-01-19 22:03:51",
      "image_count": 0,
      "image_urls": null,
      "local_image_paths": null,
      "likes": 0,
      "comments": 0,
      "views": 0,
      "board": "Dear. IU",
      "members_only": 0,
      "author_username": "타나타나",
      "author_avatar": null,
      "author_local_avatar": null,
      "fan_comments": [],
      "direct_iu_replies": [
        {
          "id": 214,
          "content_ko": "사과?! ",
          "content_zh": "苹果？！",
          "image_count": 0,
          "image_urls": null,
          "local_image_paths": null,
          "replied_at": "2026-01-19 22:21:37"
        }
      ]
    },
    {
      "id": 42,
      "post_uuid": "019bd845-4ab9-8a6c-928d-0bd8f91c68ab",
      "title_ko": null,
      "title_zh": null,
      "content_ko": "인생에서 가장 오래 해본 게임 있어요?",
      "content_zh": "你人生中玩过最久的游戏是什么？",
      "post_time": "2026-01-19 21:59:38",
      "image_count": 0,
      "image_urls": null,
      "local_image_paths": null,
      "likes": 0,
      "comments": 0,
      "views": 0,
      "board": "Dear. IU",
      "members_only": 0,
      "author_username": "찌구리",
      "author_avatar": "https://dearimage.iu101.org/images/avatars/avatar_16.jpeg",
      "author_local_avatar": "https://dearimage.iu101.org/images/avatars/avatar_16.jpeg",
      "fan_comments": [],
      "direct_iu_replies": [
        {
          "id": 213,
          "content_ko": "바람의 나라...",
          "content_zh": "风之国...",
          "image_count": 0,
          "image_urls": null,
          "local_image_paths": null,
          "replied_at": "2026-01-19 22:23:01"
        }
      ]
    },
    {
      "id": 41,
      "post_uuid": "019bd843-7f5e-eaa3-97a3-d132ca9d35ce",
      "title_ko": null,
      "title_zh": null,
      "content_ko": "언니, 저 어제 면접 떨어졌어요. 섭섭해요.😔",
      "content_zh": "姐姐，我昨天面试没通过，好失落。😔",
      "post_time": "2026-01-19 21:57:40",
      "image_count": 0,
      "image_urls": null,
      "local_image_paths": null,
      "likes": 0,
      "comments": 0,
      "views": 0,
      "board": "Dear. IU",
      "members_only": 0,
      "author_username": "IUgir!friend",
      "author_avatar": "https://dearimage.iu101.org/images/avatars/avatar_20.gif",
      "author_local_avatar": "https://dearimage.iu101.org/images/avatars/avatar_20.gif",
      "fan_comments": [],
      "direct_iu_replies": [
        {
          "id": 212,
          "content_ko": "참나 나도 섭섭!!! 😠!! ",
          "content_zh": "真是的我也很失落！！😠！！",
          "image_count": 0,
          "image_urls": null,
          "local_image_paths": null,
          "replied_at": "2026-01-19 22:24:03"
        }
      ]
    },
    {
      "id": 40,
      "post_uuid": "019bd842-c04f-67b9-d960-05b7f61e5e6d",
      "title_ko": null,
      "title_zh": null,
      "content_ko": "요세 책 읽어 보려고 책을 샀는데 책 잘 읽는 방범좀 알려주세요ㅠㅠ 너뮤 귱금해요ㅠㅠ",
      "content_zh": "最近买了书想开始读书，但请告诉我一些读书的好方法吧ㅠㅠ 太难了ㅠㅠ",
      "post_time": "2026-01-19 21:56:51",
      "image_count": 0,
      "image_urls": null,
      "local_image_paths": null,
      "likes": 0,
      "comments": 0,
      "views": 0,
      "board": "Dear. IU",
      "members_only": 0,
      "author_username": "뮈푀",
      "author_avatar": null,
      "author_local_avatar": null,
      "fan_comments": [],
      "direct_iu_replies": [
        {
          "id": 211,
          "content_ko": "잘 맞는 책을 찾아야 할 텐데..",
          "content_zh": "得找本合适的书才行..",
          "image_count": 0,
          "image_urls": null,
          "local_image_paths": null,
          "replied_at": "2026-01-19 22:24:40"
        }
      ]
    },
    {
      "id": 39,
      "post_uuid": "019bd842-4425-3259-fba3-431723a646f4",
      "title_ko": null,
      "title_zh": null,
      "content_ko": "조금 더 이야기합시다.",
      "content_zh": "我们再聊一会儿吧。",
      "post_time": "2026-01-19 21:56:20",
      "image_count": 0,
      "image_urls": null,
      "local_image_paths": null,
      "likes": 0,
      "comments": 0,
      "views": 0,
      "board": "Dear. IU",
      "members_only": 0,
      "author_username": "iu是小baby",
      "author_avatar": "https://dearimage.iu101.org/images/avatars/avatar_51.jpeg",
      "author_local_avatar": "https://dearimage.iu101.org/images/avatars/avatar_51.jpeg",
      "fan_comments": [],
      "direct_iu_replies": [
        {
          "id": 210,
          "content_ko": "그럽시다.",
          "content_zh": "那就这样吧。",
          "image_count": 0,
          "image_urls": null,
          "local_image_paths": null,
          "replied_at": "2026-01-19 22:24:55"
        }
      ]
    },
    {
      "id": 38,
      "post_uuid": "019bd841-faa4-59b1-a4e2-c86b036b003c",
      "title_ko": null,
      "title_zh": null,
      "content_ko": "저 이제 2 시간 뒤면 시험 시작이에요..!\n이번엔 꼭 합격해서 콘서트 갈려고 유애나도 가입했어요\n화이팅",
      "content_zh": "我还有 2 个小时就要考试了..！\n这次一定要合格，为了去演唱会，连佑雅也加入了\n加油",
      "post_time": "2026-01-19 21:56:01",
      "image_count": 0,
      "image_urls": null,
      "local_image_paths": null,
      "likes": 0,
      "comments": 0,
      "views": 0,
      "board": "Dear. IU",
      "members_only": 0,
      "author_username": "애순관식",
      "author_avatar": null,
      "author_local_avatar": null,
      "fan_comments": [],
      "direct_iu_replies": [
        {
          "id": 209,
          "content_ko": "아쟈자잦자자 할 수 있다!!!!!!",
          "content_zh": "阿加阿加阿加可以做到！！！！",
          "image_count": 0,
          "image_urls": null,
          "local_image_paths": null,
          "replied_at": "2026-01-19 22:25:20"
        }
      ]
    },
    {
      "id": 46,
      "post_uuid": "019bd837-0f5b-5398-66ba-79c56836a6ca",
      "title_ko": null,
      "title_zh": null,
      "content_ko": "Hola IU, vengo aquí a saludarte, y desear siempre tu bienestar, quiero que sepas que te escribo desde un país lejano Venezuela 🇻🇪 pero la admiración que siento por ti no tiene fronteras, quiero que sientas que lo que has hecho a lo largo de tu carrera es maravilloso, mi vida la has llenado de esperanzas, y mi día a día es llevadero gracias a tu música, a tu trabajo como actriz, nunca podrías imaginar alcance que tiene tu presencia en este mundo.\nAsí como llevas siempre la bendición de tus padres en cada cosa que haces también cuentas con la mía, aunque no lo creas soy una Uaena Senior, puedes ser mi hija y de esa forma te miro, y te admiro como mi niña bonita con amor maternal.\n Estás líneas como tú canción son un poema de amor, para ti, para que no olvides que en lugar muy lejos de ti hay alguien que reza por ti y te desea siempre lo mejor.\nY como conectadas por el universo compartimos la misma fecha de nacimiento y eso para mí es aún más especial, la única diferencia es que puedes ser mi hija 🙈🫶🏼☺️\nGracias por acercar tu corazón al mío, y si en algún momento puedes leer esto, para mí será un gran regalo recibir tu cariño.\n Gracias a ti , tengo una amiga en corea, nos conocimos por ti❤️🥹🫶 y es otra prueba más que el amor que te tenemos no tiene fronteras.\nTe quiero mucho! mi niña bonita, cuídate mucho, come bien, mantente siempre saludable, eres el angel en la tierra que muchos quisieramos conocer ! miles de bendiciones para ti hoy y todos los días de tu vida🥹🫶❤️💜💖🌹🌷🩵",
      "content_zh": "你好 IU，我来这里向你问好，祝愿你永远幸福安康。我想让你知道，我是从遥远的国家委内瑞拉给你写信的🇻🇪，但我对你的敬佩之情没有国界。我希望你能感受到，你在职业生涯中所做的一切是多么美好，我的生活因你而充满希望，因为你的音乐、你的演员工作，我的日常生活变得更加轻松。你永远不会想象到你的存在在这个世界上的影响力有多大。\n\n就像你所做的每件事都带着父母的祝福一样，你也拥有我的祝福。虽然你可能不相信，我是一位资深的 Uaena（粉丝名），你可以做我的女儿，我就是这样看待你、像母亲般疼爱你这个美丽的女孩。\n\n这些文字如同你的歌曲一样，是一首献给你的爱之诗，让你不要忘记，在离你很远的地方，有人在为你祈祷，祝愿你一切安好。\n\n而且我们仿佛被宇宙连接着，有着相同的生日，这对我来说更加特别。唯一的不同是，你可以做我的女儿🙈🫶🏼☺️\n\n谢谢你让我的心与你靠近，如果在某个时刻你能读到这些话，对我来说将是收到你关爱的最大礼物。\n\n因为有你，我在韩国有了朋友，我们因你而相识❤️🥹🫶，这更是证明了我们对你的爱没有边界。\n\n我非常爱你！我美丽的女孩，请多保重，好好吃饭，保持健康，你是许多人都想认识的地上天使！今天和你生命中的每一天，都愿无数祝福降临于你🥹🫶❤️💜💖🌹🌷🩵",
      "post_time": "2026-01-19 21:44:05",
      "image_count": 0,
      "image_urls": null,
      "local_image_paths": null,
      "likes": 0,
      "comments": 0,
      "views": 0,
      "board": "Dear. IU",
      "members_only": 0,
      "author_username": "Maga1605",
      "author_avatar": "https://dearimage.iu101.org/images/avatars/avatar_102.gif",
      "author_local_avatar": "https://dearimage.iu101.org/images/avatars/avatar_102.gif",
      "fan_comments": [],
      "direct_iu_replies": [
        {
          "id": 217,
          "content_ko": "Yes mom🥰",
          "content_zh": "Yes mom🥰",
          "image_count": 0,
          "image_urls": null,
          "local_image_paths": null,
          "replied_at": "2026-01-19 21:45:42"
        }
      ]
    },
    {
      "id": 45,
      "post_uuid": "019bd836-ff39-7cdf-880e-6926042e0acc",
      "title_ko": null,
      "title_zh": null,
      "content_ko": "언니 나 인스타 스티커 만들어서 올리는데\n언니가 잘 써줘서 너무 뿌듯해 ㅎㅎ\n고마워🤍🤍",
      "content_zh": "姐姐，我做了 Instagram 贴纸上传了\n看到姐姐用得很好，我特别开心呵呵\n谢谢姐姐🤍🤍",
      "post_time": "2026-01-19 21:44:01",
      "image_count": 0,
      "image_urls": null,
      "local_image_paths": null,
      "likes": 0,
      "comments": 0,
      "views": 0,
      "board": "Dear. IU",
      "members_only": 0,
      "author_username": "메지",
      "author_avatar": "https://dearimage.iu101.org/images/avatars/avatar_146.jpeg",
      "author_local_avatar": "https://dearimage.iu101.org/images/avatars/avatar_146.jpeg",
      "fan_comments": [],
      "direct_iu_replies": [
        {
          "id": 216,
          "content_ko": "또또 만들어 줘 메지야 고마워🥰",
          "content_zh": "再给我做点谢谢美智呀🥰",
          "image_count": 0,
          "image_urls": null,
          "local_image_paths": null,
          "replied_at": "2026-01-19 21:46:14"
        }
      ]
    },
    {
      "id": 63,
      "post_uuid": "019bd826-bb28-7db6-6e0f-7ad10543e8c7",
      "title_ko": null,
      "title_zh": null,
      "content_ko": "언니 저번에 이름 불러줘서 고마워요! 하지만 제 실수로 이름 표기가 잘못됐어요, 유우시가 아니라 유우지였어요, 또 유우지라고 불러주면 안될까요?😢",
      "content_zh": "姐姐，上次叫我的名字真的很感谢！但是因为我的失误，名字写错了，不是유우시而是유우지，能再叫我유우지吗？😢",
      "post_time": "2026-01-19 21:26:15",
      "image_count": 0,
      "image_urls": null,
      "local_image_paths": null,
      "likes": 0,
      "comments": 0,
      "views": 0,
      "board": "Dear. IU",
      "members_only": 0,
      "author_username": "유우지",
      "author_avatar": "https://dearimage.iu101.org/images/avatars/avatar_154.jpeg",
      "author_local_avatar": "https://dearimage.iu101.org/images/avatars/avatar_154.jpeg",
      "fan_comments": [],
      "direct_iu_replies": [
        {
          "id": 234,
          "content_ko": "유우지 유우지 이름이 예쁘다 ♥️",
          "content_zh": "游慈的名字真好听 ♥️",
          "image_count": 0,
          "image_urls": null,
          "local_image_paths": null,
          "replied_at": "2026-01-19 21:26:48"
        }
      ]
    },
    {
      "id": 62,
      "post_uuid": "019bd826-b46a-db3d-2b0f-6b1e7279f408",
      "title_ko": null,
      "title_zh": null,
      "content_ko": "언니~~~나 이따가 한국어 중간시험이 있어서 응원해 주세요🥺",
      "content_zh": "姐姐~~我待会儿有韩语期中考试，请为我加油🥺",
      "post_time": "2026-01-19 21:26:13",
      "image_count": 1,
      "image_urls": "https://dearimage.iu101.org/images/remote/post_62_0.jpeg",
      "local_image_paths": "https://dearimage.iu101.org/images/posts/post_62_1667311307.jpeg",
      "likes": 0,
      "comments": 0,
      "views": 0,
      "board": "Dear. IU",
      "members_only": 0,
      "author_username": "후이팅",
      "author_avatar": null,
      "author_local_avatar": null,
      "fan_comments": [],
      "direct_iu_replies": [
        {
          "id": 233,
          "content_ko": "완벽한데!? 잘하고 와!! ♥️♥️",
          "content_zh": "太完美了！做得真好啊！！♥️♥️",
          "image_count": 0,
          "image_urls": null,
          "local_image_paths": null,
          "replied_at": "2026-01-19 21:27:27"
        }
      ]
    },
    {
      "id": 61,
      "post_uuid": "019bd826-aee0-7ee0-6e3a-434b39e67002",
      "title_ko": null,
      "title_zh": null,
      "content_ko": "오늘도 뽀뽀 해주세요 쪽♥️",
      "content_zh": "今天也请给我亲亲 吻♥️",
      "post_time": "2026-01-19 21:26:12",
      "image_count": 0,
      "image_urls": null,
      "local_image_paths": null,
      "likes": 0,
      "comments": 0,
      "views": 0,
      "board": "Dear. IU",
      "members_only": 0,
      "author_username": "예빈..",
      "author_avatar": "https://dearimage.iu101.org/images/avatars/avatar_27.jpeg",
      "author_local_avatar": "https://dearimage.iu101.org/images/avatars/avatar_27.jpeg",
      "fan_comments": [],
      "direct_iu_replies": [
        {
          "id": 232,
          "content_ko": "ㅉ♥️",
          "content_zh": "ㅉ♥️",
          "image_count": 0,
          "image_urls": null,
          "local_image_paths": null,
          "replied_at": "2026-01-19 21:27:54"
        }
      ]
    },
    {
      "id": 60,
      "post_uuid": "019bd826-a98c-b372-d435-51492dc69c57",
      "title_ko": null,
      "title_zh": null,
      "content_ko": "오늘은 꼭 답장 받고싶다…🐒",
      "content_zh": "今天一定要收到回复…🐒",
      "post_time": "2026-01-19 21:26:11",
      "image_count": 0,
      "image_urls": null,
      "local_image_paths": null,
      "likes": 0,
      "comments": 0,
      "views": 0,
      "board": "Dear. IU",
      "members_only": 0,
      "author_username": "지뮨",
      "author_avatar": null,
      "author_local_avatar": null,
      "fan_comments": [],
      "direct_iu_replies": [
        {
          "id": 231,
          "content_ko": "지뮨아 좋은 하루 보내자 💖",
          "content_zh": "智敏祝你有个美好的一天 💖",
          "image_count": 0,
          "image_urls": null,
          "local_image_paths": null,
          "replied_at": "2026-01-19 21:28:13"
        }
      ]
    }
  ]
}
