{
  "page": 4,
  "totalPages": 45,
  "total": 895,
  "data": [
    {
      "id": 69,
      "post_uuid": "019bd6cf-9cf4-7ed9-6c6e-17465ec20b4e",
      "title_ko": null,
      "title_zh": null,
      "content_ko": "언니 요즘도 파프리카 먹어요?",
      "content_zh": "姐姐最近还吃木瓜吗？",
      "post_time": "2026-01-19 15:11:29",
      "image_count": 0,
      "image_urls": null,
      "local_image_paths": null,
      "likes": 0,
      "comments": 0,
      "views": 0,
      "board": "Dear. IU",
      "members_only": 0,
      "author_username": "다영",
      "author_avatar": "https://dearimage.iu101.org/images/avatars/avatar_9.jpeg",
      "author_local_avatar": "https://dearimage.iu101.org/images/avatars/avatar_9.jpeg",
      "fan_comments": [],
      "direct_iu_replies": [
        {
          "id": 240,
          "content_ko": "안 먹은 지 좀 오래됐네.... 미안 파프리카야.. 촬영 끝나면 다시 먹어줄게..",
          "content_zh": "已经很久没吃了...对不起paprika..拍完后再给你吃..",
          "image_count": 0,
          "image_urls": null,
          "local_image_paths": null,
          "replied_at": "2026-01-19 21:12:57"
        }
      ]
    },
    {
      "id": 68,
      "post_uuid": "019bd6a5-5669-1012-42f2-292d80d05077",
      "title_ko": null,
      "title_zh": null,
      "content_ko": "지은아, 알고 있어? \n올해는 닭띠랑 돼지띠가 친구로 지내면 정말 잘 맞는대!\n나 돼지띠인데, 나랑 친구 해줄래? 🐷",
      "content_zh": "智恩啊，你知道吗？\n今年属鸡和属猪的人做朋友的话会很合得来哦！\n我是属猪的，能和我做朋友吗？🐷",
      "post_time": "2026-01-19 14:25:18",
      "image_count": 0,
      "image_urls": null,
      "local_image_paths": null,
      "likes": 0,
      "comments": 0,
      "views": 0,
      "board": "Dear. IU",
      "members_only": 0,
      "author_username": "파김치",
      "author_avatar": "https://dearimage.iu101.org/images/avatars/avatar_39.jpeg",
      "author_local_avatar": "https://dearimage.iu101.org/images/avatars/avatar_39.jpeg",
      "fan_comments": [],
      "direct_iu_replies": [
        {
          "id": 239,
          "content_ko": "오! 나 요즘 돼지띠 친구 생겼는데 정말 정말 잘 맞아!! 김치랑도 친구하자🥰",
          "content_zh": "哇！最近交了个属猪的朋友，真的特别合得来！！也跟kimchi做朋友吧🥰",
          "image_count": 0,
          "image_urls": null,
          "local_image_paths": null,
          "replied_at": "2026-01-19 21:14:23"
        }
      ]
    },
    {
      "id": 67,
      "post_uuid": "019bd685-0b6b-6e4f-881f-f62a5a8c57e5",
      "title_ko": null,
      "title_zh": null,
      "content_ko": "언니, 요즘 몸 단련하려고 운동 좀 하고 있어요?",
      "content_zh": "姐姐最近为了锻炼身体有运动吗？",
      "post_time": "2026-01-19 13:50:02",
      "image_count": 0,
      "image_urls": null,
      "local_image_paths": null,
      "likes": 0,
      "comments": 0,
      "views": 0,
      "board": "Dear. IU",
      "members_only": 0,
      "author_username": "FungKaHo",
      "author_avatar": null,
      "author_local_avatar": null,
      "fan_comments": [],
      "direct_iu_replies": [
        {
          "id": 238,
          "content_ko": "며칠 전에 촬영이 며칠 비어서 오랜만에 피티장 며칠 갔지!! 촬영 끝나면 운동도 열심히 할 거야!!",
          "content_zh": "几天前拍摄空闲了几天，好久没去健身房了！拍完后也要好好运动！！",
          "image_count": 0,
          "image_urls": null,
          "local_image_paths": null,
          "replied_at": "2026-01-19 21:15:48"
        }
      ]
    },
    {
      "id": 66,
      "post_uuid": "019bd609-78a8-ce8c-935f-3b0a20146cd0",
      "title_ko": null,
      "title_zh": null,
      "content_ko": "지은아, 제일 좋아하는 간식은 뭐야?\n와플 🧇? 붕어빵 🐟? 호두과자?🌰",
      "content_zh": "智恩啊，最喜欢的零食是什么？",
      "post_time": "2026-01-19 11:35:03",
      "image_count": 0,
      "image_urls": null,
      "local_image_paths": null,
      "likes": 0,
      "comments": 0,
      "views": 0,
      "board": "Dear. IU",
      "members_only": 0,
      "author_username": "파김치",
      "author_avatar": "https://dearimage.iu101.org/images/avatars/avatar_39.jpeg",
      "author_local_avatar": "https://dearimage.iu101.org/images/avatars/avatar_39.jpeg",
      "fan_comments": [],
      "direct_iu_replies": [
        {
          "id": 237,
          "content_ko": "사시사철 호두과자 💜",
          "content_zh": "四季都有核桃糕 💜",
          "image_count": 0,
          "image_urls": null,
          "local_image_paths": null,
          "replied_at": "2026-01-19 21:17:25"
        }
      ]
    },
    {
      "id": 97,
      "post_uuid": "019a4228-ea8e-c49d-6f40-38691e8ac4b5",
      "title_ko": null,
      "title_zh": null,
      "content_ko": "언니 인생에 대한 번아웃으로 너무 힘들어 내일이 오지 않았으면이라는 생각도 들어, 나는 이제 어떻게 해야할까?\n",
      "content_zh": "姐姐因为人生倦怠感太难受了连明天都不想到来的想法都有，我该怎么办？",
      "post_time": "2025-11-02 01:22:49",
      "image_count": 0,
      "image_urls": null,
      "local_image_paths": null,
      "likes": 0,
      "comments": 0,
      "views": 0,
      "board": "Dear. IU",
      "members_only": 0,
      "author_username": "이지은사랑해요",
      "author_avatar": null,
      "author_local_avatar": null,
      "fan_comments": [],
      "direct_iu_replies": [
        {
          "id": 571,
          "content_ko": "잠깐 쉬자 자연 속으루 가!",
          "content_zh": "休息一下去大自然中吧！",
          "image_count": 0,
          "image_urls": null,
          "local_image_paths": null,
          "replied_at": "2025-11-02 01:23:57"
        }
      ]
    },
    {
      "id": 96,
      "post_uuid": "019a4228-de66-651c-90e4-5c8eda154ead",
      "title_ko": null,
      "title_zh": null,
      "content_ko": "지은아, 잠 안와서 밤 샜다며...\n눈 따갑거나 심장 두근대지는 않아? 괜찮아?\n나는 요즘 작업하다 늦은 새벽에 자게 되면\n심장 묵직하고 두근대던데.. 🫠\n잠 안와도 눈 피로감 줄이게 감고라도 있어보자  .. \n잠 자야지~ 밤새는 거 안돼 안돼\n몸 챙기!! 🔥🔥",
      "content_zh": "智恩啊，听说你昨晚失眠了...\n眼睛不刺痛或者心不跳得厉害吗？没事吧？\n我最近工作到深夜才睡的话，\n心脏就会沉甸甸地跳动...🫠\n就算睡不着也试着闭上眼睛缓解一下疲劳吧..\n要睡觉哦~不能熬夜不能熬夜\n照顾好身体！！🔥🔥",
      "post_time": "2025-11-02 01:22:45",
      "image_count": 0,
      "image_urls": null,
      "local_image_paths": null,
      "likes": 0,
      "comments": 0,
      "views": 0,
      "board": "Dear. IU",
      "members_only": 0,
      "author_username": "롱롱씨",
      "author_avatar": null,
      "author_local_avatar": null,
      "fan_comments": [],
      "direct_iu_replies": [
        {
          "id": 570,
          "content_ko": "응 심장이 두근거려🥺",
          "content_zh": "嗯心跳加速🥺",
          "image_count": 0,
          "image_urls": null,
          "local_image_paths": null,
          "replied_at": "2025-11-02 01:24:26"
        }
      ]
    },
    {
      "id": 95,
      "post_uuid": "019a4228-b3f3-af25-0066-57ec1ef02d3d",
      "title_ko": null,
      "title_zh": null,
      "content_ko": "근데 10시에 자는거면 도대체 몇시간을 깨어있던 거예요..?😱",
      "content_zh": "但如果10点睡觉到底醒着几个小时啊..？😱",
      "post_time": "2025-11-02 01:22:35",
      "image_count": 0,
      "image_urls": null,
      "local_image_paths": null,
      "likes": 0,
      "comments": 0,
      "views": 0,
      "board": "Dear. IU",
      "members_only": 0,
      "author_username": "듀기",
      "author_avatar": null,
      "author_local_avatar": null,
      "fan_comments": [],
      "direct_iu_replies": [
        {
          "id": 569,
          "content_ko": "어제 퇴근하고 열두 시에 들어왔으니까\n열 시간 🤤",
          "content_zh": "昨天下班后十二点到家",
          "image_count": 0,
          "image_urls": null,
          "local_image_paths": null,
          "replied_at": "2025-11-02 01:26:04"
        }
      ]
    },
    {
      "id": 94,
      "post_uuid": "019a4228-54e5-63a8-90a9-9d65e741d644",
      "title_ko": null,
      "title_zh": null,
      "content_ko": "지은언니 저 오늘 생일이에요!! 언니한테 꼭 한번이라도 축하받고싶어요!!!! 오늘도 춥다는데 옷 따뜻하게 입고 잘 지내요!",
      "content_zh": "智恩姐姐，我今天生日！！好想听姐姐亲口说一次生日快乐啊！！听说今天也很冷，要穿暖和点好好照顾自己！",
      "post_time": "2025-11-02 01:22:10",
      "image_count": 0,
      "image_urls": null,
      "local_image_paths": null,
      "likes": 0,
      "comments": 0,
      "views": 0,
      "board": "Dear. IU",
      "members_only": 0,
      "author_username": "지으니사랑니",
      "author_avatar": null,
      "author_local_avatar": null,
      "fan_comments": [],
      "direct_iu_replies": [
        {
          "id": 568,
          "content_ko": "축하해 사랑니야❤️‍🔥😬🦷",
          "content_zh": "恭喜智妮❤️‍🔥😬🦷",
          "image_count": 0,
          "image_urls": null,
          "local_image_paths": null,
          "replied_at": "2025-11-02 01:27:58"
        }
      ]
    },
    {
      "id": 93,
      "post_uuid": "019a4228-33c0-d3f8-df39-bac9e73842b0",
      "title_ko": null,
      "title_zh": null,
      "content_ko": "언니 내가 학교 중요한 행사에 사회를 맡게 됐는데\n너무 긴장돼😬ㅜㅠ 언니는 긴장했을 때 어떻게 풀어요?",
      "content_zh": "姐姐，我要在学校重要的活动上当主持人了，\n好紧张啊 😬ㅜㅠ 姐姐紧张的时候是怎么缓解的？",
      "post_time": "2025-11-02 01:22:02",
      "image_count": 0,
      "image_urls": null,
      "local_image_paths": null,
      "likes": 0,
      "comments": 0,
      "views": 0,
      "board": "Dear. IU",
      "members_only": 0,
      "author_username": "하루율",
      "author_avatar": null,
      "author_local_avatar": null,
      "fan_comments": [],
      "direct_iu_replies": [
        {
          "id": 567,
          "content_ko": "친구들은 아마 학교 행사 사회에 \n관심 없을 확률이 높음!! 집에서 하듯이 하길!",
          "content_zh": "朋友们可能对学校活动主持没什么兴趣！就按在家里的样子做就行！",
          "image_count": 0,
          "image_urls": null,
          "local_image_paths": null,
          "replied_at": "2025-11-02 01:31:16"
        }
      ]
    },
    {
      "id": 92,
      "post_uuid": "019a4228-1f9e-0d89-1c4e-611a09561e12",
      "title_ko": null,
      "title_zh": null,
      "content_ko": "난 꼭 한국에 가서 오빠를 만날 게요.",
      "content_zh": "我一定要去韩国见哥哥。",
      "post_time": "2025-11-02 01:21:57",
      "image_count": 0,
      "image_urls": null,
      "local_image_paths": null,
      "likes": 0,
      "comments": 0,
      "views": 0,
      "board": "Dear. IU",
      "members_only": 0,
      "author_username": "遇见幸福",
      "author_avatar": null,
      "author_local_avatar": null,
      "fan_comments": [],
      "direct_iu_replies": [
        {
          "id": 566,
          "content_ko": "어떤 오빠? 나도 만나러 와죠잉 😫",
          "content_zh": "什么样的欧巴？我也去看看 😫",
          "image_count": 0,
          "image_urls": null,
          "local_image_paths": null,
          "replied_at": "2025-11-02 01:32:14"
        }
      ]
    },
    {
      "id": 107,
      "post_uuid": "019a421a-5e99-e82c-82db-e559415dcd0e",
      "title_ko": null,
      "title_zh": null,
      "content_ko": "지은아, 11월이 왔다!! \n11월에도 우리 잘 지내보자🤝🫶",
      "content_zh": "智恩啊，11月来了！！",
      "post_time": "2025-11-02 01:06:55",
      "image_count": 0,
      "image_urls": null,
      "local_image_paths": null,
      "likes": 0,
      "comments": 0,
      "views": 0,
      "board": "Dear. IU",
      "members_only": 0,
      "author_username": "파김치",
      "author_avatar": "https://dearimage.iu101.org/images/avatars/avatar_39.jpeg",
      "author_local_avatar": "https://dearimage.iu101.org/images/avatars/avatar_39.jpeg",
      "fan_comments": [],
      "direct_iu_replies": [
        {
          "id": 581,
          "content_ko": "11월에도 친하게 지내자 애나야!!",
          "content_zh": "11月也要友好相处啊孩子！！",
          "image_count": 0,
          "image_urls": null,
          "local_image_paths": null,
          "replied_at": "2025-11-02 01:11:05"
        }
      ]
    },
    {
      "id": 106,
      "post_uuid": "019a4216-e78b-1d8e-a151-ddf93a9bc64b",
      "title_ko": null,
      "title_zh": null,
      "content_ko": "누나머해",
      "content_zh": "姐姐在做什么",
      "post_time": "2025-11-02 01:03:08",
      "image_count": 0,
      "image_urls": null,
      "local_image_paths": null,
      "likes": 0,
      "comments": 0,
      "views": 0,
      "board": "Dear. IU",
      "members_only": 0,
      "author_username": "정금",
      "author_avatar": null,
      "author_local_avatar": null,
      "fan_comments": [],
      "direct_iu_replies": [
        {
          "id": 580,
          "content_ko": "나 잠이 안 와서 날밤샜어...",
          "content_zh": "我睡不着熬夜了...",
          "image_count": 0,
          "image_urls": null,
          "local_image_paths": null,
          "replied_at": "2025-11-02 01:11:44"
        }
      ]
    },
    {
      "id": 105,
      "post_uuid": "019a420f-0363-e936-2dee-f1cf46e36e75",
      "title_ko": null,
      "title_zh": null,
      "content_ko": "안녕하세요, 지은 씨. 오늘도 바쁘신가요?\n항상 휴식을 취할 시간을 찾으시길 바랍니다...\n언니, 제가 언니를 위해 요리를 할 수 있다면, 뭐 드시겠어요? 제가 요리해드릴게요 그냥 궁금해요 🤔 \n김밥 외에 뭐 먹고 싶어? 🤭",
      "content_zh": "你好，智恩。今天也很忙吗？\n希望你总能找到休息的时间...\n姐姐，如果我能为你做菜的话，想吃什么？我来做给你吃，就是有点好奇 🤔\n除了紫菜包饭，还想吃什么？ 🤭",
      "post_time": "2025-11-02 00:54:31",
      "image_count": 0,
      "image_urls": null,
      "local_image_paths": null,
      "likes": 0,
      "comments": 0,
      "views": 0,
      "board": "Dear. IU",
      "members_only": 0,
      "author_username": "Damaris",
      "author_avatar": null,
      "author_local_avatar": null,
      "fan_comments": [],
      "direct_iu_replies": [
        {
          "id": 579,
          "content_ko": "오늘은 휴식시간!! 😙😍",
          "content_zh": "今天是休息时间！！😙😍",
          "image_count": 0,
          "image_urls": null,
          "local_image_paths": null,
          "replied_at": "2025-11-02 01:12:21"
        }
      ]
    },
    {
      "id": 104,
      "post_uuid": "019a4208-de57-f1e0-b049-11831528a229",
      "title_ko": null,
      "title_zh": null,
      "content_ko": "좋은 아침이에유🎶\n언니는 출근했나요? 집에 있나요?🤔",
      "content_zh": "早上好🎶",
      "post_time": "2025-11-02 00:47:48",
      "image_count": 0,
      "image_urls": null,
      "local_image_paths": null,
      "likes": 0,
      "comments": 0,
      "views": 0,
      "board": "Dear. IU",
      "members_only": 0,
      "author_username": "☆성희있게☆",
      "author_avatar": "https://dearimage.iu101.org/images/avatars/avatar_49.jpg",
      "author_local_avatar": "https://dearimage.iu101.org/images/avatars/avatar_49.jpg",
      "fan_comments": [],
      "direct_iu_replies": [
        {
          "id": 578,
          "content_ko": "집에 소파 밑에 누워 있어요😙😙",
          "content_zh": "躺在家里沙发底下呢😙😙",
          "image_count": 0,
          "image_urls": null,
          "local_image_paths": null,
          "replied_at": "2025-11-02 01:12:58"
        }
      ]
    },
    {
      "id": 103,
      "post_uuid": "019a4201-12fe-71cf-b2b6-f56a14e386b8",
      "title_ko": null,
      "title_zh": null,
      "content_ko": "굿모닝 ",
      "content_zh": "早安",
      "post_time": "2025-11-02 00:39:18",
      "image_count": 0,
      "image_urls": null,
      "local_image_paths": null,
      "likes": 0,
      "comments": 0,
      "views": 0,
      "board": "Dear. IU",
      "members_only": 0,
      "author_username": "출근하자",
      "author_avatar": null,
      "author_local_avatar": null,
      "fan_comments": [],
      "direct_iu_replies": [
        {
          "id": 577,
          "content_ko": "굿굿모닝! 따숩게 입고 나갔나아?",
          "content_zh": "早安！穿暖和点出门了吗？",
          "image_count": 0,
          "image_urls": null,
          "local_image_paths": null,
          "replied_at": "2025-11-02 01:13:31"
        }
      ]
    },
    {
      "id": 102,
      "post_uuid": "019a41fc-503c-f94d-27c9-a863cd3bdfa4",
      "title_ko": null,
      "title_zh": null,
      "content_ko": "좋은 아침이에요 징짱\n잘 잤어요?\n오늘 일이 있나요?\n여기는 지금 새벽 3시 30분인데 잠이 안 와요.불면증과 불안이 찾아올 때.🥺 다행히 오늘은 쉬는 날이에요.🫣\n오늘 당신이 무엇을 하든 나는 항상 당신을 응원합니다.화이팅!사랑해요징짱.💜",
      "content_zh": "早上好，铮铮\n睡得好吗？\n今天有什么事吗？\n这里现在是凌晨3点30分，睡不着。失眠和焦虑又来了。🥺 好在今天是休息日。🫣\n无论你今天做什么，我都会一直支持你。加油！爱你，铮铮。💜",
      "post_time": "2025-11-02 00:34:06",
      "image_count": 0,
      "image_urls": null,
      "local_image_paths": null,
      "likes": 0,
      "comments": 0,
      "views": 0,
      "board": "Dear. IU",
      "members_only": 0,
      "author_username": "샤메인",
      "author_avatar": "https://dearimage.iu101.org/images/avatars/avatar_323.jpg",
      "author_local_avatar": "https://dearimage.iu101.org/images/avatars/avatar_323.jpg",
      "fan_comments": [],
      "direct_iu_replies": [
        {
          "id": 576,
          "content_ko": "없어 없어요 대본 외우며 쉬는 날 >.<",
          "content_zh": "没有没有 背台词的休息日> . <",
          "image_count": 0,
          "image_urls": null,
          "local_image_paths": null,
          "replied_at": "2025-11-02 01:14:03"
        }
      ]
    },
    {
      "id": 101,
      "post_uuid": "019a41e6-0679-6926-11fa-36f009911c9e",
      "title_ko": null,
      "title_zh": null,
      "content_ko": "언니 뭐해여? 저 이제 잘게요 잘 자요😴💤",
      "content_zh": "姐姐在做什么呀？我这就去睡觉了，晚安😴💤",
      "post_time": "2025-11-02 00:09:45",
      "image_count": 0,
      "image_urls": null,
      "local_image_paths": null,
      "likes": 0,
      "comments": 0,
      "views": 0,
      "board": "Dear. IU",
      "members_only": 0,
      "author_username": "즈즈",
      "author_avatar": "https://dearimage.iu101.org/images/avatars/avatar_151.jpeg",
      "author_local_avatar": "https://dearimage.iu101.org/images/avatars/avatar_151.jpeg",
      "fan_comments": [],
      "direct_iu_replies": [
        {
          "id": 575,
          "content_ko": "나두 이제 자려구...😴 힘든 밤이었다",
          "content_zh": "我也准备睡觉了...😴 是个艰难的夜晚",
          "image_count": 0,
          "image_urls": null,
          "local_image_paths": null,
          "replied_at": "2025-11-02 01:15:00"
        }
      ]
    },
    {
      "id": 100,
      "post_uuid": "019a41e2-237b-5a67-4959-26aaa59ad907",
      "title_ko": null,
      "title_zh": null,
      "content_ko": "지은 언니🫶🏻 저 오늘 생일이에요‼️\n 오늘 언니가 와서 ‘한별아 생일 축하해‘ 한 마디해줄 수 있어요,,??오늘 바빠서 못 오더라도 괜찮아요ㅎㅎㅏ저는 언니가 해주는 날을 생일로 다시 지정할게요!ㅋㅋㅋ\n그럼 오늘도 좋은 하루 보내요🙈",
      "content_zh": "智恩姐姐🫶🏻 我今天生日哦‼️\n今天姐姐能过来对我说一句\"韩别尔生日快乐\"吗？即使今天太忙来不了也没关系啦ㅎㅎ 我会把姐姐给我庆祝的那天重新定为生日！ㅋㅋㅋ\n那今天也祝你有美好的一天🙈",
      "post_time": "2025-11-02 00:05:30",
      "image_count": 0,
      "image_urls": null,
      "local_image_paths": null,
      "likes": 0,
      "comments": 0,
      "views": 0,
      "board": "Dear. IU",
      "members_only": 0,
      "author_username": "지으니바라기",
      "author_avatar": null,
      "author_local_avatar": null,
      "fan_comments": [],
      "direct_iu_replies": [
        {
          "id": 574,
          "content_ko": "생일츅하해 바라기야 🌻🌻🌻❤️‍🔥❤️",
          "content_zh": "生日快乐希望 🌻🌻🌻❤️‍🔥❤️",
          "image_count": 0,
          "image_urls": null,
          "local_image_paths": null,
          "replied_at": "2025-11-02 01:15:33"
        }
      ]
    },
    {
      "id": 99,
      "post_uuid": "019a4199-9fc4-df0c-fd1a-9dc30098eca9",
      "title_ko": null,
      "title_zh": null,
      "content_ko": "베리즈 글을 읽다 보면 문득 드는 생각인데  \n이렇게 많은 사람들이 언니를 생각하고 응원한다는 게\n나도 마음이 따뜻해지고 참 좋다",
      "content_zh": "读着贝里的文章，忽然想到  \n有这么多人在想着姐姐并为她加油  \n我也感到心里暖暖的，真的很开心",
      "post_time": "2025-11-01 22:46:18",
      "image_count": 0,
      "image_urls": null,
      "local_image_paths": null,
      "likes": 0,
      "comments": 0,
      "views": 0,
      "board": "Dear. IU",
      "members_only": 0,
      "author_username": "62",
      "author_avatar": "https://dearimage.iu101.org/images/avatars/avatar_321.jpeg",
      "author_local_avatar": "https://dearimage.iu101.org/images/avatars/avatar_321.jpeg",
      "fan_comments": [],
      "direct_iu_replies": [
        {
          "id": 573,
          "content_ko": "나도 그래",
          "content_zh": "我也是",
          "image_count": 0,
          "image_urls": null,
          "local_image_paths": null,
          "replied_at": "2025-11-02 01:17:34"
        }
      ]
    },
    {
      "id": 98,
      "post_uuid": "019a405b-737b-7d58-1b58-81f7911eaa9d",
      "title_ko": null,
      "title_zh": null,
      "content_ko": "언니 저 다음 주에 시험이 있어요 격려하려고 사진 보내줄 수 있어요?",
      "content_zh": "姐姐我下周有考试能发张照片鼓励我吗？",
      "post_time": "2025-11-01 16:58:46",
      "image_count": 0,
      "image_urls": null,
      "local_image_paths": null,
      "likes": 0,
      "comments": 0,
      "views": 0,
      "board": "Dear. IU",
      "members_only": 0,
      "author_username": "kU@ena",
      "author_avatar": null,
      "author_local_avatar": null,
      "fan_comments": [],
      "direct_iu_replies": [
        {
          "id": 572,
          "content_ko": "이런 사진이라두 괜찮을까나.. 지금이야!",
          "content_zh": "这样的照片也可以吗..现在吧！",
          "image_count": 2,
          "image_urls": "https://dearimage.iu101.org/images/replies/reply_572_791496886.jpeg",
          "local_image_paths": "https://dearimage.iu101.org/images/replies/reply_572_791496886.jpeg",
          "replied_at": "2025-11-02 01:22:32"
        }
      ]
    }
  ]
}