{
  "page": 29,
  "totalPages": 45,
  "total": 895,
  "data": [
    {
      "id": 631,
      "post_uuid": "01977166-8ebe-fa54-e1eb-ace0ceb98a2b",
      "title_ko": null,
      "title_zh": null,
      "content_ko": "언니! 오늘은 뭐해요?? 스케줄 있나요??\n저는 경상권 유애난데 친구들 만나러 서울 가고 있어요!\n너!무!신!나!",
      "content_zh": "姐姐！今天做什么？有日程安排吗？？ 我是庆尚道的友爱娜，正要去首尔见朋友！ 太！兴！奋！了！",
      "post_time": "2025-06-15 02:23:56",
      "image_count": 0,
      "image_urls": null,
      "local_image_paths": null,
      "likes": 0,
      "comments": 0,
      "views": 0,
      "board": "Dear. IU",
      "members_only": 0,
      "author_username": "마인",
      "author_avatar": null,
      "author_local_avatar": null,
      "fan_comments": [],
      "direct_iu_replies": [
        {
          "id": 1458,
          "content_ko": "친구들도 돌아가면서 경상 쪽도 와주고 그러는 거지? 신나게 놀아 😆😆😆",
          "content_zh": "朋友们也轮流来庆尚道这边玩是吗？开心地玩吧😆😆😆",
          "image_count": 0,
          "image_urls": null,
          "local_image_paths": null,
          "replied_at": "2025-06-15 06:23:22"
        }
      ]
    },
    {
      "id": 630,
      "post_uuid": "01977158-2b32-c4b1-5b61-5867749abbc7",
      "title_ko": null,
      "title_zh": null,
      "content_ko": "지은아~ 희주로 살아가느라 바쁘지~ 밥 잘 챙겨먹고! 요즘에는 대본 읽느라 좋아하는 독서도 못 할텐데 중간중간 행복한 순간들로 채워지면 좋겠다",
      "content_zh": "知恩啊~做熙珠很忙吧~好好吃饭！最近忙着读剧本，应该没时间看喜欢的书了吧，希望中间能有一些幸福的时刻",
      "post_time": "2025-06-15 02:08:13",
      "image_count": 0,
      "image_urls": null,
      "local_image_paths": null,
      "likes": 0,
      "comments": 0,
      "views": 0,
      "board": "Dear. IU",
      "members_only": 0,
      "author_username": "동갑내기",
      "author_avatar": null,
      "author_local_avatar": null,
      "fan_comments": [],
      "direct_iu_replies": [
        {
          "id": 1457,
          "content_ko": "아이고 어리다 어리다 진심 어리다..💗\n응 그럴게!!!! 고마워",
          "content_zh": "哎呀太可爱了太可爱了真的太可爱了..💗 是啊我会那样的！谢谢。",
          "image_count": 0,
          "image_urls": null,
          "local_image_paths": null,
          "replied_at": "2025-06-15 06:25:53"
        }
      ]
    },
    {
      "id": 629,
      "post_uuid": "01977156-0219-5cfb-8b63-fe096de2e485",
      "title_ko": null,
      "title_zh": null,
      "content_ko": "언니..! 라이브 클립에서 계속 걸으시던데... 혹시 바닥에 러닝머신 같은 게 있었던 건가요, 아니면 진짜로 계속 걸으신 건가요??\n",
      "content_zh": "姐姐..！直播视频里一直在走动...是不是地板上有跑步机那样的东西，还是真的一直在走路？？",
      "post_time": "2025-06-15 02:05:51",
      "image_count": 1,
      "image_urls": "https://dearimage.iu101.org/images/posts/post_629_680523081.gif",
      "local_image_paths": "https://dearimage.iu101.org/images/posts/post_629_680523081.gif",
      "likes": 0,
      "comments": 0,
      "views": 0,
      "board": "Dear. IU",
      "members_only": 0,
      "author_username": "Zazu's핫딸기차",
      "author_avatar": "https://dearimage.iu101.org/images/avatars/avatar_48.jpeg",
      "author_local_avatar": "https://dearimage.iu101.org/images/avatars/avatar_48.jpeg",
      "fan_comments": [],
      "direct_iu_replies": [
        {
          "id": 1456,
          "content_ko": "트레드밀을 걸으면서 불렀죠 하하",
          "content_zh": "跑步机上走着唱的，哈哈。",
          "image_count": 0,
          "image_urls": null,
          "local_image_paths": null,
          "replied_at": "2025-06-15 06:27:04"
        }
      ]
    },
    {
      "id": 628,
      "post_uuid": "01977155-1d67-cdba-0e68-742db43ff092",
      "title_ko": null,
      "title_zh": null,
      "content_ko": "언니는 핸드폰 배터리 몇 퍼센트쯤 되면 충전해요?? 저는 80% 밑으로 내려가면 괜히 불안해져서 바로 충전해요 🫠🫠\n",
      "content_zh": "姐姐手机电量到百分之多少时充电呢？我只要降到80%以下就会莫名不安，马上充电 🫠🫠",
      "post_time": "2025-06-15 02:04:52",
      "image_count": 0,
      "image_urls": null,
      "local_image_paths": null,
      "likes": 0,
      "comments": 0,
      "views": 0,
      "board": "Dear. IU",
      "members_only": 0,
      "author_username": "Zazu's핫딸기차",
      "author_avatar": "https://dearimage.iu101.org/images/avatars/avatar_48.jpeg",
      "author_local_avatar": "https://dearimage.iu101.org/images/avatars/avatar_48.jpeg",
      "fan_comments": [],
      "direct_iu_replies": [
        {
          "id": 1455,
          "content_ko": "시스터~~~~나도 그래~~||",
          "content_zh": "姐妹~~~~我也一样~~||",
          "image_count": 0,
          "image_urls": null,
          "local_image_paths": null,
          "replied_at": "2025-06-15 06:28:36"
        }
      ]
    },
    {
      "id": 627,
      "post_uuid": "01977148-4aec-9ec1-a70f-abade67c6e4d",
      "title_ko": null,
      "title_zh": null,
      "content_ko": "아이유언니 어떻게 하면 댜른사람말에 상처안받고 강해질수가 있나요? 저는 마음이 여려서 조금이라도 상처받는 말 들으면 마음에 담아두거나 울거든요ㅜㅜ",
      "content_zh": "IU姐姐，怎样才能不被别人的话伤害，变得更坚强呢？我心很软，只要听到一点伤人的话就会记在心里或者哭鼻子ㅜㅜ",
      "post_time": "2025-06-15 01:50:52",
      "image_count": 0,
      "image_urls": null,
      "local_image_paths": null,
      "likes": 0,
      "comments": 0,
      "views": 0,
      "board": "Dear. IU",
      "members_only": 0,
      "author_username": "유애나의진",
      "author_avatar": null,
      "author_local_avatar": null,
      "fan_comments": [],
      "direct_iu_replies": [
        {
          "id": 1454,
          "content_ko": "외워 이건 마법의 리액션이야\n상대가 뭐라고 자존감을 박살내든\n‘글쿤’ 해버리고 넘겨!",
          "content_zh": "记住，这是魔法反应！不管对方说什么打击你自尊的话，都只管说\"嗯\"然后跳过！",
          "image_count": 0,
          "image_urls": null,
          "local_image_paths": null,
          "replied_at": "2025-06-15 06:30:46"
        }
      ]
    },
    {
      "id": 626,
      "post_uuid": "0197713d-f6f2-6ccc-6dcb-b84dd1ec8062",
      "title_ko": null,
      "title_zh": null,
      "content_ko": "언니🥺오늘 엄마랑 싸웠는데 둘 다 너무 슬펐어요 😶‍🌫️진심은 아니었지만 서로 상처줬어요",
      "content_zh": "姐姐🥺今天和妈妈吵架了，两个人都很伤心 😶‍🌫️虽然不是真心话，但互相伤害了",
      "post_time": "2025-06-15 01:39:35",
      "image_count": 0,
      "image_urls": null,
      "local_image_paths": null,
      "likes": 0,
      "comments": 0,
      "views": 0,
      "board": "Dear. IU",
      "members_only": 0,
      "author_username": "_rinnrie_",
      "author_avatar": null,
      "author_local_avatar": null,
      "fan_comments": [],
      "direct_iu_replies": [
        {
          "id": 1453,
          "content_ko": "먼저 사과드려 어머님께서도 사과하고 싶으실 것 같아",
          "content_zh": "首先我先道歉，妈妈应该也想道歉吧。",
          "image_count": 0,
          "image_urls": null,
          "local_image_paths": null,
          "replied_at": "2025-06-15 06:32:37"
        }
      ]
    },
    {
      "id": 625,
      "post_uuid": "0197713b-2cfa-6155-c9bb-b7334c6f2a68",
      "title_ko": null,
      "title_zh": null,
      "content_ko": "언니이!!!!! 저는 어떻게 지내냐면요~~~\n4주동안의 교생 실습이 다 끝나고 조금 후련한 마음으로 \n꽃갈피를 즐기고 있는 것 같아서 넘 기분 좋아요 ㅎㅎ\n이런저런 마음이 드는 요즘이라 복잡하기도 하지만\n언니 생각을 하면 그런 시름들도 다 떠나가서 좋아요\n저에게 항상 행복을 줘서 고마워요 🥹🌸 \n정말정말 고맙습니다 !!!!!! ❤️‍🔥❤️‍🔥❤️‍🔥❤️‍🔥\n\n이런 기분을 느끼게 해줘서 너무 고맙고 언니 덕분에 요즘 사는게 재밌어요 !! 며칠전에 생일이었는데 너무 많은 것을 받은 건 아닌지 과분해요ㅎㅎ 너무 보고 싶고 사랑해요!!!!\n\n수고했다고 잘 할 수 있을거라고 ..\n해주시면 너무 응원이 될 것 같아요 😭\n",
      "content_zh": "姐姐！！！我最近过得怎么样呢~~~\n四周的教育实习全部结束了，心情稍微轻松了一些，\n现在好像在享受着美好的时光，感觉特别开心呢 ㅎㅎ\n最近心情有些复杂，各种感受都有，\n但一想到姐姐，那些烦恼就都消失了，很开心呢\n谢谢你总是给我幸福 🥹🌸\n真的真的非常感谢！！！❤️‍🔥❤️‍🔥❤️‍🔥❤️‍🔥\n\n谢谢你让我有这样的心情，多亏了姐姐，最近生活变得很有趣！！前几天是生日，收到了太多东西，感觉有些受宠若惊呢ㅎㅎ好想你，爱你！！！\n\n如果能对我说\"辛苦了\"、\"你能做好的\"...\n那样的鼓励对我来说会是很大的支持😭",
      "post_time": "2025-06-15 01:36:33",
      "image_count": 0,
      "image_urls": null,
      "local_image_paths": null,
      "likes": 0,
      "comments": 0,
      "views": 0,
      "board": "Dear. IU",
      "members_only": 0,
      "author_username": "마은이",
      "author_avatar": "https://dearimage.iu101.org/images/avatars/avatar_99.jpeg",
      "author_local_avatar": "https://dearimage.iu101.org/images/avatars/avatar_99.jpeg",
      "fan_comments": [],
      "direct_iu_replies": [
        {
          "id": 1452,
          "content_ko": "속 썩이는 친구들 없었길!\n너무 수도 많았다 마은아 멋있어요 교생 쌤!!",
          "content_zh": "希望没有让人心烦的朋友！",
          "image_count": 0,
          "image_urls": null,
          "local_image_paths": null,
          "replied_at": "2025-06-15 06:35:27"
        }
      ]
    },
    {
      "id": 624,
      "post_uuid": "01977112-72c8-2574-f7dc-93bf323ad4ce",
      "title_ko": null,
      "title_zh": null,
      "content_ko": "언니 희주도 만월이처럼 성격이 안 좋나요?ㅋㅋ",
      "content_zh": "姐姐，熙珠也像满月一样性格不好吗？ㅋㅋ",
      "post_time": "2025-06-15 00:52:03",
      "image_count": 0,
      "image_urls": null,
      "local_image_paths": null,
      "likes": 0,
      "comments": 0,
      "views": 0,
      "board": "Dear. IU",
      "members_only": 0,
      "author_username": "시나(•ө•)♡",
      "author_avatar": "https://dearimage.iu101.org/images/avatars/avatar_439.jpeg",
      "author_local_avatar": "https://dearimage.iu101.org/images/avatars/avatar_439.jpeg",
      "fan_comments": [],
      "direct_iu_replies": [
        {
          "id": 1451,
          "content_ko": "네 근데 만월이보다는 아니야 솔직히",
          "content_zh": "是的但说实话不如满月",
          "image_count": 0,
          "image_urls": null,
          "local_image_paths": null,
          "replied_at": "2025-06-15 06:37:33"
        }
      ]
    },
    {
      "id": 623,
      "post_uuid": "019770f0-6919-fc29-9273-2922b5f9cc1f",
      "title_ko": null,
      "title_zh": null,
      "content_ko": "안녕하세요,아이유여신,저는중국후난에서온애나입니다.당신은당시2015년후난위성TV다년야회에참가하러왔습니다.당신이부른goodday라는노래에매료되었습니다!눈에띄길바래.",
      "content_zh": "你好，IU女神，我是来自中国湖南的安娜。当时你参加了2015年湖南卫视跨年演唱会。我被你唱的Good Day这首歌迷住了！希望能引起你的注意。",
      "post_time": "2025-06-15 00:14:53",
      "image_count": 0,
      "image_urls": null,
      "local_image_paths": null,
      "likes": 0,
      "comments": 0,
      "views": 0,
      "board": "Dear. IU",
      "members_only": 0,
      "author_username": "탕루이",
      "author_avatar": null,
      "author_local_avatar": null,
      "fan_comments": [],
      "direct_iu_replies": [
        {
          "id": 1450,
          "content_ko": "아아 기억나요! 흰 원피스에 빨간 리본벨트를 했던 것 같아! ",
          "content_zh": "啊记得！好像是白色连衣裙配红色丝带腰带！",
          "image_count": 0,
          "image_urls": null,
          "local_image_paths": null,
          "replied_at": "2025-06-15 06:39:54"
        }
      ]
    },
    {
      "id": 622,
      "post_uuid": "01977090-bef8-1958-677a-b054c2a50703",
      "title_ko": null,
      "title_zh": null,
      "content_ko": "언니!! 희주랑 가장 잘 어울리는 이모티콘을\n하나 고른다면 뭐예요?? 🤔🤔🤔",
      "content_zh": "姐姐！！如果要选一个最符合熙珠的emoji， 是什么呢？？🤔🤔🤔",
      "post_time": "2025-06-14 22:30:23",
      "image_count": 0,
      "image_urls": null,
      "local_image_paths": null,
      "likes": 0,
      "comments": 0,
      "views": 0,
      "board": "Dear. IU",
      "members_only": 0,
      "author_username": "마은이",
      "author_avatar": "https://dearimage.iu101.org/images/avatars/avatar_99.jpeg",
      "author_local_avatar": "https://dearimage.iu101.org/images/avatars/avatar_99.jpeg",
      "fan_comments": [],
      "direct_iu_replies": [
        {
          "id": 1449,
          "content_ko": "😒😡🤭⚔️",
          "content_zh": "😒😡🤭⚔️",
          "image_count": 0,
          "image_urls": null,
          "local_image_paths": null,
          "replied_at": "2025-06-15 06:43:53"
        }
      ]
    },
    {
      "id": 621,
      "post_uuid": "01977063-fafd-2697-f99f-b16226aa0ad6",
      "title_ko": null,
      "title_zh": null,
      "content_ko": "언니, 저도 언니에게 안아달라고 위로받을 수 있을까요?\n언니, 어제는 특별히 새벽에 일어나서 언니에게 댓글을 남겼어요.\n제가 열심히 만든 작품도 올렸는데, 아쉽게도 언니는 아직 못 본 것 같아요.\n그런데 나중에 언니가 제 꿈에 나왔어요! 언니가 제 댓글에 답해주는 꿈이었는데,\n꿈속에서 저도 ‘이거 진짜야?’ 하고 몇 번이나 확인했어요.\n결국엔 깨어보니 진짜 그냥 꿈이더라고요 ㅎㅎ🤣",
      "content_zh": "姐姐，我也能向你撒娇求抱抱得到安慰吗？\n姐姐，昨天我特意早起在你那留了言。\n我还上传了自己努力做的作品，可惜好像姐姐还没看到。\n不过后来姐姐出现在我的梦里了！梦到姐姐回复了我的留言，\n梦里我还好几次确认\"这是真的吗？\"\n结果醒来发现真的只是个梦哈哈哈🤣",
      "post_time": "2025-06-14 21:41:29",
      "image_count": 0,
      "image_urls": null,
      "local_image_paths": null,
      "likes": 0,
      "comments": 0,
      "views": 0,
      "board": "Dear. IU",
      "members_only": 0,
      "author_username": "IU현여친유구아",
      "author_avatar": null,
      "author_local_avatar": null,
      "fan_comments": [],
      "direct_iu_replies": [
        {
          "id": 1448,
          "content_ko": "꿈이 아니야!! 복권 사!",
          "content_zh": "不是梦！！去买彩票！",
          "image_count": 0,
          "image_urls": null,
          "local_image_paths": null,
          "replied_at": "2025-06-15 06:45:46"
        }
      ]
    },
    {
      "id": 647,
      "post_uuid": "01976300-b8a7-562e-f866-b2160f03b5a4",
      "title_ko": null,
      "title_zh": null,
      "content_ko": "언니 희주 사진 실시간이에요???? \n오늘 촬영 있어요?!! 🤩 \n어제 목격담 안 떠서 직접 자랑하러 와준 거예요??? 💗",
      "content_zh": "姐姐熙珠的照片是实时的吗？？ 今天有拍摄？！🤩 昨天没有目击报告，是亲自来炫耀的吗？ 💗",
      "post_time": "2025-06-12 07:18:01",
      "image_count": 0,
      "image_urls": null,
      "local_image_paths": null,
      "likes": 0,
      "comments": 0,
      "views": 0,
      "board": "Dear. IU",
      "members_only": 0,
      "author_username": "말랑찹쌀떡",
      "author_avatar": "https://dearimage.iu101.org/images/avatars/avatar_29.jpeg",
      "author_local_avatar": "https://dearimage.iu101.org/images/avatars/avatar_29.jpeg",
      "fan_comments": [],
      "direct_iu_replies": [
        {
          "id": 1475,
          "content_ko": "어제 야외촬영이긴 했는데.. 섭외팀에서 인파 없는 곳들로 장소 섭외를 잘 하셨더라고...!! 🥹ㅋㅋㅋ 인적이 드문 곳이라 금방 찍었어!!",
          "content_zh": "虽然昨天是户外拍摄...但经纪团队找的地方都没什么人...！🥹kkk因为人迹罕至所以很快就拍完了！！",
          "image_count": 0,
          "image_urls": null,
          "local_image_paths": null,
          "replied_at": "2025-06-12 07:44:09"
        }
      ]
    },
    {
      "id": 646,
      "post_uuid": "019762f6-59c0-f8f8-9ee3-eaeaa6ed4016",
      "title_ko": null,
      "title_zh": null,
      "content_ko": "가만히 있으면 안더운데 움직일수밖에없고\n에어컨을 틀자니 그만큼 더운건 아닌것같고~~\n좋은방법 없을까아",
      "content_zh": "呆着不热，但不得不活动 又开空调的话好像更热~~ 有没有好办法",
      "post_time": "2025-06-12 07:06:41",
      "image_count": 0,
      "image_urls": null,
      "local_image_paths": null,
      "likes": 0,
      "comments": 0,
      "views": 0,
      "board": "Dear. IU",
      "members_only": 0,
      "author_username": "가로비",
      "author_avatar": null,
      "author_local_avatar": null,
      "fan_comments": [],
      "direct_iu_replies": [
        {
          "id": 1474,
          "content_ko": "선풍기 어때요?",
          "content_zh": "电风扇怎么样？",
          "image_count": 0,
          "image_urls": null,
          "local_image_paths": null,
          "replied_at": "2025-06-12 07:45:43"
        }
      ]
    },
    {
      "id": 656,
      "post_uuid": "01975bd9-5a94-43f9-99cb-a0db7a38c1a5",
      "title_ko": null,
      "title_zh": null,
      "content_ko": "저 오늘 롯데월드로 체험햑습가여!!",
      "content_zh": "我今天去乐天世界体验实习了！！",
      "post_time": "2025-06-10 21:57:40",
      "image_count": 0,
      "image_urls": null,
      "local_image_paths": null,
      "likes": 0,
      "comments": 0,
      "views": 0,
      "board": "Dear. IU",
      "members_only": 0,
      "author_username": "기마은",
      "author_avatar": null,
      "author_local_avatar": null,
      "fan_comments": [],
      "direct_iu_replies": [
        {
          "id": 1484,
          "content_ko": "덥지 않게 물통 꽉꽉 얼렸죠오?",
          "content_zh": "水瓶装得满满的冻得结结实实的吧？",
          "image_count": 0,
          "image_urls": null,
          "local_image_paths": null,
          "replied_at": "2025-06-10 21:58:23"
        }
      ]
    },
    {
      "id": 655,
      "post_uuid": "01975bd8-8602-c083-8815-c2b84fac80ad",
      "title_ko": null,
      "title_zh": null,
      "content_ko": "언니 오늘은 세트 촬영? 야외 촬영??\n궁금한 게 있는데 세트 촬영이면 \n이렇게 더운 날은 에어컨을 틀어주는 거죠??\n세트에 에어컨이 설치되어 있나요?",
      "content_zh": "姐姐今天是棚拍还是外拍呀？\n有个问题想问，如果是棚拍的话，\n这么热的天会开空调吧？？\n摄影棚里有装空调吗？",
      "post_time": "2025-06-10 21:56:46",
      "image_count": 0,
      "image_urls": null,
      "local_image_paths": null,
      "likes": 0,
      "comments": 0,
      "views": 0,
      "board": "Dear. IU",
      "members_only": 0,
      "author_username": "지우",
      "author_avatar": "https://dearimage.iu101.org/images/avatars/avatar_56.jpg",
      "author_local_avatar": "https://dearimage.iu101.org/images/avatars/avatar_56.jpg",
      "fan_comments": [],
      "direct_iu_replies": [
        {
          "id": 1483,
          "content_ko": "오늘은 야외~~~~! 목격담이 뜰지도?",
          "content_zh": "今天是户外~~~~！会有目击报告吗？",
          "image_count": 0,
          "image_urls": null,
          "local_image_paths": null,
          "replied_at": "2025-06-10 21:59:20"
        }
      ]
    },
    {
      "id": 654,
      "post_uuid": "01975bd5-8374-1cf5-ad40-acca06a19c46",
      "title_ko": null,
      "title_zh": null,
      "content_ko": "폭싹에서 밤산책이 12화 엔딩에만 나온 이유가 있나요?🙃",
      "content_zh": "为什么只有第12集结尾出现了朴栖甫的夜游？🙃",
      "post_time": "2025-06-10 21:53:28",
      "image_count": 0,
      "image_urls": null,
      "local_image_paths": null,
      "likes": 0,
      "comments": 0,
      "views": 0,
      "board": "Dear. IU",
      "members_only": 0,
      "author_username": "8ㅔ일이",
      "author_avatar": null,
      "author_local_avatar": null,
      "fan_comments": [],
      "direct_iu_replies": [
        {
          "id": 1482,
          "content_ko": "약간 이벤트 개념? 😀으로 넣어주신 걸로 알아요",
          "content_zh": "大概是以活动的概念？😀来理解的。",
          "image_count": 0,
          "image_urls": null,
          "local_image_paths": null,
          "replied_at": "2025-06-10 22:01:51"
        }
      ]
    },
    {
      "id": 653,
      "post_uuid": "01975bd4-75cd-f12a-9125-8ab98c60d351",
      "title_ko": null,
      "title_zh": null,
      "content_ko": "저는 이제 퇴근!!😵\n아침 일찍 부터 촬영 고생하구 아침밥은\n간단하게 참치김밥?!",
      "content_zh": "我现在下班了！！😵 从早上开始拍摄辛苦了，早餐就简单吃了金枪鱼紫菜包饭？！",
      "post_time": "2025-06-10 21:52:19",
      "image_count": 0,
      "image_urls": null,
      "local_image_paths": null,
      "likes": 0,
      "comments": 0,
      "views": 0,
      "board": "Dear. IU",
      "members_only": 0,
      "author_username": "JAEHUN",
      "author_avatar": null,
      "author_local_avatar": null,
      "fan_comments": [],
      "direct_iu_replies": [
        {
          "id": 1481,
          "content_ko": "어케 알았지?! 참김완!",
          "content_zh": "怎么知道的？！真是参鸡汤！",
          "image_count": 0,
          "image_urls": null,
          "local_image_paths": null,
          "replied_at": "2025-06-10 22:03:52"
        }
      ]
    },
    {
      "id": 652,
      "post_uuid": "01975bd0-cad4-7172-e614-ad9a0ce0e0e5",
      "title_ko": null,
      "title_zh": null,
      "content_ko": "I am on my way to a medicine interview of a university I really want to go!!! It’s nerve wracking but I am excited because this is my first step towards my dream 🫠 wish me luck jieun!!! ",
      "content_zh": "我正赶往一所我很想去的大学参加医学面试！！！虽然很紧张，但也很兴奋，因为这是我实现梦想的第一步🫠 祝我好运吧知恩！！！",
      "post_time": "2025-06-10 21:48:19",
      "image_count": 0,
      "image_urls": null,
      "local_image_paths": null,
      "likes": 0,
      "comments": 0,
      "views": 0,
      "board": "Dear. IU",
      "members_only": 0,
      "author_username": "NJ",
      "author_avatar": null,
      "author_local_avatar": null,
      "fan_comments": [],
      "direct_iu_replies": [
        {
          "id": 1480,
          "content_ko": "Good luck!! 🍀",
          "content_zh": "Good luck!! 🍀",
          "image_count": 0,
          "image_urls": null,
          "local_image_paths": null,
          "replied_at": "2025-06-10 22:09:26"
        }
      ]
    },
    {
      "id": 650,
      "post_uuid": "01975bcf-8cbf-1756-c5df-2835daed6d95",
      "title_ko": null,
      "title_zh": null,
      "content_ko": "좋은 아침 ☀️ 언니 더운데 선풍기 켜고 자면 아침에 목이 너무 아프고, 안 캬고 바면 더워서 잠이 안 오는데 어떻게 하는 게 좋을까요? 🥲 아이고 내 목아 😖",
      "content_zh": "早上好 ☀️ 姐姐，天气太热了，开风扇睡觉的话早上嗓子会很疼，不开又太热睡不着，该怎么办呢？🥲 哎呀我的嗓子 😖",
      "post_time": "2025-06-10 21:46:58",
      "image_count": 0,
      "image_urls": null,
      "local_image_paths": null,
      "likes": 0,
      "comments": 0,
      "views": 0,
      "board": "Dear. IU",
      "members_only": 0,
      "author_username": "ε지비니з",
      "author_avatar": null,
      "author_local_avatar": null,
      "fan_comments": [],
      "direct_iu_replies": [
        {
          "id": 1478,
          "content_ko": "선풍기를 멀리서 회전으로 해도??",
          "content_zh": "电风扇可以远程遥控转吗？？",
          "image_count": 0,
          "image_urls": null,
          "local_image_paths": null,
          "replied_at": "2025-06-10 22:12:18"
        }
      ]
    },
    {
      "id": 649,
      "post_uuid": "01975bcf-864c-8bb7-36c7-6f442269c6fd",
      "title_ko": null,
      "title_zh": null,
      "content_ko": "엉니~ 대기 시간엔 뭐 하면서 시간 보내세요? 대본 보시나요, 아니면 마인크래프트 하시나요???",
      "content_zh": "嗯尼~等待时间做什么打发时间？看剧本吗，还是玩我的世界？？",
      "post_time": "2025-06-10 21:46:56",
      "image_count": 0,
      "image_urls": null,
      "local_image_paths": null,
      "likes": 0,
      "comments": 0,
      "views": 0,
      "board": "Dear. IU",
      "members_only": 0,
      "author_username": "Zazu's핫딸기차",
      "author_avatar": "https://dearimage.iu101.org/images/avatars/avatar_48.jpeg",
      "author_local_avatar": "https://dearimage.iu101.org/images/avatars/avatar_48.jpeg",
      "fan_comments": [],
      "direct_iu_replies": [
        {
          "id": 1477,
          "content_ko": "희주 대사가 너무 많아 😍",
          "content_zh": "熙珠的台词太多了😍",
          "image_count": 0,
          "image_urls": null,
          "local_image_paths": null,
          "replied_at": "2025-06-10 22:12:40"
        }
      ]
    }
  ]
}