{
  "page": 14,
  "totalPages": 45,
  "total": 895,
  "data": [
    {
      "id": 323,
      "post_uuid": "0197f4c4-7ff8-ee16-e171-dea745888696",
      "title_ko": null,
      "title_zh": null,
      "content_ko": "从来 还没有得到过回复的小女子一枚🤭",
      "content_zh": "从来还没有得到过回复的小女子一枚🤭",
      "post_time": "2025-07-10 14:36:47",
      "image_count": 0,
      "image_urls": null,
      "local_image_paths": null,
      "likes": 0,
      "comments": 0,
      "views": 0,
      "board": "Dear. IU",
      "members_only": 0,
      "author_username": "이지은현혜의아내",
      "author_avatar": null,
      "author_local_avatar": null,
      "fan_comments": [],
      "direct_iu_replies": [
        {
          "id": 1067,
          "content_ko": "가여운 소녀야... 미안해 🥺",
          "content_zh": "可怜的小女孩...对不起 🥺",
          "image_count": 0,
          "image_urls": null,
          "local_image_paths": null,
          "replied_at": "2025-07-10 14:42:53"
        }
      ]
    },
    {
      "id": 322,
      "post_uuid": "0197f4c3-2be7-4639-65ae-a16b74488b67",
      "title_ko": null,
      "title_zh": null,
      "content_ko": "징니도 국물 러버야? 나 완전 국물 좋아해🥹 몸에 좋지 않다는데 포기가 안되는 국물..ෆ 국밥도 짱 좋아해",
      "content_zh": "姐姐也是汤汁爱好者吗？我超喜欢汤汁🥹 虽然说对身体不好但戒不掉的汤汁..ෆ 牛肠汤也超喜欢",
      "post_time": "2025-07-10 14:35:20",
      "image_count": 0,
      "image_urls": null,
      "local_image_paths": null,
      "likes": 0,
      "comments": 0,
      "views": 0,
      "board": "Dear. IU",
      "members_only": 0,
      "author_username": "떠라",
      "author_avatar": null,
      "author_local_avatar": null,
      "fan_comments": [],
      "direct_iu_replies": [
        {
          "id": 1066,
          "content_ko": "나도 국물 너뮤 좋아...🩵",
          "content_zh": "我也特别喜欢汤汁...🩵",
          "image_count": 0,
          "image_urls": null,
          "local_image_paths": null,
          "replied_at": "2025-07-10 14:44:01"
        }
      ]
    },
    {
      "id": 321,
      "post_uuid": "0197f4be-9081-0652-6aaf-ed5103079e45",
      "title_ko": null,
      "title_zh": null,
      "content_ko": "지은아, 그렇게 나를 바라보는 거… 혹시 나한테 할 말이라도 있는 거야...?🫣",
      "content_zh": "智恩啊，那样看着我... 是不是有什么话要说...？🫣",
      "post_time": "2025-07-10 14:30:19",
      "image_count": 1,
      "image_urls": "https://dearimage.iu101.org/images/posts/post_321_104083752.jpeg",
      "local_image_paths": "https://dearimage.iu101.org/images/posts/post_321_104083752.jpeg",
      "likes": 0,
      "comments": 0,
      "views": 0,
      "board": "Dear. IU",
      "members_only": 0,
      "author_username": "파김치",
      "author_avatar": "https://dearimage.iu101.org/images/avatars/avatar_39.jpeg",
      "author_local_avatar": "https://dearimage.iu101.org/images/avatars/avatar_39.jpeg",
      "fan_comments": [],
      "direct_iu_replies": [
        {
          "id": 1065,
          "content_ko": "예쁘네 이 사진 🥰",
          "content_zh": "这张照片真好看 🥰",
          "image_count": 0,
          "image_urls": null,
          "local_image_paths": null,
          "replied_at": "2025-07-10 14:46:24"
        }
      ]
    },
    {
      "id": 327,
      "post_uuid": "0197f4a0-361a-3782-907c-4da73e05daee",
      "title_ko": null,
      "title_zh": null,
      "content_ko": "오늘 아침 행운처럼 찾아온 언니 덕에 나 꽤 힘내서 뿌듯한 하루를 보냈어!  다 언니 덕분이야 늘 고마워요 오늘의 언니도 행복한 하루를 보냈기를.. 많이 사랑해 언니!! 꿀잠 자기 🍯🤍🤍",
      "content_zh": "今天早上因为像幸运一样出现的姐姐，我很有精神地过了充实的一天！都是姐姐的功劳，总是谢谢你，希望今天的姐姐也过得幸福的一天..很爱你姐姐！！好好睡觉 🍯🤍🤍",
      "post_time": "2025-07-10 13:57:09",
      "image_count": 0,
      "image_urls": null,
      "local_image_paths": null,
      "likes": 0,
      "comments": 0,
      "views": 0,
      "board": "Dear. IU",
      "members_only": 0,
      "author_username": "오랜여름",
      "author_avatar": "https://dearimage.iu101.org/images/avatars/avatar_538.jpeg",
      "author_local_avatar": "https://dearimage.iu101.org/images/avatars/avatar_538.jpeg",
      "fan_comments": [],
      "direct_iu_replies": [
        {
          "id": 1071,
          "content_ko": "오늘 밤공기 완전 선선하다!! 푹 자 잘 자💜",
          "content_zh": "今晚的空气真凉爽！！睡个好觉 睡个好觉💜",
          "image_count": 0,
          "image_urls": null,
          "local_image_paths": null,
          "replied_at": "2025-07-10 13:57:41"
        }
      ]
    },
    {
      "id": 326,
      "post_uuid": "0197f499-a9c1-4115-fad8-3fab59bb4c23",
      "title_ko": null,
      "title_zh": null,
      "content_ko": "아이유 언니한테 귀여운 질문 하나 할게요~ 라면 먼저 먹을 거예요, 국물 먼저 먹을 거예요? 난 매번 국물부터 마시고 싶었지만 어쩔 수 없이 면을 먼저 먹어치웠습니다🤣",
      "content_zh": "IU欧尼，有个可爱的问题要问你～方便面是先吃面条还是先喝汤？我每次都想先喝汤，但总是忍不住先把面条吃完了🤣",
      "post_time": "2025-07-10 13:50:00",
      "image_count": 1,
      "image_urls": "https://dearimage.iu101.org/images/posts/post_326_65712346.jpeg",
      "local_image_paths": "https://dearimage.iu101.org/images/posts/post_326_65712346.jpeg",
      "likes": 0,
      "comments": 0,
      "views": 0,
      "board": "Dear. IU",
      "members_only": 0,
      "author_username": "IUaenaLiangYU",
      "author_avatar": null,
      "author_local_avatar": null,
      "fan_comments": [],
      "direct_iu_replies": [
        {
          "id": 1070,
          "content_ko": "당연히 국물이지 🥳",
          "content_zh": "当然是汤汁啊 🥳",
          "image_count": 0,
          "image_urls": null,
          "local_image_paths": null,
          "replied_at": "2025-07-10 14:00:54"
        }
      ]
    },
    {
      "id": 325,
      "post_uuid": "0197f487-c8b7-8ba5-fb59-b73cb42e8e44",
      "title_ko": null,
      "title_zh": null,
      "content_ko": "지은아…\n너무 화나는 일이 있을 때 말이야,\n화를 낸다고 해서 달라지는 건 없다는 건 머리로는 아는데,\n그래도 마음속에선 자꾸 불이 나는 것 같아.\n그럴 땐… 어떻게 해야 할까?\n지은이라면… 이런 기분, 어떻게 풀까? 알려줘~ 🥺",
      "content_zh": "智恩啊...\n当你非常生气的时候，\n虽然理智上知道发火也改变不了什么，\n但心里还是忍不住怒火中烧。\n这种时候...该怎么办才好呢？\n如果是智恩的话...这种心情要怎么排解？告诉我吧~ 🥺",
      "post_time": "2025-07-10 13:30:28",
      "image_count": 0,
      "image_urls": null,
      "local_image_paths": null,
      "likes": 0,
      "comments": 0,
      "views": 0,
      "board": "Dear. IU",
      "members_only": 0,
      "author_username": "도리~",
      "author_avatar": "https://dearimage.iu101.org/images/avatars/avatar_372.jpeg",
      "author_local_avatar": "https://dearimage.iu101.org/images/avatars/avatar_372.jpeg",
      "fan_comments": [],
      "direct_iu_replies": [
        {
          "id": 1069,
          "content_ko": "나도 선생님한테 들은 건데 화를 내기 전에 화가 난 나의 마음을 한 번 바라볼 수 있어야 스스로 그 화를 다스릴 수 있대 어려운 말이지 😀 \n‘내가 이것 때문에 화가 나는구나’를 알고 내는 화랑 그냥 욱해서 바로 내지르는 화는 다르다고 하더라고 \n다른 얘기지만 나는 화낼 일에는 화내도 된다고 생각해~~~~! 마음에 계속 불나면 화병 나..",
          "content_zh": "我也是听老师说的，在发火之前，要先观察一下自己生气的心情，这样才能控制自己的怒火，虽然说起来很难 😆  \n\"知道自己因为这件事而生气\"然后再发火，和因为一时冲动直接爆发的怒火是不一样的  \n顺便说一句，我觉得遇到该发火的事情就发火也没关系 ~~~！心里一直憋着火的话会生病的..",
          "image_count": 0,
          "image_urls": null,
          "local_image_paths": null,
          "replied_at": "2025-07-10 14:39:48"
        }
      ]
    },
    {
      "id": 331,
      "post_uuid": "0197dfbe-7e88-3524-c93b-05e352d5d600",
      "title_ko": null,
      "title_zh": null,
      "content_ko": "한국어 공부때문에 책을 읽었었는데 갑자기 언니 이름이 나와서 기뻤어요!!",
      "content_zh": "因为学韩语看书时突然出现了姐姐的名字，我很开心！！",
      "post_time": "2025-07-06 12:38:12",
      "image_count": 1,
      "image_urls": "https://dearimage.iu101.org/images/posts/post_331_199407605.jpeg",
      "local_image_paths": "https://dearimage.iu101.org/images/posts/post_331_199407605.jpeg",
      "likes": 0,
      "comments": 0,
      "views": 0,
      "board": "Dear. IU",
      "members_only": 0,
      "author_username": "루카.",
      "author_avatar": "https://dearimage.iu101.org/images/avatars/avatar_273.jpeg",
      "author_local_avatar": "https://dearimage.iu101.org/images/avatars/avatar_273.jpeg",
      "fan_comments": [],
      "direct_iu_replies": [
        {
          "id": 1083,
          "content_ko": "갑자기 남자 두 발 뭔데 내려 😡",
          "content_zh": "突然两个男人下来 😡",
          "image_count": 0,
          "image_urls": null,
          "local_image_paths": null,
          "replied_at": "2025-07-06 12:43:38"
        }
      ]
    },
    {
      "id": 338,
      "post_uuid": "0197dfa7-ea2e-db10-2e7d-c472bdeadfc5",
      "title_ko": null,
      "title_zh": null,
      "content_ko": "언니 오늘 하루는 어땠어??🐥\n난 벌써 7월이구나 올해두 반이 지났네(안돼ㅠㅠ) \n시간 빠르다 느낀 하루였어 ㅎㅎ\n언니는 지금 모하고 있으려나 \n언니 오늘 하루도 힘들었을텐데 밤에 퓩 잤으면 좋겠다아 💜\n우린 이따 꿈에서 봐 안녕!!💤🛌🙈",
      "content_zh": "姐姐今天过得怎么样？？🐥\n我已经是七月了，今年也过去一半了（不行啊ㅠㅠ）\n感觉时间过得真快呢 ㅎㅎ\n姐姐现在在做什么呢\n姐姐今天肯定也很累了吧，希望晚上能好好睡一觉 💜\n我们待会儿梦里见，晚安！！💤🛌🙈",
      "post_time": "2025-07-06 12:13:33",
      "image_count": 0,
      "image_urls": null,
      "local_image_paths": null,
      "likes": 0,
      "comments": 0,
      "views": 0,
      "board": "Dear. IU",
      "members_only": 0,
      "author_username": "지금이좋은이유",
      "author_avatar": "https://dearimage.iu101.org/images/avatars/avatar_257.jpeg",
      "author_local_avatar": "https://dearimage.iu101.org/images/avatars/avatar_257.jpeg",
      "fan_comments": [],
      "direct_iu_replies": [
        {
          "id": 1090,
          "content_ko": "응? 7월이? 반이 지났다고...? 😀? 왜..?",
          "content_zh": "嗯？七月？已经过了一半...？ 😀？为什么..？",
          "image_count": 0,
          "image_urls": null,
          "local_image_paths": null,
          "replied_at": "2025-07-06 12:14:31"
        }
      ]
    },
    {
      "id": 337,
      "post_uuid": "0197dfa7-cc40-3e9b-4a83-10ebd58b0b4e",
      "title_ko": null,
      "title_zh": null,
      "content_ko": "지금의 나를 포기할 수 있다면, 어떤 나로 다시 태어나고 싶어?\na) 내가 어릴 때 꿈꾸던 나\nb) 아직도 어떤 모습일지 모르는 나",
      "content_zh": "如果可以放弃现在的自己，你想变成什么样的人重新开始？\na) 我小时候梦想成为的人\nb) 还不知道会是什么模样的我",
      "post_time": "2025-07-06 12:13:25",
      "image_count": 0,
      "image_urls": null,
      "local_image_paths": null,
      "likes": 0,
      "comments": 0,
      "views": 0,
      "board": "Dear. IU",
      "members_only": 0,
      "author_username": "TurkishDelight",
      "author_avatar": null,
      "author_local_avatar": null,
      "fan_comments": [],
      "direct_iu_replies": [
        {
          "id": 1089,
          "content_ko": "c) 힘센 나",
          "content_zh": "c) 力气大的我",
          "image_count": 0,
          "image_urls": null,
          "local_image_paths": null,
          "replied_at": "2025-07-06 12:17:23"
        }
      ]
    },
    {
      "id": 336,
      "post_uuid": "0197dfa7-c6c4-89d8-5a2b-b3ff1ca2abbc",
      "title_ko": null,
      "title_zh": null,
      "content_ko": "유애나가 쓴 손편지 읽을 때 해석이 어려운 적 있었어요?\n마치 우리가 언니의 횡맑물체를 해석하는 것처럼.. 🥴",
      "content_zh": "有爱娜写的信读起来很难理解的时候吗？\n就像我们解读姐姐的横膈膜一样... 🥴",
      "post_time": "2025-07-06 12:13:24",
      "image_count": 1,
      "image_urls": "https://dearimage.iu101.org/images/posts/post_336_1049680246.jpeg",
      "local_image_paths": "https://dearimage.iu101.org/images/posts/post_336_1049680246.jpeg",
      "likes": 0,
      "comments": 0,
      "views": 0,
      "board": "Dear. IU",
      "members_only": 0,
      "author_username": "말랑찹쌀떡",
      "author_avatar": "https://dearimage.iu101.org/images/avatars/avatar_29.jpeg",
      "author_local_avatar": "https://dearimage.iu101.org/images/avatars/avatar_29.jpeg",
      "fan_comments": [],
      "direct_iu_replies": [
        {
          "id": 1088,
          "content_ko": "있기야 있지 😚🤫",
          "content_zh": "有是有 😚🤫",
          "image_count": 0,
          "image_urls": null,
          "local_image_paths": null,
          "replied_at": "2025-07-06 12:17:49"
        }
      ]
    },
    {
      "id": 335,
      "post_uuid": "0197dfa7-8eef-7620-1a6d-14ff1add17ce",
      "title_ko": null,
      "title_zh": null,
      "content_ko": "언니, 우리 내기를 하자, 나는 네가 반드시 나에게 답장을 하지 않을 것이라고 내기할게",
      "content_zh": "姐姐，我们打个赌，我赌你一定不会回复我",
      "post_time": "2025-07-06 12:13:09",
      "image_count": 0,
      "image_urls": null,
      "local_image_paths": null,
      "likes": 0,
      "comments": 0,
      "views": 0,
      "board": "Dear. IU",
      "members_only": 0,
      "author_username": "unicorn",
      "author_avatar": null,
      "author_local_avatar": null,
      "fan_comments": [],
      "direct_iu_replies": [
        {
          "id": 1087,
          "content_ko": "내가 이김 🙂‍↕️",
          "content_zh": "我赢了 🙂‍↕️",
          "image_count": 0,
          "image_urls": null,
          "local_image_paths": null,
          "replied_at": "2025-07-06 12:20:26"
        }
      ]
    },
    {
      "id": 334,
      "post_uuid": "0197dfa7-0023-d62a-b6f9-f2e5bcbb91e1",
      "title_ko": null,
      "title_zh": null,
      "content_ko": "언니 ~ 지나가다가 본 능소화인데\n너무 예뻐서 찍어봤어용 💐🧡\n여름 감성 한 스푼 ~ 🩵🫧 퐁당 ~",
      "content_zh": "姐姐~ 路过的时候看到的凌霄花\n太美了所以拍了一下 💐🧡\n夏天的感性一勺~ 🩵🫧 扑通~",
      "post_time": "2025-07-06 12:12:33",
      "image_count": 5,
      "image_urls": "https://dearimage.iu101.org/images/posts/post_334_1228583462.jpeg",
      "local_image_paths": "https://dearimage.iu101.org/images/posts/post_334_1218483049.jpeg|https://dearimage.iu101.org/images/posts/post_334_1218254254.jpeg|https://dearimage.iu101.org/images/posts/post_334_1224483359.jpeg|https://dearimage.iu101.org/images/posts/post_334_1223637398.jpeg|https://dearimage.iu101.org/images/posts/post_334_1228583462.jpeg",
      "likes": 0,
      "comments": 0,
      "views": 0,
      "board": "Dear. IU",
      "members_only": 0,
      "author_username": "♥ㅏ꼬운유애나아효밍♥",
      "author_avatar": "https://dearimage.iu101.org/images/avatars/avatar_197.gif",
      "author_local_avatar": "https://dearimage.iu101.org/images/avatars/avatar_197.gif",
      "fan_comments": [],
      "direct_iu_replies": [
        {
          "id": 1086,
          "content_ko": "우와 진짜 예쁘다🧡",
          "content_zh": "哇真漂亮🧡",
          "image_count": 0,
          "image_urls": null,
          "local_image_paths": null,
          "replied_at": "2025-07-06 12:26:01"
        }
      ]
    },
    {
      "id": 333,
      "post_uuid": "0197dfa6-e509-18ee-273f-323991033e1b",
      "title_ko": null,
      "title_zh": null,
      "content_ko": "지은아 잘 지내? 오늘 촬영하느라 바쁘니? 쉴 시간 있어? 지금 뭘 하든, 희주처럼 바쁘든, 지금 쉬든, 그냥 행복하고 활기차게 지내자 ❤️ 사랑하는 지은아, 꽉 잡아줘, 화이팅 💪\n항상 응원해!!!\n사랑해!!!\n사랑해!!!\n사랑해!!!",
      "content_zh": "智恩啊，最近过得好吗？今天拍戏忙吗？有休息的时间吗？不管现在在做什么，不管像熙珠一样忙碌，还是正在休息，都让我们开心快乐、充满活力地过好每一天吧❤️ 爱你的智恩啊，要紧紧抓住幸福，加油💪\n一直为你应援！！！\n爱你！！！\n爱你！！！\n爱你！！！",
      "post_time": "2025-07-06 12:12:26",
      "image_count": 0,
      "image_urls": null,
      "local_image_paths": null,
      "likes": 0,
      "comments": 0,
      "views": 0,
      "board": "Dear. IU",
      "members_only": 0,
      "author_username": "Damaris",
      "author_avatar": null,
      "author_local_avatar": null,
      "fan_comments": [],
      "direct_iu_replies": [
        {
          "id": 1085,
          "content_ko": "나도 사랑해 사랑해 사랑해",
          "content_zh": "我也爱你爱爱你",
          "image_count": 0,
          "image_urls": null,
          "local_image_paths": null,
          "replied_at": "2025-07-06 12:27:50"
        }
      ]
    },
    {
      "id": 332,
      "post_uuid": "0197dfa6-c0c1-5f93-ffa8-2100334988d5",
      "title_ko": null,
      "title_zh": null,
      "content_ko": "언니!! 야외에서 촬영하면 모기에 주의하세요!! 모기물 챙기는거 잊지마!! 모기가 득실거리게 놔두면 절대 안돼!! 우리 지은언니의 우유피부...절대 안돼!!❌모기 나한테 와!!!!!",
      "content_zh": "姐姐！！在户外拍摄的时候要注意蚊子！！别忘了带防蚊喷雾！！绝对不能让蚊子肆意妄为！！我们智恩姐姐的牛奶肌...绝对不行！！❌蚊子都冲我来吧！！！",
      "post_time": "2025-07-06 12:12:16",
      "image_count": 0,
      "image_urls": null,
      "local_image_paths": null,
      "likes": 0,
      "comments": 0,
      "views": 0,
      "board": "Dear. IU",
      "members_only": 0,
      "author_username": "짙은자색의리원",
      "author_avatar": "https://dearimage.iu101.org/images/avatars/avatar_347.jpeg",
      "author_local_avatar": "https://dearimage.iu101.org/images/avatars/avatar_347.jpeg",
      "fan_comments": [],
      "direct_iu_replies": [
        {
          "id": 1084,
          "content_ko": "모기는 위아래로 날기 때문에 세로 박수로 짝",
          "content_zh": "蚊子上下飞所以要竖着拍手打",
          "image_count": 0,
          "image_urls": null,
          "local_image_paths": null,
          "replied_at": "2025-07-06 12:29:11"
        }
      ]
    },
    {
      "id": 348,
      "post_uuid": "0197df90-5709-7ed3-1838-d3a2e4b775c4",
      "title_ko": null,
      "title_zh": null,
      "content_ko": "언니는 자주 밤을 새워요?🥱\n언니는 어떤 일로 밤을 새워요?🫩😴😪",
      "content_zh": "姐姐经常熬夜吗？🥱",
      "post_time": "2025-07-06 11:47:48",
      "image_count": 0,
      "image_urls": null,
      "local_image_paths": null,
      "likes": 0,
      "comments": 0,
      "views": 0,
      "board": "Dear. IU",
      "members_only": 0,
      "author_username": "채현^ㅅ^",
      "author_avatar": "https://dearimage.iu101.org/images/avatars/avatar_366.jpeg",
      "author_local_avatar": "https://dearimage.iu101.org/images/avatars/avatar_366.jpeg",
      "fan_comments": [],
      "direct_iu_replies": [
        {
          "id": 1100,
          "content_ko": "보통은 잠이 안 와서 🥱 아니면 밤 촬영이 있어서? ",
          "content_zh": "通常是因为睡不着 🥱 或者是因为晚上拍摄？",
          "image_count": 0,
          "image_urls": null,
          "local_image_paths": null,
          "replied_at": "2025-07-06 11:52:18"
        }
      ]
    },
    {
      "id": 347,
      "post_uuid": "0197df8e-e19b-75ca-6146-c9229bf33f7e",
      "title_ko": null,
      "title_zh": null,
      "content_ko": "지은아, 너 혹시 이런 사람을 알고 있어?\n그 사람은 너무 귀엽고 예뻐.\n똑똑하지만 절대 잘난 척 안 하고,\n항상 다른 사람을 먼저 생각하면서도\n가끔은 자기 자신은 잊는 것 같아.\n편식 안 하는데 고수는 싫어하고,\n마음씨 착한 딸 같은 사람,\n세상에서 제일 소중한 작은 보석 같은 사람이야.\n\n지은아, 너 이 사람 누군지 알 것 같아?",
      "content_zh": "智恩啊，你认识这样的人吗？\n那个人可爱又漂亮，\n聪明却从不炫耀，\n总是先为别人着想，\n有时却会忘记自己。\n不挑食但讨厌香菜，\n是个善良如女儿般的人，\n像世界上最珍贵的小宝石一样的人。\n\n智恩啊，你知道这是谁吗？",
      "post_time": "2025-07-06 11:46:12",
      "image_count": 0,
      "image_urls": null,
      "local_image_paths": null,
      "likes": 0,
      "comments": 0,
      "views": 0,
      "board": "Dear. IU",
      "members_only": 0,
      "author_username": "파김치",
      "author_avatar": "https://dearimage.iu101.org/images/avatars/avatar_39.jpeg",
      "author_local_avatar": "https://dearimage.iu101.org/images/avatars/avatar_39.jpeg",
      "fan_comments": [],
      "direct_iu_replies": [
        {
          "id": 1099,
          "content_ko": "너잖아 🥴",
          "content_zh": "是你啊 🥴",
          "image_count": 0,
          "image_urls": null,
          "local_image_paths": null,
          "replied_at": "2025-07-06 11:53:14"
        }
      ]
    },
    {
      "id": 346,
      "post_uuid": "0197df8d-ff3f-178f-41e1-103851f9ccaa",
      "title_ko": null,
      "title_zh": null,
      "content_ko": "언니, 요즘 너무 스트레스가 커서 기분이 계속 우울해. 😭내일 시험이 있기 때문이야. 그리고 그 후에 몇 번의 시험을 준비해야 해서 휴가 시간이 너무 적어졌어. 언니, 매일 생활이 스트레스로 가득하나요? 기분을 어떻게 조절하나요?🌷",
      "content_zh": "姐姐，最近压力太大了，心情一直很郁闷。😭因为明天有考试，而且之后还要准备几次考试，所以假期时间变得很少。姐姐，每天的生活也充满压力吗？你是怎么调节心情的呢？🌷",
      "post_time": "2025-07-06 11:45:14",
      "image_count": 1,
      "image_urls": "https://dearimage.iu101.org/images/posts/post_346_1161736278.jpg",
      "local_image_paths": "https://dearimage.iu101.org/images/posts/post_346_1161736278.jpg",
      "likes": 0,
      "comments": 0,
      "views": 0,
      "board": "Dear. IU",
      "members_only": 0,
      "author_username": "zzuio",
      "author_avatar": null,
      "author_local_avatar": null,
      "fan_comments": [],
      "direct_iu_replies": [
        {
          "id": 1098,
          "content_ko": "내일이면 시험 끝나네 잘하고 와!! 💜\n신나고 꼭 팡팡 놀고!!! 파이팅!!!!",
          "content_zh": "明天考试就结束了好好考回来！！ 💜 开心地一定要好好庆祝玩玩！！加油！！！",
          "image_count": 0,
          "image_urls": null,
          "local_image_paths": null,
          "replied_at": "2025-07-06 11:54:54"
        }
      ]
    },
    {
      "id": 345,
      "post_uuid": "0197df8c-1305-dae9-c0a0-46b4b4882ef1",
      "title_ko": null,
      "title_zh": null,
      "content_ko": "베리즈에 검색기능도 넣는것도 괜찮을거 같아요.\n예전에 아이유님이 달아주신 답글을 찾아보는데 편리할거 같아요. 그리고 베리즈에 자주 찾아와줘서 행복해요☺️☺️",
      "content_zh": "我觉得在贝里兹加入搜索功能也不错呢。\n这样找以前IU老师回复的评论时会很方便。而且很高兴你经常来贝里兹☺️☺️",
      "post_time": "2025-07-06 11:43:08",
      "image_count": 0,
      "image_urls": null,
      "local_image_paths": null,
      "likes": 0,
      "comments": 0,
      "views": 0,
      "board": "Dear. IU",
      "members_only": 0,
      "author_username": "지나가던시민",
      "author_avatar": null,
      "author_local_avatar": null,
      "fan_comments": [],
      "direct_iu_replies": [
        {
          "id": 1097,
          "content_ko": "지나가던 애나잖아요 🥴🥰",
          "content_zh": "路过的那孩子呀 🥴🥰",
          "image_count": 0,
          "image_urls": null,
          "local_image_paths": null,
          "replied_at": "2025-07-06 11:55:38"
        }
      ]
    },
    {
      "id": 344,
      "post_uuid": "0197df8b-4f18-e436-ff48-dc69b6af19b2",
      "title_ko": null,
      "title_zh": null,
      "content_ko": "친구들도 그렇고 부모님도 그렇고, 내 글씨를 알아보기 힘들다는 데 제가 그정도로 악필인걸까요?",
      "content_zh": "朋友和父母都说我的字很难认，我写字真的那么难看吗？",
      "post_time": "2025-07-06 11:42:18",
      "image_count": 1,
      "image_urls": "https://dearimage.iu101.org/images/posts/post_344_1248612622.jpg",
      "local_image_paths": "https://dearimage.iu101.org/images/posts/post_344_1248612622.jpg",
      "likes": 0,
      "comments": 0,
      "views": 0,
      "board": "Dear. IU",
      "members_only": 0,
      "author_username": "지나가던시민",
      "author_avatar": null,
      "author_local_avatar": null,
      "fan_comments": [],
      "direct_iu_replies": [
        {
          "id": 1096,
          "content_ko": "제가 엄청 악필로서 말씀드리는데 \n조금 악필이신 건 맞는 것 같아요 🤫\n근데 술술 잘 읽히는 매력 악필이십니다 개성으로 삼으셔도 될 듯!🙂‍↕️",
          "content_zh": "我以超级字迹难看的身份来说 你确实有点字迹难看 🤫 但是很容易读的有魅力的难看字迹，可以当个性来保留！🙂‍↕️",
          "image_count": 0,
          "image_urls": null,
          "local_image_paths": null,
          "replied_at": "2025-07-06 11:58:09"
        }
      ]
    },
    {
      "id": 343,
      "post_uuid": "0197df88-4ad8-8c29-64e2-4e69ebd7814e",
      "title_ko": null,
      "title_zh": null,
      "content_ko": "즨아~ 퇴근했어?\n더위 조심해",
      "content_zh": "智恩~ 下班了吗？",
      "post_time": "2025-07-06 11:39:00",
      "image_count": 0,
      "image_urls": null,
      "local_image_paths": null,
      "likes": 0,
      "comments": 0,
      "views": 0,
      "board": "Dear. IU",
      "members_only": 0,
      "author_username": "0혀ㄴ",
      "author_avatar": null,
      "author_local_avatar": null,
      "fan_comments": [],
      "direct_iu_replies": [
        {
          "id": 1095,
          "content_ko": "나 방금 퇴근했어! 와! 오늘 정말 덥더라!!! \n내일도 덥다니까 우리 조심하자!! 🙌",
          "content_zh": "我刚刚下班了！哇！今天真的很热！！ 明天也热的话我们小心点！！ 🙌",
          "image_count": 0,
          "image_urls": null,
          "local_image_paths": null,
          "replied_at": "2025-07-06 12:00:36"
        }
      ]
    }
  ]
}