{
  "page": 36,
  "totalPages": 45,
  "total": 895,
  "data": [
    {
      "id": 801,
      "post_uuid": "01971fb3-2fb2-7329-b0f6-e1b9f1ac7fa7",
      "title_ko": null,
      "title_zh": null,
      "content_ko": "언니 포토이즘 찍은 거 n빵하기로 했잖아😳👀",
      "content_zh": "姐姐拍的photizm要一起买吧😳👀",
      "post_time": "2025-05-30 05:38:46",
      "image_count": 0,
      "image_urls": null,
      "local_image_paths": null,
      "likes": 0,
      "comments": 0,
      "views": 0,
      "board": "Dear. IU",
      "members_only": 0,
      "author_username": "하갱",
      "author_avatar": null,
      "author_local_avatar": null,
      "fan_comments": [],
      "direct_iu_replies": [
        {
          "id": 1632,
          "content_ko": "아 마따 마따 카카오페이로 보낼게!!",
          "content_zh": "啊马上马上用KakaoPay转账！！",
          "image_count": 0,
          "image_urls": null,
          "local_image_paths": null,
          "replied_at": "2025-05-30 05:43:22"
        },
        {
          "id": 1631,
          "content_ko": "얼마였찌???",
          "content_zh": "多少来着？？？",
          "image_count": 0,
          "image_urls": null,
          "local_image_paths": null,
          "replied_at": "2025-05-30 05:43:31"
        }
      ]
    },
    {
      "id": 800,
      "post_uuid": "01971fb3-2520-13f6-ec94-c628e929d09d",
      "title_ko": null,
      "title_zh": null,
      "content_ko": "예쁜 딸 내놔! 테이블로 와서 밥 먹자~ 기다리고 있단다, 얼른 와!",
      "content_zh": "生个漂亮的女儿！到桌子旁来吃饭~等着你，快过来！",
      "post_time": "2025-05-30 05:38:43",
      "image_count": 0,
      "image_urls": null,
      "local_image_paths": null,
      "likes": 0,
      "comments": 0,
      "views": 0,
      "board": "Dear. IU",
      "members_only": 0,
      "author_username": "Jiannie",
      "author_avatar": null,
      "author_local_avatar": null,
      "fan_comments": [],
      "direct_iu_replies": [
        {
          "id": 1630,
          "content_ko": "엄마 김치찌개에 당면 넣었지?",
          "content_zh": "妈妈在泡菜汤里放粉条了吗？",
          "image_count": 0,
          "image_urls": null,
          "local_image_paths": null,
          "replied_at": "2025-05-30 05:44:09"
        }
      ]
    },
    {
      "id": 799,
      "post_uuid": "01971fb3-22b4-1917-4dcf-1ebf0496fdf5",
      "title_ko": null,
      "title_zh": null,
      "content_ko": "언니이이 이때까지 맡은 배역 이름으로 개명해야한다면 어떤 이름이 가장 마음에 드나요?? 저는 해수가 발음이 예쁜 것 같아요!!",
      "content_zh": "姐姐如果要用至今演过的角色名字改名，哪个名字最合你心意？我觉得海珠发音很好听！！",
      "post_time": "2025-05-30 05:38:42",
      "image_count": 0,
      "image_urls": null,
      "local_image_paths": null,
      "likes": 0,
      "comments": 0,
      "views": 0,
      "board": "Dear. IU",
      "members_only": 0,
      "author_username": "주홍이",
      "author_avatar": null,
      "author_local_avatar": null,
      "fan_comments": [],
      "direct_iu_replies": [
        {
          "id": 1629,
          "content_ko": "나두 해수 좋아!! 어제 새벽 동안 해수 촬영하던 곳에서 촬영했는데 뭔가 기분이 이상했어 🥹",
          "content_zh": "我也喜欢海水！！昨天凌晨在拍海水的地方拍摄，感觉很奇怪 🥹",
          "image_count": 0,
          "image_urls": null,
          "local_image_paths": null,
          "replied_at": "2025-05-30 05:45:40"
        }
      ]
    },
    {
      "id": 798,
      "post_uuid": "01971fb3-1d7c-af9f-ffdd-a9ed42b73c0b",
      "title_ko": null,
      "title_zh": null,
      "content_ko": "지은이 왜 안 자늬~~ 빨리 주무시고 다시 오세용~",
      "content_zh": "知恩怎么不睡觉~~快去休息然后再来~",
      "post_time": "2025-05-30 05:38:41",
      "image_count": 0,
      "image_urls": null,
      "local_image_paths": null,
      "likes": 0,
      "comments": 0,
      "views": 0,
      "board": "Dear. IU",
      "members_only": 0,
      "author_username": "유월이",
      "author_avatar": null,
      "author_local_avatar": null,
      "fan_comments": [],
      "direct_iu_replies": [
        {
          "id": 1628,
          "content_ko": "네에 좀 잘게요오 😴😪😴",
          "content_zh": "嗯要睡一会儿 😴😪😴",
          "image_count": 0,
          "image_urls": null,
          "local_image_paths": null,
          "replied_at": "2025-05-30 05:46:19"
        }
      ]
    },
    {
      "id": 797,
      "post_uuid": "01971fb3-04b4-b709-2249-77b3ccfd9957",
      "title_ko": null,
      "title_zh": null,
      "content_ko": "언니 저는 가끔 그런 생각을 해요...\n. 나는 다른 우주에서 혹은 전생의 아이유였던 걸까?\n 언니의 말과 글과 음악이 너무 너무 크게 와 닿아요. 신기할 정도로 🥹",
      "content_zh": "姐姐，我偶尔会有这样的想法...\n我是不是在另一个宇宙，或者是上辈子就是IU呢？\n姐姐的话语、文字和音乐都深深打动着我，真是神奇到让人感动 🥹",
      "post_time": "2025-05-30 05:38:35",
      "image_count": 0,
      "image_urls": null,
      "local_image_paths": null,
      "likes": 0,
      "comments": 0,
      "views": 0,
      "board": "Dear. IU",
      "members_only": 0,
      "author_username": "혜인동생",
      "author_avatar": null,
      "author_local_avatar": null,
      "fan_comments": [],
      "direct_iu_replies": [
        {
          "id": 1627,
          "content_ko": "우리는 전생에 같이 뭔가를 만들었던 사이 아닐까?!",
          "content_zh": "我们前世是不是一起做过什么东西的伙伴？！",
          "image_count": 0,
          "image_urls": null,
          "local_image_paths": null,
          "replied_at": "2025-05-30 05:47:20"
        }
      ]
    },
    {
      "id": 796,
      "post_uuid": "01971fb3-014c-1046-1743-67402c8d5d2f",
      "title_ko": null,
      "title_zh": null,
      "content_ko": "⭐️언니!!!!! 저 진짜 궁금한게 있어요!!!!!!!!!!!!\n미인에서 뚜 뚜루루루 뚜루루 이런 남자목소리 언니가 부르고 효과 넣은 거예요??",
      "content_zh": "⭐️姐姐!!!!! 我真的很好奇!!!!!!!!!!!!\n那个美人在\"嘟 嘟噜噜 嘟噜\"这种男声是姐姐唱的然后加了效果吗？",
      "post_time": "2025-05-30 05:38:34",
      "image_count": 0,
      "image_urls": null,
      "local_image_paths": null,
      "likes": 0,
      "comments": 0,
      "views": 0,
      "board": "Dear. IU",
      "members_only": 0,
      "author_username": "다현",
      "author_avatar": "https://dearimage.iu101.org/images/avatars/avatar_40.jpeg",
      "author_local_avatar": "https://dearimage.iu101.org/images/avatars/avatar_40.jpeg",
      "fan_comments": [],
      "direct_iu_replies": [
        {
          "id": 1626,
          "content_ko": "원진님과 제 목소리 섞여 있어요!",
          "content_zh": "和元珍的声音混合在一起！",
          "image_count": 0,
          "image_urls": null,
          "local_image_paths": null,
          "replied_at": "2025-05-30 05:48:07"
        }
      ]
    },
    {
      "id": 795,
      "post_uuid": "01971fb2-c1af-5d88-4392-98a814fa1e74",
      "title_ko": null,
      "title_zh": null,
      "content_ko": "Iu언니, 아까 말씀하신 여드름에 대항하는 방법은 매우 유용하지만, 여드름은 정말 사람을 열등하게 만들어, 사람을 다시 만날 엄두가 나지 않는다. 가끔은 왜 나만 여드름이 났는지 생각해, 거울에 비친 자신을 보고, iu언니는 푹 쉬고 건강해야 한다.",
      "content_zh": "IU姐姐，您刚才说的对抗痘痘的方法虽然很有用，但痘痘真的会让人感到自卑，让人没有勇气再出去见人。有时候会想为什么只有我长了痘痘，看着镜子中的自己，IU姐姐您一定要好好休息，保重身体。",
      "post_time": "2025-05-30 05:38:18",
      "image_count": 0,
      "image_urls": null,
      "local_image_paths": null,
      "likes": 0,
      "comments": 0,
      "views": 0,
      "board": "Dear. IU",
      "members_only": 0,
      "author_username": "蕊IU",
      "author_avatar": null,
      "author_local_avatar": null,
      "fan_comments": [],
      "direct_iu_replies": [
        {
          "id": 1625,
          "content_ko": "있잖아 나도 진짜 그런 적 있어! 생활 습관, 클렌징 제품, 뭘 먹는지 등 \n비싼 관리를 받으라는 게 아니야 피부가 예민할 때는 관리 받는 게 더 악화 시킬 때가 있지\n생활 습관을 바꿔야 해 그리고 그럴 땐 괜히 비싼 화장품, 팩 같은 거 하지 말고! 너무 좌절하지 말고 피부 일기 같은 거 쓰는 것도 도움이 된 거 같아!",
          "content_zh": "真的，我以前也有过这种情况！生活习惯、清洁产品、饮食等，不是说一定要去做昂贵的护理，有时候皮肤敏感时做护理反而会更严重。要改变生活习惯，那时候也不要盲目使用贵的化妆品或面膜什么的！不要太沮丧，写写皮肤日记什么的也会有帮助！",
          "image_count": 0,
          "image_urls": null,
          "local_image_paths": null,
          "replied_at": "2025-05-30 05:53:30"
        }
      ]
    },
    {
      "id": 794,
      "post_uuid": "01971fb2-af34-2b95-6cd6-286c627a8a19",
      "title_ko": null,
      "title_zh": null,
      "content_ko": "아이유처럼 진라면을 먹고 싶은데, 물을 얼마나 넣어야 하고 얼마나 오래 익혀야 하나요?",
      "content_zh": "想像IU一样吃真拉面，要放多少水，煮多久？",
      "post_time": "2025-05-30 05:38:13",
      "image_count": 0,
      "image_urls": null,
      "local_image_paths": null,
      "likes": 0,
      "comments": 0,
      "views": 0,
      "board": "Dear. IU",
      "members_only": 0,
      "author_username": "쯔유이",
      "author_avatar": null,
      "author_local_avatar": null,
      "fan_comments": [],
      "direct_iu_replies": [
        {
          "id": 1624,
          "content_ko": "그것은 500ml 45분 정두 익히시오!",
          "content_zh": "那个是500ml 45分钟加热！",
          "image_count": 0,
          "image_urls": null,
          "local_image_paths": null,
          "replied_at": "2025-05-30 06:02:50"
        }
      ]
    },
    {
      "id": 793,
      "post_uuid": "01971fb2-a850-f4ca-31ff-5b7ff43ecf7e",
      "title_ko": null,
      "title_zh": null,
      "content_ko": "언니, 나 지금 졸업 논문을 쓰고 있는데, 아이디어는 머릿속에만 맴돌고 글로 잘 안 나와서 계획대로 전혀 안 되는 것 같아 😞😞😞😞 너무 스트레스를 받고 있어 😭😭 어떻게 하면 머릿속에 있는 생각들을 잘 꺼낼 수 있을까? 조언 좀 해줄 수 있어?\n",
      "content_zh": "姐姐，我现在在写毕业论文，脑子里有想法但是写不出来，完全不像计划的那样 😞😞😞😞 好有压力 😭😭 怎样才能把脑子里的想法很好地表达出来呢？能给我一些建议吗？",
      "post_time": "2025-05-30 05:38:11",
      "image_count": 0,
      "image_urls": null,
      "local_image_paths": null,
      "likes": 0,
      "comments": 0,
      "views": 0,
      "board": "Dear. IU",
      "members_only": 0,
      "author_username": "징니여자",
      "author_avatar": null,
      "author_local_avatar": null,
      "fan_comments": [],
      "direct_iu_replies": [
        {
          "id": 1623,
          "content_ko": "그낭 엉덩이 계속 붙이고 있어 언젠간 나와 \n얼마나 오래 앉아 있느냐가 관건이야!",
          "content_zh": "就一直屁股贴着坐着，总有一天会出来的",
          "image_count": 0,
          "image_urls": null,
          "local_image_paths": null,
          "replied_at": "2025-05-30 06:03:42"
        }
      ]
    },
    {
      "id": 792,
      "post_uuid": "01971fb2-9284-ebe3-bf90-4f7c28b5d48f",
      "title_ko": null,
      "title_zh": null,
      "content_ko": "언니.. 나 급해ㅠㅠ 나 학원 쌤이 빌려주신 옷을 어제 저녁 강남역 지하상가에서 잃어버렸어.. 강남역시설공단에 연락드렸는데 오늘 아침에 노숙자로 추정되는 사람이 훔쳐갔대… 나 이 일을 어떻게 해결해야할까 너무 막막해.. 도와주라 제발..ㅜㅠ",
      "content_zh": "姐姐...我着急死了ㅠㅠ 我从补习班老师那里借的衣服昨天晚上在江南站地下商场弄丢了...给江南站设施公团打电话后，他们说今天早上有个疑似流浪汉的人偷走了...这事儿我该怎么办啊，太迷茫了...帮帮我吧求求了..ㅜㅠ",
      "post_time": "2025-05-30 05:38:06",
      "image_count": 0,
      "image_urls": null,
      "local_image_paths": null,
      "likes": 0,
      "comments": 0,
      "views": 0,
      "board": "Dear. IU",
      "members_only": 0,
      "author_username": "쥬쥬",
      "author_avatar": null,
      "author_local_avatar": null,
      "fan_comments": [],
      "direct_iu_replies": [
        {
          "id": 1622,
          "content_ko": "그냥 솔직하게 말씀드리고 진심으로 사과 드려\n빌린 옷이 막 에르메스 이런 거 아니지...? 🥹 \n이해해 주실 거야 그리고 잊지 말고 있다가 돈 조금씩 모아서 최대한 비슷한 옷 찾아서 내년 스승의 날에 선물로 드리면 어떨까? ",
          "content_zh": "我就实话实说，真心向您道歉。\n借的那件衣服不是什么爱马仕之类的吧……？🥹\n您会理解我的对吧？然后别忘了，之后一点点攒钱，尽量买件相似的衣服，明年教师节作为礼物送给您怎么样？",
          "image_count": 0,
          "image_urls": null,
          "local_image_paths": null,
          "replied_at": "2025-05-30 06:05:24"
        }
      ]
    },
    {
      "id": 790,
      "post_uuid": "01971fb2-6cf6-a8d0-c900-8506dc236c2f",
      "title_ko": null,
      "title_zh": null,
      "content_ko": "언니 제비꽃을 언제부터 좋아하게되었어요???\n 좋아하게된 이유는 뭐예요??",
      "content_zh": "姐姐从什么时候开始喜欢紫罗兰的？？ 喜欢的理由是什么？？",
      "post_time": "2025-05-30 05:37:56",
      "image_count": 0,
      "image_urls": null,
      "local_image_paths": null,
      "likes": 0,
      "comments": 0,
      "views": 0,
      "board": "Dear. IU",
      "members_only": 0,
      "author_username": "홀씨뗭",
      "author_avatar": null,
      "author_local_avatar": null,
      "fan_comments": [],
      "direct_iu_replies": [
        {
          "id": 1620,
          "content_ko": "제비꽃을 닮은 울 유애나 때문이지 😊",
          "content_zh": "因为我们友雅像紫罗兰一样 😊",
          "image_count": 0,
          "image_urls": null,
          "local_image_paths": null,
          "replied_at": "2025-05-30 06:06:49"
        }
      ]
    },
    {
      "id": 789,
      "post_uuid": "01971fb2-5994-5077-8098-46a9e3dac680",
      "title_ko": null,
      "title_zh": null,
      "content_ko": "IU, thank you for your professionalism, and kindness always.\nI’m so happy to become UEANA \nPlease take care of yourself and I’m sending my love here as much as I can.\nThen, I’ll study. Bye 👋 ",
      "content_zh": "IU，感谢你一直以来的专业和善良。\n能成为UEANA真的非常开心。\n请好好照顾自己，我会尽可能多地把爱传递给你。\n那我先去学习了，拜拜 👋",
      "post_time": "2025-05-30 05:37:51",
      "image_count": 0,
      "image_urls": null,
      "local_image_paths": null,
      "likes": 0,
      "comments": 0,
      "views": 0,
      "board": "Dear. IU",
      "members_only": 0,
      "author_username": "さら:))",
      "author_avatar": null,
      "author_local_avatar": null,
      "fan_comments": [],
      "direct_iu_replies": [
        {
          "id": 1619,
          "content_ko": "Good study!!!🫶",
          "content_zh": "Good study!!!🫶",
          "image_count": 0,
          "image_urls": null,
          "local_image_paths": null,
          "replied_at": "2025-05-30 06:07:30"
        }
      ]
    },
    {
      "id": 788,
      "post_uuid": "01971fb2-4889-0f82-878f-ad60011c548b",
      "title_ko": null,
      "title_zh": null,
      "content_ko": "답장 구걸하지 마세요.\n디어유는 아이유에게 전하는 편지만 적어주세요.\n팬질하면서 답장 받으면 좋은거지 답장받을라고 팬질하는것도 아니고.. 😡",
      "content_zh": "不要乞求回复。Dear U只要写给IU的信就好。粉丝活动顺便收到回复很好，但为了收到回复而做粉丝活动就不是了..😡",
      "post_time": "2025-05-30 05:37:47",
      "image_count": 0,
      "image_urls": null,
      "local_image_paths": null,
      "likes": 0,
      "comments": 0,
      "views": 0,
      "board": "Dear. IU",
      "members_only": 0,
      "author_username": "ㅠㅐ나",
      "author_avatar": null,
      "author_local_avatar": null,
      "fan_comments": [],
      "direct_iu_replies": [
        {
          "id": 1618,
          "content_ko": "화풀어잉",
          "content_zh": "生气消消",
          "image_count": 0,
          "image_urls": null,
          "local_image_paths": null,
          "replied_at": "2025-05-30 06:08:08"
        }
      ]
    },
    {
      "id": 787,
      "post_uuid": "01971fb2-3bf5-ae9a-7e20-41072c93e87d",
      "title_ko": null,
      "title_zh": null,
      "content_ko": "언니, 오늘 밤 돌아올 거예요? 😭",
      "content_zh": "姐姐，今晚会回来吗？😭",
      "post_time": "2025-05-30 05:37:43",
      "image_count": 0,
      "image_urls": null,
      "local_image_paths": null,
      "likes": 0,
      "comments": 0,
      "views": 0,
      "board": "Dear. IU",
      "members_only": 0,
      "author_username": "iloveuuuuyeahh",
      "author_avatar": null,
      "author_local_avatar": null,
      "fan_comments": [],
      "direct_iu_replies": [
        {
          "id": 1617,
          "content_ko": "웅 자다가 이따가 다시 올게 🏃‍♀️",
          "content_zh": "嗯睡着了，等下再过来🏃‍♀️",
          "image_count": 0,
          "image_urls": null,
          "local_image_paths": null,
          "replied_at": "2025-05-30 06:08:40"
        }
      ]
    },
    {
      "id": 786,
      "post_uuid": "01971fb2-36fb-04d4-eb2c-f285cdc77431",
      "title_ko": null,
      "title_zh": null,
      "content_ko": "언니야 뮤비 찍으면서 있었던 일들 ! 비하인드에 안나온 썰들 더 있나요 !?",
      "content_zh": "姐姐，拍MV时发生的事情！幕后没播出的故事还有吗！？",
      "post_time": "2025-05-30 05:37:42",
      "image_count": 0,
      "image_urls": null,
      "local_image_paths": null,
      "likes": 0,
      "comments": 0,
      "views": 0,
      "board": "Dear. IU",
      "members_only": 0,
      "author_username": "감딸기",
      "author_avatar": null,
      "author_local_avatar": null,
      "fan_comments": [],
      "direct_iu_replies": [
        {
          "id": 1616,
          "content_ko": "딸기야 사실 그 주에 스케줄이 진짜 많았어서 \n잘 기억이 안 나🥹",
          "content_zh": "草莓啊其实那周的日程真的很多，",
          "image_count": 0,
          "image_urls": null,
          "local_image_paths": null,
          "replied_at": "2025-05-30 06:09:30"
        }
      ]
    },
    {
      "id": 785,
      "post_uuid": "01971fb1-b385-4c16-beef-47b263521420",
      "title_ko": null,
      "title_zh": null,
      "content_ko": "언니! MV를 광고처럼 만드는 것은 누구의 아이디어입니까?",
      "content_zh": "姐姐！把MV做成广告是谁的想法？",
      "post_time": "2025-05-30 05:37:08",
      "image_count": 1,
      "image_urls": "https://dearimage.iu101.org/images/posts/post_785_1211837498.jpeg",
      "local_image_paths": "https://dearimage.iu101.org/images/posts/post_785_1211837498.jpeg",
      "likes": 0,
      "comments": 0,
      "views": 0,
      "board": "Dear. IU",
      "members_only": 0,
      "author_username": "7iu^^",
      "author_avatar": "https://dearimage.iu101.org/images/avatars/avatar_4.jpeg",
      "author_local_avatar": "https://dearimage.iu101.org/images/avatars/avatar_4.jpeg",
      "fan_comments": [],
      "direct_iu_replies": [
        {
          "id": 1615,
          "content_ko": "바밍타이거. 그들은 천재",
          "content_zh": "Bamin Tiger。他们是天才",
          "image_count": 0,
          "image_urls": null,
          "local_image_paths": null,
          "replied_at": "2025-05-30 06:10:20"
        }
      ]
    },
    {
      "id": 783,
      "post_uuid": "01971fb1-9ca6-3c4b-7623-f27f19c59c9a",
      "title_ko": null,
      "title_zh": null,
      "content_ko": "이거이거 유애나 지금 너무 많이 들어와있어서 언니 눈에 띄려면 굉장한 운이 필요하겟서요. 눈에 띄었나?!!!?",
      "content_zh": "这个这个，现在UEANA来得太多了，想让姐姐注意到需要相当的运气。被注意到了吗？！？！",
      "post_time": "2025-05-30 05:37:03",
      "image_count": 0,
      "image_urls": null,
      "local_image_paths": null,
      "likes": 0,
      "comments": 0,
      "views": 0,
      "board": "Dear. IU",
      "members_only": 0,
      "author_username": "으네",
      "author_avatar": null,
      "author_local_avatar": null,
      "fan_comments": [],
      "direct_iu_replies": [
        {
          "id": 1613,
          "content_ko": "근데 유애나 학교나.. 회사.. 아냐..?",
          "content_zh": "但是友雅学校啊..公司..不是吗..？",
          "image_count": 0,
          "image_urls": null,
          "local_image_paths": null,
          "replied_at": "2025-05-30 06:11:30"
        }
      ]
    },
    {
      "id": 784,
      "post_uuid": "01971fb1-9d3c-c2b7-5be4-c68420948bcd",
      "title_ko": null,
      "title_zh": null,
      "content_ko": "저는 좋아하는 대학에 합격했습니다! ！！！！！",
      "content_zh": "我考上心仪的大学了！！！！！",
      "post_time": "2025-05-30 05:37:03",
      "image_count": 0,
      "image_urls": null,
      "local_image_paths": null,
      "likes": 0,
      "comments": 0,
      "views": 0,
      "board": "Dear. IU",
      "members_only": 0,
      "author_username": "iseau",
      "author_avatar": null,
      "author_local_avatar": null,
      "fan_comments": [],
      "direct_iu_replies": [
        {
          "id": 1614,
          "content_ko": "축하해 축하해! 너의 노력이 대단해 멋지다!! 🫶",
          "content_zh": "恭喜恭喜！你的努力很了不起，真棒！！🫶",
          "image_count": 0,
          "image_urls": null,
          "local_image_paths": null,
          "replied_at": "2025-05-30 06:11:07"
        }
      ]
    },
    {
      "id": 782,
      "post_uuid": "01971fb1-7fd9-e80e-a34c-1e22b29b69f5",
      "title_ko": null,
      "title_zh": null,
      "content_ko": "언니, 핸드폰 내려놔요, 언니가 계속 답장을 보내서 일에 집중할 수가 없어요😩😩😩",
      "content_zh": "姐姐，放下手机吧，姐姐一直回消息让我无法专心工作😩😩😩",
      "post_time": "2025-05-30 05:36:55",
      "image_count": 0,
      "image_urls": null,
      "local_image_paths": null,
      "likes": 0,
      "comments": 0,
      "views": 0,
      "board": "Dear. IU",
      "members_only": 0,
      "author_username": "사어",
      "author_avatar": "https://dearimage.iu101.org/images/avatars/avatar_198.jpeg",
      "author_local_avatar": "https://dearimage.iu101.org/images/avatars/avatar_198.jpeg",
      "fan_comments": [],
      "direct_iu_replies": [
        {
          "id": 1612,
          "content_ko": "오케이!!",
          "content_zh": "好的！！",
          "image_count": 0,
          "image_urls": null,
          "local_image_paths": null,
          "replied_at": "2025-05-30 06:12:25"
        }
      ]
    },
    {
      "id": 781,
      "post_uuid": "01971fb1-4e9f-d7e8-fc40-e7f23cb31f1b",
      "title_ko": null,
      "title_zh": null,
      "content_ko": "안돼 우리랑 더 놀아\n\n밥은 내가 먹을께",
      "content_zh": "不行，再跟我们玩一会儿 把饭留给我吃",
      "post_time": "2025-05-30 05:36:43",
      "image_count": 0,
      "image_urls": null,
      "local_image_paths": null,
      "likes": 0,
      "comments": 0,
      "views": 0,
      "board": "Dear. IU",
      "members_only": 0,
      "author_username": "마구쓰",
      "author_avatar": null,
      "author_local_avatar": null,
      "fan_comments": [],
      "direct_iu_replies": [
        {
          "id": 1611,
          "content_ko": "ㅋㅋㅋㅋㅋㅋㅋㅋ이런 거 좋아",
          "content_zh": "哈哈哈哈哈哈喜欢这种",
          "image_count": 0,
          "image_urls": null,
          "local_image_paths": null,
          "replied_at": "2025-05-30 06:13:24"
        }
      ]
    }
  ]
}