{
  "page": 10,
  "totalPages": 45,
  "total": 895,
  "data": [
    {
      "id": 237,
      "post_uuid": "01988044-2992-5119-4cde-c07713bdd1e3",
      "title_ko": null,
      "title_zh": null,
      "content_ko": "지은아, 오늘 뭐 먹을 거야?\n너의 이런 일상적인 소소한 이야기를 UAENA들은 정말 좋아해.\n지은이는 뭘 먹었을까? 뭘 마셨을까?\n사랑은 언제나 일상 속에서 천천히, 은은하게 스며나오는 것 같아.\n마치 숲속에서 나뭇잎 사이로 스며드는 햇살처럼 말이야.\n양이 많진 않아 보여도, 모든 틈 사이로 스며들며 너에게 우리의 마음을 전하고 있어.\n\n공항에서의 그날, UAENA들은 정말 다 이해하고 있어.\n누구도 “지은이는 왜 이렇게 차가워?” “왜 말도 없고, 왜 웃지도 않아?” 이런 생각 안 해.\n나는 다만, 하이힐을 신고 빠르게 걷는 너가\n정말정말 조심했으면 좋겠다고 걱정했어.\n사람도 많고, 정말 위험할 수 있으니까.\n\n그리고 네가 돌아서서 웃으며 손 흔들어준 그 순간이\n모든 걸 말해주는 거였어.\n우리의 관계는 이제 그런 설명이 필요 없을 만큼 단단해졌으니까.\n지은아, 우리는 다 이해하고 있어.\n\n걱정하지 마.\n무엇보다 중요한 건 안전이니까.\n너도, 우리도.",
      "content_zh": "知恩啊，今天吃什么呀？\n你们这些日常的小故事，UAENA们真的都很喜欢。\n知恩吃了什么？喝了什么？\n爱情似乎总是在日常生活中慢慢、静静地渗透出来。\n就像森林里阳光透过树叶缝隙洒下来一样。\n虽然看起来分量不多，但会渗入每个缝隙，把我们的心意传达给你。\n\n机场那天，UAENA们都真的理解。\n没有人会想\"知恩为什么这么冷淡？\"\"为什么不说一句话，为什么不笑？\"\n我只是担心穿着高跟鞋快步行走的你，\n真的真的很小心才好。\n因为人很多，真的可能会很危险。\n\n还有你转身笑着挥手的那一刻，\n已经说明了一切。\n我们的关系现在已经牢固到不需要这种解释的地步了。\n知恩啊，我们都理解。\n\n别担心。\n最重要的是安全。\n你也是，我们也是。",
      "post_time": "2025-08-06 16:43:27",
      "image_count": 0,
      "image_urls": null,
      "local_image_paths": null,
      "likes": 0,
      "comments": 0,
      "views": 0,
      "board": "Dear. IU",
      "members_only": 0,
      "author_username": "파김치",
      "author_avatar": "https://dearimage.iu101.org/images/avatars/avatar_39.jpeg",
      "author_local_avatar": "https://dearimage.iu101.org/images/avatars/avatar_39.jpeg",
      "fan_comments": [],
      "direct_iu_replies": [
        {
          "id": 900,
          "content_ko": "난 오늘 콩나물 국밥을 먹으면 어떨까 생각 중이었어! \n그랬구나 역시 다 알고 있었구나 고마워 🥰",
          "content_zh": "我今天正想着要不要吃豆芽汤饭呢！\n原来如此，果然什么都知道啊，谢谢 😊",
          "image_count": 0,
          "image_urls": null,
          "local_image_paths": null,
          "replied_at": "2025-08-06 17:01:48"
        }
      ]
    },
    {
      "id": 236,
      "post_uuid": "01988022-a58c-5da4-b77f-e757240b125b",
      "title_ko": null,
      "title_zh": null,
      "content_ko": "아이유 언니, 가끔은 이런 생각이 들어요…\n어떤 사람들은 운 좋게 언니의 댓글을 받는데 저는 항상 조금 늦는 것 같아요.\n때때로 언니가 베리즈에 오지 않는 날도 있지만,\n그래도 저는 언니의 댓글을 읽고, 글을 볼 수 있는 것만으로도 정말 행복해요.\n그럴 때마다 힘이 나고 마음이 따뜻해져요.\n언니도 우리로부터 그런 기쁨을 느끼셨으면 좋겠어요.\n언제나 마할 키타, 언니 🥰",
      "content_zh": "IU姐姐，有时候我会这样想……\n有些人很幸运能收到姐姐的评论，而我总是慢了一步。\n虽然偶尔姐姐也不会来Berryz，\n但只要能看到姐姐的评论和文章，我就已经很开心了。\n每次都是如此，让我感到力量，心里也暖暖的。\n也希望姐姐能从我们这里感受到同样的快乐。\n永远爱你的妹妹 kitaaa 🥰",
      "post_time": "2025-08-06 16:06:51",
      "image_count": 0,
      "image_urls": null,
      "local_image_paths": null,
      "likes": 0,
      "comments": 0,
      "views": 0,
      "board": "Dear. IU",
      "members_only": 0,
      "author_username": "앤16",
      "author_avatar": null,
      "author_local_avatar": null,
      "fan_comments": [],
      "direct_iu_replies": [
        {
          "id": 899,
          "content_ko": "마할키타🥰",
          "content_zh": "马哈尔基塔🥰",
          "image_count": 0,
          "image_urls": null,
          "local_image_paths": null,
          "replied_at": "2025-08-06 17:03:41"
        }
      ]
    },
    {
      "id": 235,
      "post_uuid": "01988021-ffd2-9adb-0734-4de3dd0e8278",
      "title_ko": null,
      "title_zh": null,
      "content_ko": "姑娘且慢，可否留步与小生促膝长谈？아가씨께 삼가 인사 올리옵니다.어찌 된 사연으로 삼생의 인연이 되여,이리 만나 뵙게 되었는지 감탄을 금치 못하옵니다.아가씨의 성함이 무엇이신지요?부디 아가씨와 함께  술잔을 기울이며 시 한수 읊을 기회가 있사옵겠는지요?참으로 유쾌하옵니다.",
      "content_zh": "姑娘且慢，请问能否留步与在下促膝长谈？向姑娘恭敬地行礼问安。不知是怎样的缘分让我们三生有幸相遇，在下不禁感叹。敢问姑娘芳名？诚望能有机会与姑娘一同饮酒，吟诗作对，那将是何等快意之事。",
      "post_time": "2025-08-06 16:06:08",
      "image_count": 0,
      "image_urls": null,
      "local_image_paths": null,
      "likes": 0,
      "comments": 0,
      "views": 0,
      "board": "Dear. IU",
      "members_only": 0,
      "author_username": "Junily",
      "author_avatar": null,
      "author_local_avatar": null,
      "fan_comments": [],
      "direct_iu_replies": [
        {
          "id": 898,
          "content_ko": "달아달아 밝은 달아 \n이태백이 놀던 달아",
          "content_zh": "快出来快出来明亮的月亮",
          "image_count": 0,
          "image_urls": null,
          "local_image_paths": null,
          "replied_at": "2025-08-06 17:04:29"
        }
      ]
    },
    {
      "id": 234,
      "post_uuid": "01988012-8672-79fc-7113-787e91f6a401",
      "title_ko": null,
      "title_zh": null,
      "content_ko": "아침밥 컬렉션을 보면 아침부터 너무 많이 먹어서 놀랐어‼︎아침부터 많이 먹는 언니가 너무 귀여워~\n언니는 아침밥을 하루중에 제일 잘먹어~⁇",
      "content_zh": "看到早餐合集，没想到早上吃得那么多，真让人惊讶‼️ 姐姐一大早就吃这么多，太可爱了~\n姐姐一天当中早餐吃得最好~⁇",
      "post_time": "2025-08-06 15:49:14",
      "image_count": 0,
      "image_urls": null,
      "local_image_paths": null,
      "likes": 0,
      "comments": 0,
      "views": 0,
      "board": "Dear. IU",
      "members_only": 0,
      "author_username": "♡토와♡",
      "author_avatar": "https://dearimage.iu101.org/images/avatars/avatar_215.jpeg",
      "author_local_avatar": "https://dearimage.iu101.org/images/avatars/avatar_215.jpeg",
      "fan_comments": [],
      "direct_iu_replies": [
        {
          "id": 897,
          "content_ko": "나 요즘 세 끼 먹어 대박이야 \n아니 나는 저녁을 제일 든든하게 먹어!",
          "content_zh": "我最近三餐都吃 太棒了",
          "image_count": 0,
          "image_urls": null,
          "local_image_paths": null,
          "replied_at": "2025-08-06 17:06:47"
        }
      ]
    },
    {
      "id": 233,
      "post_uuid": "01987fcd-eaec-be25-eda7-9ac88d30e3ca",
      "title_ko": null,
      "title_zh": null,
      "content_ko": "지은언니 오늘 저녁 뭐 먹었어용?",
      "content_zh": "知恩姐姐今天晚上吃了什么？",
      "post_time": "2025-08-06 14:34:18",
      "image_count": 0,
      "image_urls": null,
      "local_image_paths": null,
      "likes": 0,
      "comments": 0,
      "views": 0,
      "board": "Dear. IU",
      "members_only": 0,
      "author_username": "김현아",
      "author_avatar": null,
      "author_local_avatar": null,
      "fan_comments": [],
      "direct_iu_replies": [
        {
          "id": 896,
          "content_ko": "떡볶이!!",
          "content_zh": "辣炒年糕！！",
          "image_count": 0,
          "image_urls": null,
          "local_image_paths": null,
          "replied_at": "2025-08-06 17:29:18"
        }
      ]
    },
    {
      "id": 232,
      "post_uuid": "01987fcd-107a-fa3c-83ff-e46d619f010a",
      "title_ko": null,
      "title_zh": null,
      "content_ko": "언니는 커피를 마시지 않는다면 대사를 외울때나 집중이 필요할때 어떻게 하고있나요 ⁇저도 커피를 못 마시니까 공부할 때 언니의 방법을 시도하고 싶어요‼︎",
      "content_zh": "姐姐如果不喝咖啡的话，背台词或需要集中注意力的时候是怎么做的呢？我也不能喝咖啡，所以想试试姐姐的方法！！",
      "post_time": "2025-08-06 14:33:22",
      "image_count": 0,
      "image_urls": null,
      "local_image_paths": null,
      "likes": 0,
      "comments": 0,
      "views": 0,
      "board": "Dear. IU",
      "members_only": 0,
      "author_username": "♡토와♡",
      "author_avatar": "https://dearimage.iu101.org/images/avatars/avatar_215.jpeg",
      "author_local_avatar": "https://dearimage.iu101.org/images/avatars/avatar_215.jpeg",
      "fan_comments": [],
      "direct_iu_replies": [
        {
          "id": 895,
          "content_ko": "그냥 성실하게 외웠다는 성취감!!",
          "content_zh": "只是背诵下来的成就感！！",
          "image_count": 0,
          "image_urls": null,
          "local_image_paths": null,
          "replied_at": "2025-08-06 17:29:55"
        }
      ]
    },
    {
      "id": 253,
      "post_uuid": "01987682-63fe-a4ab-1d9b-71aea9c1748a",
      "title_ko": null,
      "title_zh": null,
      "content_ko": "언니ㅠ 저는 커피마시면 잠을 못 자서 커피 안 마시고 오늘도 안마셨는데 왜 잠이 안올까요ㅠㅠ 밤편지도 자장가도 무릎도 asmr도 안통하는 하루네요🥲 머릿속이 복잡한걸까요🥹\n",
      "content_zh": "姐姐ㅠ 我喝了咖啡就睡不着觉，所以今天也没喝咖啡，为什么还是睡不着呢ㅠㅠ 今晚的偏头痛、摇篮曲、膝盖、ASMR都不管用了🥲 是脑袋太乱了吗🥹",
      "post_time": "2025-08-04 19:15:13",
      "image_count": 0,
      "image_urls": null,
      "local_image_paths": null,
      "likes": 0,
      "comments": 0,
      "views": 0,
      "board": "Dear. IU",
      "members_only": 0,
      "author_username": "정이~.~",
      "author_avatar": null,
      "author_local_avatar": null,
      "fan_comments": [],
      "direct_iu_replies": [
        {
          "id": 916,
          "content_ko": "아이고 아직 못 자는구나..  호흡법도 해봤어? 멜라토닌 마그네슘 다 해본 거야?",
          "content_zh": "天啊还睡不着..试过呼吸法吗？褪黑素镁都试过了？",
          "image_count": 0,
          "image_urls": null,
          "local_image_paths": null,
          "replied_at": "2025-08-04 19:17:59"
        }
      ]
    },
    {
      "id": 252,
      "post_uuid": "01987681-1c13-875a-0cd7-0f16d194e7f4",
      "title_ko": null,
      "title_zh": null,
      "content_ko": "안녕 자매, 좋은 아침이야 ❤️ 벌써 일어났어? 잘 지내? 좋은 밤 보냈으면 좋겠어 😴 오늘 아침 뭐 먹을래?",
      "content_zh": "你好姐妹，早安 ❤️ 已经起床了吗？过得好吗？希望昨晚睡得好 😴 今天早上吃什么？",
      "post_time": "2025-08-04 19:13:49",
      "image_count": 0,
      "image_urls": null,
      "local_image_paths": null,
      "likes": 0,
      "comments": 0,
      "views": 0,
      "board": "Dear. IU",
      "members_only": 0,
      "author_username": "Damaris",
      "author_avatar": null,
      "author_local_avatar": null,
      "fan_comments": [],
      "direct_iu_replies": [
        {
          "id": 915,
          "content_ko": "난 김밥 선택했어.. 돌고돌아 김밥이야 😌",
          "content_zh": "我选了紫菜包饭..兜兜转转还是紫菜包饭 😌",
          "image_count": 0,
          "image_urls": null,
          "local_image_paths": null,
          "replied_at": "2025-08-04 19:18:27"
        }
      ]
    },
    {
      "id": 251,
      "post_uuid": "0198767a-eda6-f98d-14ca-3d26bc896200",
      "title_ko": null,
      "title_zh": null,
      "content_ko": "또 불면증이네요. 정말 마음이 아픕니다. 언니, 잠을 잘 수 있는 좋은 방법이 있나요?😔",
      "content_zh": "又失眠了。真的心疼。姐姐，有什么好的助眠方法吗？😔",
      "post_time": "2025-08-04 19:07:04",
      "image_count": 0,
      "image_urls": null,
      "local_image_paths": null,
      "likes": 0,
      "comments": 0,
      "views": 0,
      "board": "Dear. IU",
      "members_only": 0,
      "author_username": "IU의소고",
      "author_avatar": "https://dearimage.iu101.org/images/avatars/avatar_190.jpeg",
      "author_local_avatar": "https://dearimage.iu101.org/images/avatars/avatar_190.jpeg",
      "fan_comments": [],
      "direct_iu_replies": [
        {
          "id": 914,
          "content_ko": "병원에 가 봐 치료를 받는 걸 추천할게!",
          "content_zh": "建议你去医院看看，接受治疗！",
          "image_count": 0,
          "image_urls": null,
          "local_image_paths": null,
          "replied_at": "2025-08-04 19:19:00"
        }
      ]
    },
    {
      "id": 250,
      "post_uuid": "01987679-8ba7-97d0-a5b5-64cc9927077c",
      "title_ko": null,
      "title_zh": null,
      "content_ko": "언니 오늘도 평일인가요🥹",
      "content_zh": "姐姐今天也是工作日吗🥹",
      "post_time": "2025-08-04 19:05:33",
      "image_count": 0,
      "image_urls": null,
      "local_image_paths": null,
      "likes": 0,
      "comments": 0,
      "views": 0,
      "board": "Dear. IU",
      "members_only": 0,
      "author_username": "IU의소고",
      "author_avatar": "https://dearimage.iu101.org/images/avatars/avatar_190.jpeg",
      "author_local_avatar": "https://dearimage.iu101.org/images/avatars/avatar_190.jpeg",
      "fan_comments": [],
      "direct_iu_replies": [
        {
          "id": 913,
          "content_ko": "일하러 간다 응원 좀 줄래?! 😒",
          "content_zh": "要去工作了，能给我点鼓励吗？ 😒",
          "image_count": 0,
          "image_urls": null,
          "local_image_paths": null,
          "replied_at": "2025-08-04 19:19:34"
        }
      ]
    },
    {
      "id": 249,
      "post_uuid": "01987670-433b-477c-2eee-74f25837d29f",
      "title_ko": null,
      "title_zh": null,
      "content_ko": "언니 오늘도 일찍 출근하려나~? 아님 퇴근..? 일단 나는 이제 자러 갈게... 촬영 간다면 몸 조심!!!!하면서 잘 다녀와요 오늘도 사랑해😌🩵🩵",
      "content_zh": "姐姐今天也要早去上班吗~？还是下班..？反正我要去睡觉了... 如果去拍摄要小心身体！！！好好回来 今天也爱你😌🩵🩵",
      "post_time": "2025-08-04 18:55:25",
      "image_count": 0,
      "image_urls": null,
      "local_image_paths": null,
      "likes": 0,
      "comments": 0,
      "views": 0,
      "board": "Dear. IU",
      "members_only": 0,
      "author_username": "솔이이",
      "author_avatar": null,
      "author_local_avatar": null,
      "fan_comments": [],
      "direct_iu_replies": [
        {
          "id": 912,
          "content_ko": "웅 바톤터치!! 잘 자 솔아♥️",
          "content_zh": "嗯交接棒！！晚安素拉♥️",
          "image_count": 0,
          "image_urls": null,
          "local_image_paths": null,
          "replied_at": "2025-08-04 19:20:07"
        }
      ]
    },
    {
      "id": 248,
      "post_uuid": "0198766b-d212-86f2-bd47-97d8635415c8",
      "title_ko": null,
      "title_zh": null,
      "content_ko": "아이유님 집에서는 작업을 어떻게해요?? 집에 작업실이 있어서 작곡프로그램같은걸 돌리는거에요?? 막 방음장치도 되어있고 그런건가요? 만약 그런거면 혹시 나아아아아아아아중에 작업실 어떻게 생긴건지 사진으로 올려줄수있어요?",
      "content_zh": "IU小姐在家里是怎么工作的呢？家里有工作室，可以运行作曲软件之类的吗？隔音设备什么的都齐全吗？如果真是这样的话，以后能拍张照片给我们看看工作室是什么样子的吗？",
      "post_time": "2025-08-04 18:50:34",
      "image_count": 0,
      "image_urls": null,
      "local_image_paths": null,
      "likes": 0,
      "comments": 0,
      "views": 0,
      "board": "Dear. IU",
      "members_only": 0,
      "author_username": "미니언",
      "author_avatar": "https://dearimage.iu101.org/images/avatars/avatar_89.gif",
      "author_local_avatar": "https://dearimage.iu101.org/images/avatars/avatar_89.gif",
      "fan_comments": [],
      "direct_iu_replies": [
        {
          "id": 911,
          "content_ko": "아니 그냥 친한 작곡가들 작업실 가거나 집에서 작은 소리로 작곡해🤫",
          "content_zh": "就是去熟悉的作曲家的工作室，或者在家小声作曲🤫",
          "image_count": 0,
          "image_urls": null,
          "local_image_paths": null,
          "replied_at": "2025-08-04 19:21:06"
        }
      ]
    },
    {
      "id": 247,
      "post_uuid": "0198766b-0a8b-f616-e15d-bdeca2ab4ad3",
      "title_ko": null,
      "title_zh": null,
      "content_ko": "지은언니 언니는 만약에 \"사랑해\"라는 단어를 못 쓴다면 \"사랑해\" 대신 어떤 단어를 쓸 거예요?? 저는 '아낀다'는 표현을 쓸 것 같아요. 개인적으로 상대방을 아낀다 감정은 정말 그 사람을 사랑할 때 자연스럽게 나오는 것 같거든요☺️ \n그래서 제 주변 사람들에게 그런 마음을 전하고 싶을 때, 편지나 대화에서 자주 “아껴”라는 말을 쓰게 되는 것 같아요!!\n언니 제가 언니를 정말 정말 많이 아껴요♥︎♥︎ 그리고.. 사랑해요💜 (앗 언니는 예전처럼 둥근해 쓰려나~?🙆🏻‍♀️❤️🍀)",
      "content_zh": "知恩姐姐，如果不能用\"사랑해\"这个词的话，你会用什么词来代替呢？我想我会用\"아낀다\"这个表达。因为我觉得珍惜对方的感情，正是真正爱那个人时自然流露出来的呢☺️\n所以当我想对身边的人传达这种心意时，写信或聊天时经常会用到\"아껴\"这个词呢！\n姐姐，我真的真的很珍惜你♥︎♥︎还有...我爱你💜（啊，姐姐还会像以前一样写成\"둥근해\"吗~？🙆🏻‍♀️❤️🍀）",
      "post_time": "2025-08-04 18:49:43",
      "image_count": 0,
      "image_urls": null,
      "local_image_paths": null,
      "likes": 0,
      "comments": 0,
      "views": 0,
      "board": "Dear. IU",
      "members_only": 0,
      "author_username": "채현",
      "author_avatar": null,
      "author_local_avatar": null,
      "fan_comments": [],
      "direct_iu_replies": [
        {
          "id": 910,
          "content_ko": "난 내가 제일 좋아하는 달을 이용해서 \n오월해 시월해! 사월해! 이렇게 말할래",
          "content_zh": "我要用自己最喜欢的月份来称呼",
          "image_count": 0,
          "image_urls": null,
          "local_image_paths": null,
          "replied_at": "2025-08-04 19:22:13"
        }
      ]
    },
    {
      "id": 246,
      "post_uuid": "01987666-323d-74bb-bed6-41a96cc74a30",
      "title_ko": null,
      "title_zh": null,
      "content_ko": "지은 언니! 하루에 물을 몇 밀리리터 정도 마셔요? \n당신은 컵을 가지고 촬영장에 갈 것입니까?",
      "content_zh": "知恩姐姐！一天喝多少毫升水呀？\n你要带着杯子去拍摄现场吗？",
      "post_time": "2025-08-04 18:44:25",
      "image_count": 0,
      "image_urls": null,
      "local_image_paths": null,
      "likes": 0,
      "comments": 0,
      "views": 0,
      "board": "Dear. IU",
      "members_only": 0,
      "author_username": "사어",
      "author_avatar": "https://dearimage.iu101.org/images/avatars/avatar_198.jpeg",
      "author_local_avatar": "https://dearimage.iu101.org/images/avatars/avatar_198.jpeg",
      "fan_comments": [],
      "direct_iu_replies": [
        {
          "id": 909,
          "content_ko": "난.. 한 700? 촬영할 땐 아무래도 최소량만 마시는 듯!",
          "content_zh": "我的话大概700？拍摄时总是尽量少喝！",
          "image_count": 0,
          "image_urls": null,
          "local_image_paths": null,
          "replied_at": "2025-08-04 19:22:52"
        }
      ]
    },
    {
      "id": 245,
      "post_uuid": "0198761b-83dd-156b-fb1d-5191af2f0b05",
      "title_ko": null,
      "title_zh": null,
      "content_ko": "로스앤젤레스 공연 끝나고 \"I did it!\" 외치던 그 말투 기억나요?  진짜 너무 귀여웠어요🥺  요즘 콘서트 DVD 보면서 내 가수를 자랑스럽게 생각하곤 해요🐥 다음 투어를 벌써부터 기대 중이에요❤️‍🔥❤️‍🔥 그때까지 촬영으로 바쁠 언니, 건강 조심하세요.  우리 모두 건강하게 다음 만날 때까지 잘 지내요💪🏻 언니를 만나기 위해 저도 열심히 살 거예요!",
      "content_zh": "洛杉矶演出结束后大喊\"I did it!\"的那个语气还记得吗？真的太可爱了🥺 最近看演唱会DVD的时候，总是很自豪地想着我的歌手🐥 已经开始期待下一次巡演了❤️‍🔥❤️‍🔥 在那之前姐姐要忙于拍摄，一定要注意健康哦。我们都要健健康康地好好生活到下次见面💪🏻 为了能见到姐姐，我也会努力生活的！",
      "post_time": "2025-08-04 17:22:51",
      "image_count": 0,
      "image_urls": null,
      "local_image_paths": null,
      "likes": 0,
      "comments": 0,
      "views": 0,
      "board": "Dear. IU",
      "members_only": 0,
      "author_username": "아이유의크레페૮᎔•⩊•᎔ა",
      "author_avatar": "https://dearimage.iu101.org/images/avatars/avatar_7.jpeg",
      "author_local_avatar": "https://dearimage.iu101.org/images/avatars/avatar_7.jpeg",
      "fan_comments": [],
      "direct_iu_replies": [
        {
          "id": 908,
          "content_ko": "다음투어.. 벌써부터 걱정이다 🥹 기대되는데 걱정되는.. 알아요? 🥹😀",
          "content_zh": "下次巡演..从现在就开始担心 🥹既期待又担心..你知道吗？ 🥹😀",
          "image_count": 0,
          "image_urls": null,
          "local_image_paths": null,
          "replied_at": "2025-08-04 19:25:32"
        }
      ]
    },
    {
      "id": 244,
      "post_uuid": "01987615-1548-87ce-3b05-143ac12efd0a",
      "title_ko": null,
      "title_zh": null,
      "content_ko": "안녕하세요 지은이 누나. 오늘 슬퍼요. :( 운이 제 편이 아닌 것 같아요. ☹️",
      "content_zh": "你好知恩欧尼。今天很难过。:( 运气好像不在我的一边。☹️",
      "post_time": "2025-08-04 17:15:49",
      "image_count": 0,
      "image_urls": null,
      "local_image_paths": null,
      "likes": 0,
      "comments": 0,
      "views": 0,
      "board": "Dear. IU",
      "members_only": 0,
      "author_username": "Kim_IUaena2011",
      "author_avatar": null,
      "author_local_avatar": null,
      "fan_comments": [],
      "direct_iu_replies": [
        {
          "id": 907,
          "content_ko": "내일은 너의 것일 거야!! 나두 어제 좀 별루.. 잘 버텼어!",
          "content_zh": "明天是属于你的！我昨天也有点不好，但坚持下来了！",
          "image_count": 0,
          "image_urls": null,
          "local_image_paths": null,
          "replied_at": "2025-08-04 19:26:28"
        }
      ]
    },
    {
      "id": 243,
      "post_uuid": "0198760c-ee1b-ec12-7e5c-4d22047f1172",
      "title_ko": null,
      "title_zh": null,
      "content_ko": "언니, 나는 8월 8일에 태어났고 게다가 오전 8시야. 그래서 8은 항상 내가 가장 좋아하는 숫자야 🥹 정말 인연이 있는 거 맞지? 😽 올해의 8번째 멤버십 모집은 나에게 특별한 의미가 있어 😎 지금 8월이 되었고 내 생일도 곧이야 올해는 AIL, IEN과 함께 생일을 보낼 거야!! 매우 기대돼!!  wo ai ni \n",
      "content_zh": "姐姐，我是在8月8日出生的，而且还是上午8点。所以8一直是我最喜欢的数字 🥹 确实很有缘分对吧？ 😽 今年第八次会员招募对我来说有着特别的意义 😎 现在到了8月，我的生日也快到了，今年会和AIL、IEN一起过生日！！非常期待！！wo ai ni",
      "post_time": "2025-08-04 17:06:55",
      "image_count": 0,
      "image_urls": null,
      "local_image_paths": null,
      "likes": 0,
      "comments": 0,
      "views": 0,
      "board": "Dear. IU",
      "members_only": 0,
      "author_username": "cooky08",
      "author_avatar": null,
      "author_local_avatar": null,
      "fan_comments": [],
      "direct_iu_replies": [
        {
          "id": 906,
          "content_ko": "완전 에일이언이네!! 😍",
          "content_zh": "完全是Eilien呢！！😍",
          "image_count": 0,
          "image_urls": null,
          "local_image_paths": null,
          "replied_at": "2025-08-04 19:27:17"
        }
      ]
    },
    {
      "id": 242,
      "post_uuid": "01987600-7be0-e50d-601f-561db2af4fb3",
      "title_ko": null,
      "title_zh": null,
      "content_ko": "언니, 너는 추억을 소중히 하는 스타일이야? 나는 쓸모없는 물건도 많이 있는데 버리기가 아까워.  😮‍💨😮‍💨",
      "content_zh": "姐姐，你是珍视回忆的类型吗？我有很多没用的东西，但扔掉又舍不得。  😮‍💨😮‍💨",
      "post_time": "2025-08-04 16:53:19",
      "image_count": 0,
      "image_urls": null,
      "local_image_paths": null,
      "likes": 0,
      "comments": 0,
      "views": 0,
      "board": "Dear. IU",
      "members_only": 0,
      "author_username": "cooky08",
      "author_avatar": null,
      "author_local_avatar": null,
      "fan_comments": [],
      "direct_iu_replies": [
        {
          "id": 905,
          "content_ko": "나도 그런 편이야! 그래도 때가 되면 버려야지 \n영원히 끌어안고 살 수는 없으니까 🥹",
          "content_zh": "我也是这样的人！不过到时候该扔掉还是要扔掉，毕竟不能永远抱着不放 🥹",
          "image_count": 0,
          "image_urls": null,
          "local_image_paths": null,
          "replied_at": "2025-08-04 19:28:28"
        }
      ]
    },
    {
      "id": 241,
      "post_uuid": "019875dd-7f3a-7e41-e8e2-e67e7ff95a5d",
      "title_ko": null,
      "title_zh": null,
      "content_ko": "언니 오늘 드디어 수능 100일이에요\n요즘 다시 좀 풀어지는 느낌도 들고 또 주변상황이 많이 안좋아져서 불안해요😢\n그냥 그래서 이 밤에 언니가 보고싶어졌어요\n항상 좋은 일일때만 썻는데 슬픈일로 쓰는건 처음인것 같아요\n언니 많이많이 사랑해요\n",
      "content_zh": "姐姐，今天终于到高考100天了。\n最近感觉又有点松懈下来，而且周围的情况变得很不好，所以很不安 😢\n就是因此，这个夜晚特别想你。\n一直都是在有好事的时候才找你，用难过的事找你还是第一次。\n非常非常爱你，姐姐。",
      "post_time": "2025-08-04 16:15:07",
      "image_count": 0,
      "image_urls": null,
      "local_image_paths": null,
      "likes": 0,
      "comments": 0,
      "views": 0,
      "board": "Dear. IU",
      "members_only": 0,
      "author_username": "아유나",
      "author_avatar": null,
      "author_local_avatar": null,
      "fan_comments": [],
      "direct_iu_replies": [
        {
          "id": 904,
          "content_ko": "100일 동안 제대로 압박감도 가져보고 무턱대고 자신감도 느껴보고 부족하다 싶으면 밤새워서 공부도 해보고 할 수 있는 거 다 해보자! 나중에 후회 없도록!!! 파이팅!!! 🔥",
          "content_zh": "100天里，该有的压力要承受，盲目的自信也要体验，不足的时候就熬夜学习，能做的都试试看！为了以后不留遗憾！！加油！！🔥",
          "image_count": 0,
          "image_urls": null,
          "local_image_paths": null,
          "replied_at": "2025-08-04 19:32:10"
        }
      ]
    },
    {
      "id": 240,
      "post_uuid": "019875d0-32df-0616-5ed5-895f7b23de9e",
      "title_ko": null,
      "title_zh": null,
      "content_ko": "언니! 다음 앨범 작업 진행 상황? 20%？40%？ 60%？80%？",
      "content_zh": "姐姐！下张专辑制作进度如何？20%？40%？ 60%？80%？",
      "post_time": "2025-08-04 16:00:35",
      "image_count": 0,
      "image_urls": null,
      "local_image_paths": null,
      "likes": 0,
      "comments": 0,
      "views": 0,
      "board": "Dear. IU",
      "members_only": 0,
      "author_username": "dlwlrmaaaaa",
      "author_avatar": "https://dearimage.iu101.org/images/avatars/avatar_422.jpg",
      "author_local_avatar": "https://dearimage.iu101.org/images/avatars/avatar_422.jpg",
      "fan_comments": [],
      "direct_iu_replies": [
        {
          "id": 903,
          "content_ko": "40? 근데 확실치는 않아 다 엎을 수도 🥹",
          "content_zh": "40？不过也不确定，也可能会全盘推翻 🥹",
          "image_count": 0,
          "image_urls": null,
          "local_image_paths": null,
          "replied_at": "2025-08-04 19:33:05"
        }
      ]
    }
  ]
}