{
  "page": 8,
  "totalPages": 45,
  "total": 895,
  "data": [
    {
      "id": 184,
      "post_uuid": "01988d11-a3b7-b437-d8b1-fd6d4204a9fe",
      "title_ko": null,
      "title_zh": null,
      "content_ko": "징짱!! 지금 펜미팅 토요일이랑 일요일 선택하기 어려워요 \n이틀 동안 어떻게 선택하는지 혹시 지은이의 의견을 줄 수 있나요? \n티켓팅 너무 떨려🫨🫨🫨😬😬😬😬\n오늘 쉬는 날인데 잘 지내세요 \n사랑해♥️♥️♥️",
      "content_zh": "珍珍！！现在很难选择周六还是周日参加粉丝见面会\n这两天要怎么选择，小珍能给点建议吗？\n抢票太紧张了🫨🫨🫨😬😬😬😬\n今天是休息日，希望你过得愉快\n爱你♥️♥️♥️",
      "post_time": "2025-08-09 04:23:20",
      "image_count": 0,
      "image_urls": null,
      "local_image_paths": null,
      "likes": 0,
      "comments": 0,
      "views": 0,
      "board": "Dear. IU",
      "members_only": 0,
      "author_username": "의산",
      "author_avatar": null,
      "author_local_avatar": null,
      "fan_comments": [],
      "direct_iu_replies": [
        {
          "id": 847,
          "content_ko": "첫날의 설렘을 원하면 토미팅!\n막날의 편안함을 원하면 일미팅!",
          "content_zh": "想要第一天的激动就选tomiting！ 想要最后一天的轻松就选ilmiting！",
          "image_count": 0,
          "image_urls": null,
          "local_image_paths": null,
          "replied_at": "2025-08-09 04:57:41"
        }
      ]
    },
    {
      "id": 183,
      "post_uuid": "01988d0c-8d7e-01fc-3a3f-2c3969081613",
      "title_ko": null,
      "title_zh": null,
      "content_ko": "언니, 청룡 시리즈 어워즈 날 IUTV 촬영 혹시 있었을까요?\n없어도 괜찮아요🙂‍↕️ 그냥 살짝 궁금했어요",
      "content_zh": "姐姐，那天青龙系列奖颁奖典礼在 IUTV 拍摄的时候，你也在吗？\n不在也没关系🙂‍↕️ 就是有点好奇",
      "post_time": "2025-08-09 04:17:46",
      "image_count": 0,
      "image_urls": null,
      "local_image_paths": null,
      "likes": 0,
      "comments": 0,
      "views": 0,
      "board": "Dear. IU",
      "members_only": 0,
      "author_username": "융융",
      "author_avatar": null,
      "author_local_avatar": null,
      "fan_comments": [],
      "direct_iu_replies": [
        {
          "id": 846,
          "content_ko": "없어요 ㅜㅜ그날 그 녹화장 안에 많은 인원이 있었어거 혼잡을 막기 위해 소속사 촬영팀들은 촬영을 삼가달라는 부탁이 있었어요 🥺",
          "content_zh": "没有呢呜呜 那天那个录影棚里有很多人，为了防止拥挤，经纪公司的拍摄团队都请求我们暂停拍摄🥺",
          "image_count": 0,
          "image_urls": null,
          "local_image_paths": null,
          "replied_at": "2025-08-09 05:02:56"
        }
      ]
    },
    {
      "id": 182,
      "post_uuid": "01988d0c-85f0-23cd-9f0f-efdc5aa9a435",
      "title_ko": null,
      "title_zh": null,
      "content_ko": "이번 팬미팅이 이전 팬미팅과는 이런 부분이 달라졌다 !! 하는 게 있을까요오~?",
      "content_zh": "这次粉丝见面会和之前的有什么不同之处吗？",
      "post_time": "2025-08-09 04:17:44",
      "image_count": 0,
      "image_urls": null,
      "local_image_paths": null,
      "likes": 0,
      "comments": 0,
      "views": 0,
      "board": "Dear. IU",
      "members_only": 0,
      "author_username": "김지현",
      "author_avatar": "https://dearimage.iu101.org/images/avatars/avatar_310.jpeg",
      "author_local_avatar": "https://dearimage.iu101.org/images/avatars/avatar_310.jpeg",
      "fan_comments": [],
      "direct_iu_replies": [
        {
          "id": 845,
          "content_ko": "관객이 아주 많아졌다..? \n원래 팬미팅은 1-2000명 내외였지요 우리? ",
          "content_zh": "观众变多了..？ 原来粉丝见面会是1-2000人左右我们？",
          "image_count": 0,
          "image_urls": null,
          "local_image_paths": null,
          "replied_at": "2025-08-09 05:03:44"
        }
      ]
    },
    {
      "id": 181,
      "post_uuid": "01988d0c-0476-8c2a-cb14-9aedfec42061",
      "title_ko": null,
      "title_zh": null,
      "content_ko": "언니는 아픈 거 잘 참는 편이에요? 1 부터 10 까지 점수 매겨본다면 몇 점일까요?\n",
      "content_zh": "姐姐忍痛能力强吗？从 1 到 10 分打分的话是多少分？",
      "post_time": "2025-08-09 04:17:11",
      "image_count": 0,
      "image_urls": null,
      "local_image_paths": null,
      "likes": 0,
      "comments": 0,
      "views": 0,
      "board": "Dear. IU",
      "members_only": 0,
      "author_username": "Zazu's핫딸기차",
      "author_avatar": "https://dearimage.iu101.org/images/avatars/avatar_48.jpeg",
      "author_local_avatar": "https://dearimage.iu101.org/images/avatars/avatar_48.jpeg",
      "fan_comments": [],
      "direct_iu_replies": [
        {
          "id": 844,
          "content_ko": "목 아픈 거 말고는 다 잘 참는 편이에요!\n목 아픈 건 못 참음",
          "content_zh": "除了嗓子疼其他都还好！ 嗓子疼受不了",
          "image_count": 0,
          "image_urls": null,
          "local_image_paths": null,
          "replied_at": "2025-08-09 05:04:28"
        }
      ]
    },
    {
      "id": 198,
      "post_uuid": "01988231-6b5d-f46e-576a-a1583b8af9ee",
      "title_ko": null,
      "title_zh": null,
      "content_ko": "내년 콘서트를 생각하면 저는 한국어를 더 열심히 공부합니다! 근데 한국어 문법이 어려운데 어떡하죠 언니?😭😭😭",
      "content_zh": "想到明年的演唱会，我要更努力学韩语！但韩语语法很难怎么办姐姐？😭😭😭",
      "post_time": "2025-08-07 01:42:13",
      "image_count": 0,
      "image_urls": null,
      "local_image_paths": null,
      "likes": 0,
      "comments": 0,
      "views": 0,
      "board": "Dear. IU",
      "members_only": 0,
      "author_username": "아이love유♡",
      "author_avatar": null,
      "author_local_avatar": null,
      "fan_comments": [],
      "direct_iu_replies": [
        {
          "id": 861,
          "content_ko": "대충해도 다 알아 들어 한국 사람!! 나도 문법 잘 안 지키는데 🤫",
          "content_zh": "随便说也能听懂韩国人！！我也语法用得不好 🤫",
          "image_count": 0,
          "image_urls": null,
          "local_image_paths": null,
          "replied_at": "2025-08-07 01:43:39"
        }
      ]
    },
    {
      "id": 197,
      "post_uuid": "01988231-50e2-0f3b-72c0-9391db469c25",
      "title_ko": null,
      "title_zh": null,
      "content_ko": "오늘 쉬는날이라고 했잖아 얼른 더 자고 이따가 또와❤️\n쉬는날이라도 많이 자야지 \n잠 못잘때 AMSR 이 도움이 되긴하는데 나는 한 20~30 분이 딱 적당한거 같아 너무 길면 그 소리 듣는다고 또 잠을 못자",
      "content_zh": "不是说今天是休息日吗，再睡一会儿，等会儿再聊❤️\n就算是休息日也要多睡觉啊\n睡不着的时候 ASMR 确实有帮助，我觉得大概 20 到 30 分钟刚刚好，太长的话反而因为一直听声音又睡不着了",
      "post_time": "2025-08-07 01:42:06",
      "image_count": 0,
      "image_urls": null,
      "local_image_paths": null,
      "likes": 0,
      "comments": 0,
      "views": 0,
      "board": "Dear. IU",
      "members_only": 0,
      "author_username": "약속",
      "author_avatar": null,
      "author_local_avatar": null,
      "fan_comments": [],
      "direct_iu_replies": [
        {
          "id": 860,
          "content_ko": "그래 그럴게!! 잘 살고 있다가 또 봐!!  ♥️",
          "content_zh": "好那就这样！！好好生活再见！！♥️",
          "image_count": 0,
          "image_urls": null,
          "local_image_paths": null,
          "replied_at": "2025-08-07 01:44:39"
        }
      ]
    },
    {
      "id": 214,
      "post_uuid": "01988222-3ed5-6699-86e6-03d7b1c8607c",
      "title_ko": null,
      "title_zh": null,
      "content_ko": "지은이가 원래 연기하고 싶었어? 아니면 대본 받고 해보고 싶은 거야? 대본 고르는 기준도 궁금해!",
      "content_zh": "知恩原本就想演戏吗？还是拿到剧本后想尝试？也好奇选剧本的标准！",
      "post_time": "2025-08-07 01:25:39",
      "image_count": 0,
      "image_urls": null,
      "local_image_paths": null,
      "likes": 0,
      "comments": 0,
      "views": 0,
      "board": "Dear. IU",
      "members_only": 0,
      "author_username": "우하미",
      "author_avatar": null,
      "author_local_avatar": null,
      "fan_comments": [],
      "direct_iu_replies": [
        {
          "id": 877,
          "content_ko": "나는 가수보다 이전에 연기가 하고 싶었어! \n가수 오디션이 더 빨리 붙어서 우연한 기회에 데뷔하게 됐어🥴",
          "content_zh": "我之前其实更想当演员！\n只是歌手选拔来得更早，所以阴差阳错地出道了呢 🥴",
          "image_count": 0,
          "image_urls": null,
          "local_image_paths": null,
          "replied_at": "2025-08-07 01:27:22"
        }
      ]
    },
    {
      "id": 213,
      "post_uuid": "01988222-355d-3161-ee88-b734a2971a01",
      "title_ko": null,
      "title_zh": null,
      "content_ko": "엉니 올해는 ~~ 건강검진 했어요?? 아직인가 ?!! 🧐",
      "content_zh": "亲爱的今年做体检了吗？？还没做吗？！ 🧐",
      "post_time": "2025-08-07 01:25:36",
      "image_count": 0,
      "image_urls": null,
      "local_image_paths": null,
      "likes": 0,
      "comments": 0,
      "views": 0,
      "board": "Dear. IU",
      "members_only": 0,
      "author_username": "효정띠.•♥",
      "author_avatar": "https://dearimage.iu101.org/images/avatars/avatar_268.jpeg",
      "author_local_avatar": "https://dearimage.iu101.org/images/avatars/avatar_268.jpeg",
      "fan_comments": [],
      "direct_iu_replies": [
        {
          "id": 876,
          "content_ko": "아직 ~.~ 곧 해야지! 효정이는?",
          "content_zh": "还没~.~马上要做！孝静呢？",
          "image_count": 0,
          "image_urls": null,
          "local_image_paths": null,
          "replied_at": "2025-08-07 01:28:03"
        }
      ]
    },
    {
      "id": 211,
      "post_uuid": "01988222-220d-779b-b432-2cb098119655",
      "title_ko": null,
      "title_zh": null,
      "content_ko": "지은언니 올해는 아직 모기 안 물렸어요??",
      "content_zh": "知恩姐姐今年还没被蚊子咬过吗？？",
      "post_time": "2025-08-07 01:25:31",
      "image_count": 0,
      "image_urls": null,
      "local_image_paths": null,
      "likes": 0,
      "comments": 0,
      "views": 0,
      "board": "Dear. IU",
      "members_only": 0,
      "author_username": "うさぎ",
      "author_avatar": "https://dearimage.iu101.org/images/avatars/avatar_43.jpeg",
      "author_local_avatar": "https://dearimage.iu101.org/images/avatars/avatar_43.jpeg",
      "fan_comments": [],
      "direct_iu_replies": [
        {
          "id": 874,
          "content_ko": "응!! 이번 모기는 가을에 기승일 거래!!",
          "content_zh": "嗯！！这次蚊子秋天会更厉害！！",
          "image_count": 0,
          "image_urls": null,
          "local_image_paths": null,
          "replied_at": "2025-08-07 01:29:19"
        }
      ]
    },
    {
      "id": 212,
      "post_uuid": "01988222-2261-73bf-8d1b-157861573c0c",
      "title_ko": null,
      "title_zh": null,
      "content_ko": "언니는 정말 싫어하는 음식이 있어요? 저는 양파, 토마토, 가지, 고야(쓴 오이), 피망을 싫어해요…… 편식 습관을 어떻게 고칠 수 있을까요?🫣😮‍💨",
      "content_zh": "姐姐有特别讨厌吃的食物吗？我讨厌洋葱、西红柿、茄子、苦瓜和青椒……怎么才能改掉挑食的习惯呢？🫣😮‍💨",
      "post_time": "2025-08-07 01:25:31",
      "image_count": 0,
      "image_urls": null,
      "local_image_paths": null,
      "likes": 0,
      "comments": 0,
      "views": 0,
      "board": "Dear. IU",
      "members_only": 0,
      "author_username": "태면",
      "author_avatar": null,
      "author_local_avatar": null,
      "fan_comments": [],
      "direct_iu_replies": [
        {
          "id": 875,
          "content_ko": "고수... 생강..",
          "content_zh": "高手...生姜..",
          "image_count": 0,
          "image_urls": null,
          "local_image_paths": null,
          "replied_at": "2025-08-07 01:28:55"
        }
      ]
    },
    {
      "id": 210,
      "post_uuid": "01988221-aafe-1e73-197c-97c7fa70b734",
      "title_ko": null,
      "title_zh": null,
      "content_ko": "희주는 머리를 자주 묶나?!!!",
      "content_zh": "慧珠经常扎头发吗？！",
      "post_time": "2025-08-07 01:25:01",
      "image_count": 0,
      "image_urls": null,
      "local_image_paths": null,
      "likes": 0,
      "comments": 0,
      "views": 0,
      "board": "Dear. IU",
      "members_only": 0,
      "author_username": "다영",
      "author_avatar": "https://dearimage.iu101.org/images/avatars/avatar_9.jpeg",
      "author_local_avatar": "https://dearimage.iu101.org/images/avatars/avatar_9.jpeg",
      "fan_comments": [],
      "direct_iu_replies": [
        {
          "id": 873,
          "content_ko": "많이 푼다",
          "content_zh": "很放松",
          "image_count": 0,
          "image_urls": null,
          "local_image_paths": null,
          "replied_at": "2025-08-07 01:31:21"
        }
      ]
    },
    {
      "id": 209,
      "post_uuid": "01988221-a37b-4113-2c05-ba87784033f6",
      "title_ko": null,
      "title_zh": null,
      "content_ko": "언니 나 제일 가고싶었던 항공사 붙었어!!!✈️\n언니 노래에 항상 용기 얻은 덕분이야 고마워 :)💝\n나 진짜 언니 덕분에 행복한 삶을 사는 것 같아!\n항상 고맙워 사랑해🐣💜",
      "content_zh": "姐姐，我最想去的航空公司录取了！！！✈️\n姐姐，多亏了你的歌给了我勇气，谢谢你 :)💝\n我真的觉得因为有姐姐在，生活得很幸福！\n一直很感谢你，爱你🐣💜",
      "post_time": "2025-08-07 01:24:59",
      "image_count": 0,
      "image_urls": null,
      "local_image_paths": null,
      "likes": 0,
      "comments": 0,
      "views": 0,
      "board": "Dear. IU",
      "members_only": 0,
      "author_username": "みつき",
      "author_avatar": null,
      "author_local_avatar": null,
      "fan_comments": [],
      "direct_iu_replies": [
        {
          "id": 872,
          "content_ko": "비행기 타면 만날 수도 있는 건가! 축하해!! 🥳",
          "content_zh": "坐飞机的话也能见面吗！恭喜！！🥳",
          "image_count": 0,
          "image_urls": null,
          "local_image_paths": null,
          "replied_at": "2025-08-07 01:32:05"
        }
      ]
    },
    {
      "id": 208,
      "post_uuid": "01988221-7fb7-b63e-c30c-dd9cb54a2376",
      "title_ko": null,
      "title_zh": null,
      "content_ko": "엉니 내일이면 에일이언의 날이야🐱🐱💜\n내일 바쁘겠지만 에일이언의 기운을 받아 힘내는 하루가 되길 바라💜 사랑해애🐥💜",
      "content_zh": "恩尼，明天就是艾尔伊昂的日子了🐱🐱💜\n虽然明天会很忙，但希望你能感受到艾尔伊昂的力量，度过充满活力的一天💜 爱你哦🐥💜",
      "post_time": "2025-08-07 01:24:50",
      "image_count": 0,
      "image_urls": null,
      "local_image_paths": null,
      "likes": 0,
      "comments": 0,
      "views": 0,
      "board": "Dear. IU",
      "members_only": 0,
      "author_username": "김지현",
      "author_avatar": "https://dearimage.iu101.org/images/avatars/avatar_310.jpeg",
      "author_local_avatar": "https://dearimage.iu101.org/images/avatars/avatar_310.jpeg",
      "fan_comments": [],
      "direct_iu_replies": [
        {
          "id": 871,
          "content_ko": "에일이언 생일 전야제네!! 에일이언으로서 소원 있어?",
          "content_zh": "成员生日前夜啊！！作为成员有什么愿望吗？",
          "image_count": 0,
          "image_urls": null,
          "local_image_paths": null,
          "replied_at": "2025-08-07 01:33:19"
        }
      ]
    },
    {
      "id": 207,
      "post_uuid": "01988221-6b97-8f76-a445-2efbf7bbb803",
      "title_ko": null,
      "title_zh": null,
      "content_ko": "언니 오늘 촬영 취소됐으니까 뭐 할까요!? 그냥 하루종일 집에 놀건가요..? 아님 박에 어디 다닐건가요..?",
      "content_zh": "姐姐今天拍摄取消了，要做什么好呢！？就这样整天在家玩吗..？还是出门去哪转转..？",
      "post_time": "2025-08-07 01:24:45",
      "image_count": 0,
      "image_urls": null,
      "local_image_paths": null,
      "likes": 0,
      "comments": 0,
      "views": 0,
      "board": "Dear. IU",
      "members_only": 0,
      "author_username": "fur",
      "author_avatar": "https://dearimage.iu101.org/images/avatars/avatar_17.jpeg",
      "author_local_avatar": "https://dearimage.iu101.org/images/avatars/avatar_17.jpeg",
      "fan_comments": [],
      "direct_iu_replies": [
        {
          "id": 870,
          "content_ko": "무조건 집이지",
          "content_zh": "当然是家里",
          "image_count": 0,
          "image_urls": null,
          "local_image_paths": null,
          "replied_at": "2025-08-07 01:33:43"
        }
      ]
    },
    {
      "id": 206,
      "post_uuid": "01988221-66fb-98a9-6cf4-1a8cecd2529a",
      "title_ko": null,
      "title_zh": null,
      "content_ko": "지은언니지은언니!!!!!\n알람 5 분 전 눈이 떠졌을 때 언니라면 잔다 안잔다",
      "content_zh": "知恩姐姐知恩姐姐!!!!!",
      "post_time": "2025-08-07 01:24:43",
      "image_count": 0,
      "image_urls": null,
      "local_image_paths": null,
      "likes": 0,
      "comments": 0,
      "views": 0,
      "board": "Dear. IU",
      "members_only": 0,
      "author_username": "うさぎ",
      "author_avatar": "https://dearimage.iu101.org/images/avatars/avatar_43.jpeg",
      "author_local_avatar": "https://dearimage.iu101.org/images/avatars/avatar_43.jpeg",
      "fan_comments": [],
      "direct_iu_replies": [
        {
          "id": 869,
          "content_ko": "알람 끄고 5분 일찍 하루 시작!",
          "content_zh": "关掉闹钟提前5分钟开始一天！",
          "image_count": 0,
          "image_urls": null,
          "local_image_paths": null,
          "replied_at": "2025-08-07 01:34:12"
        }
      ]
    },
    {
      "id": 205,
      "post_uuid": "01988221-53f4-57cc-a331-d57f366b2309",
      "title_ko": null,
      "title_zh": null,
      "content_ko": "지은언니, 지금 가을에도 불면증에 시달리나요?",
      "content_zh": "知恩姐姐，现在秋天也还在失眠吗？",
      "post_time": "2025-08-07 01:24:39",
      "image_count": 0,
      "image_urls": null,
      "local_image_paths": null,
      "likes": 0,
      "comments": 0,
      "views": 0,
      "board": "Dear. IU",
      "members_only": 0,
      "author_username": "IU小恩",
      "author_avatar": "https://dearimage.iu101.org/images/avatars/avatar_50.jpeg",
      "author_local_avatar": "https://dearimage.iu101.org/images/avatars/avatar_50.jpeg",
      "fan_comments": [],
      "direct_iu_replies": [
        {
          "id": 868,
          "content_ko": "응 근데 촬영장 점심시간에는 꽤 잘 자! ㅋㅋ 밤에는 여전히 잘 못 자",
          "content_zh": "嗯但是在片场午饭时间睡得挺好的！哈哈晚上还是睡不好",
          "image_count": 0,
          "image_urls": null,
          "local_image_paths": null,
          "replied_at": "2025-08-07 01:35:08"
        }
      ]
    },
    {
      "id": 204,
      "post_uuid": "01988221-5242-3bd1-a3b0-2ae5dedb1f3e",
      "title_ko": null,
      "title_zh": null,
      "content_ko": "언니, 무대 끝날 때마다 오래 90 도 고개 숙이시는데, 항상 '사람들에게 잘 감사해야겠다' 라고 생각하시는 건가요?每次看都觉得又暖又心疼～",
      "content_zh": "姐姐，每次演出结束时都要深深鞠躬 90 度，是不是总想着\"要好好感谢大家\"呢？每次看到都觉得很温暖又心疼～",
      "post_time": "2025-08-07 01:24:38",
      "image_count": 0,
      "image_urls": null,
      "local_image_paths": null,
      "likes": 0,
      "comments": 0,
      "views": 0,
      "board": "Dear. IU",
      "members_only": 0,
      "author_username": "♡李知金사랑IU的CuiCui",
      "author_avatar": "https://dearimage.iu101.org/images/avatars/avatar_309.jpeg",
      "author_local_avatar": "https://dearimage.iu101.org/images/avatars/avatar_309.jpeg",
      "fan_comments": [],
      "direct_iu_replies": [
        {
          "id": 867,
          "content_ko": "나와 시간을 보내주셔서 감사합니다 \n오늘 저와의 기억이 좋은 기억으로 남길 바라요.",
          "content_zh": "谢谢您陪我度过了这段时光。\n希望今天与我的回忆能成为美好的记忆。",
          "image_count": 0,
          "image_urls": null,
          "local_image_paths": null,
          "replied_at": "2025-08-07 01:36:01"
        }
      ]
    },
    {
      "id": 203,
      "post_uuid": "01988221-4644-f1f5-c78d-e65e6871c7df",
      "title_ko": null,
      "title_zh": null,
      "content_ko": "언니는 커피를 잘 마시지 않아요☕️그럼 언니는 졸릴 때 어떻게 극복하나요? ？",
      "content_zh": "姐姐不太喝咖啡☕️那姐姐困的时候是怎么克服的呢？",
      "post_time": "2025-08-07 01:24:35",
      "image_count": 0,
      "image_urls": null,
      "local_image_paths": null,
      "likes": 0,
      "comments": 0,
      "views": 0,
      "board": "Dear. IU",
      "members_only": 0,
      "author_username": "짙은자색의리원",
      "author_avatar": "https://dearimage.iu101.org/images/avatars/avatar_347.jpeg",
      "author_local_avatar": "https://dearimage.iu101.org/images/avatars/avatar_347.jpeg",
      "fan_comments": [],
      "direct_iu_replies": [
        {
          "id": 866,
          "content_ko": "그냥 참는 거지 😮",
          "content_zh": "就是忍着 😮",
          "image_count": 0,
          "image_urls": null,
          "local_image_paths": null,
          "replied_at": "2025-08-07 01:36:38"
        }
      ]
    },
    {
      "id": 202,
      "post_uuid": "01988220-cb66-8575-541f-f3543eb667b8",
      "title_ko": null,
      "title_zh": null,
      "content_ko": "언니! 사랑 많이 받는 연예인으로 산다는게 어떤 기분이야?\n\n어릴 때부터 궁금했거든! 콘서트 같은거 가면 눈만 마주치면 누군가가 좋아해주고 (좋은 뜻으로) 멍청한 짓만 해도 귀엽다고 좋아해주고 화제가 되기도 하구!\n\n반대로 영향력이 너무 크다 보니까 행동 하나하나 많이 조심해야 되겠지만 어떤 느낌인지 궁금해!",
      "content_zh": "姐姐！成为备受喜爱的艺人是什么感觉啊？\n\n从小就很好奇呢！比如去演唱会的时候，只要眼神一对上，就有人喜欢你（是好的意思），就算做了什么愚蠢的事也会被说可爱而受到喜欢，还会成为话题！\n\n相反地，因为影响力太大了，所以一举一动都得非常小心吧，但还是很想知道那究竟是什么样的感觉！",
      "post_time": "2025-08-07 01:24:04",
      "image_count": 0,
      "image_urls": null,
      "local_image_paths": null,
      "likes": 0,
      "comments": 0,
      "views": 0,
      "board": "Dear. IU",
      "members_only": 0,
      "author_username": "ぼみ보밍밍",
      "author_avatar": null,
      "author_local_avatar": null,
      "fan_comments": [],
      "direct_iu_replies": [
        {
          "id": 865,
          "content_ko": "즐거움에 가까워! 모든 게 좋아! 라고 얘기하긴 어렵지만 내 적성에 딱 맞는 일이라서 좋아!",
          "content_zh": "接近快乐！不能说一切都很好！但因为是很适合我的工作所以喜欢！",
          "image_count": 0,
          "image_urls": null,
          "local_image_paths": null,
          "replied_at": "2025-08-07 01:38:32"
        }
      ]
    },
    {
      "id": 201,
      "post_uuid": "01988220-98c6-b81e-339c-ad36ec8a98a8",
      "title_ko": null,
      "title_zh": null,
      "content_ko": "언니는 알람보다 먼저 깨면 왜 더 안 자고 일어나요..? 🥱",
      "content_zh": "姐姐为什么比闹钟早醒就不继续睡而是起床了..？ 🥱",
      "post_time": "2025-08-07 01:23:51",
      "image_count": 0,
      "image_urls": null,
      "local_image_paths": null,
      "likes": 0,
      "comments": 0,
      "views": 0,
      "board": "Dear. IU",
      "members_only": 0,
      "author_username": "말랑찹쌀떡",
      "author_avatar": "https://dearimage.iu101.org/images/avatars/avatar_29.jpeg",
      "author_local_avatar": "https://dearimage.iu101.org/images/avatars/avatar_29.jpeg",
      "fan_comments": [],
      "direct_iu_replies": [
        {
          "id": 864,
          "content_ko": "알람소리 듣기 싫어잉..",
          "content_zh": "不喜欢闹钟声..",
          "image_count": 0,
          "image_urls": null,
          "local_image_paths": null,
          "replied_at": "2025-08-07 01:39:24"
        }
      ]
    }
  ]
}
