{
  "page": 11,
  "totalPages": 45,
  "total": 895,
  "data": [
    {
      "id": 239,
      "post_uuid": "019875c8-1e7c-26e4-ee51-62e9d1c39393",
      "title_ko": null,
      "title_zh": null,
      "content_ko": "언니… 솔직히 말해봐요. 애나가 물에 빠지면 구하러 올 거예요, 아니면 무서워서 뒤돌아설 거예요?? 💦🌊\n믿어도 되는 거죠, 언니? 🫣😉💖\n",
      "content_zh": "姐姐... 说实话，如果艾娜掉进水里了，你会来救她吗？还是会因为害怕而转身逃跑呢？💦🌊  \n姐姐，可以相信你吧？🫣😉💖",
      "post_time": "2025-08-04 15:51:46",
      "image_count": 0,
      "image_urls": null,
      "local_image_paths": null,
      "likes": 0,
      "comments": 0,
      "views": 0,
      "board": "Dear. IU",
      "members_only": 0,
      "author_username": "Zazu's핫딸기차",
      "author_avatar": "https://dearimage.iu101.org/images/avatars/avatar_48.jpeg",
      "author_local_avatar": "https://dearimage.iu101.org/images/avatars/avatar_48.jpeg",
      "fan_comments": [],
      "direct_iu_replies": [
        {
          "id": 902,
          "content_ko": "도움이 될지\n모르지만 당연히 구하러 가지!! \n애나 구하려다 혹시나 잘못된다고 해도 \n어쩌면 그것도 꽤 좋은 삶이었다..",
          "content_zh": "不知道有没有帮助，但当然要去救她！！\n即使为了救艾娜而万一出错，\n或许那也是一段相当美好的人生..",
          "image_count": 0,
          "image_urls": null,
          "local_image_paths": null,
          "replied_at": "2025-08-04 19:35:05"
        }
      ]
    },
    {
      "id": 258,
      "post_uuid": "0198547e-9d13-d245-bf9c-a7e4490b795c",
      "title_ko": null,
      "title_zh": null,
      "content_ko": "여름밤의 꿈은 앵앵콜이라 블루레이에서 빠진거에요? 영화 쿠키영상에 있어서 쪼오오오끔 기대했는데에🥹",
      "content_zh": "夏夜之梦是因为安可蓝光碟里没有吗？电影彩蛋里有，所以稍微有点期待呢🥹",
      "post_time": "2025-07-29 04:44:00",
      "image_count": 0,
      "image_urls": null,
      "local_image_paths": null,
      "likes": 0,
      "comments": 0,
      "views": 0,
      "board": "Dear. IU",
      "members_only": 0,
      "author_username": "미니언",
      "author_avatar": "https://dearimage.iu101.org/images/avatars/avatar_89.gif",
      "author_local_avatar": "https://dearimage.iu101.org/images/avatars/avatar_89.gif",
      "fan_comments": [],
      "direct_iu_replies": [
        {
          "id": 936,
          "content_ko": "여름밤의 꿈은\n영화관\n온리...",
          "content_zh": "夏夜的梦是",
          "image_count": 0,
          "image_urls": null,
          "local_image_paths": null,
          "replied_at": "2025-07-29 04:44:49"
        }
      ]
    },
    {
      "id": 256,
      "post_uuid": "0198546f-9e5b-005c-8c8a-bdd228ed9fa9",
      "title_ko": null,
      "title_zh": null,
      "content_ko": "언니는 실제로 꿈 자주 꾸는 편이에요?\n최근에 꾼 꿈 중에 기억나는 거 있어요? \n(유애나가 나왔다는 얘기면 기절함😳)",
      "content_zh": "姐姐现实中经常做梦吗？最近做的梦里有记得的吗？（如果说是梦见我的话会晕倒😳）",
      "post_time": "2025-07-29 04:27:37",
      "image_count": 0,
      "image_urls": null,
      "local_image_paths": null,
      "likes": 0,
      "comments": 0,
      "views": 0,
      "board": "Dear. IU",
      "members_only": 0,
      "author_username": "박지은",
      "author_avatar": null,
      "author_local_avatar": null,
      "fan_comments": [],
      "direct_iu_replies": [
        {
          "id": 934,
          "content_ko": "사람만큼 큰 딱정벌레가 리본 끈을 묶고 나를\n어디론가 데려가는 거야! 산책하듯이?\n그 다다음날 청룡 받음!!",
          "content_zh": "比人还大的甲虫系着丝带把我带到某个地方！就像散步一样？\n后天就接受青龙的洗礼！！",
          "image_count": 0,
          "image_urls": null,
          "local_image_paths": null,
          "replied_at": "2025-07-29 04:48:50"
        }
      ]
    },
    {
      "id": 277,
      "post_uuid": "01985441-6175-704b-7b99-eee0113228ad",
      "title_ko": null,
      "title_zh": null,
      "content_ko": "언니 대군  촬영현장은 안 더워요? 시원했음 좋겠다아\n",
      "content_zh": "姐姐《大君》片场不热吗？希望能凉快一点",
      "post_time": "2025-07-29 03:37:07",
      "image_count": 0,
      "image_urls": null,
      "local_image_paths": null,
      "likes": 0,
      "comments": 0,
      "views": 0,
      "board": "Dear. IU",
      "members_only": 0,
      "author_username": "슨생",
      "author_avatar": null,
      "author_local_avatar": null,
      "fan_comments": [],
      "direct_iu_replies": [
        {
          "id": 955,
          "content_ko": "세트장은 시원한 편이야! 보통은 소리 때문에 끄고 촬영할 때가 많은데 아무래도 요즘 너무 더우니까 에어컨을 약하게나마 계속 틀어주시는 거 같아!! ",
          "content_zh": "片场很凉快！通常因为收音的关系会关掉空调拍摄，但最近实在太热了，所以好像还是会把空调开得很弱！",
          "image_count": 0,
          "image_urls": null,
          "local_image_paths": null,
          "replied_at": "2025-07-29 03:42:24"
        }
      ]
    },
    {
      "id": 276,
      "post_uuid": "01985441-3dbf-3b29-7a5d-b2486b9a8b80",
      "title_ko": null,
      "title_zh": null,
      "content_ko": "언니 최애 아이스크림 뭔가용? 집 갈 때 사가려구용\n저는 과일맛을 주로 사먹는데 돌고 돌아 빠삐코가 최애인 것 같아요",
      "content_zh": "姐姐最喜欢的冰淇淋是什么？回家的时候想买来着我是主要买水果味的，兜兜转转最爱的还是Popsico",
      "post_time": "2025-07-29 03:36:58",
      "image_count": 0,
      "image_urls": null,
      "local_image_paths": null,
      "likes": 0,
      "comments": 0,
      "views": 0,
      "board": "Dear. IU",
      "members_only": 0,
      "author_username": "채린",
      "author_avatar": null,
      "author_local_avatar": null,
      "fan_comments": [],
      "direct_iu_replies": [
        {
          "id": 954,
          "content_ko": "나는 월드콘! 혹은 엔쵸!! ",
          "content_zh": "我是Worldcon！或者NCHO！！",
          "image_count": 0,
          "image_urls": null,
          "local_image_paths": null,
          "replied_at": "2025-07-29 03:43:08"
        }
      ]
    },
    {
      "id": 275,
      "post_uuid": "01985441-39d2-4b7a-f531-c965f7894c94",
      "title_ko": null,
      "title_zh": null,
      "content_ko": "우왓 언니 휴일 축하해요!! 오늘 하루 어떻게 쉴거예요?\n저는 오랜만에 카페 가서 읽고 싶었던 책 읽을려구요😎\n\n최근엔 플라스틱 세대라는 sf소설 읽었는데, \n코로나세대를 대상으로 플라스틱 먹는 세대로 한 설정이랑\n플라스틱을 먹어서 환경 지킨다는 관점이 넘 신박하고 재미있어요 강추!!!",
      "content_zh": "哇，姐姐，祝你假期愉快！今天打算怎么休息呀？\n我好久没去咖啡店了，想去那里读一本想读很久的书😎\n\n最近看了一本科幻小说叫《塑料一代》，\n把新冠一代设定为吃塑料的一代，\n通过吃塑料来保护环境的观点非常新颖有趣，强烈推荐！！！",
      "post_time": "2025-07-29 03:36:57",
      "image_count": 0,
      "image_urls": null,
      "local_image_paths": null,
      "likes": 0,
      "comments": 0,
      "views": 0,
      "board": "Dear. IU",
      "members_only": 0,
      "author_username": "사탕별",
      "author_avatar": null,
      "author_local_avatar": null,
      "fan_comments": [],
      "direct_iu_replies": [
        {
          "id": 953,
          "content_ko": "나 내일 대사가 엄~~~청 많은 날이라서 대본 외우기에 매진해야 될 것 같아! 플라스틱 세대 \n읽어 봐야지!! 😍고마워요!",
          "content_zh": "我明天有很多台词要背，得专心致志地背剧本才行！塑料一代，一定要读一读！！😍谢谢！",
          "image_count": 0,
          "image_urls": null,
          "local_image_paths": null,
          "replied_at": "2025-07-29 03:44:32"
        }
      ]
    },
    {
      "id": 274,
      "post_uuid": "01985441-09a7-9e62-ea4b-5ec6ab4cc122",
      "title_ko": null,
      "title_zh": null,
      "content_ko": "언니이이💗\n나 지난주에 수해피해 지역 자원봉사 다녀왔어!\n성인 되고 나서 몇 년 전부터 자원봉사 꼭 해보고 싶었는데 이번에 해봐서 너무 좋았어!!\n\n언니를 좋아하게 된 이후 더 바르고 좋은 사람이 되고 싶어!! 언니처럼 바르고 곧고 단단한 사람이 되기를...!",
      "content_zh": "姐姐～💗\n我上周去水灾受灾地区做志愿服务了！\n自从成年以后，几年前就一直想做志愿服务，这次终于体验了，感觉特别好！！\n\n自从喜欢上姐姐后，更想成为一个正直优秀的人！！要像姐姐一样正直、挺拔、坚强…！",
      "post_time": "2025-07-29 03:36:45",
      "image_count": 1,
      "image_urls": "https://dearimage.iu101.org/images/posts/post_274_190440905.jpg",
      "local_image_paths": "https://dearimage.iu101.org/images/posts/post_274_190440905.jpg",
      "likes": 0,
      "comments": 0,
      "views": 0,
      "board": "Dear. IU",
      "members_only": 0,
      "author_username": "아이유애나8기",
      "author_avatar": null,
      "author_local_avatar": null,
      "fan_comments": [],
      "direct_iu_replies": [
        {
          "id": 952,
          "content_ko": "진짜 대단하다... 대단해 다친 덴 없는 거지?\n내가 애나에게 배우고 싶어!!",
          "content_zh": "真厉害...真厉害受伤的地方没有吧？",
          "image_count": 0,
          "image_urls": null,
          "local_image_paths": null,
          "replied_at": "2025-07-29 03:45:39"
        }
      ]
    },
    {
      "id": 273,
      "post_uuid": "01985440-b59c-8c22-bfee-28a6dd0dcd76",
      "title_ko": null,
      "title_zh": null,
      "content_ko": "언니는 건강 검진을 얼마나 자주 받습니까? ? \n밤샘 촬영이 잦아서 애나들이 언니가 잘 쉴 수 있을지 걱정이에요🥺 꼭 챙겨주길 바래요🐥부탁해요💗사랑해요",
      "content_zh": "姐姐多长时间做一次体检？？因为经常熬夜拍摄，爱娜们担心姐姐能不能好好休息🥺希望你一定要照顾好自己🐥拜托了💗爱你",
      "post_time": "2025-07-29 03:36:23",
      "image_count": 0,
      "image_urls": null,
      "local_image_paths": null,
      "likes": 0,
      "comments": 0,
      "views": 0,
      "board": "Dear. IU",
      "members_only": 0,
      "author_username": "짙은자색의리원",
      "author_avatar": "https://dearimage.iu101.org/images/avatars/avatar_347.jpeg",
      "author_local_avatar": "https://dearimage.iu101.org/images/avatars/avatar_347.jpeg",
      "fan_comments": [],
      "direct_iu_replies": [
        {
          "id": 951,
          "content_ko": "1년에 한 번씩! 이제 곧 받을 때가 됐군요 😌",
          "content_zh": "一年一次！差不多该收到了 😌",
          "image_count": 0,
          "image_urls": null,
          "local_image_paths": null,
          "replied_at": "2025-07-29 03:48:02"
        }
      ]
    },
    {
      "id": 272,
      "post_uuid": "01985440-4bb0-25cc-701d-9e92ad59c83d",
      "title_ko": null,
      "title_zh": null,
      "content_ko": "네모의 꿈을 들으며  출근 중이였는데 베리즈에 오랜만에 언니가 와서 기뻐요 \n쉬는 날엔 언니는 뭐하면서 힐링하세요?\n요즘 날씨 정말 덥죠💦 더위 조심하시고, 시원하게 잘 쉬시길 바랄게요! 😆 ",
      "content_zh": "听《Nemo的梦想》时正在上班，好久不见的姐姐来Berryz了，真开心。\n休息日姐姐都做些什么来放松呢？\n最近天气真的很热啊💦 注意防暑，好好享受清凉的休息时光吧！😆",
      "post_time": "2025-07-29 03:35:56",
      "image_count": 1,
      "image_urls": "https://dearimage.iu101.org/images/posts/post_272_2078660957.jpg",
      "local_image_paths": "https://dearimage.iu101.org/images/posts/post_272_2078660957.jpg",
      "likes": 0,
      "comments": 0,
      "views": 0,
      "board": "Dear. IU",
      "members_only": 0,
      "author_username": "류니",
      "author_avatar": null,
      "author_local_avatar": null,
      "fan_comments": [],
      "direct_iu_replies": [
        {
          "id": 950,
          "content_ko": "요즘엔 그냥 무조건 잠에 몰빵 \n잠+대사 외우기!! ",
          "content_zh": "最近就是无条件睡觉第一",
          "image_count": 0,
          "image_urls": null,
          "local_image_paths": null,
          "replied_at": "2025-07-29 03:50:09"
        }
      ]
    },
    {
      "id": 271,
      "post_uuid": "01985440-348b-f72d-ec9d-6e3268267f95",
      "title_ko": null,
      "title_zh": null,
      "content_ko": "언니, 가끔 건강하지 않지만 즐겁게 해주는 음식 먹고 싶어요?",
      "content_zh": "姐姐，偶尔想吃对健康不好但让人开心的食物吗？",
      "post_time": "2025-07-29 03:35:50",
      "image_count": 0,
      "image_urls": null,
      "local_image_paths": null,
      "likes": 0,
      "comments": 0,
      "views": 0,
      "board": "Dear. IU",
      "members_only": 0,
      "author_username": "章瑜歌",
      "author_avatar": null,
      "author_local_avatar": null,
      "fan_comments": [],
      "direct_iu_replies": [
        {
          "id": 949,
          "content_ko": "그럼요! 음료수 초콜렛 과자 이런 거요? ",
          "content_zh": "是啊！饮料巧克力糖果这些？",
          "image_count": 0,
          "image_urls": null,
          "local_image_paths": null,
          "replied_at": "2025-07-29 03:51:10"
        }
      ]
    },
    {
      "id": 270,
      "post_uuid": "0198543f-eafa-8dfb-07b7-e7ed60148dbb",
      "title_ko": null,
      "title_zh": null,
      "content_ko": "촬영 바쁘겠지만 짧게라도 여름휴가를 가지시나요?",
      "content_zh": "拍摄很忙，但会抽时间休短假吗？",
      "post_time": "2025-07-29 03:35:31",
      "image_count": 0,
      "image_urls": null,
      "local_image_paths": null,
      "likes": 0,
      "comments": 0,
      "views": 0,
      "board": "Dear. IU",
      "members_only": 0,
      "author_username": "한다",
      "author_avatar": null,
      "author_local_avatar": null,
      "fan_comments": [],
      "direct_iu_replies": [
        {
          "id": 948,
          "content_ko": "그건 어려울 것 같지만 불만은 없습니다 😌🥰",
          "content_zh": "那个好像很难但没有不满 😌🥰",
          "image_count": 0,
          "image_urls": null,
          "local_image_paths": null,
          "replied_at": "2025-07-29 03:52:33"
        }
      ]
    },
    {
      "id": 269,
      "post_uuid": "0198543f-afd6-f1af-9174-e8b77624ad58",
      "title_ko": null,
      "title_zh": null,
      "content_ko": "블레랑 딥디 너무너무 이쁜 거 아냐?! ",
      "content_zh": "Bler和Deepdy太美了吧?!",
      "post_time": "2025-07-29 03:35:16",
      "image_count": 1,
      "image_urls": "https://dearimage.iu101.org/images/posts/post_269_671817959.jpg",
      "local_image_paths": "https://dearimage.iu101.org/images/posts/post_269_671817959.jpg",
      "likes": 0,
      "comments": 0,
      "views": 0,
      "board": "Dear. IU",
      "members_only": 0,
      "author_username": "항상변함없이",
      "author_avatar": "https://dearimage.iu101.org/images/avatars/avatar_18.jpg",
      "author_local_avatar": "https://dearimage.iu101.org/images/avatars/avatar_18.jpg",
      "fan_comments": [],
      "direct_iu_replies": [
        {
          "id": 947,
          "content_ko": "나도 그렇게 생각해 🙂‍↕️💖",
          "content_zh": "我也这么想 🙂‍↕️💖",
          "image_count": 0,
          "image_urls": null,
          "local_image_paths": null,
          "replied_at": "2025-07-29 03:53:14"
        }
      ]
    },
    {
      "id": 268,
      "post_uuid": "0198543f-1fc4-a0ae-9059-431386eb66d7",
      "title_ko": null,
      "title_zh": null,
      "content_ko": "지은 씨, 그날 아이유 대신 성희주가 갔어요?🥰",
      "content_zh": "智恩，那天IU代替成熙珠去了吗？🥰",
      "post_time": "2025-07-29 03:34:39",
      "image_count": 1,
      "image_urls": "https://dearimage.iu101.org/images/posts/post_268_123718984.jpeg",
      "local_image_paths": "https://dearimage.iu101.org/images/posts/post_268_123718984.jpeg",
      "likes": 0,
      "comments": 0,
      "views": 0,
      "board": "Dear. IU",
      "members_only": 0,
      "author_username": "RainRainDrop",
      "author_avatar": null,
      "author_local_avatar": null,
      "fan_comments": [],
      "direct_iu_replies": [
        {
          "id": 946,
          "content_ko": "아니야 이건 아이유!! 희주는 좀... 달라!! 😮😀😀",
          "content_zh": "不是这是IU！！熙俊有点...不一样！！😮😀😀",
          "image_count": 0,
          "image_urls": null,
          "local_image_paths": null,
          "replied_at": "2025-07-29 03:54:54"
        }
      ]
    },
    {
      "id": 266,
      "post_uuid": "0198543e-b8eb-00c2-c000-1ac3a3f9a71c",
      "title_ko": null,
      "title_zh": null,
      "content_ko": "근데 언니 에일리언이 뭐야 ?? 외계인이란 건 알고 있는데 팬덤은 유애나 아니야 ?? 내가 유애나 된지 얼마 안되서 ㅜㅜ",
      "content_zh": "但是姐姐，艾利恩是什么啊？我知道是外星人的意思，但粉丝团不是IUana吗？我成为IUana还没多久ㅜㅜ",
      "post_time": "2025-07-29 03:34:13",
      "image_count": 0,
      "image_urls": null,
      "local_image_paths": null,
      "likes": 0,
      "comments": 0,
      "views": 0,
      "board": "Dear. IU",
      "members_only": 0,
      "author_username": "注销的用户",
      "author_avatar": null,
      "author_local_avatar": null,
      "fan_comments": [],
      "direct_iu_replies": [
        {
          "id": 944,
          "content_ko": "유애나는 우리팬덤을 통칭하는 이름이구\n기수마다 다른 애칭들이 있어 \n이번 8기의 애칭이 에일이언이야 8LIEN!\n😻",
          "content_zh": "友愛娜是我们粉丝圈的统称，\n每届都有不同的昵称，\n这次第八届的昵称是艾尔伊安（8LIEN）！\n😻",
          "image_count": 0,
          "image_urls": null,
          "local_image_paths": null,
          "replied_at": "2025-07-29 04:01:15"
        }
      ]
    },
    {
      "id": 265,
      "post_uuid": "0198543e-7fb2-834e-3517-632bddb62673",
      "title_ko": null,
      "title_zh": null,
      "content_ko": "오늘 다시 와줘서 기뻐. 너의 말은 필요 없어. 그냥 내가 행복하다는 것만 알아줘 😊",
      "content_zh": "今天再次回来很高兴。你的话不需要。只要知道我很幸福就好 😊",
      "post_time": "2025-07-29 03:33:58",
      "image_count": 0,
      "image_urls": null,
      "local_image_paths": null,
      "likes": 0,
      "comments": 0,
      "views": 0,
      "board": "Dear. IU",
      "members_only": 0,
      "author_username": "WEspecial",
      "author_avatar": null,
      "author_local_avatar": null,
      "fan_comments": [],
      "direct_iu_replies": [
        {
          "id": 943,
          "content_ko": "너의 말은 필요 없어ㅋㅋㅋㅋ \n하지만 말 남기고 감❤️🙂‍↕️",
          "content_zh": "你的话不需要哈哈哈哈哈",
          "image_count": 0,
          "image_urls": null,
          "local_image_paths": null,
          "replied_at": "2025-07-29 04:02:57"
        }
      ]
    },
    {
      "id": 264,
      "post_uuid": "0198543e-6a02-ba93-cde6-4afc4888b84f",
      "title_ko": null,
      "title_zh": null,
      "content_ko": "징니 수영잘해?아님 킥판이나 튜브있어야해?",
      "content_zh": "阿尼游泳游得好吗？还是需要脚蹼或浮板？",
      "post_time": "2025-07-29 03:33:53",
      "image_count": 1,
      "image_urls": "https://dearimage.iu101.org/images/posts/post_264_1880303341.jpg",
      "local_image_paths": "https://dearimage.iu101.org/images/posts/post_264_1880303341.jpg",
      "likes": 0,
      "comments": 0,
      "views": 0,
      "board": "Dear. IU",
      "members_only": 0,
      "author_username": "허니레몬소다",
      "author_avatar": null,
      "author_local_avatar": null,
      "fan_comments": [],
      "direct_iu_replies": [
        {
          "id": 942,
          "content_ko": "수영 안 해 수영 싫어 🙂‍↕️",
          "content_zh": "不游泳，不喜欢游泳 🙂‍↕️",
          "image_count": 0,
          "image_urls": null,
          "local_image_paths": null,
          "replied_at": "2025-07-29 04:03:40"
        }
      ]
    },
    {
      "id": 263,
      "post_uuid": "0198543e-5f70-cf52-08a3-4a4f46cfb215",
      "title_ko": null,
      "title_zh": null,
      "content_ko": "워터파크 갔다왔는데 얼굴이 탔어..🥲 알로에 바르면 괜찮아질까?",
      "content_zh": "去了水上乐园回来脸晒伤了..🥲 涂芦荟会好吗？",
      "post_time": "2025-07-29 03:33:50",
      "image_count": 0,
      "image_urls": null,
      "local_image_paths": null,
      "likes": 0,
      "comments": 0,
      "views": 0,
      "board": "Dear. IU",
      "members_only": 0,
      "author_username": "어서",
      "author_avatar": "https://dearimage.iu101.org/images/avatars/avatar_235.jpeg",
      "author_local_avatar": "https://dearimage.iu101.org/images/avatars/avatar_235.jpeg",
      "fan_comments": [],
      "direct_iu_replies": [
        {
          "id": 941,
          "content_ko": "이 계절에 사랑한 건~\n얼룩을 남기니까~ 오래도록~~~\n시간이 지나면 원래 피부로 돌아올 거야 🥹",
          "content_zh": "这个季节爱上的~\n因为会留下痕迹~很久很久~~~\n时间过了就会回到原来的肌肤 🥹",
          "image_count": 0,
          "image_urls": null,
          "local_image_paths": null,
          "replied_at": "2025-07-29 04:04:29"
        }
      ]
    },
    {
      "id": 262,
      "post_uuid": "0198543e-52fd-8159-3007-49c1d1d6596d",
      "title_ko": null,
      "title_zh": null,
      "content_ko": "더위닝 하고 헐콘 블루레이에 보너스트랙으로 영상 더 준거 누구 아이디어에용???",
      "content_zh": "这时候IU的《夏日》和《花粉症》蓝光盘里的bonus track视频是谁的主意呀？",
      "post_time": "2025-07-29 03:33:47",
      "image_count": 0,
      "image_urls": null,
      "local_image_paths": null,
      "likes": 0,
      "comments": 0,
      "views": 0,
      "board": "Dear. IU",
      "members_only": 0,
      "author_username": "뮈푀",
      "author_avatar": null,
      "author_local_avatar": null,
      "fan_comments": [],
      "direct_iu_replies": [
        {
          "id": 940,
          "content_ko": "안종호피디..?",
          "content_zh": "安钟浩PD..？",
          "image_count": 0,
          "image_urls": null,
          "local_image_paths": null,
          "replied_at": "2025-07-29 04:04:43"
        }
      ]
    },
    {
      "id": 261,
      "post_uuid": "0198543e-45bb-25b1-744a-1ccf9556d96e",
      "title_ko": null,
      "title_zh": null,
      "content_ko": "이럴때 아이유님 콘서트 한번이면 더위가 싹가실텐데 올해는진짜 포기인가요 ㅜㅡ",
      "content_zh": "这时候要是能听一次IU演唱会的话暑气就全消了，今年真的放弃了吗ㅜㅡ",
      "post_time": "2025-07-29 03:33:43",
      "image_count": 0,
      "image_urls": null,
      "local_image_paths": null,
      "likes": 0,
      "comments": 0,
      "views": 0,
      "board": "Dear. IU",
      "members_only": 0,
      "author_username": "너와나의연결고리",
      "author_avatar": null,
      "author_local_avatar": null,
      "fan_comments": [],
      "direct_iu_replies": [
        {
          "id": 939,
          "content_ko": "올해는 콘서트 없습니다 🙂‍↕️",
          "content_zh": "今年没有演唱会 🙂‍↕️",
          "image_count": 0,
          "image_urls": null,
          "local_image_paths": null,
          "replied_at": "2025-07-29 04:05:21"
        }
      ]
    },
    {
      "id": 260,
      "post_uuid": "0198543e-2f29-a7ec-1a05-212cf4826c38",
      "title_ko": null,
      "title_zh": null,
      "content_ko": "언니 굿즈로 나온것중에 제일 잘 쓰는 굿즈가 뭐에요?",
      "content_zh": "姐姐出的周边产品中最好用的是什么？",
      "post_time": "2025-07-29 03:33:38",
      "image_count": 0,
      "image_urls": null,
      "local_image_paths": null,
      "likes": 0,
      "comments": 0,
      "views": 0,
      "board": "Dear. IU",
      "members_only": 0,
      "author_username": "꽃잎",
      "author_avatar": null,
      "author_local_avatar": null,
      "fan_comments": [],
      "direct_iu_replies": [
        {
          "id": 938,
          "content_ko": "핸드폰 충전기!! ",
          "content_zh": "手机充电器！！",
          "image_count": 0,
          "image_urls": null,
          "local_image_paths": null,
          "replied_at": "2025-07-29 04:06:10"
        }
      ]
    }
  ]
}