{
  "page": 26,
  "totalPages": 45,
  "total": 895,
  "data": [
    {
      "id": 575,
      "post_uuid": "01977e1a-b70f-8d51-5456-47afd75dab41",
      "title_ko": null,
      "title_zh": null,
      "content_ko": "아이유 🫶 잘 지내? 지난 몇 주 동안 바빴잖아. 너무 무리하지 마 🫣😻🤗 기분이 좀 우울해 🥹 내가 정말 사랑하는 사람들 때문에 기운이 빠진 것 같아. 저는 그들에게 편안한 삶을 제공하기 위해 멀리서 열심히 일해왔습니다. 🥺 하지만 왜 그들은 나를 슬프고 스트레스 받게 만드는 걸까요. 저는 항상 긍정적인 면을 보려고 노력해 왔습니다. 왜 그들이 저에게 그런 짓을 하는지 궁금했지만 결국 그들은 제가 희생한 것만으로는 충분하지 않다는 것을 보여주었습니다.🥹 나를 응원해 줄 수 있어? 🍀안아줄 수 있나요?당신의 노래는 여러모로 나를 편안하게 해줍니다, 오랜 세월 동안 당신은 제 편안함의 공간이었습니다. 당신은 매일 나를 구해주네요. 포기하고 싶다는 생각이 들 때, 말씀하신 대로 인생 자체는 어렵지만 우리는 이를 극복하고 대처할 수 있습니다. 💗🫰💜 샤메인과 싸우는 방법을 알려줄 수 있나요? 🥹",
      "content_zh": "IU 🫶 你还好吗？最近几周一直很忙吧。不要太勉强自己 🫣😻🤗 我心情有点低落 🥹 好像因为那些我真的很爱的人让我感到疲惫。我一直为了给他们提供舒适的生活而在远方努力工作。🥺 但为什么他们总是让我感到悲伤和压力呢？我总是在努力看到积极的一面。虽然我一直想知道他们为什么要这样对我，但最终他们证明了仅仅我所牺牲的一切对他们来说还不够。🥹 能给我加油打气吗？🍀可以抱抱我吗？你的歌声在很多方面都让我感到安慰，这么多年来你一直是我的慰藉之地。你每天都在拯救着我。当我想要放弃的时候，就像你说的那样，人生本身虽然艰难，但我们能够克服并应对它。💗🫰💜 可以教我怎么与夏梅恩战斗吗？🥹",
      "post_time": "2025-06-17 13:36:09",
      "image_count": 0,
      "image_urls": null,
      "local_image_paths": null,
      "likes": 0,
      "comments": 0,
      "views": 0,
      "board": "Dear. IU",
      "members_only": 0,
      "author_username": "샤메인",
      "author_avatar": "https://dearimage.iu101.org/images/avatars/avatar_323.jpg",
      "author_local_avatar": "https://dearimage.iu101.org/images/avatars/avatar_323.jpg",
      "fan_comments": [],
      "direct_iu_replies": [
        {
          "id": 1402,
          "content_ko": "🫂",
          "content_zh": "🫂",
          "image_count": 0,
          "image_urls": null,
          "local_image_paths": null,
          "replied_at": "2025-06-17 13:52:35"
        }
      ]
    },
    {
      "id": 574,
      "post_uuid": "01977e18-804b-933c-b822-c4cf80c15082",
      "title_ko": null,
      "title_zh": null,
      "content_ko": "오늘은 쉬는 날이에요? 아니면 공부하러 갈래? 언니 쉬는 날 밥상 말고 어디 있어요? 소파? 침대? 요즘 운동하고 있어요?🤨🤨🤨🤨",
      "content_zh": "今天是休息日吗？还是要去学习？姐姐休息日除了在饭桌旁还待在哪里？沙发？床？最近在运动吗？🤨🤨🤨🤨",
      "post_time": "2025-06-17 13:33:44",
      "image_count": 0,
      "image_urls": null,
      "local_image_paths": null,
      "likes": 0,
      "comments": 0,
      "views": 0,
      "board": "Dear. IU",
      "members_only": 0,
      "author_username": "사어",
      "author_avatar": "https://dearimage.iu101.org/images/avatars/avatar_198.jpeg",
      "author_local_avatar": "https://dearimage.iu101.org/images/avatars/avatar_198.jpeg",
      "fan_comments": [],
      "direct_iu_replies": [
        {
          "id": 1401,
          "content_ko": "저 요즘 상하체 운동 발란스 대박임...🥹\n쉴 땐 거의 밥상에 있는 편이지..",
          "content_zh": "我最近上下肢运动平衡很棒...🥹 休息时几乎都在饭桌旁..",
          "image_count": 0,
          "image_urls": null,
          "local_image_paths": null,
          "replied_at": "2025-06-17 13:54:44"
        }
      ]
    },
    {
      "id": 573,
      "post_uuid": "01977e14-b458-42b4-f94c-a3e5590087be",
      "title_ko": null,
      "title_zh": null,
      "content_ko": "언니, 할 말이 있어요! ！！！！！！！！！！！！！！！！！！！！！！！！！！！！！！！！！！！！！！！！！！！！！！！！！！！！！！！！！！！！！！！！！！！！！！！！！！！！！！！！！！밥 잘 챙겨먹고 매일 푹자요 사랑해요😘😘💗💗",
      "content_zh": "姐姐，我有话要说！！！！！！！！！！！！！！！！！！！！！！！！！！！！！！！！！！！！！！！！！！！！！！！！！！！！！！！！！！！！！！！！！！！！！！！！！！！！！！！！！！好好吃饭每天睡个好觉我爱你😘😘💗💗",
      "post_time": "2025-06-17 13:29:35",
      "image_count": 0,
      "image_urls": null,
      "local_image_paths": null,
      "likes": 0,
      "comments": 0,
      "views": 0,
      "board": "Dear. IU",
      "members_only": 0,
      "author_username": "사어",
      "author_avatar": "https://dearimage.iu101.org/images/avatars/avatar_198.jpeg",
      "author_local_avatar": "https://dearimage.iu101.org/images/avatars/avatar_198.jpeg",
      "fan_comments": [],
      "direct_iu_replies": [
        {
          "id": 1400,
          "content_ko": "나두!!!! 💗💗💗💗 ",
          "content_zh": "我也！！！ 💗💗💗💗",
          "image_count": 0,
          "image_urls": null,
          "local_image_paths": null,
          "replied_at": "2025-06-17 13:58:35"
        }
      ]
    },
    {
      "id": 572,
      "post_uuid": "01977e12-6df8-9546-4e2a-7d02bf624d36",
      "title_ko": null,
      "title_zh": null,
      "content_ko": "이건 아이유가 좋아하는 디저트라고 해서 두 가지 맛으로 샀어.\n너 생각날 때 몰래 꺼내 먹으려고.",
      "content_zh": "听说这是IU喜欢的甜点，所以买了两种口味。想在想你的时候偷偷拿出来吃。",
      "post_time": "2025-06-17 13:27:06",
      "image_count": 1,
      "image_urls": "https://dearimage.iu101.org/images/posts/post_572_43356351.jpeg",
      "local_image_paths": "https://dearimage.iu101.org/images/posts/post_572_43356351.jpeg",
      "likes": 0,
      "comments": 0,
      "views": 0,
      "board": "Dear. IU",
      "members_only": 0,
      "author_username": "유일한최애",
      "author_avatar": "https://dearimage.iu101.org/images/avatars/avatar_261.jpeg",
      "author_local_avatar": "https://dearimage.iu101.org/images/avatars/avatar_261.jpeg",
      "fan_comments": [],
      "direct_iu_replies": [
        {
          "id": 1399,
          "content_ko": "아.....! 하지만 내가 제일 좋아하는 맛은.....!! 🥹",
          "content_zh": "啊.....！但是我最喜欢的口味是.....！！ 🥹",
          "image_count": 0,
          "image_urls": null,
          "local_image_paths": null,
          "replied_at": "2025-06-17 13:59:15"
        }
      ]
    },
    {
      "id": 571,
      "post_uuid": "01977e0e-3fa8-0272-c153-9686778237e2",
      "title_ko": null,
      "title_zh": null,
      "content_ko": "언니가 가장 좋아하는 체크무늬 셔츠가 어떤 옷인지 궁금해요. 저는 이 셔츠가 너무 좋아요.🥰🥰🥰",
      "content_zh": "好奇姐姐最喜欢的那种格子衬衫是什么样的衣服。我太喜欢这件衬衫了。🥰🥰🥰",
      "post_time": "2025-06-17 13:22:32",
      "image_count": 1,
      "image_urls": "https://dearimage.iu101.org/images/posts/post_571_702169804.jpeg",
      "local_image_paths": "https://dearimage.iu101.org/images/posts/post_571_702169804.jpeg",
      "likes": 0,
      "comments": 0,
      "views": 0,
      "board": "Dear. IU",
      "members_only": 0,
      "author_username": "이지은의강아지",
      "author_avatar": null,
      "author_local_avatar": null,
      "fan_comments": [],
      "direct_iu_replies": [
        {
          "id": 1398,
          "content_ko": "아 핑계고 셔츠! 너무 예쁘지 이 셔츠는 제 개인 소장 셔츠는 아닙니다 🙂‍↕️만 저도 좋아합니다",
          "content_zh": "啊借口和衬衫！太美了这件衬衫不是我个人收藏的衬衫 🙂‍↕️但我也很喜欢",
          "image_count": 0,
          "image_urls": null,
          "local_image_paths": null,
          "replied_at": "2025-06-17 14:01:18"
        }
      ]
    },
    {
      "id": 594,
      "post_uuid": "019779ae-ce5c-87ca-db93-4f328c47a3e4",
      "title_ko": null,
      "title_zh": null,
      "content_ko": "IU 저는 중국에서 온 팬입니다. 최근에 많은 한국 연예인들이 중국에 와서 사인회를 하는 것을 보았습니다. 언제 중국 여행을 한 번 올 수 있을까요? 우리는 당신이 너무 보고 싶어요 우우우우。남의 팬들은 우리 앞에서 미쳐，우리 모두 부러워 죽겠어 언제 중국 여행 올 수 있을까。",
      "content_zh": "IU，我是来自中国的粉丝。最近看到很多韩国艺人来中国举办签名会，什么时候你能来中国旅行一次呢？我们很想念你呜呜呜。其他艺人的粉丝在我们面前炫耀，我们都羡慕得要死，你什么时候能来中国旅行啊。",
      "post_time": "2025-06-16 16:59:48",
      "image_count": 0,
      "image_urls": null,
      "local_image_paths": null,
      "likes": 0,
      "comments": 0,
      "views": 0,
      "board": "Dear. IU",
      "members_only": 0,
      "author_username": "uaenaido",
      "author_avatar": null,
      "author_local_avatar": null,
      "fan_comments": [],
      "direct_iu_replies": [
        {
          "id": 1421,
          "content_ko": "드라마 잘 마치고 내년에 갈 수 있으면 좋겠다 우리 중애나들 보고 싶ㅇㅓ요💗",
          "content_zh": "电视剧顺利结束，如果明年能去就好了，想见我们的安娜们💗",
          "image_count": 0,
          "image_urls": null,
          "local_image_paths": null,
          "replied_at": "2025-06-16 17:00:54"
        }
      ]
    },
    {
      "id": 593,
      "post_uuid": "019779ad-ea04-908b-5a3a-f6e948d35778",
      "title_ko": null,
      "title_zh": null,
      "content_ko": "언니! 당신을 만나기 위해 일부러 화장을 했어요, 어때요🥰                                                         👁            👁                                                                                                                        🔴  👃 🔴\n       👄\n",
      "content_zh": "姐姐！为了见你特意化了妆，怎么样🥰\n\n👁️        👁️\n\n🔴  👃  🔴\n👄",
      "post_time": "2025-06-16 16:58:50",
      "image_count": 0,
      "image_urls": null,
      "local_image_paths": null,
      "likes": 0,
      "comments": 0,
      "views": 0,
      "board": "Dear. IU",
      "members_only": 0,
      "author_username": "YU^Q^",
      "author_avatar": null,
      "author_local_avatar": null,
      "fan_comments": [],
      "direct_iu_replies": [
        {
          "id": 1420,
          "content_ko": "어.. 노력이 이뻐..!",
          "content_zh": "啊..努力真美..！",
          "image_count": 0,
          "image_urls": null,
          "local_image_paths": null,
          "replied_at": "2025-06-16 17:01:25"
        }
      ]
    },
    {
      "id": 592,
      "post_uuid": "019779ac-2db7-b232-fd8b-f39c4c6b5936",
      "title_ko": null,
      "title_zh": null,
      "content_ko": "언니 저 잘게요~ 내일 봐요~ 아니 몇시간 뒤에 봐요~히히😴💤",
      "content_zh": "姐姐我睡了~明天见~不对几小时后见~嘻嘻😴💤",
      "post_time": "2025-06-16 16:56:56",
      "image_count": 0,
      "image_urls": null,
      "local_image_paths": null,
      "likes": 0,
      "comments": 0,
      "views": 0,
      "board": "Dear. IU",
      "members_only": 0,
      "author_username": "今天听Palette了吗",
      "author_avatar": "https://dearimage.iu101.org/images/avatars/avatar_304.jpeg",
      "author_local_avatar": "https://dearimage.iu101.org/images/avatars/avatar_304.jpeg",
      "fan_comments": [],
      "direct_iu_replies": [
        {
          "id": 1419,
          "content_ko": "나두 잘 거지롱 이따 보아 🥰",
          "content_zh": "我也早点睡，待会见🥰",
          "image_count": 0,
          "image_urls": null,
          "local_image_paths": null,
          "replied_at": "2025-06-16 17:01:48"
        }
      ]
    },
    {
      "id": 591,
      "post_uuid": "019779aa-6d12-52e4-d8f2-c7c4a37750fe",
      "title_ko": null,
      "title_zh": null,
      "content_ko": "요즘 자기혐오에 빠져있어요.. 언니는 어떻게 이겨냈나요?!🥹🥹",
      "content_zh": "最近陷入了自我厌恶..姐姐是怎么战胜的？！🥹🥹",
      "post_time": "2025-06-16 16:55:01",
      "image_count": 0,
      "image_urls": null,
      "local_image_paths": null,
      "likes": 0,
      "comments": 0,
      "views": 0,
      "board": "Dear. IU",
      "members_only": 0,
      "author_username": "내가제비꽃이야",
      "author_avatar": null,
      "author_local_avatar": null,
      "fan_comments": [],
      "direct_iu_replies": [
        {
          "id": 1418,
          "content_ko": "아주 그냥 지겹고 질릴 때까지 혐오했던 것 같아요. 지나가더라고요!",
          "content_zh": "好像一直讨厌到厌烦的程度。就这样过去了！",
          "image_count": 0,
          "image_urls": null,
          "local_image_paths": null,
          "replied_at": "2025-06-16 17:02:55"
        }
      ]
    },
    {
      "id": 590,
      "post_uuid": "019779a9-1cd3-543a-303f-8c17739ba0d2",
      "title_ko": null,
      "title_zh": null,
      "content_ko": "언니, 저는 복숭아 머리예요. 이미 복숭아를 밥으로 먹었어요!언니는 여름에 뭘 제일 좋아해요🧐🧐🧐",
      "content_zh": "姐姐，我是桃子头。已经把桃子当饭吃了！姐姐夏天最喜欢什么？🧐🧐🧐",
      "post_time": "2025-06-16 16:53:35",
      "image_count": 0,
      "image_urls": null,
      "local_image_paths": null,
      "likes": 0,
      "comments": 0,
      "views": 0,
      "board": "Dear. IU",
      "members_only": 0,
      "author_username": "IU²H",
      "author_avatar": null,
      "author_local_avatar": null,
      "fan_comments": [],
      "direct_iu_replies": [
        {
          "id": 1417,
          "content_ko": "배 안 아파? 골고루 먹어야지요오 나는\n팥빙수 >.<",
          "content_zh": "肚子不疼吗？要均衡饮食呢我",
          "image_count": 0,
          "image_urls": null,
          "local_image_paths": null,
          "replied_at": "2025-06-16 17:04:00"
        }
      ]
    },
    {
      "id": 589,
      "post_uuid": "019779a8-d844-4aa6-a02c-8e54e7f3e0c0",
      "title_ko": null,
      "title_zh": null,
      "content_ko": "언니, 이 저녁노을 잘 봐🫶",
      "content_zh": "姐姐，好好看看这夕阳🫶",
      "post_time": "2025-06-16 16:53:18",
      "image_count": 1,
      "image_urls": "https://dearimage.iu101.org/images/posts/post_589_269235659.jpeg",
      "local_image_paths": "https://dearimage.iu101.org/images/posts/post_589_269235659.jpeg",
      "likes": 0,
      "comments": 0,
      "views": 0,
      "board": "Dear. IU",
      "members_only": 0,
      "author_username": "(아이유wife)",
      "author_avatar": null,
      "author_local_avatar": null,
      "fan_comments": [],
      "direct_iu_replies": [
        {
          "id": 1416,
          "content_ko": "후리는~~~ 자동으로 나오네",
          "content_zh": "呼啦~~自动出现了呢",
          "image_count": 0,
          "image_urls": null,
          "local_image_paths": null,
          "replied_at": "2025-06-16 17:04:22"
        }
      ]
    },
    {
      "id": 588,
      "post_uuid": "019779a6-55a9-a433-a780-2c46f9dee5fd",
      "title_ko": null,
      "title_zh": null,
      "content_ko": "이거 무슨 콘서튼지 기억나는 사람~?!!!!!\n\n+정답은 대구 챗셔콘!!",
      "content_zh": "还记得这是什么演唱会的人~？!!!!！ +答案是大邱Chat Show Concert！！",
      "post_time": "2025-06-16 16:50:33",
      "image_count": 1,
      "image_urls": "https://dearimage.iu101.org/images/posts/post_588_40833565.jpeg",
      "local_image_paths": "https://dearimage.iu101.org/images/posts/post_588_40833565.jpeg",
      "likes": 0,
      "comments": 0,
      "views": 0,
      "board": "Dear. IU",
      "members_only": 0,
      "author_username": "정은이원숭이",
      "author_avatar": "https://dearimage.iu101.org/images/avatars/avatar_163.jpeg",
      "author_local_avatar": "https://dearimage.iu101.org/images/avatars/avatar_163.jpeg",
      "fan_comments": [],
      "direct_iu_replies": [
        {
          "id": 1415,
          "content_ko": "광주?!",
          "content_zh": "光州？！",
          "image_count": 0,
          "image_urls": null,
          "local_image_paths": null,
          "replied_at": "2025-06-16 17:04:57"
        }
      ]
    },
    {
      "id": 587,
      "post_uuid": "019779a6-0382-a05d-ba45-3b87c15e8ee4",
      "title_ko": null,
      "title_zh": null,
      "content_ko": "언니, 나 또 불면증이야, 어떻게 해야 잘 잘 수 있을까😣",
      "content_zh": "姐姐，我又失眠了，怎样才能睡得好呢😣",
      "post_time": "2025-06-16 16:50:12",
      "image_count": 0,
      "image_urls": null,
      "local_image_paths": null,
      "likes": 0,
      "comments": 0,
      "views": 0,
      "board": "Dear. IU",
      "members_only": 0,
      "author_username": "YU^Q^",
      "author_avatar": null,
      "author_local_avatar": null,
      "fan_comments": [],
      "direct_iu_replies": [
        {
          "id": 1414,
          "content_ko": "멜라토닌 따뜻한 우유 마그네슘 햇빝 쬐기 다 해 봤어? 운동 포함! 그래두 어려우면 병원 가자! 악화되기 전에 상담 받구 방법을 찾을\n수 있을 거야!",
          "content_zh": "褪黑素、温牛奶、镁、晒太阳都试过了吗？包括运动！如果还是很困难的话就去医院吧！在情况恶化之前接受咨询，可以找到解决方法的！",
          "image_count": 0,
          "image_urls": null,
          "local_image_paths": null,
          "replied_at": "2025-06-16 17:07:30"
        }
      ]
    },
    {
      "id": 586,
      "post_uuid": "0197799f-6104-eeb8-6d7d-7beb62ba3444",
      "title_ko": null,
      "title_zh": null,
      "content_ko": "한 불쌍한 소녀가 400개의 메시지를 보냈지만 언니에게 보이지 않았습니다. 이 소녀는 누구였습니까?🧐🧐🧐 아, 저였군요.🤨🤨🤨",
      "content_zh": "有个可怜的小女孩发了400条消息，但姐姐没看到。这个小女孩是谁呢？🧐🧐🧐 啊，原来是我呀。🤨🤨 Hanna",
      "post_time": "2025-06-16 16:42:57",
      "image_count": 0,
      "image_urls": null,
      "local_image_paths": null,
      "likes": 0,
      "comments": 0,
      "views": 0,
      "board": "Dear. IU",
      "members_only": 0,
      "author_username": "사어야",
      "author_avatar": null,
      "author_local_avatar": null,
      "fan_comments": [],
      "direct_iu_replies": [
        {
          "id": 1413,
          "content_ko": "이제 그 소녀는 불쌍하지 않은 소녀가 되었다 🙂‍↕️",
          "content_zh": "现在那个女孩不再是可怜的女孩了🙂‍↕️",
          "image_count": 0,
          "image_urls": null,
          "local_image_paths": null,
          "replied_at": "2025-06-16 17:09:01"
        }
      ]
    },
    {
      "id": 585,
      "post_uuid": "01977993-cb22-5d04-5cef-8c8ed084e680",
      "title_ko": null,
      "title_zh": null,
      "content_ko": "언니 진짜 빨간펜으로 책에 줄 그어요? 아님 그날그날 달라요?",
      "content_zh": "姐姐真的用红笔在书上画线吗？还是每天不一样？",
      "post_time": "2025-06-16 16:30:18",
      "image_count": 1,
      "image_urls": "https://dearimage.iu101.org/images/posts/post_585_2116997051.jpeg",
      "local_image_paths": "https://dearimage.iu101.org/images/posts/post_585_2116997051.jpeg",
      "likes": 0,
      "comments": 0,
      "views": 0,
      "board": "Dear. IU",
      "members_only": 0,
      "author_username": "혜주동생",
      "author_avatar": null,
      "author_local_avatar": null,
      "fan_comments": [],
      "direct_iu_replies": [
        {
          "id": 1412,
          "content_ko": "연필로 그을 때도 있고 검정 펜으로 그을 때도 있지요오",
          "content_zh": "有时候用铅笔画，有时候用黑笔画呢",
          "image_count": 0,
          "image_urls": null,
          "local_image_paths": null,
          "replied_at": "2025-06-16 17:10:50"
        }
      ]
    },
    {
      "id": 584,
      "post_uuid": "0197798f-4304-766f-94ab-affd27b4fd99",
      "title_ko": null,
      "title_zh": null,
      "content_ko": "엉니~~~편지입니다💌💌💌🤲🏻🫶🏻\n언니 혹시 제 이름으로 이행시 만들 수 있나요?🥺😆\n한국어 아직 잘 못해요…ㅠㅠ 틀려도 이해해 주세요🙇🏻‍♀️",
      "content_zh": "欧尼~~~来信了💌💌💌🤲🏻🫶🏻 姐姐能以我的名字做首藏头诗吗？🥺😆 韩语还不太好…ㅠㅠ 即使写错了也请理解🙇🏻‍♀️",
      "post_time": "2025-06-16 16:25:21",
      "image_count": 4,
      "image_urls": "https://dearimage.iu101.org/images/posts/post_584_2074842543.jpeg",
      "local_image_paths": "https://dearimage.iu101.org/images/posts/post_584_2055382758.jpeg|https://dearimage.iu101.org/images/posts/post_584_2074842543.jpeg|https://dearimage.iu101.org/images/posts/post_584_2068702154.jpeg|https://dearimage.iu101.org/images/posts/post_584_2071997494.jpeg",
      "likes": 0,
      "comments": 0,
      "views": 0,
      "board": "Dear. IU",
      "members_only": 0,
      "author_username": "注销的用户",
      "author_avatar": null,
      "author_local_avatar": null,
      "fan_comments": [],
      "direct_iu_replies": [
        {
          "id": 1411,
          "content_ko": "쯔: 쯔으기 쯔한이 좋다는 애들 온다\n한: 한 트럭인데?!",
          "content_zh": "智：喜欢智恩的孩子们都来了",
          "image_count": 0,
          "image_urls": null,
          "local_image_paths": null,
          "replied_at": "2025-06-16 17:13:11"
        }
      ]
    },
    {
      "id": 583,
      "post_uuid": "01977974-85f5-8e49-775d-7742e5403c48",
      "title_ko": null,
      "title_zh": null,
      "content_ko": "언니, 대학교 친구들이 하나둘씩 떠나가는 걸 보고 있자니 갑자기 슬퍼지네 이게 웬일이야 흑흑흑. 나는 18일에 졸업식과 학위 수여식에 참석해야 하는데 지은 언니가 졸업 축하해 줄 수 있나요?",
      "content_zh": "姐姐，看着大学朋友们一个接一个地离开，突然感到很难过，这是怎么回事啊呜呜呜。我18号要参加毕业典礼和学位授予仪式，志恩姐姐能来为我庆祝毕业吗？",
      "post_time": "2025-06-16 15:56:09",
      "image_count": 0,
      "image_urls": null,
      "local_image_paths": null,
      "likes": 0,
      "comments": 0,
      "views": 0,
      "board": "Dear. IU",
      "members_only": 0,
      "author_username": "Tina팅팅♡˖⊹",
      "author_avatar": null,
      "author_local_avatar": null,
      "fan_comments": [],
      "direct_iu_replies": [
        {
          "id": 1410,
          "content_ko": "졸업\n축하해\n애나야 사회가\n우리\n애나에게\n친절하길💗",
          "content_zh": "毕业",
          "image_count": 0,
          "image_urls": null,
          "local_image_paths": null,
          "replied_at": "2025-06-16 17:16:18"
        }
      ]
    },
    {
      "id": 582,
      "post_uuid": "01977973-ea15-67ae-969a-c32bd6901a61",
      "title_ko": null,
      "title_zh": null,
      "content_ko": "아이유 언니, 나 오늘 생리 왔어, 어제 외출해서 실수로 비를 맞았는데, 지금 배가 유난히 괴로워😣나는 배가 터질 것 같다.💥이런 느낌은 정말 형편없다.😭그리고 나는 지금 입맛이 없어 먹을 것이 없다.🥲",
      "content_zh": "IU姐姐，我今天来例假了，昨天外出时不小心淋了雨，现在肚子特别难受😣感觉肚子要炸开了💥这种感觉真的太糟糕了😭而且我现在一点胃口都没有，什么都不想吃🥲",
      "post_time": "2025-06-16 15:55:29",
      "image_count": 0,
      "image_urls": null,
      "local_image_paths": null,
      "likes": 0,
      "comments": 0,
      "views": 0,
      "board": "Dear. IU",
      "members_only": 0,
      "author_username": "복숭아나무susu^‥^",
      "author_avatar": "https://dearimage.iu101.org/images/avatars/avatar_504.jpg",
      "author_local_avatar": "https://dearimage.iu101.org/images/avatars/avatar_504.jpg",
      "fan_comments": [],
      "direct_iu_replies": [
        {
          "id": 1409,
          "content_ko": "약을 먹어야지\n그럴 땐\n🥹",
          "content_zh": "该吃药了",
          "image_count": 0,
          "image_urls": null,
          "local_image_paths": null,
          "replied_at": "2025-06-16 17:16:55"
        }
      ]
    },
    {
      "id": 581,
      "post_uuid": "0197796c-349c-0286-aa75-2140972466b5",
      "title_ko": null,
      "title_zh": null,
      "content_ko": "이런 거 보면 진차 궁금한 거.. \n언니 알고리즘에 그냥 뜨는 걸까 지인 분들이 보내주시는 걸까....?! 언니도 이어폰 끼고 들어봤을까? ㅋㅋㅋㅋㅋ 🙂‍↕️",
      "content_zh": "看到这个真的很好奇...\n姐姐的算法里是直接出现的吗，还是朋友们发给你的...？姐姐也戴着耳机听过吗？哈哈哈 🙂‍↕️",
      "post_time": "2025-06-16 15:47:03",
      "image_count": 1,
      "image_urls": "https://dearimage.iu101.org/images/posts/post_581_503343609.jpeg",
      "local_image_paths": "https://dearimage.iu101.org/images/posts/post_581_503343609.jpeg",
      "likes": 0,
      "comments": 0,
      "views": 0,
      "board": "Dear. IU",
      "members_only": 0,
      "author_username": "말랑찹쌀떡",
      "author_avatar": "https://dearimage.iu101.org/images/avatars/avatar_29.jpeg",
      "author_local_avatar": "https://dearimage.iu101.org/images/avatars/avatar_29.jpeg",
      "fan_comments": [],
      "direct_iu_replies": [
        {
          "id": 1408,
          "content_ko": "ㅋㅋㅋ내\n알고리즘에\n떴어 ㅋㅋㅋ",
          "content_zh": "哈哈哈我",
          "image_count": 0,
          "image_urls": null,
          "local_image_paths": null,
          "replied_at": "2025-06-16 17:17:36"
        }
      ]
    },
    {
      "id": 580,
      "post_uuid": "01977969-104a-8a79-113a-f0416fd266ee",
      "title_ko": null,
      "title_zh": null,
      "content_ko": "언니언니!!!\n냉장고에 항상 있는 음식 있어요??",
      "content_zh": "姐姐姐姐！！冰箱里总是有什么食物吗？？",
      "post_time": "2025-06-16 15:43:38",
      "image_count": 0,
      "image_urls": null,
      "local_image_paths": null,
      "likes": 0,
      "comments": 0,
      "views": 0,
      "board": "Dear. IU",
      "members_only": 0,
      "author_username": "うさぎ",
      "author_avatar": "https://dearimage.iu101.org/images/avatars/avatar_43.jpeg",
      "author_local_avatar": "https://dearimage.iu101.org/images/avatars/avatar_43.jpeg",
      "fan_comments": [],
      "direct_iu_replies": [
        {
          "id": 1407,
          "content_ko": "김치 >.<",
          "content_zh": "泡菜>.<",
          "image_count": 0,
          "image_urls": null,
          "local_image_paths": null,
          "replied_at": "2025-06-16 17:18:11"
        }
      ]
    }
  ]
}