{
  "page": 7,
  "totalPages": 45,
  "total": 895,
  "data": [
    {
      "id": 157,
      "post_uuid": "0199d2b8-4e25-a20c-58c1-e361e6dc5f8d",
      "title_ko": null,
      "title_zh": null,
      "content_ko": "언니, 나 방학이야. 얘기하자😌😌🌚🌚",
      "content_zh": "姐姐，我放假了。聊聊天吧😌😌🌚🌚",
      "post_time": "2025-10-11 10:01:58",
      "image_count": 0,
      "image_urls": null,
      "local_image_paths": null,
      "likes": 0,
      "comments": 0,
      "views": 0,
      "board": "Dear. IU",
      "members_only": 0,
      "author_username": "cooky08",
      "author_avatar": null,
      "author_local_avatar": null,
      "fan_comments": [],
      "direct_iu_replies": [
        {
          "id": 684,
          "content_ko": "가을 방학? 모두의 로망이잖아 🥹",
          "content_zh": "秋假？是所有人的梦想啊 🥹",
          "image_count": 0,
          "image_urls": null,
          "local_image_paths": null,
          "replied_at": "2025-10-11 10:51:01"
        }
      ]
    },
    {
      "id": 156,
      "post_uuid": "0199d288-8b92-2167-c7c4-c21644f62a27",
      "title_ko": null,
      "title_zh": null,
      "content_ko": "언니는 높은 곳이 무서워요?\n요즘 인터넷에서 높은 곳에서 줄타기하는 모험 영상들을 봤는데, 너무 무섭더라고요!!\n아무리 안전장치가 있어도 저는 절대 못 할 것 같아요ㅎㅎ 진짜 겁쟁이에요ㅎㅎ",
      "content_zh": "姐姐害怕高处吗？\n最近在网上看了很多在高处走钢丝的冒险视频，真的太吓人了！！\n就算有安全措施，我也绝对做不到呢哈哈，真的是个胆小鬼哈哈",
      "post_time": "2025-10-11 09:09:48",
      "image_count": 0,
      "image_urls": null,
      "local_image_paths": null,
      "likes": 0,
      "comments": 0,
      "views": 0,
      "board": "Dear. IU",
      "members_only": 0,
      "author_username": "UIverse",
      "author_avatar": null,
      "author_local_avatar": null,
      "fan_comments": [],
      "direct_iu_replies": [
        {
          "id": 683,
          "content_ko": "높은 곳 자체는 안 무서운데 높은 곳에서 찍은 영상은 무서워요 😃",
          "content_zh": "高处本身不可怕但在高处拍的视频很可怕 😃",
          "image_count": 0,
          "image_urls": null,
          "local_image_paths": null,
          "replied_at": "2025-10-11 10:53:07"
        }
      ]
    },
    {
      "id": 155,
      "post_uuid": "0199d278-4bbc-af6a-e386-45a15e4eb591",
      "title_ko": null,
      "title_zh": null,
      "content_ko": "배고파요… \n징짱 저녁을 뭐 먹어요?",
      "content_zh": "好饿...",
      "post_time": "2025-10-11 08:52:03",
      "image_count": 0,
      "image_urls": null,
      "local_image_paths": null,
      "likes": 0,
      "comments": 0,
      "views": 0,
      "board": "Dear. IU",
      "members_only": 0,
      "author_username": "대군쀼대박!",
      "author_avatar": null,
      "author_local_avatar": null,
      "fan_comments": [],
      "direct_iu_replies": [
        {
          "id": 682,
          "content_ko": "크림빵 😙",
          "content_zh": "奶油面包 😙",
          "image_count": 0,
          "image_urls": null,
          "local_image_paths": null,
          "replied_at": "2025-10-11 10:53:44"
        }
      ]
    },
    {
      "id": 154,
      "post_uuid": "0199d220-d49b-60a4-3d2e-f1f07b57ee7f",
      "title_ko": null,
      "title_zh": null,
      "content_ko": "언니, 이 두 장 봐요!\n9월에 언니 보러 갔을 때, 언니가 추천해주신 홍로를 사봤어요🥰\n정말 크고 예쁘더라구요!\n향이 아주 특별해서 처음 먹어보는 맛이었어요! 너무 마음에 들어요🥰\n그리고 간장게장도 먹었어요!\n언니가 알려주신 방법대로 천천히 맛봤어요😚\n정말 맛있었어요!",
      "content_zh": "姐姐，你看这两张照片！\n九月份去看你的时候，买了你推荐的红螺，好大好漂亮呢！\n味道很特别，是第一次吃到的口感，非常喜欢呢🥰\n还吃了酱油蟹！\n按照姐姐教的方法慢慢品尝了😚\n真的很好吃！",
      "post_time": "2025-10-11 07:16:31",
      "image_count": 2,
      "image_urls": "https://dearimage.iu101.org/images/posts/post_154_1505901097.jpeg",
      "local_image_paths": "https://dearimage.iu101.org/images/posts/post_154_1501691873.jpeg|https://dearimage.iu101.org/images/posts/post_154_1505901097.jpeg",
      "likes": 0,
      "comments": 0,
      "views": 0,
      "board": "Dear. IU",
      "members_only": 0,
      "author_username": "황샤오츄Dionus1996",
      "author_avatar": "https://dearimage.iu101.org/images/avatars/avatar_80.jpeg",
      "author_local_avatar": "https://dearimage.iu101.org/images/avatars/avatar_80.jpeg",
      "fan_comments": [],
      "direct_iu_replies": [
        {
          "id": 681,
          "content_ko": "사과 정말 예쁜 걸로 잘 골랐네 😍",
          "content_zh": "苹果选得真漂亮 😍",
          "image_count": 0,
          "image_urls": null,
          "local_image_paths": null,
          "replied_at": "2025-10-11 10:55:54"
        }
      ]
    },
    {
      "id": 153,
      "post_uuid": "0199d1d2-164e-c3e6-fc35-41bac9ef03aa",
      "title_ko": null,
      "title_zh": null,
      "content_ko": "베리즈 지은이의 답글이 항상 그리워요 🥺 너무 보고 싶어요 💞 \"안녕 다마리스\" 말할 수 있나요?\n사랑해요!!! Mahal kita Ji Eun!!!",
      "content_zh": "贝瑞斯智恩的回复总是让我如此想念 🥺 好想见你呀 💞 能说声\"你好，达玛里斯\"吗？\n我爱你！！！Mahal kita Ji Eun！！！",
      "post_time": "2025-10-11 05:50:30",
      "image_count": 0,
      "image_urls": null,
      "local_image_paths": null,
      "likes": 0,
      "comments": 0,
      "views": 0,
      "board": "Dear. IU",
      "members_only": 0,
      "author_username": "Damaris",
      "author_avatar": null,
      "author_local_avatar": null,
      "fan_comments": [],
      "direct_iu_replies": [
        {
          "id": 680,
          "content_ko": "Hi Damaris Mahal kita 🫰",
          "content_zh": "Hi Damaris Mahal kita 🫰",
          "image_count": 0,
          "image_urls": null,
          "local_image_paths": null,
          "replied_at": "2025-10-11 10:57:24"
        }
      ]
    },
    {
      "id": 152,
      "post_uuid": "0199d161-b38e-d4f9-f720-ba52b40f8b62",
      "title_ko": null,
      "title_zh": null,
      "content_ko": "지은언니 따라서 묵참 김밥😌\n+묵은지 아니고 그냥 김치긴 함….ㅎㅎ 예리하다……….",
      "content_zh": "跟着智恩姐姐一起吃泡菜卷饭团😌\n+不是泡菜而是普通的辣白菜……哈哈，真敏锐………",
      "post_time": "2025-10-11 03:47:45",
      "image_count": 1,
      "image_urls": "https://dearimage.iu101.org/images/posts/post_152_871973301.jpeg",
      "local_image_paths": "https://dearimage.iu101.org/images/posts/post_152_871973301.jpeg",
      "likes": 0,
      "comments": 0,
      "views": 0,
      "board": "Dear. IU",
      "members_only": 0,
      "author_username": "보민 ",
      "author_avatar": null,
      "author_local_avatar": null,
      "fan_comments": [],
      "direct_iu_replies": [
        {
          "id": 679,
          "content_ko": "진짜 맛있어 보이는데 이거 묵참 아니고 그냥 김치 김밥 아님? 😃",
          "content_zh": "看起来真好吃这个不是泡菜卷而是普通的泡菜紫菜包饭吗？😃",
          "image_count": 0,
          "image_urls": null,
          "local_image_paths": null,
          "replied_at": "2025-10-11 10:59:41"
        }
      ]
    },
    {
      "id": 151,
      "post_uuid": "0199d0f1-ee3e-16da-c3c2-91f6d317c26d",
      "title_ko": null,
      "title_zh": null,
      "content_ko": "징짱 난 감기기운이 있어ㅠㅠ\n목도 따끔하고 코도 막히고 콧물이...\n징짱 환절기 감기 조심해!",
      "content_zh": "我好像要感冒了，呜呜呜...\n嗓子疼，鼻子也堵，还流鼻涕...\n大家换季的时候要小心感冒哦！",
      "post_time": "2025-10-11 01:45:40",
      "image_count": 0,
      "image_urls": null,
      "local_image_paths": null,
      "likes": 0,
      "comments": 0,
      "views": 0,
      "board": "Dear. IU",
      "members_only": 0,
      "author_username": "봄날의곰돌",
      "author_avatar": null,
      "author_local_avatar": null,
      "fan_comments": [],
      "direct_iu_replies": [
        {
          "id": 678,
          "content_ko": "병원 갔어? 아프지 마 곰돌 그래도 지금 감기면 다음달에는 안 아플 수도 있어 곰돌 확실한 건 아니야 곰돌",
          "content_zh": "去医院了吗别生病了小熊不过现在感冒的话下个月可能就不会病了小熊不确定哦小熊",
          "image_count": 0,
          "image_urls": null,
          "local_image_paths": null,
          "replied_at": "2025-10-11 11:01:18"
        }
      ]
    },
    {
      "id": 150,
      "post_uuid": "0199d0aa-caf9-0c04-eded-12e4e25b6c5b",
      "title_ko": null,
      "title_zh": null,
      "content_ko": "내가 그렸어!",
      "content_zh": "鼠尾草绿",
      "post_time": "2025-10-11 00:27:58",
      "image_count": 1,
      "image_urls": "https://dearimage.iu101.org/images/posts/post_150_1819699749.png",
      "local_image_paths": "https://dearimage.iu101.org/images/posts/post_150_1819699749.png",
      "likes": 0,
      "comments": 0,
      "views": 0,
      "board": "Dear. IU",
      "members_only": 0,
      "author_username": "징니꺼୨୧ꢭ",
      "author_avatar": null,
      "author_local_avatar": null,
      "fan_comments": [],
      "direct_iu_replies": [
        {
          "id": 677,
          "content_ko": "정답 스물여덟 살",
          "content_zh": "正确答案28岁",
          "image_count": 0,
          "image_urls": null,
          "local_image_paths": null,
          "replied_at": "2025-10-11 11:02:24"
        }
      ]
    },
    {
      "id": 149,
      "post_uuid": "0199d087-e747-3768-37b2-dcacc52751f3",
      "title_ko": null,
      "title_zh": null,
      "content_ko": "피곤함이 덜하다고 하니까 정말정말 다행이에요 🤍\n\n괜히 막 기분좋게 하루시작하는 그런날\n\n아니이 그런날들이 매일 매일 \n\n을마나 좋을까요🍀\n\n기분좋게 시작했으니\n\n기분좋게 잠드는것까지 가주아!!!!압!!!쿠오오오오😎😘\n\n헤매받우러갈때 길헤멘적있…어요??😁",
      "content_zh": "你说不太累，真的真的太好了 🤍\n\n莫名地心情很好地开始的一天\n\n不，这样的日子每天每天\n\n该有多好呀 🍀\n\n既然开心地开始了\n\n也要开心地入睡才行！！！压！库哦哦哦 😎😘\n\n迷路的时候有走过弯路吗…？😁",
      "post_time": "2025-10-10 23:49:51",
      "image_count": 0,
      "image_urls": null,
      "local_image_paths": null,
      "likes": 0,
      "comments": 0,
      "views": 0,
      "board": "Dear. IU",
      "members_only": 0,
      "author_username": "honeybee77",
      "author_avatar": null,
      "author_local_avatar": null,
      "fan_comments": [],
      "direct_iu_replies": [
        {
          "id": 676,
          "content_ko": "아침에 제가 그런 말을 했던가요..? 너무 피곤하다 🥰 너무 피곤해 🥰😍",
          "content_zh": "早上我说过那种话吗..？太累了 🥰 太累了 🥰😍",
          "image_count": 0,
          "image_urls": null,
          "local_image_paths": null,
          "replied_at": "2025-10-11 11:03:34"
        }
      ]
    },
    {
      "id": 148,
      "post_uuid": "0199d06a-1939-ecf2-5c99-435f6272deb7",
      "title_ko": null,
      "title_zh": null,
      "content_ko": "아이폰17로 핸드폰을 바꾼다면 선택할 색상은?\n1.화이트\n2.세이지(그린)\n3. 미스트 블루\n4.라벤더",
      "content_zh": "如果用iPhone 17换手机，你会选择什么颜色？\n1. 白色\n2. 鼠尾草绿\n3. 雾蓝色\n4. 薰衣草色",
      "post_time": "2025-10-10 23:17:18",
      "image_count": 0,
      "image_urls": null,
      "local_image_paths": null,
      "likes": 0,
      "comments": 0,
      "views": 0,
      "board": "Dear. IU",
      "members_only": 0,
      "author_username": "마이찬",
      "author_avatar": "https://dearimage.iu101.org/images/avatars/avatar_104.jpeg",
      "author_local_avatar": "https://dearimage.iu101.org/images/avatars/avatar_104.jpeg",
      "fan_comments": [],
      "direct_iu_replies": [
        {
          "id": 675,
          "content_ko": "2번 예쁘겠다! 근데 안 바꿀 것 같아요 🙂‍↕️",
          "content_zh": "2号很好看！不过好像不会换 🙂‍↕️",
          "image_count": 0,
          "image_urls": null,
          "local_image_paths": null,
          "replied_at": "2025-10-11 11:04:27"
        }
      ]
    },
    {
      "id": 194,
      "post_uuid": "01988d23-29f3-1b1b-d99f-f112586d0a2e",
      "title_ko": null,
      "title_zh": null,
      "content_ko": "언니, 평소에 자기 노래 흥얼거려요?",
      "content_zh": "姐姐平时会哼自己的歌吗？",
      "post_time": "2025-08-09 04:42:28",
      "image_count": 0,
      "image_urls": null,
      "local_image_paths": null,
      "likes": 0,
      "comments": 0,
      "views": 0,
      "board": "Dear. IU",
      "members_only": 0,
      "author_username": "dlwlrmaaaaa",
      "author_avatar": "https://dearimage.iu101.org/images/avatars/avatar_422.jpg",
      "author_local_avatar": "https://dearimage.iu101.org/images/avatars/avatar_422.jpg",
      "fan_comments": [],
      "direct_iu_replies": [
        {
          "id": 857,
          "content_ko": "다른 가수 노래를 더 많이 흥얼거리는 듯!",
          "content_zh": "好像哼其他歌手的歌更多！",
          "image_count": 0,
          "image_urls": null,
          "local_image_paths": null,
          "replied_at": "2025-08-09 04:42:53"
        }
      ]
    },
    {
      "id": 193,
      "post_uuid": "01988d22-3318-52f2-08c0-e55c1beed18f",
      "title_ko": null,
      "title_zh": null,
      "content_ko": "언니, 이번엔 만날 수는 없지만, 모든 일이 잘 되길 바래!!! 노력해서 다음에 꼭 만나요! Xiangni🥹 사랑해 언니🫶",
      "content_zh": "姐姐，这次虽然见不到面，但愿一切顺利！！努力下次一定见面！Xiangni🥹爱你姐姐🫶",
      "post_time": "2025-08-09 04:41:25",
      "image_count": 0,
      "image_urls": null,
      "local_image_paths": null,
      "likes": 0,
      "comments": 0,
      "views": 0,
      "board": "Dear. IU",
      "members_only": 0,
      "author_username": "YU^Q^",
      "author_avatar": null,
      "author_local_avatar": null,
      "fan_comments": [],
      "direct_iu_replies": [
        {
          "id": 856,
          "content_ko": "왜~~ 만나자~~ 😫",
          "content_zh": "为什么～来见个面吧～ 😫",
          "image_count": 0,
          "image_urls": null,
          "local_image_paths": null,
          "replied_at": "2025-08-09 04:43:33"
        }
      ]
    },
    {
      "id": 192,
      "post_uuid": "01988d22-2fc0-3cc7-6c0c-dbd45cf75e82",
      "title_ko": null,
      "title_zh": null,
      "content_ko": "언니 오늘 기분 어때요!!!!! 잘 잤어요?🥺🥺",
      "content_zh": "姐姐今天心情怎么样！！！睡得好吗？🥺🥺",
      "post_time": "2025-08-09 04:41:24",
      "image_count": 0,
      "image_urls": null,
      "local_image_paths": null,
      "likes": 0,
      "comments": 0,
      "views": 0,
      "board": "Dear. IU",
      "members_only": 0,
      "author_username": "예린",
      "author_avatar": "https://dearimage.iu101.org/images/avatars/avatar_408.jpeg",
      "author_local_avatar": "https://dearimage.iu101.org/images/avatars/avatar_408.jpeg",
      "fan_comments": [],
      "direct_iu_replies": [
        {
          "id": 855,
          "content_ko": "지금 일어났는데!! 너무 잘 잤어!! 2025 제일 잘 자고 일어난 날로 지정해야 할 것 같아!",
          "content_zh": "现在刚醒！！睡得太好了！！感觉应该把今天定为2025年睡得最香的一天！",
          "image_count": 0,
          "image_urls": null,
          "local_image_paths": null,
          "replied_at": "2025-08-09 04:44:01"
        }
      ]
    },
    {
      "id": 191,
      "post_uuid": "01988d21-bc9c-016d-06c9-c49a3402b6a5",
      "title_ko": null,
      "title_zh": null,
      "content_ko": "언니의 지금 기분을 언니의 곡으로 표현한다면 어떤 곡이 생각나~?? 발라드? 아니면 업템포??",
      "content_zh": "如果用姐姐现在的感情状态用姐姐的歌来表达，会想到什么歌？抒情歌？还是快节奏？",
      "post_time": "2025-08-09 04:40:55",
      "image_count": 0,
      "image_urls": null,
      "local_image_paths": null,
      "likes": 0,
      "comments": 0,
      "views": 0,
      "board": "Dear. IU",
      "members_only": 0,
      "author_username": "♡토와♡",
      "author_avatar": "https://dearimage.iu101.org/images/avatars/avatar_215.jpeg",
      "author_local_avatar": "https://dearimage.iu101.org/images/avatars/avatar_215.jpeg",
      "fan_comments": [],
      "direct_iu_replies": [
        {
          "id": 854,
          "content_ko": "약간 힙합?",
          "content_zh": "有点像嘻哈？",
          "image_count": 0,
          "image_urls": null,
          "local_image_paths": null,
          "replied_at": "2025-08-09 04:44:31"
        }
      ]
    },
    {
      "id": 190,
      "post_uuid": "01988d21-2f0b-ee0c-b61c-753ea5ceebc2",
      "title_ko": null,
      "title_zh": null,
      "content_ko": "아이유님 어떤 와플 스타일 좋아해요? 뚱와플? 아니면 근본 그 자체, 한국인의 밥상에 출연해도 되는 생크림+사과쨈? 또 아니면 추천해주는 조합있어요? 요새는 뭐 많이 넣어먹고 발라먹고 하던데! 저는 생크림+사과쨈조합 말고 다른건 안먹어봤어요 이참에 추천 와플 먹어봐야지🤤",
      "content_zh": "IU，你喜欢什么口味的华夫饼？是拉糖华夫饼吗？还是最经典的搭配——鲜奶油加苹果酱，连韩国人的饭桌上都能出现的那种？或者你有什么推荐的搭配吗？最近流行往华夫饼里夹很多东西、涂各种酱料来吃呢！除了鲜奶油配苹果酱之外，我还没试过别的吃法，正好趁现在你也给我推荐一个吧🤤",
      "post_time": "2025-08-09 04:40:18",
      "image_count": 2,
      "image_urls": "https://dearimage.iu101.org/images/posts/post_190_1871840234.jpg",
      "local_image_paths": "https://dearimage.iu101.org/images/posts/post_190_1871840234.jpg|https://dearimage.iu101.org/images/posts/post_190_1868799321.jpg",
      "likes": 0,
      "comments": 0,
      "views": 0,
      "board": "Dear. IU",
      "members_only": 0,
      "author_username": "미니언",
      "author_avatar": "https://dearimage.iu101.org/images/avatars/avatar_89.gif",
      "author_local_avatar": "https://dearimage.iu101.org/images/avatars/avatar_89.gif",
      "fan_comments": [],
      "direct_iu_replies": [
        {
          "id": 853,
          "content_ko": "전자에 사과잼 많이요!!",
          "content_zh": "电子上有很多果酱！！",
          "image_count": 0,
          "image_urls": null,
          "local_image_paths": null,
          "replied_at": "2025-08-09 04:45:03"
        }
      ]
    },
    {
      "id": 189,
      "post_uuid": "01988d1e-c71f-379d-916c-052cc69295cc",
      "title_ko": null,
      "title_zh": null,
      "content_ko": "지은아!! 이제 댓글에 답글 달 때도 사진 올릴 수 있대!! 한번 해볼래?? 📸\nBERRIZ 개발자분들 정말 고생 많으셨어요, 감사합니다😊",
      "content_zh": "지은啊！！现在回复评论的时候也可以上传照片了！！要试试看吗？📸\nBERRIZ的开发人员们真的辛苦了，谢谢你们😊",
      "post_time": "2025-08-09 04:37:41",
      "image_count": 0,
      "image_urls": null,
      "local_image_paths": null,
      "likes": 0,
      "comments": 0,
      "views": 0,
      "board": "Dear. IU",
      "members_only": 0,
      "author_username": "파김치",
      "author_avatar": "https://dearimage.iu101.org/images/avatars/avatar_39.jpeg",
      "author_local_avatar": "https://dearimage.iu101.org/images/avatars/avatar_39.jpeg",
      "fan_comments": [],
      "direct_iu_replies": [
        {
          "id": 852,
          "content_ko": "와 진짜네!!!!",
          "content_zh": "哇真的是！！！",
          "image_count": 1,
          "image_urls": "https://dearimage.iu101.org/images/replies/reply_852_176187750.jpeg",
          "local_image_paths": "https://dearimage.iu101.org/images/replies/reply_852_176187750.jpeg",
          "replied_at": "2025-08-09 04:46:29"
        }
      ]
    },
    {
      "id": 188,
      "post_uuid": "01988d1e-8df6-1a3e-4dbb-b6bebc0edbc1",
      "title_ko": null,
      "title_zh": null,
      "content_ko": "언니, 밤 좋아하세요?🌰\n예전에 한국에 갔을 때 길거리에서 파는 군밤을 보고 너무 먹고 싶었어요🤤\n근데 그때는 현금이 거의 안 남아서 못 샀어요😢\n추울 때 군고구마를 못 샀을 때보다 더 속상했어요\n(저 군고구마도 진짜 좋아해요🍠)",
      "content_zh": "姐姐，喜欢栗子吗？🌰\n以前去韩国的时候，看到街边卖的烤栗子特别想吃🤤\n但那时候现金几乎花光了，没能买成😢\n比不能买烤红薯时更难过呢\n（我也真的很喜欢烤红薯🍠）",
      "post_time": "2025-08-09 04:37:26",
      "image_count": 0,
      "image_urls": null,
      "local_image_paths": null,
      "likes": 0,
      "comments": 0,
      "views": 0,
      "board": "Dear. IU",
      "members_only": 0,
      "author_username": "황샤오츄Dionus0831",
      "author_avatar": "https://dearimage.iu101.org/images/avatars/avatar_458.jpeg",
      "author_local_avatar": "https://dearimage.iu101.org/images/avatars/avatar_458.jpeg",
      "fan_comments": [],
      "direct_iu_replies": [
        {
          "id": 851,
          "content_ko": "밤 너무 좋아하지 🤤 ",
          "content_zh": "太喜欢夜晚了 🤤",
          "image_count": 0,
          "image_urls": null,
          "local_image_paths": null,
          "replied_at": "2025-08-09 04:46:51"
        }
      ]
    },
    {
      "id": 187,
      "post_uuid": "01988d1c-ff9d-f3ce-4d80-db1730affdff",
      "title_ko": null,
      "title_zh": null,
      "content_ko": "언니 오늘 쉬는 날 무슨 계획 있어요? 아니면 계속 집에 누워만 계십니까?",
      "content_zh": "姐姐今天休息日有什么计划？还是继续躺在家里？",
      "post_time": "2025-08-09 04:35:44",
      "image_count": 0,
      "image_urls": null,
      "local_image_paths": null,
      "likes": 0,
      "comments": 0,
      "views": 0,
      "board": "Dear. IU",
      "members_only": 0,
      "author_username": "cooky08",
      "author_avatar": null,
      "author_local_avatar": null,
      "fan_comments": [],
      "direct_iu_replies": [
        {
          "id": 850,
          "content_ko": "친구 만나기로 했어! 🥰",
          "content_zh": "约好见朋友了！🥰",
          "image_count": 0,
          "image_urls": null,
          "local_image_paths": null,
          "replied_at": "2025-08-09 04:49:35"
        }
      ]
    },
    {
      "id": 186,
      "post_uuid": "01988d1c-b9fd-23fb-0062-9e904f0bd695",
      "title_ko": null,
      "title_zh": null,
      "content_ko": "국가고시 준비를 하고 있어서 학원에 갔어요\n드디어 수업이 끝나고 이제 점심시간이 되었어요\n오후에 또 수업이 있어요\n지금 배고프고 졸려요😂\n밥을 먹을지 잠을 잘지 고민이에요😮‍💨 한 시간만...",
      "content_zh": "在准备国家考试，所以去了培训班\n终于下课了，现在是午餐时间\n下午还有课\n现在又饿又困😂\n在纠结是吃饭还是睡觉😮‍💨 就一个小时...",
      "post_time": "2025-08-09 04:35:26",
      "image_count": 0,
      "image_urls": null,
      "local_image_paths": null,
      "likes": 0,
      "comments": 0,
      "views": 0,
      "board": "Dear. IU",
      "members_only": 0,
      "author_username": "hsinhui",
      "author_avatar": null,
      "author_local_avatar": null,
      "fan_comments": [],
      "direct_iu_replies": [
        {
          "id": 849,
          "content_ko": "저라면 일단 자겠어요!! 자고 나면 기분도 달라지고 집중력도 생기니까!",
          "content_zh": "如果是我会先睡觉！！睡醒后心情也会变好注意力也会集中！",
          "image_count": 0,
          "image_urls": null,
          "local_image_paths": null,
          "replied_at": "2025-08-09 04:50:26"
        }
      ]
    },
    {
      "id": 185,
      "post_uuid": "01988d1b-caf7-aa00-d553-358db0108bbb",
      "title_ko": null,
      "title_zh": null,
      "content_ko": "아이유 님, 안녕하세요!\n그동안 아무 계획도 없는 척 그렇게 오래 연기하시다니, 정말 믿을 수가 없어요! 진짜 연기 장인이세요 ㅎㅎ\n아이유 님의 유머 감각도 정말 좋아해서, 글을 읽을 때마다 미소 지을 일이 많아요. 😊\n\n유쾌한 유머와 다정한 마음, 언제나 잊지 않고 전해주셔서 진심으로 감사드려요. 티켓이랑 비행기표만 잘 맞으면 좋겠어요, 팬미팅 너무 기대돼요!\n편안한 토요일 보내시고, 오늘은 푹 쉬시길 바랄게요. 💜",
      "content_zh": "IU，你好！\n之前一直装作没有任何计划地拖了这么久，真的让人难以置信！你真的是演技大师啊哈哈\n我也很喜欢IU的幽默感，每次读你的文字都会不自觉地微笑😊\n\n真心感谢你总是不忘带给我们愉快的幽默和温暖的心意。只要票和机票都能顺利买到就好了，真的很期待粉丝见面会！\n祝你度过轻松愉快的周六，今天好好休息吧💜",
      "post_time": "2025-08-09 04:34:25",
      "image_count": 0,
      "image_urls": null,
      "local_image_paths": null,
      "likes": 0,
      "comments": 0,
      "views": 0,
      "board": "Dear. IU",
      "members_only": 0,
      "author_username": "Like_A_Star",
      "author_avatar": null,
      "author_local_avatar": null,
      "fan_comments": [],
      "direct_iu_replies": [
        {
          "id": 848,
          "content_ko": "한국어가 진짜 많이 늘으신 것 같아요..!! \n어떻게 그렇게 단기간에 이렇게 유창해지셨지? 대단해요!! 😍",
          "content_zh": "韩语真的进步了很多..！！ 怎么能在这么短时间内变得这么流利？厉害！！😍",
          "image_count": 0,
          "image_urls": null,
          "local_image_paths": null,
          "replied_at": "2025-08-09 04:52:09"
        }
      ]
    }
  ]
}