{
  "page": 9,
  "totalPages": 45,
  "total": 895,
  "data": [
    {
      "id": 200,
      "post_uuid": "01988220-875a-3418-8148-cf8339a242f4",
      "title_ko": null,
      "title_zh": null,
      "content_ko": "지은언니는 무대 하기 전에 떨리면 어떻게 푸는 편이에요?",
      "content_zh": "智恩姐姐登台前紧张时怎么缓解？",
      "post_time": "2025-08-07 01:23:46",
      "image_count": 0,
      "image_urls": null,
      "local_image_paths": null,
      "likes": 0,
      "comments": 0,
      "views": 0,
      "board": "Dear. IU",
      "members_only": 0,
      "author_username": "문고미",
      "author_avatar": null,
      "author_local_avatar": null,
      "fan_comments": [],
      "direct_iu_replies": [
        {
          "id": 863,
          "content_ko": "그냥 하는 거지 🫨😬",
          "content_zh": "就是随便做做 🫨😬",
          "image_count": 0,
          "image_urls": null,
          "local_image_paths": null,
          "replied_at": "2025-08-07 01:39:49"
        }
      ]
    },
    {
      "id": 199,
      "post_uuid": "01988220-5abf-9ff3-4ea6-2540dea8b3a7",
      "title_ko": null,
      "title_zh": null,
      "content_ko": "언니가 하루에 700ml밖에 물을 안 마신다고 했는데 그건 좀 너무 적은 것 같아요ㅠㅠ 성인은 하루에 최소1500~2000ml는 마셔야 충분하다고 들었어요!! 언니는 식단 조절 때문이에요? 아니면 너무 바빠서 그런 거예요?😭ㅠㅠ그래도 꼭 물 많이 마셔야 해요🥺💦🩵우리 같이 건강하게 지내요😌",
      "content_zh": "姐姐说一天只喝700毫升水，这好像太少了ㅠㅠ我听说成年人一天至少要喝1500~2000毫升才够！！姐姐是因为控制饮食吗？还是太忙了？😭ㅠㅠ不过一定要多喝水哦🥺💦🩵我们一起健康生活吧😌",
      "post_time": "2025-08-07 01:23:35",
      "image_count": 0,
      "image_urls": null,
      "local_image_paths": null,
      "likes": 0,
      "comments": 0,
      "views": 0,
      "board": "Dear. IU",
      "members_only": 0,
      "author_username": "시나(•ө•)♡",
      "author_avatar": "https://dearimage.iu101.org/images/avatars/avatar_439.jpeg",
      "author_local_avatar": "https://dearimage.iu101.org/images/avatars/avatar_439.jpeg",
      "fan_comments": [],
      "direct_iu_replies": [
        {
          "id": 862,
          "content_ko": "그거.. 예전 버젼이다? 🤫 새로 나온 연구결과는 또 다르더라구",
          "content_zh": "那个..是以前版本吗？ 🤫新出的研究结果又不一样了",
          "image_count": 0,
          "image_urls": null,
          "local_image_paths": null,
          "replied_at": "2025-08-07 01:41:56"
        }
      ]
    },
    {
      "id": 231,
      "post_uuid": "0198820b-93ba-b738-a718-7c4bece700d4",
      "title_ko": null,
      "title_zh": null,
      "content_ko": "욕실에서 부르는 노래는 굉장히 잘 들리기 때문에 항상 불러버리지만 언니도 욕실에서 부르는 경우가 있어 ⁇ㅋㅋ",
      "content_zh": "在浴室唱歌声音传得很清楚，所以总是忍不住唱，姐姐也在浴室唱歌吗？ㅋㅋ",
      "post_time": "2025-08-07 01:00:53",
      "image_count": 0,
      "image_urls": null,
      "local_image_paths": null,
      "likes": 0,
      "comments": 0,
      "views": 0,
      "board": "Dear. IU",
      "members_only": 0,
      "author_username": "♡토와♡",
      "author_avatar": "https://dearimage.iu101.org/images/avatars/avatar_215.jpeg",
      "author_local_avatar": "https://dearimage.iu101.org/images/avatars/avatar_215.jpeg",
      "fan_comments": [],
      "direct_iu_replies": [
        {
          "id": 894,
          "content_ko": "응 욕실에서 부르면 완전 명창 나만 그런 거 아니었구나 😀",
          "content_zh": "嗯在浴室唱歌 完全像名唱 只有我这样吗 😀",
          "image_count": 0,
          "image_urls": null,
          "local_image_paths": null,
          "replied_at": "2025-08-07 01:05:51"
        }
      ]
    },
    {
      "id": 230,
      "post_uuid": "0198820b-7952-18dc-e82e-6c85ef75c0ff",
      "title_ko": null,
      "title_zh": null,
      "content_ko": "언니~☀️💗 Are you working late today?🥺 Day488 of loving you🥰 Please accept my warm hug!😍 I’m missing you so so so much~!!!!!🥺🫶🏼 I can’t wait for the day we meet again!🤩 I’ll keep learning Korean little by little, hoping I can understand you better one day!🫶🏼💗\n\n希望姊姊每天健康快樂！MengMeng愛妳！🫶🏼💗\n",
      "content_zh": "姐姐~☀️💗 今天要加班到很晚吗？🥺 爱你的第488天🥰 请接受我温暖的拥抱！😍 好好想你啊~!!!!!🥺🫶🏼 盼望着再次见面的那一天！🤩 我会一点一点地继续学韩语，希望能有一天更好地理解你！🫶🏼💗\n\n希望姐姐每天都健康快乐！MengMeng爱你！🫶🏼💗",
      "post_time": "2025-08-07 01:00:46",
      "image_count": 0,
      "image_urls": null,
      "local_image_paths": null,
      "likes": 0,
      "comments": 0,
      "views": 0,
      "board": "Dear. IU",
      "members_only": 0,
      "author_username": "MengMeng孟孟",
      "author_avatar": "https://dearimage.iu101.org/images/avatars/avatar_182.jpeg",
      "author_local_avatar": "https://dearimage.iu101.org/images/avatars/avatar_182.jpeg",
      "fan_comments": [],
      "direct_iu_replies": [
        {
          "id": 893,
          "content_ko": "나 오늘 쉬는 날!!! 잘 수 있을 때까지 자 보고 \n내일이 좀 새벽부터 바쁜 날이기 때문에 일어나서 대본을 보겠어요🙂‍↕️🥹",
          "content_zh": "我今天休息！睡到自然醒  \n因为明天凌晨开始就很忙，所以起来后要看剧本🙂‍↕️🥹",
          "image_count": 0,
          "image_urls": null,
          "local_image_paths": null,
          "replied_at": "2025-08-07 01:06:53"
        }
      ]
    },
    {
      "id": 229,
      "post_uuid": "01988209-b581-9906-3def-c98c090f363a",
      "title_ko": null,
      "title_zh": null,
      "content_ko": "지은아, 🐥오늘 입추야. 🍁\n계속 들을 노래 있어. 가을 아침🥰🥰",
      "content_zh": "智恩，🐥今天立秋。 🍁",
      "post_time": "2025-08-07 00:58:51",
      "image_count": 0,
      "image_urls": null,
      "local_image_paths": null,
      "likes": 0,
      "comments": 0,
      "views": 0,
      "board": "Dear. IU",
      "members_only": 0,
      "author_username": "灰大猪",
      "author_avatar": null,
      "author_local_avatar": null,
      "fan_comments": [],
      "direct_iu_replies": [
        {
          "id": 892,
          "content_ko": "헐 입추라니 ㅜㅜ 얘기만 들어도 좋다 ㅠㅠ이틀만 빨리 와주지 이틀 전 야외 찍는데 진짜 아무리 수정해도 3초 후면 주륵주륵..🥲",
          "content_zh": "哇立秋什么的 ㅜㅜ光是听到就很舒服 ㅠㅠ要是快两天就好了 前两天户外拍摄 真的不管怎么修图 3秒后就开始流汗..🥲",
          "image_count": 0,
          "image_urls": null,
          "local_image_paths": null,
          "replied_at": "2025-08-07 01:08:15"
        }
      ]
    },
    {
      "id": 228,
      "post_uuid": "01988208-6b71-707f-011f-b24b32d69f3c",
      "title_ko": null,
      "title_zh": null,
      "content_ko": "早安~有姐姐在，秋日清晨对我来说真的是极其幸福🥰",
      "content_zh": "早安~有姐姐在，秋日清晨对我来说真的是极其幸福🥰",
      "post_time": "2025-08-07 00:57:26",
      "image_count": 1,
      "image_urls": "https://dearimage.iu101.org/images/posts/post_228_389667283.jpg",
      "local_image_paths": "https://dearimage.iu101.org/images/posts/post_228_389667283.jpg",
      "likes": 0,
      "comments": 0,
      "views": 0,
      "board": "Dear. IU",
      "members_only": 0,
      "author_username": "Liliayou",
      "author_avatar": null,
      "author_local_avatar": null,
      "fan_comments": [],
      "direct_iu_replies": [
        {
          "id": 891,
          "content_ko": "가..가을.. 맞는 거지..?",
          "content_zh": "秋..秋天..真的来了吗..？",
          "image_count": 0,
          "image_urls": null,
          "local_image_paths": null,
          "replied_at": "2025-08-07 01:08:44"
        }
      ]
    },
    {
      "id": 227,
      "post_uuid": "01988207-ed84-29f9-e440-4fa706ac45e6",
      "title_ko": null,
      "title_zh": null,
      "content_ko": "언니, 우리 사이는 좀 애매하지 않아요? 우리 서로 일상 나누는 게 커플끼리 하는 일이에요.😎🥴🥴",
      "content_zh": "姐姐，我们之间的关系会不会有点暧昧？我们互相分享日常，这可是情侣间做的事哦。😎🥴🥴",
      "post_time": "2025-08-07 00:56:54",
      "image_count": 0,
      "image_urls": null,
      "local_image_paths": null,
      "likes": 0,
      "comments": 0,
      "views": 0,
      "board": "Dear. IU",
      "members_only": 0,
      "author_username": "사어야",
      "author_avatar": null,
      "author_local_avatar": null,
      "fan_comments": [],
      "direct_iu_replies": [
        {
          "id": 890,
          "content_ko": "원래 팬과 연예인 사이가 연인 사이와 많이 닮아있긴 하지 난 그것보다 베리즈 만들고 친구들끼리 단톡방에서 노는 것 같아서 좋아!! 😆",
          "content_zh": "原本粉丝和艺人之间的关系确实很像恋人关系 我更喜欢像制作Vlog 和朋友们在群聊里玩耍那种！！😆",
          "image_count": 0,
          "image_urls": null,
          "local_image_paths": null,
          "replied_at": "2025-08-07 01:09:56"
        }
      ]
    },
    {
      "id": 226,
      "post_uuid": "019881ff-3df4-19f5-4f4a-c7b1231e756b",
      "title_ko": null,
      "title_zh": null,
      "content_ko": "지은아, 너가 했던 일 중에서 제일 엉뚱하거나 특별했던 일은 뭐야?\n아니면 하고 나서 심장이 두근두근할 정도로 긴장됐던 일은?💓",
      "content_zh": "智恩啊，你做过的最奇怪或特别的事情是什么？\n或者做完后让心跳加速、非常紧张的事呢？💓",
      "post_time": "2025-08-07 00:47:25",
      "image_count": 0,
      "image_urls": null,
      "local_image_paths": null,
      "likes": 0,
      "comments": 0,
      "views": 0,
      "board": "Dear. IU",
      "members_only": 0,
      "author_username": "파김치",
      "author_avatar": "https://dearimage.iu101.org/images/avatars/avatar_39.jpeg",
      "author_local_avatar": "https://dearimage.iu101.org/images/avatars/avatar_39.jpeg",
      "fan_comments": [],
      "direct_iu_replies": [
        {
          "id": 889,
          "content_ko": "어 나 어제 새벽 3시에 갑자기 촬영 취소됐다는 얘기 듣고 와플 시켜먹었어.. 밀크티랑.. 생크림  추가해서",
          "content_zh": "啊我昨天凌晨3点突然听说拍摄取消了 就点了华夫饼..奶茶..加了鲜奶油",
          "image_count": 0,
          "image_urls": null,
          "local_image_paths": null,
          "replied_at": "2025-08-07 01:11:12"
        }
      ]
    },
    {
      "id": 225,
      "post_uuid": "019881fb-e43f-ef9e-185a-2ba9e4e4ce33",
      "title_ko": null,
      "title_zh": null,
      "content_ko": "지은 언니! 오늘 바빠요? 내일도 해야 할 일이 많습니까? 오늘 식사 맛있게 하셨나요? 🍚언니 살 좀 그만 빼세요😭오늘도 당신을 사랑하는 하루~💗",
      "content_zh": "智恩姐姐！今天忙吗？明天也有很多事情要做吗？今天吃饭吃得香吗？🍚姐姐别再瘦了😭今天也是爱着你的一天~💗",
      "post_time": "2025-08-07 00:43:45",
      "image_count": 0,
      "image_urls": null,
      "local_image_paths": null,
      "likes": 0,
      "comments": 0,
      "views": 0,
      "board": "Dear. IU",
      "members_only": 0,
      "author_username": "사어",
      "author_avatar": "https://dearimage.iu101.org/images/avatars/avatar_198.jpeg",
      "author_local_avatar": "https://dearimage.iu101.org/images/avatars/avatar_198.jpeg",
      "fan_comments": [],
      "direct_iu_replies": [
        {
          "id": 888,
          "content_ko": "나 살쪘다니까! 😦😦 얼굴은 좀 보기 좋은 것 같아 배가 좀 나와!",
          "content_zh": "我说我胖了！😦😦脸看起来还算好看 就是肚子有点突出！",
          "image_count": 0,
          "image_urls": null,
          "local_image_paths": null,
          "replied_at": "2025-08-07 01:12:20"
        }
      ]
    },
    {
      "id": 224,
      "post_uuid": "019881fb-81e7-f6b2-fcc3-a85ab49e9abe",
      "title_ko": null,
      "title_zh": null,
      "content_ko": "언니, 드라마에서 해보고 싶은 역할 있어요~?😌♥️\n나는 의사역🧑🏻‍⚕️이나 경찰역👮🏻 하는 언니가 보고싶어요‼︎",
      "content_zh": "姐姐，有没有想在电视剧里尝试的角色呀~？😌♥️\n我好想看你演医生👩🏻‍⚕️或者警察👮🏻的角色啊‼︎",
      "post_time": "2025-08-07 00:43:20",
      "image_count": 0,
      "image_urls": null,
      "local_image_paths": null,
      "likes": 0,
      "comments": 0,
      "views": 0,
      "board": "Dear. IU",
      "members_only": 0,
      "author_username": "채현^ㅅ^",
      "author_avatar": "https://dearimage.iu101.org/images/avatars/avatar_366.jpeg",
      "author_local_avatar": "https://dearimage.iu101.org/images/avatars/avatar_366.jpeg",
      "fan_comments": [],
      "direct_iu_replies": [
        {
          "id": 887,
          "content_ko": "나 선생님!! 좀 쌩뚱 맞나?",
          "content_zh": "我老师！！有点突然吗？",
          "image_count": 0,
          "image_urls": null,
          "local_image_paths": null,
          "replied_at": "2025-08-07 01:13:17"
        }
      ]
    },
    {
      "id": 223,
      "post_uuid": "019881df-9295-e8d9-823b-8275b7be5800",
      "title_ko": null,
      "title_zh": null,
      "content_ko": "올림 머리 좋아하는 사람 여기여기 붙어라👍🏻\n언니 의견도 많이 반영되는 거예요?!",
      "content_zh": "喜欢盘发的人快来看这里👍🏻\n姐姐的意见也会被充分考虑吗？！",
      "post_time": "2025-08-07 00:12:49",
      "image_count": 3,
      "image_urls": "https://dearimage.iu101.org/images/posts/post_223_308298865.jpeg",
      "local_image_paths": "https://dearimage.iu101.org/images/posts/post_223_308298865.jpeg|https://dearimage.iu101.org/images/posts/post_223_303682904.jpeg|https://dearimage.iu101.org/images/posts/post_223_303823180.jpeg",
      "likes": 0,
      "comments": 0,
      "views": 0,
      "board": "Dear. IU",
      "members_only": 0,
      "author_username": "말랑찹쌀떡",
      "author_avatar": "https://dearimage.iu101.org/images/avatars/avatar_29.jpeg",
      "author_local_avatar": "https://dearimage.iu101.org/images/avatars/avatar_29.jpeg",
      "fan_comments": [],
      "direct_iu_replies": [
        {
          "id": 886,
          "content_ko": "백프고 꽃비쌤과 광고주분들의 의견!",
          "content_zh": "白朴和花比老师还有广告方的意见！",
          "image_count": 0,
          "image_urls": null,
          "local_image_paths": null,
          "replied_at": "2025-08-07 01:14:49"
        }
      ]
    },
    {
      "id": 222,
      "post_uuid": "019881d4-0b12-c641-3ec9-dd318b13cced",
      "title_ko": null,
      "title_zh": null,
      "content_ko": "언니 오늘 쉬어요?",
      "content_zh": "姐姐今天休息吗？",
      "post_time": "2025-08-07 00:00:14",
      "image_count": 0,
      "image_urls": null,
      "local_image_paths": null,
      "likes": 0,
      "comments": 0,
      "views": 0,
      "board": "Dear. IU",
      "members_only": 0,
      "author_username": "cooky08",
      "author_avatar": null,
      "author_local_avatar": null,
      "fan_comments": [],
      "direct_iu_replies": [
        {
          "id": 885,
          "content_ko": "네\n오늘 쉬어요!",
          "content_zh": "是",
          "image_count": 0,
          "image_urls": null,
          "local_image_paths": null,
          "replied_at": "2025-08-07 01:15:16"
        }
      ]
    },
    {
      "id": 221,
      "post_uuid": "019881ce-6f77-0962-e41f-41009cec7376",
      "title_ko": null,
      "title_zh": null,
      "content_ko": "언니 요즘 요가 수업 너무 힘들어서 오늘은 가기 싫어요~",
      "content_zh": "姐姐最近瑜伽课太累，今天不想去了~",
      "post_time": "2025-08-06 23:54:06",
      "image_count": 0,
      "image_urls": null,
      "local_image_paths": null,
      "likes": 0,
      "comments": 0,
      "views": 0,
      "board": "Dear. IU",
      "members_only": 0,
      "author_username": "♡李知金사랑IU的CuiCui",
      "author_avatar": "https://dearimage.iu101.org/images/avatars/avatar_309.jpeg",
      "author_local_avatar": "https://dearimage.iu101.org/images/avatars/avatar_309.jpeg",
      "fan_comments": [],
      "direct_iu_replies": [
        {
          "id": 884,
          "content_ko": "그래도 다녀오면 뭔가 기분이 사아악 좋아지지 않아?",
          "content_zh": "但去了之后心情不是会变得很好吗？",
          "image_count": 0,
          "image_urls": null,
          "local_image_paths": null,
          "replied_at": "2025-08-07 01:16:02"
        }
      ]
    },
    {
      "id": 220,
      "post_uuid": "019881cc-db9b-e54f-7afe-c57857538a22",
      "title_ko": null,
      "title_zh": null,
      "content_ko": "아이유님 혹시 박보검님 팬미팅 간 날 셀카 올려주실수있나요!! 아니면 이담에 1200원 주고 팔았다든가!! 포스팅으로 올라온다든가!! 그 날 유독 공주님 같았던거 알죠?🥹",
      "content_zh": "IU欧尼，那天去朴宝剑欧尼粉丝见面会的时候能上传自拍吗？或者之后以1200韩元的价格卖掉？上传到帖子上也可以！那天你特别像公主的事情我知道哦？🥹",
      "post_time": "2025-08-06 23:52:23",
      "image_count": 0,
      "image_urls": null,
      "local_image_paths": null,
      "likes": 0,
      "comments": 0,
      "views": 0,
      "board": "Dear. IU",
      "members_only": 0,
      "author_username": "미니언",
      "author_avatar": "https://dearimage.iu101.org/images/avatars/avatar_89.gif",
      "author_local_avatar": "https://dearimage.iu101.org/images/avatars/avatar_89.gif",
      "fan_comments": [],
      "direct_iu_replies": [
        {
          "id": 883,
          "content_ko": "아이고! 공주 착장으로 찍은 건 없네애 잠깐만!",
          "content_zh": "哎呀！没有拍公主装扮的 等一下！",
          "image_count": 0,
          "image_urls": null,
          "local_image_paths": null,
          "replied_at": "2025-08-07 01:16:50"
        }
      ]
    },
    {
      "id": 219,
      "post_uuid": "019881cb-e130-209f-c3eb-32e1509feced",
      "title_ko": null,
      "title_zh": null,
      "content_ko": "유애나가 길에서 언니의 신용카드를 주워서 사용해도 용서해줄래요?? 그냥 맛있는 거 많이 먹어서 그동안 못 산 언니 굿즈 많이 살 것 같아🤭",
      "content_zh": "有爱娜捡到姐姐的信用卡使用的话，姐姐会原谅吗？？只是想买好吃的，把之前没买到的姐姐周边都买一遍呢🤭",
      "post_time": "2025-08-06 23:51:19",
      "image_count": 0,
      "image_urls": null,
      "local_image_paths": null,
      "likes": 0,
      "comments": 0,
      "views": 0,
      "board": "Dear. IU",
      "members_only": 0,
      "author_username": "♡토와♡",
      "author_avatar": "https://dearimage.iu101.org/images/avatars/avatar_215.jpeg",
      "author_local_avatar": "https://dearimage.iu101.org/images/avatars/avatar_215.jpeg",
      "fan_comments": [],
      "direct_iu_replies": [
        {
          "id": 882,
          "content_ko": "언니 이거 주워줬으니까 굿즈 사주세요 하면\n탈탈 털어 사주이이 모가 갖고 싶어 그래?",
          "content_zh": "姐姐这个捡到了 所以请买周边吧 如果这样说",
          "image_count": 0,
          "image_urls": null,
          "local_image_paths": null,
          "replied_at": "2025-08-07 01:17:58"
        }
      ]
    },
    {
      "id": 218,
      "post_uuid": "019881c9-f67f-660f-38c0-c8751b283c48",
      "title_ko": null,
      "title_zh": null,
      "content_ko": "언니는 일이 잘 안 풀리거나 실수했을 때, 어떻게 기분을 전환 하세요?\n저는 계속 그걸 뒤끝이 있는 편이라서ㅠㅠ 언니의 방법이 궁금해요🌀",
      "content_zh": "姐姐，当工作不顺利或者犯错的时候，你是怎么转换心情的呢？\n我总是比较容易纠结于这些事，所以很想知道姐姐的方法呢🌀",
      "post_time": "2025-08-06 23:49:13",
      "image_count": 0,
      "image_urls": null,
      "local_image_paths": null,
      "likes": 0,
      "comments": 0,
      "views": 0,
      "board": "Dear. IU",
      "members_only": 0,
      "author_username": "채현^ㅅ^",
      "author_avatar": "https://dearimage.iu101.org/images/avatars/avatar_366.jpeg",
      "author_local_avatar": "https://dearimage.iu101.org/images/avatars/avatar_366.jpeg",
      "fan_comments": [],
      "direct_iu_replies": [
        {
          "id": 881,
          "content_ko": "처음에는 이유를 찾죠\n이랬으면 달랐을까? 이걸 놓쳤나?\n그거다 결국 그렇게 될 일라 그렇게 됐구나..\n나 따위가 모든 걸 통제할 순 없구나 하고 겸허히 받아들이는 편이에요 ",
          "content_zh": "起初会去寻找原因，\n如果当时那样做了会不会有所不同？是不是忽略了什么？\n最终还是觉得，事情本来就会这样发展吧。\n我更倾向于谦虚地接受现实：像我这样的人，本来就没法掌控一切。",
          "image_count": 0,
          "image_urls": null,
          "local_image_paths": null,
          "replied_at": "2025-08-07 01:19:51"
        }
      ]
    },
    {
      "id": 217,
      "post_uuid": "019881b1-cae9-da58-6d2b-2adbad892792",
      "title_ko": null,
      "title_zh": null,
      "content_ko": "지은이누나! 지금도 치즈버거파 인가요?🤔\n햄버거를 앙하고 크게 한입 물은것 같은데 없어진 양은 조금이라 너무 귀여웠어요☺️ 누나 많이 잘 챙겨드세요~~\n누나가 건강해야 팬들도 마음이 행복해져요😀\n누나가 먹는 모습만 봐도 제가 다 배불러요💜\n김밥도 잘먹고 사랑스럽습니다😘💕",
      "content_zh": "智恩欧尼！现在也还是芝士汉堡派吗？🤔\n看起来像是啊呜一口咬下大汉堡的样子，但消失的分量却很少，太可爱了☺️ 欧尼要多吃点哦~~\n欧尼身体健康了粉丝们心里也会幸福呢😀\n光看着欧尼吃东西的样子我都觉得饱了💜\n紫菜包饭也吃得好，真可爱😘💕",
      "post_time": "2025-08-06 23:22:49",
      "image_count": 1,
      "image_urls": "https://dearimage.iu101.org/images/posts/post_217_310832772.jpeg",
      "local_image_paths": "https://dearimage.iu101.org/images/posts/post_217_310832772.jpeg",
      "likes": 0,
      "comments": 0,
      "views": 0,
      "board": "Dear. IU",
      "members_only": 0,
      "author_username": "푸국장",
      "author_avatar": null,
      "author_local_avatar": null,
      "fan_comments": [],
      "direct_iu_replies": [
        {
          "id": 880,
          "content_ko": "응! 어제도 점심으로 먹었어 생양파만 빼고 🤫",
          "content_zh": "嗯！昨天也是午餐吃的 除了生洋葱 🤫",
          "image_count": 0,
          "image_urls": null,
          "local_image_paths": null,
          "replied_at": "2025-08-07 01:22:11"
        }
      ]
    },
    {
      "id": 216,
      "post_uuid": "019881b1-395a-b7ef-d174-41db0c232058",
      "title_ko": null,
      "title_zh": null,
      "content_ko": "언니 요즘 올린 머리스타일이 많네요‼︎진짜 예뻐요♥️\n헤어스타일은 언니가 정하나요~? 언니는 머리를 올리는 거랑 내리는 거 어떤 게 더 좋아요?😻",
      "content_zh": "姐姐最近换的发型好多啊‼︎真的很好看♥️\n发型都是姐姐自己决定的吗~？姐姐更喜欢把头发扎起来还是放下来呢？😻",
      "post_time": "2025-08-06 23:22:12",
      "image_count": 0,
      "image_urls": null,
      "local_image_paths": null,
      "likes": 0,
      "comments": 0,
      "views": 0,
      "board": "Dear. IU",
      "members_only": 0,
      "author_username": "채현^ㅅ^",
      "author_avatar": "https://dearimage.iu101.org/images/avatars/avatar_366.jpeg",
      "author_local_avatar": "https://dearimage.iu101.org/images/avatars/avatar_366.jpeg",
      "fan_comments": [],
      "direct_iu_replies": [
        {
          "id": 879,
          "content_ko": "난 머리 올린 거! 머리 올린 게 짱이긴 해!\n하지만 결정권은 꽃비쌤께 있어 꽃비쌤은 그날 얼굴 컨디션 의상 메이크업 등을 다 반영해서 머리를 해주셔!",
          "content_zh": "我举手了！举手确实挺好的！\n不过决定权在花飞老师那里，花飞老师会根据当天的脸部状态、服装、妆容等综合考虑来给我做头发！",
          "image_count": 0,
          "image_urls": null,
          "local_image_paths": null,
          "replied_at": "2025-08-07 01:23:49"
        }
      ]
    },
    {
      "id": 215,
      "post_uuid": "019881a3-0dc6-3768-0a79-f408d700dc2d",
      "title_ko": null,
      "title_zh": null,
      "content_ko": "언니 최근에 가장 행복했던 순간 공유해줄 수 있어요??\n저는 언니가 베리즈에 온 지금 이 순간🥴",
      "content_zh": "姐姐，能和我分享一下你最近最幸福的时刻吗？？\n我现在姐姐来到贝里的这个瞬间就很幸福呢🥴",
      "post_time": "2025-08-06 23:06:43",
      "image_count": 0,
      "image_urls": null,
      "local_image_paths": null,
      "likes": 0,
      "comments": 0,
      "views": 0,
      "board": "Dear. IU",
      "members_only": 0,
      "author_username": "지우",
      "author_avatar": "https://dearimage.iu101.org/images/avatars/avatar_56.jpg",
      "author_local_avatar": "https://dearimage.iu101.org/images/avatars/avatar_56.jpg",
      "fan_comments": [],
      "direct_iu_replies": [
        {
          "id": 878,
          "content_ko": "난 처서.. 처서 기다린다..",
          "content_zh": "我在处暑..等处暑..",
          "image_count": 0,
          "image_urls": null,
          "local_image_paths": null,
          "replied_at": "2025-08-07 01:24:56"
        }
      ]
    },
    {
      "id": 238,
      "post_uuid": "01988048-737e-fb02-d96c-4d15c6cbb961",
      "title_ko": null,
      "title_zh": null,
      "content_ko": "언니, 만약에 요즘 기분으로 점수를 매긴다면 1~10점을 매긴다면 몇 점을 주시겠어요?🥰🥰🥰",
      "content_zh": "姐姐，如果用最近的心情打分，1-10分的话，会给几分呢？🥰🥰🥰",
      "post_time": "2025-08-06 16:48:08",
      "image_count": 0,
      "image_urls": null,
      "local_image_paths": null,
      "likes": 0,
      "comments": 0,
      "views": 0,
      "board": "Dear. IU",
      "members_only": 0,
      "author_username": "사어야",
      "author_avatar": null,
      "author_local_avatar": null,
      "fan_comments": [],
      "direct_iu_replies": [
        {
          "id": 901,
          "content_ko": "7-8이야!! 사어야는 어때?",
          "content_zh": "7-8月！！要买吗？",
          "image_count": 0,
          "image_urls": null,
          "local_image_paths": null,
          "replied_at": "2025-08-06 16:59:56"
        }
      ]
    }
  ]
}