{
  "page": 37,
  "totalPages": 45,
  "total": 895,
  "data": [
    {
      "id": 780,
      "post_uuid": "01971fb1-47e2-ac58-c9e2-b46c54208e76",
      "title_ko": null,
      "title_zh": null,
      "content_ko": "21세기 대군부인 촬영초반이신데 야외촬영이 많으신가요?  여름을 그다지 좋아하시지 않으신데 한여름에는 실내세트 촬영이 많으셨으면 좋겠어요. 아무쪼록 컨디션 조절 잘하시고 맛난것도 많이 드시면서 스케줄 잘 마치시길 바랄께요~ 아이유 참! 좋! 다!!!😊✨️🎶\n",
      "content_zh": "21世纪大君主夫人刚开始拍摄，户外拍摄很多吗？您不太喜欢夏天，希望盛夏的时候能多安排一些室内摄影棚的拍摄。无论如何，请好好调节状态，多吃些好吃的，顺利地完成日程~ IU真的太棒了！😊✨️🎶",
      "post_time": "2025-05-30 05:36:41",
      "image_count": 1,
      "image_urls": "https://dearimage.iu101.org/images/posts/post_780_44428731.jpg",
      "local_image_paths": "https://dearimage.iu101.org/images/posts/post_780_44428731.jpg",
      "likes": 0,
      "comments": 0,
      "views": 0,
      "board": "Dear. IU",
      "members_only": 0,
      "author_username": "내별",
      "author_avatar": "https://dearimage.iu101.org/images/avatars/avatar_92.jpg",
      "author_local_avatar": "https://dearimage.iu101.org/images/avatars/avatar_92.jpg",
      "fan_comments": [],
      "direct_iu_replies": [
        {
          "id": 1610,
          "content_ko": "요즘엔 다 야외가 대부분이고 6월 말쯤 세트 들어간다는 소식 🫶",
          "content_zh": "最近大部分都是户外拍摄，听说6月末会进摄影棚 🫶",
          "image_count": 0,
          "image_urls": null,
          "local_image_paths": null,
          "replied_at": "2025-05-30 06:14:08"
        }
      ]
    },
    {
      "id": 779,
      "post_uuid": "01971fb1-3197-ea0e-0f05-ef140f53d2bf",
      "title_ko": null,
      "title_zh": null,
      "content_ko": "언니 인스타에 올라온 네모의 꿈\n사진은 뭐였어요?? 이번 프로모 완전 감다살인데\n남은 떡밥이 더 있나요....?",
      "content_zh": "姐姐ins上发的《方梦》 照片是什么？这次宣传太绝了 还有什么剩余线索吗...？",
      "post_time": "2025-05-30 05:36:35",
      "image_count": 0,
      "image_urls": null,
      "local_image_paths": null,
      "likes": 0,
      "comments": 0,
      "views": 0,
      "board": "Dear. IU",
      "members_only": 0,
      "author_username": "마잉",
      "author_avatar": null,
      "author_local_avatar": null,
      "fan_comments": [],
      "direct_iu_replies": [
        {
          "id": 1609,
          "content_ko": "있지 있지 6월부터 작은 컨텐츠들!",
          "content_zh": "有的有的，从6月开始有小内容！",
          "image_count": 0,
          "image_urls": null,
          "local_image_paths": null,
          "replied_at": "2025-05-30 06:15:01"
        }
      ]
    },
    {
      "id": 778,
      "post_uuid": "01971fb1-28b3-c1d5-4ba0-f5a076f7215c",
      "title_ko": null,
      "title_zh": null,
      "content_ko": "언니네 가족 분들은 꽃갈피 앨범 어떻다고 하시나용?! \n특히 훈이님은 책갈피 앨범 중 머가 최애라고 하실지 ㅎㅎㅋㅋㅋㅋㅋㅋ 😗",
      "content_zh": "姐姐家人对花夹专辑感觉怎么样？ 特别是训儿最喜欢书签专辑里的哪个？呵呵呵呵呵呵 😗",
      "post_time": "2025-05-30 05:36:33",
      "image_count": 0,
      "image_urls": null,
      "local_image_paths": null,
      "likes": 0,
      "comments": 0,
      "views": 0,
      "board": "Dear. IU",
      "members_only": 0,
      "author_username": "말랑찹쌀떡",
      "author_avatar": "https://dearimage.iu101.org/images/avatars/avatar_29.jpeg",
      "author_local_avatar": "https://dearimage.iu101.org/images/avatars/avatar_29.jpeg",
      "fan_comments": [],
      "direct_iu_replies": [
        {
          "id": 1608,
          "content_ko": "훈이 최애 10월 4일!",
          "content_zh": "训儿最喜爱的10月4日！",
          "image_count": 0,
          "image_urls": null,
          "local_image_paths": null,
          "replied_at": "2025-05-30 06:15:37"
        }
      ]
    },
    {
      "id": 813,
      "post_uuid": "01971fa8-cc42-ef8b-5c4b-7f76d279f85c",
      "title_ko": null,
      "title_zh": null,
      "content_ko": "언니 불면증이 있어요, 어젯밤에 왜 안 잤어요?",
      "content_zh": "姐姐有失眠症吗？昨晚为什么不睡觉？",
      "post_time": "2025-05-30 05:27:25",
      "image_count": 0,
      "image_urls": null,
      "local_image_paths": null,
      "likes": 0,
      "comments": 0,
      "views": 0,
      "board": "Dear. IU",
      "members_only": 0,
      "author_username": "sesilia",
      "author_avatar": null,
      "author_local_avatar": null,
      "fan_comments": [],
      "direct_iu_replies": [
        {
          "id": 1644,
          "content_ko": "어제 촬영이 밤새 있었어🫨",
          "content_zh": "昨天的拍摄通宵了🫨",
          "image_count": 0,
          "image_urls": null,
          "local_image_paths": null,
          "replied_at": "2025-05-30 05:29:52"
        }
      ]
    },
    {
      "id": 812,
      "post_uuid": "01971fa8-bd0e-e8a2-f8ab-8bd11757bdb2",
      "title_ko": null,
      "title_zh": null,
      "content_ko": "언니 차은우님 얼굴은 정말 빛났나요? ㅋㅋㅋㅋㅋ",
      "content_zh": "姐姐车银优的脸真的很亮吗？哈哈哈",
      "post_time": "2025-05-30 05:27:21",
      "image_count": 0,
      "image_urls": null,
      "local_image_paths": null,
      "likes": 0,
      "comments": 0,
      "views": 0,
      "board": "Dear. IU",
      "members_only": 0,
      "author_username": "슝이",
      "author_avatar": null,
      "author_local_avatar": null,
      "fan_comments": [],
      "direct_iu_replies": [
        {
          "id": 1643,
          "content_ko": "시력 0.1 정두 떨어진 것 같아요 너무 빛나서 ",
          "content_zh": "视力0.1好像下降了，太闪了",
          "image_count": 0,
          "image_urls": null,
          "local_image_paths": null,
          "replied_at": "2025-05-30 05:30:56"
        }
      ]
    },
    {
      "id": 811,
      "post_uuid": "01971fa8-982e-caab-e36a-5874236b6909",
      "title_ko": null,
      "title_zh": null,
      "content_ko": "언니, 뮤직비디오 마지막 부분에 광고가 들어가요. 정말 들어있나요?",
      "content_zh": "姐姐，音乐录影带最后有广告吗。真的有吗？",
      "post_time": "2025-05-30 05:27:12",
      "image_count": 1,
      "image_urls": "https://dearimage.iu101.org/images/posts/post_811_1996857955.png",
      "local_image_paths": "https://dearimage.iu101.org/images/posts/post_811_1996857955.png",
      "likes": 0,
      "comments": 0,
      "views": 0,
      "board": "Dear. IU",
      "members_only": 0,
      "author_username": "Shane<3",
      "author_avatar": null,
      "author_local_avatar": null,
      "fan_comments": [],
      "direct_iu_replies": [
        {
          "id": 1642,
          "content_ko": "ㅋㅋㅋ없는 제품입니다",
          "content_zh": "哈哈没有这个产品",
          "image_count": 0,
          "image_urls": null,
          "local_image_paths": null,
          "replied_at": "2025-05-30 05:31:30"
        }
      ]
    },
    {
      "id": 810,
      "post_uuid": "01971fa8-9468-3fe5-90b5-57c408ae360a",
      "title_ko": null,
      "title_zh": null,
      "content_ko": "언니도 네모의 꿈 가사처럼 운세 자주 보나요?ㅋㅋㅋ 저는 자주가는 카페에서 주문 라벨지에 오늘의 운세 프린트 해주는 거 읽는 걸 좋아해요",
      "content_zh": "姐姐也像《 네모의 꿈》歌词里那样经常看运势吗？哈哈，我喜欢在常去的咖啡店，看订单标签纸上打印出来的今日运势。",
      "post_time": "2025-05-30 05:27:11",
      "image_count": 0,
      "image_urls": null,
      "local_image_paths": null,
      "likes": 0,
      "comments": 0,
      "views": 0,
      "board": "Dear. IU",
      "members_only": 0,
      "author_username": "마미뮤며친",
      "author_avatar": null,
      "author_local_avatar": null,
      "fan_comments": [],
      "direct_iu_replies": [
        {
          "id": 1641,
          "content_ko": "띠 운세 별자리 운세 가끔 보면.... 다 틀려 나만 그래? 🫨",
          "content_zh": "看看星座运势什么的偶尔看看....都错了就我这样？ 🫨",
          "image_count": 0,
          "image_urls": null,
          "local_image_paths": null,
          "replied_at": "2025-05-30 05:32:21"
        }
      ]
    },
    {
      "id": 809,
      "post_uuid": "01971fa8-5cf1-7616-1f7e-174c578ca716",
      "title_ko": null,
      "title_zh": null,
      "content_ko": "누나, 나 오늘 내 가장 친한 친구와 점심을 먹었어, 우리는 몇 년 동안 만나지 못했어, 그녀는 오늘 떠날거야, 곧 외지로 일하러 갈 거야, 우리 다음 만남은 언제인지 몰라, 아쉽게도 나는 사진을 찍지 않았지만, 앞으로 우리가 여러 번 만날 거라고 믿어😆",
      "content_zh": "姐姐，我今天和我最要好的朋友一起吃了午饭，我们好几年没见面了，她今天就要走了，很快要去外地工作，不知道下次见面是什么时候，遗憾的是我没有拍照，但我相信以后我们会经常见面的😆",
      "post_time": "2025-05-30 05:26:57",
      "image_count": 0,
      "image_urls": null,
      "local_image_paths": null,
      "likes": 0,
      "comments": 0,
      "views": 0,
      "board": "Dear. IU",
      "members_only": 0,
      "author_username": "dlwlrmaaaaa",
      "author_avatar": "https://dearimage.iu101.org/images/avatars/avatar_422.jpg",
      "author_local_avatar": "https://dearimage.iu101.org/images/avatars/avatar_422.jpg",
      "fan_comments": [],
      "direct_iu_replies": [
        {
          "id": 1640,
          "content_ko": "영화와 같은 일들이 이뤄져 가기를!",
          "content_zh": "愿如电影般的事情正在发生！",
          "image_count": 0,
          "image_urls": null,
          "local_image_paths": null,
          "replied_at": "2025-05-30 05:33:06"
        }
      ]
    },
    {
      "id": 808,
      "post_uuid": "01971fa8-46c3-f71d-60e8-476ad71deb53",
      "title_ko": null,
      "title_zh": null,
      "content_ko": "지은아, 제발. 제발 한 번만, 한 번만.",
      "content_zh": "知恩啊，拜托。拜托一次，就一次。",
      "post_time": "2025-05-30 05:26:51",
      "image_count": 0,
      "image_urls": null,
      "local_image_paths": null,
      "likes": 0,
      "comments": 0,
      "views": 0,
      "board": "Dear. IU",
      "members_only": 0,
      "author_username": "IU'sWifi",
      "author_avatar": null,
      "author_local_avatar": null,
      "fan_comments": [],
      "direct_iu_replies": [
        {
          "id": 1639,
          "content_ko": "왜 왜 어떻게 해주면 돼",
          "content_zh": "为什么为什么该怎么做才行",
          "image_count": 0,
          "image_urls": null,
          "local_image_paths": null,
          "replied_at": "2025-05-30 05:33:26"
        }
      ]
    },
    {
      "id": 807,
      "post_uuid": "01971fa8-3876-43c9-7479-619ef680795a",
      "title_ko": null,
      "title_zh": null,
      "content_ko": "李知恩请放下手机去吃饭🍽️然后睡觉🛌",
      "content_zh": "李知恩请放下手机去吃饭🍽️然后睡觉🛌",
      "post_time": "2025-05-30 05:26:47",
      "image_count": 0,
      "image_urls": null,
      "local_image_paths": null,
      "likes": 0,
      "comments": 0,
      "views": 0,
      "board": "Dear. IU",
      "members_only": 0,
      "author_username": "IU的ZZ",
      "author_avatar": null,
      "author_local_avatar": null,
      "fan_comments": [],
      "direct_iu_replies": [
        {
          "id": 1638,
          "content_ko": "넵!!!",
          "content_zh": "嗯！！！",
          "image_count": 0,
          "image_urls": null,
          "local_image_paths": null,
          "replied_at": "2025-05-30 05:33:41"
        }
      ]
    },
    {
      "id": 806,
      "post_uuid": "01971fa7-8bab-e334-f6a4-7a84551a047e",
      "title_ko": null,
      "title_zh": null,
      "content_ko": "언니~ 이번 컴백 콘텐츠 다 공개된 거 맞아요? 아직 더 보고 싶은데... (추가 영상 기대중이에요 🥺)",
      "content_zh": "姐姐~这次回归的内容都公开完了吗？还想再看...（期待追加视频 🥺）",
      "post_time": "2025-05-30 05:26:03",
      "image_count": 0,
      "image_urls": null,
      "local_image_paths": null,
      "likes": 0,
      "comments": 0,
      "views": 0,
      "board": "Dear. IU",
      "members_only": 0,
      "author_username": "....",
      "author_avatar": null,
      "author_local_avatar": null,
      "fan_comments": [],
      "direct_iu_replies": [
        {
          "id": 1637,
          "content_ko": "몇 개 더 있는데 좀 천천히 나올 예정이래! 지금은 아무래도 더 중요한 일들이 많은 시기이니까! 조금만 기다리면 컨텐츠들도 더 나올 거야😚",
          "content_zh": "还有几个，但要稍等一段时间才会陆续推出！因为现在毕竟有更多更重要的事情要做！再耐心等等，内容也会慢慢增加的😚",
          "image_count": 0,
          "image_urls": null,
          "local_image_paths": null,
          "replied_at": "2025-05-30 05:36:50"
        }
      ]
    },
    {
      "id": 805,
      "post_uuid": "01971fa7-7fc3-aecf-f8af-e941a76af7a4",
      "title_ko": null,
      "title_zh": null,
      "content_ko": "이렇게 글을 쓰는 게 참 떨리지만,\n꼭 한 번은 고마운 마음을 전하고 싶어서 용기 내어 몇 자 적어요.\n\n지은님의 노래, 목소리, 눈빛, 말투, 심지어 말 없는 순간까지도\n제 마음 깊은 곳을 어루만져주는 뮤즈 같아요.\n\n힘들고 지쳤던 날들 속에서 지은님의 노래를 듣고\n조금씩 다시 걸어갈 수 있었어요.\n그냥 “좋다”가 아니라 “살아있다”는 걸 느끼게 해주는 그런 존재에요.\n말로 다 표현 못할 만큼, 지은님 덕분에 위로도 받고, 꿈도 꾸고 있어요.\n\n앞으로도 계속 노래해줘서 고맙고,\n그 자체로 찬란한 존재인 지은님이\n늘 행복했으면 좋겠어요.\n\n언제나 조용히 응원하고 있을게요.\n그리고 오늘도 이렇게 말하고 싶어요.\n\n“태어나줘서 고맙고, 내 뮤즈가 되어줘서 고마워요.”\n\nWith all my heart,\n",
      "content_zh": "这样写下来真的很紧张，\n但还是想鼓起勇气写下几句话表达感谢的心情。\n\n智恩你的歌声、声音、眼神、语调，甚至无声的瞬间\n都像是抚慰我内心深处的缪斯。\n\n在那些艰难疲惫的日子里，听着智恩你的歌\n让我能够一点点重新站起来。\n你就是那个让我不仅仅感到\"很好\"，而是真正感受到\"活着\"的存在。\n无法用言语完全表达，因为智恩你我得到了安慰，也拥有了梦想。\n\n谢谢你今后也会继续唱歌，\n希望作为本身就璀璨存在的智恩\n永远幸福快乐。\n\n我会一直在默默地为你加油。\n今天我也想这样说：\n\n\"谢谢你来到这个世界，谢谢你成为我的缪斯。\"\n\nFrom the bottom of my heart,",
      "post_time": "2025-05-30 05:26:00",
      "image_count": 0,
      "image_urls": null,
      "local_image_paths": null,
      "likes": 0,
      "comments": 0,
      "views": 0,
      "board": "Dear. IU",
      "members_only": 0,
      "author_username": "명량한은둔생활",
      "author_avatar": null,
      "author_local_avatar": null,
      "fan_comments": [],
      "direct_iu_replies": [
        {
          "id": 1636,
          "content_ko": "살아있다를 느끼게 해준다니... 제가 더 고마워요🫶",
          "content_zh": "能让我感受到活着的感觉...我更感谢你🫶",
          "image_count": 0,
          "image_urls": null,
          "local_image_paths": null,
          "replied_at": "2025-05-30 05:37:51"
        }
      ]
    },
    {
      "id": 816,
      "post_uuid": "01971fa0-2e38-7509-506e-7901bec245db",
      "title_ko": null,
      "title_zh": null,
      "content_ko": "누나 시차적응하는 꿀팁 있나요?? 야간 편의점 알바를 하는데 시차적응이 안되서 다음날에 하루종일 자게 돼요ㅠㅠ",
      "content_zh": "姐姐有时差适应的小窍门吗？我在便利店上夜班，时差调不过来，第二天整天都在睡觉ㅠㅠ",
      "post_time": "2025-05-30 05:18:00",
      "image_count": 0,
      "image_urls": null,
      "local_image_paths": null,
      "likes": 0,
      "comments": 0,
      "views": 0,
      "board": "Dear. IU",
      "members_only": 0,
      "author_username": "신세아",
      "author_avatar": null,
      "author_local_avatar": null,
      "fan_comments": [],
      "direct_iu_replies": [
        {
          "id": 1647,
          "content_ko": "그건 그게 적응된 거 아니아?!",
          "content_zh": "那个不是适应了吗？！",
          "image_count": 0,
          "image_urls": null,
          "local_image_paths": null,
          "replied_at": "2025-05-30 05:18:46"
        }
      ]
    },
    {
      "id": 815,
      "post_uuid": "01971fa0-18ab-50a1-a3ae-c4da185b1233",
      "title_ko": null,
      "title_zh": null,
      "content_ko": "아이유 언니🤯운전면허증을 땄습니까? 만약 내가 잘못 기억하지 못한다면, 너의 운전 기술은 아직 향상되어야 하니, 다른 사람에게 네가 무면허 운전을 하고 있다는 것을 알리지 말아 줄래?🤔내 운전면허증을 빌려서 언니에게 쓸 수 있을지도 모르지만, 이건 불법인 것 같은데.",
      "content_zh": "IU姐姐...你考到驾照了吗？如果我没记错的话，你的驾驶技术还需要提高，所以能不能别让别人知道你无证驾驶呢？我虽然可以把我的驾照借给你用，但这好像是违法的。",
      "post_time": "2025-05-30 05:17:55",
      "image_count": 0,
      "image_urls": null,
      "local_image_paths": null,
      "likes": 0,
      "comments": 0,
      "views": 0,
      "board": "Dear. IU",
      "members_only": 0,
      "author_username": "복숭아나무susu^‥^",
      "author_avatar": "https://dearimage.iu101.org/images/avatars/avatar_504.jpg",
      "author_local_avatar": "https://dearimage.iu101.org/images/avatars/avatar_504.jpg",
      "fan_comments": [],
      "direct_iu_replies": [
        {
          "id": 1646,
          "content_ko": "안.땄.다",
          "content_zh": "没.破.",
          "image_count": 0,
          "image_urls": null,
          "local_image_paths": null,
          "replied_at": "2025-05-30 05:19:19"
        }
      ]
    },
    {
      "id": 823,
      "post_uuid": "01971f55-813a-ef78-68ef-e2d6aaffd635",
      "title_ko": null,
      "title_zh": null,
      "content_ko": "오늘 꿈에 지은이 나와따🥰💜기분좋은 금욜이얌",
      "content_zh": "今天梦里出现了智恩🥰💜愉快的周五",
      "post_time": "2025-05-30 03:56:26",
      "image_count": 0,
      "image_urls": null,
      "local_image_paths": null,
      "likes": 0,
      "comments": 0,
      "views": 0,
      "board": "Dear. IU",
      "members_only": 0,
      "author_username": "라라지으니",
      "author_avatar": null,
      "author_local_avatar": null,
      "fan_comments": [],
      "direct_iu_replies": [
        {
          "id": 1654,
          "content_ko": "꿈에 연예인 나오면 복권 사라잖아!",
          "content_zh": "梦见艺人就要买彩票啊！",
          "image_count": 0,
          "image_urls": null,
          "local_image_paths": null,
          "replied_at": "2025-05-30 05:06:03"
        }
      ]
    },
    {
      "id": 822,
      "post_uuid": "01971f4f-a652-6dd0-3c43-39ac9f7077f4",
      "title_ko": null,
      "title_zh": null,
      "content_ko": "언니, 요즘 얼굴에 여드름이 많이 나서 못생겨서 화장도 못 해요",
      "content_zh": "姐姐，最近脸上长了很多痘痘，变得不好看，连化妆都化不了。",
      "post_time": "2025-05-30 03:50:03",
      "image_count": 1,
      "image_urls": "https://dearimage.iu101.org/images/posts/post_822_167807572.jpg",
      "local_image_paths": "https://dearimage.iu101.org/images/posts/post_822_167807572.jpg",
      "likes": 0,
      "comments": 0,
      "views": 0,
      "board": "Dear. IU",
      "members_only": 0,
      "author_username": "IU의큰보물",
      "author_avatar": null,
      "author_local_avatar": null,
      "fan_comments": [],
      "direct_iu_replies": [
        {
          "id": 1653,
          "content_ko": "그럴 때가 있어 너무 스트레스 받으면 더 심해지니까 침구 잘 세탁하구 머리카락 얼굴에 안 딯게 조심해!! 정 안 되면 여드름 아니고 모낭염일 수 있으니 병원 가서 처방 받고 항생제라도 며칠 먹는 걸 추천해!!",
          "content_zh": "有时候压力太大的话会更严重，所以要勤洗床单被套，注意头发不要碰到脸！如果实在不行的话，可能不是痘痘而是毛囊炎，建议去医院开药，吃几天抗生素比较好！",
          "image_count": 0,
          "image_urls": null,
          "local_image_paths": null,
          "replied_at": "2025-05-30 05:09:19"
        }
      ]
    },
    {
      "id": 821,
      "post_uuid": "01971f4e-4af0-648d-01d3-4bffb5fce8cf",
      "title_ko": null,
      "title_zh": null,
      "content_ko": "언니 미인 뮤비 비하인드 사진 인스타에 올려줄 생각 있을까요..?-? !!",
      "content_zh": "姐姐会考虑把美人MV的幕后照片发到Instagram上吗？！",
      "post_time": "2025-05-30 03:48:34",
      "image_count": 0,
      "image_urls": null,
      "local_image_paths": null,
      "likes": 0,
      "comments": 0,
      "views": 0,
      "board": "Dear. IU",
      "members_only": 0,
      "author_username": "김현아",
      "author_avatar": null,
      "author_local_avatar": null,
      "fan_comments": [],
      "direct_iu_replies": [
        {
          "id": 1652,
          "content_ko": "있지 있지이!!",
          "content_zh": "有的有的！！",
          "image_count": 0,
          "image_urls": null,
          "local_image_paths": null,
          "replied_at": "2025-05-30 05:09:46"
        }
      ]
    },
    {
      "id": 820,
      "post_uuid": "01971f43-ee4e-96c8-6ba9-0a0dc7090388",
      "title_ko": null,
      "title_zh": null,
      "content_ko": "징니야 나는 어제 사전투표했서!! 근데 인증용지를 미리 준비할수가없어서 휴대폰에 냅다찍어떠><",
      "content_zh": "姐姐，我昨天提前投票了！！但是没办法提前准备证明文件，就直接用手机拍下来了><",
      "post_time": "2025-05-30 03:37:15",
      "image_count": 1,
      "image_urls": "https://dearimage.iu101.org/images/posts/post_820_1300701053.jpeg",
      "local_image_paths": "https://dearimage.iu101.org/images/posts/post_820_1300701053.jpeg",
      "likes": 0,
      "comments": 0,
      "views": 0,
      "board": "Dear. IU",
      "members_only": 0,
      "author_username": "슬기로운유애나생활",
      "author_avatar": null,
      "author_local_avatar": null,
      "fan_comments": [],
      "direct_iu_replies": [
        {
          "id": 1651,
          "content_ko": "ㅋㅋ앗 나도 어제 했는데 나도 저런 거 챙겨갈 걸!",
          "content_zh": "哈哈啊我也昨天做了，我也该带那种的！",
          "image_count": 0,
          "image_urls": null,
          "local_image_paths": null,
          "replied_at": "2025-05-30 05:11:11"
        }
      ]
    },
    {
      "id": 819,
      "post_uuid": "01971f38-3466-11f9-dacb-ec90a10c98db",
      "title_ko": null,
      "title_zh": null,
      "content_ko": "언니한테는 이제 그런 문제는 없을 것 같지만 그래도 언니한테 내 인생의 무의미한 허무함을 어떻게 극복해야 하는지 물어보고 싶어요. 진짜 많이 시달려요. 저는 아무것도 잘하지 못하고 행동력도 약한 것 같아요.아주 쓸모없는 사람인 것 같고 평소에 지루한 인생을 사는 것 같아요.",
      "content_zh": "姐姐应该已经没有这种问题了，但还是想问问姐姐该如何克服人生中那种无意义的空虚感。我真的被这个问题困扰很久了。我感觉自己什么都不擅长，行动力也很弱，就像个毫无用处的人，平时过着无聊的人生。",
      "post_time": "2025-05-30 03:24:26",
      "image_count": 1,
      "image_urls": "https://dearimage.iu101.org/images/posts/post_819_1119320642.jpeg",
      "local_image_paths": "https://dearimage.iu101.org/images/posts/post_819_1119320642.jpeg",
      "likes": 0,
      "comments": 0,
      "views": 0,
      "board": "Dear. IU",
      "members_only": 0,
      "author_username": "하나예요",
      "author_avatar": "https://dearimage.iu101.org/images/avatars/avatar_509.jpeg",
      "author_local_avatar": "https://dearimage.iu101.org/images/avatars/avatar_509.jpeg",
      "fan_comments": [],
      "direct_iu_replies": [
        {
          "id": 1650,
          "content_ko": "저도 그럴 때 있어요\n근데 우리가 꼭 뭘 대단히 해야 되나?! 그냥 멍 때리는 시간 좀 많고 덜 의욕적이면 안 되나??",
          "content_zh": "我也有这样的时候。\n但是我们真的非要做些什么了不起的事吗？就这样多花点时间发呆，少一点干劲不行吗？",
          "image_count": 0,
          "image_urls": null,
          "local_image_paths": null,
          "replied_at": "2025-05-30 05:13:55"
        }
      ]
    },
    {
      "id": 818,
      "post_uuid": "01971f35-34b3-1c31-24c3-b67de83534a5",
      "title_ko": null,
      "title_zh": null,
      "content_ko": "엉니~~~뭐 하고있어요\n나는 언니를 생각중~.~💗💗💗💗",
      "content_zh": "姐姐~~在做什么呢？我在想姐姐~ ~💗💗💗💗",
      "post_time": "2025-05-30 03:21:10",
      "image_count": 0,
      "image_urls": null,
      "local_image_paths": null,
      "likes": 0,
      "comments": 0,
      "views": 0,
      "board": "Dear. IU",
      "members_only": 0,
      "author_username": "注销的用户",
      "author_avatar": null,
      "author_local_avatar": null,
      "fan_comments": [],
      "direct_iu_replies": [
        {
          "id": 1649,
          "content_ko": "난 사실 자다 잠깐 깼어 밤 새고 아침에 들어왔고든 😀좀 더 자려고 해",
          "content_zh": "其实我睡着又醒了，熬夜到早上才进来 😀想再睡会儿",
          "image_count": 0,
          "image_urls": null,
          "local_image_paths": null,
          "replied_at": "2025-05-30 05:15:28"
        }
      ]
    }
  ]
}