{
  "page": 12,
  "totalPages": 45,
  "total": 895,
  "data": [
    {
      "id": 259,
      "post_uuid": "0198543d-a799-d76d-19ed-a7ca24a3a14e",
      "title_ko": null,
      "title_zh": null,
      "content_ko": "언니는 많은 색깔의 마이크를 가지고 있지만 항상 어떻게 골라？예쁘고 귀여운 색깔의 마이크를 많이 가지고 있지 ‼︎\n근데 요즘 실버가 많은 것 같아! 언니가 좋아하는거야 ⁇",
      "content_zh": "姐姐有很多颜色的麦克风，但总是怎么挑选呢？漂亮可爱的颜色的麦克风也有很多！\n不过最近银色的好像比较多！是姐姐喜欢的吗？",
      "post_time": "2025-07-29 03:33:03",
      "image_count": 0,
      "image_urls": null,
      "local_image_paths": null,
      "likes": 0,
      "comments": 0,
      "views": 0,
      "board": "Dear. IU",
      "members_only": 0,
      "author_username": "♡토와♡",
      "author_avatar": "https://dearimage.iu101.org/images/avatars/avatar_215.jpeg",
      "author_local_avatar": "https://dearimage.iu101.org/images/avatars/avatar_215.jpeg",
      "fan_comments": [],
      "direct_iu_replies": [
        {
          "id": 937,
          "content_ko": "응 실버가 어떤 의상에도 무난하게 잘 어울리고 \n소리도 어떤 홀에서나 부드럽게 잘 묻는 기종이야!",
          "content_zh": "嗯，银色的这款无论搭配什么服装都很合适，\n而且在任何大厅里声音都能柔和地很好地扩散！",
          "image_count": 0,
          "image_urls": null,
          "local_image_paths": null,
          "replied_at": "2025-07-29 04:08:07"
        }
      ]
    },
    {
      "id": 286,
      "post_uuid": "01985432-64d0-4fb8-26d8-11572ec48f64",
      "title_ko": null,
      "title_zh": null,
      "content_ko": "오늘도 희주로 살고 있을 징니\n희주팅 !!!!! (ง •̀_•́)ง 🩵",
      "content_zh": "今天也在以熙珠身份生活的知恩熙珠ting !!!!! (ง •̀_•́)ง 🩵",
      "post_time": "2025-07-29 03:20:45",
      "image_count": 0,
      "image_urls": null,
      "local_image_paths": null,
      "likes": 0,
      "comments": 0,
      "views": 0,
      "board": "Dear. IU",
      "members_only": 0,
      "author_username": "말랑찹쌀떡",
      "author_avatar": "https://dearimage.iu101.org/images/avatars/avatar_29.jpeg",
      "author_local_avatar": "https://dearimage.iu101.org/images/avatars/avatar_29.jpeg",
      "fan_comments": [],
      "direct_iu_replies": [
        {
          "id": 964,
          "content_ko": "오늘은!! 귀한 휴일 >.< \n찹쌀떡도 찹쌀팅!!!❤️",
          "content_zh": "今天是！！珍贵的休息日 >.< 糍粑也要糍粑力！！❤️",
          "image_count": 0,
          "image_urls": null,
          "local_image_paths": null,
          "replied_at": "2025-07-29 03:24:14"
        }
      ]
    },
    {
      "id": 285,
      "post_uuid": "01985430-d350-6fe1-d02a-cee2e2ffacbc",
      "title_ko": null,
      "title_zh": null,
      "content_ko": "지은이 누나! 날씨가 너무 뜨겁네요😅\n저는 냉면먹으러 왔어요~ 누나도 물냉파죠?\n점심식사 맛있게 하고 온열질환 걸리지 않게 수분섭취 충분히 하시고 오늘도 화이팅입니다✊",
      "content_zh": "知恩姐姐！天气太热了😅\n我来吃冷面~ 姐姐也喜欢水冷面吧？\n午饭好好吃，多补充水分，别中暑了，今天也要加油✊",
      "post_time": "2025-07-29 03:19:02",
      "image_count": 1,
      "image_urls": "https://dearimage.iu101.org/images/posts/post_285_655936924.jpeg",
      "local_image_paths": "https://dearimage.iu101.org/images/posts/post_285_655936924.jpeg",
      "likes": 0,
      "comments": 0,
      "views": 0,
      "board": "Dear. IU",
      "members_only": 0,
      "author_username": "푸국장",
      "author_avatar": null,
      "author_local_avatar": null,
      "fan_comments": [],
      "direct_iu_replies": [
        {
          "id": 963,
          "content_ko": "함흥이네!! 햐 오늘같은 날에는 함흥이지",
          "content_zh": "咸兴家！！呵 今天这种天气就该去咸兴",
          "image_count": 0,
          "image_urls": null,
          "local_image_paths": null,
          "replied_at": "2025-07-29 03:24:45"
        }
      ]
    },
    {
      "id": 284,
      "post_uuid": "0198542c-56a2-ca2c-4d45-3684ed8398b2",
      "title_ko": null,
      "title_zh": null,
      "content_ko": "이유 잘 지내고 있어요? 이번주 바빠서 자주 못본거 같은데 문득 생각나서 왔어요. 날이 너무 더우니 더위조심하구 반대로 냉방병도 조심해요!🔥 기력 떨어지면 삼계탕도 먹어가면서 해요!🍗 늘 안보이는 곳에서도 응원해요🥰",
      "content_zh": "理由，最近过得还好吗？这周好像很忙，没能经常见面，突然想起你就过来了。天气太热了，要注意防暑，反过来也要小心空调病哦！🔥 感觉体力下降的时候，记得喝点参鸡汤补补！🍗 在你看不到的地方也一直为你加油呢🥰",
      "post_time": "2025-07-29 03:14:08",
      "image_count": 0,
      "image_urls": null,
      "local_image_paths": null,
      "likes": 0,
      "comments": 0,
      "views": 0,
      "board": "Dear. IU",
      "members_only": 0,
      "author_username": "한시리",
      "author_avatar": null,
      "author_local_avatar": null,
      "fan_comments": [],
      "direct_iu_replies": [
        {
          "id": 962,
          "content_ko": "이번주 바빴구나 한시리님두 몸 잘 챙기고 시리팅!! ❤️",
          "content_zh": "这周真忙啊，韩时莉也好好照顾身体，加油！！❤️",
          "image_count": 0,
          "image_urls": null,
          "local_image_paths": null,
          "replied_at": "2025-07-29 03:25:48"
        }
      ]
    },
    {
      "id": 283,
      "post_uuid": "01985423-6d5a-df26-f625-ee656aedd358",
      "title_ko": null,
      "title_zh": null,
      "content_ko": "지은아~~~😉\nYou have a strawberry moon🍓🌙\n&\nI have a watermelon moon🍉🌙\n\n뜨거운 여름날의 수박과 달이 당신을 시원하게 해주길 바랍니다.🫶🏻❤️",
      "content_zh": "知恩啊~~~😉\n你有一个草莓月亮🍓🌙\n&\n我有一个西瓜月亮🍉🌙\n\n希望炎热夏日里的西瓜和月亮能让你感到清凉。🫶🏻❤️",
      "post_time": "2025-07-29 03:04:24",
      "image_count": 1,
      "image_urls": "https://dearimage.iu101.org/images/posts/post_283_327808206.jpeg",
      "local_image_paths": "https://dearimage.iu101.org/images/posts/post_283_327808206.jpeg",
      "likes": 0,
      "comments": 0,
      "views": 0,
      "board": "Dear. IU",
      "members_only": 0,
      "author_username": "灰大猪",
      "author_avatar": null,
      "author_local_avatar": null,
      "fan_comments": [],
      "direct_iu_replies": [
        {
          "id": 961,
          "content_ko": "워터멜론 문😍",
          "content_zh": "西瓜文😍",
          "image_count": 0,
          "image_urls": null,
          "local_image_paths": null,
          "replied_at": "2025-07-29 03:26:51"
        }
      ]
    },
    {
      "id": 282,
      "post_uuid": "0198541b-9f96-fa3d-efb2-7a6ba95f2c28",
      "title_ko": null,
      "title_zh": null,
      "content_ko": "아이유님 더운 날 물이나 음료 차가운거 드세요? 저는 음료수는 차가운거 마실수있는데 물은 안되더라구요? 물은 그냥 일반 상온에 놔둔 물만 마시거나 정수기 냉수에 온수 살짝 타요. 음료수는 되는데 왜 물은 안되는걸까요🤔🤔",
      "content_zh": "IU啊，这么热的天喝冰水或冷饮吗？我喝饮料的话可以喝冰的，但就是不能喝冰水。冰水只能喝常温放置的水，或者在净水器冷水里稍微兑点热水。为什么饮料可以喝冰的，水就不行呢🤔🤔",
      "post_time": "2025-07-29 02:55:53",
      "image_count": 0,
      "image_urls": null,
      "local_image_paths": null,
      "likes": 0,
      "comments": 0,
      "views": 0,
      "board": "Dear. IU",
      "members_only": 0,
      "author_username": "미니언",
      "author_avatar": "https://dearimage.iu101.org/images/avatars/avatar_89.gif",
      "author_local_avatar": "https://dearimage.iu101.org/images/avatars/avatar_89.gif",
      "fan_comments": [],
      "direct_iu_replies": [
        {
          "id": 960,
          "content_ko": "나는 짠 거 먹었을 때만 보통 찬물을 마셔!\n평상시에는 늘 미지근한 물! ",
          "content_zh": "只有吃咸的时候才喝冷水！平时总是喝温水！",
          "image_count": 0,
          "image_urls": null,
          "local_image_paths": null,
          "replied_at": "2025-07-29 03:28:30"
        }
      ]
    },
    {
      "id": 281,
      "post_uuid": "01985416-56f2-6d49-c1ed-66c6ce8178b9",
      "title_ko": null,
      "title_zh": null,
      "content_ko": "언니 언니 언니!!! 드디어 7개월 동안 준비한 큰 프로젝트가 끝났어요!! 😭\n처음으로 팀장을 맡아서 정말 많이 떨리고 자신도 없었는데… 준비하는 내내 쉽지 않아서 많이 울기도 했어요 🥺\n그래도 무사히 잘 마무리돼서 지금은 마음이 놓여요!\n\n언니가 잘했어 한마디만 해주면 진짜 완전 치유될 것 같아요… 간절히 기다릴게요 언니… 제발요!!! 💜🙏🏼😭",
      "content_zh": "姐姐姐姐姐姐！！！ 终于结束了历时7个月准备的大项目！！！😭\n第一次担任组长，真的非常紧张也没有自信… 准备期间很不容易，经常哭 🥺\n不过好在顺利完成了，现在心里总算踏实了！\n\n只要姐姐说一句你做得很好，我就能完全被治愈… 会迫切期待着的姐姐… 拜托了！！！💜🙏🏼😭",
      "post_time": "2025-07-29 02:50:06",
      "image_count": 0,
      "image_urls": null,
      "local_image_paths": null,
      "likes": 0,
      "comments": 0,
      "views": 0,
      "board": "Dear. IU",
      "members_only": 0,
      "author_username": "Zazu's핫딸기차",
      "author_avatar": "https://dearimage.iu101.org/images/avatars/avatar_48.jpeg",
      "author_local_avatar": "https://dearimage.iu101.org/images/avatars/avatar_48.jpeg",
      "fan_comments": [],
      "direct_iu_replies": [
        {
          "id": 959,
          "content_ko": "우리 핫팀장님!! 잘했어요!! 😍😍😍",
          "content_zh": "我们热血组长！！做得好！！😍😍😍",
          "image_count": 0,
          "image_urls": null,
          "local_image_paths": null,
          "replied_at": "2025-07-29 03:29:27"
        }
      ]
    },
    {
      "id": 280,
      "post_uuid": "0198540e-a34e-363b-cc4a-d5fd4d6af076",
      "title_ko": null,
      "title_zh": null,
      "content_ko": "온니 넘 덥지ㅠㅠㅠㅠㅠㅠ 물 많이 마셔요 꼭\n언니는 냉모밀이 좋을까 냉면이 좋을까..? 급 궁금..",
      "content_zh": "姐姐太热了ㅠㅠㅠㅠㅠㅠ 多喝水哦一定冷面和冷麦面哪个更好吃..？突然好奇..",
      "post_time": "2025-07-29 02:41:42",
      "image_count": 0,
      "image_urls": null,
      "local_image_paths": null,
      "likes": 0,
      "comments": 0,
      "views": 0,
      "board": "Dear. IU",
      "members_only": 0,
      "author_username": "쏭이얌",
      "author_avatar": null,
      "author_local_avatar": null,
      "fan_comments": [],
      "direct_iu_replies": [
        {
          "id": 958,
          "content_ko": "나는 냉면 추천!! 냉면에 만두 ㄱㄱ!!",
          "content_zh": "我推荐冷面！！冷面配馒头走起！！",
          "image_count": 0,
          "image_urls": null,
          "local_image_paths": null,
          "replied_at": "2025-07-29 03:30:15"
        }
      ]
    },
    {
      "id": 279,
      "post_uuid": "019853f6-3299-15e1-ed5e-5783b3b1e4d3",
      "title_ko": null,
      "title_zh": null,
      "content_ko": "언니는 드라마 촬영장의 다른 배우들이나 분들과는 친해질 수 있었어??\n아직도 낯을 가리니? 낯가리는 언니도 너무 귀여워~\n언니가 즐겁게 촬영하고 있는지 궁금하다~",
      "content_zh": "姐姐能和电视剧拍摄现场的其他演员或工作人员亲近起来吗？\n还是会觉得害羞吗？害羞的姐姐也太可爱了~\n很想知道姐姐是不是拍得很开心呢~",
      "post_time": "2025-07-29 02:15:00",
      "image_count": 0,
      "image_urls": null,
      "local_image_paths": null,
      "likes": 0,
      "comments": 0,
      "views": 0,
      "board": "Dear. IU",
      "members_only": 0,
      "author_username": "♡토와♡",
      "author_avatar": "https://dearimage.iu101.org/images/avatars/avatar_215.jpeg",
      "author_local_avatar": "https://dearimage.iu101.org/images/avatars/avatar_215.jpeg",
      "fan_comments": [],
      "direct_iu_replies": [
        {
          "id": 957,
          "content_ko": "응 이제 다들 편해졌어~~~!  \n즐거운 현장이야!",
          "content_zh": "嗯现在大家都放松了~~~！是愉快的现场！",
          "image_count": 0,
          "image_urls": null,
          "local_image_paths": null,
          "replied_at": "2025-07-29 03:32:58"
        }
      ]
    },
    {
      "id": 278,
      "post_uuid": "019853d4-9b85-d85d-1d0b-d2c240662fe2",
      "title_ko": null,
      "title_zh": null,
      "content_ko": "언니가 지금까지 받은 많은 트로피들은 어떻게 관리해??\n회사에 있어? 언니네 집에 있어 ⁇\n분명 언니의 노력이 빛나고 있네‼︎ 유애나가 보면 더 언니가 자랑스러워질 거예요🤭🤍",
      "content_zh": "姐姐到现在获得的很多奖杯都是怎么保管的？？\n在公司吗？还是在姐姐家里？？\n这肯定是姐姐努力的成果呀‼︎ 有娜看到的话会更以姐姐为傲的🤭🤍",
      "post_time": "2025-07-29 01:38:19",
      "image_count": 0,
      "image_urls": null,
      "local_image_paths": null,
      "likes": 0,
      "comments": 0,
      "views": 0,
      "board": "Dear. IU",
      "members_only": 0,
      "author_username": "♡토와♡",
      "author_avatar": "https://dearimage.iu101.org/images/avatars/avatar_215.jpeg",
      "author_local_avatar": "https://dearimage.iu101.org/images/avatars/avatar_215.jpeg",
      "fan_comments": [],
      "direct_iu_replies": [
        {
          "id": 956,
          "content_ko": "몇 개 제외하고는 다 본가에 있어!",
          "content_zh": "除了几个之外都在本家！",
          "image_count": 0,
          "image_urls": null,
          "local_image_paths": null,
          "replied_at": "2025-07-29 03:34:37"
        }
      ]
    },
    {
      "id": 289,
      "post_uuid": "0198344c-fd97-6e4e-5beb-4c1e88678ac1",
      "title_ko": null,
      "title_zh": null,
      "content_ko": "언니 빙수는 무슨 맛을 좋아해요?",
      "content_zh": "姐姐喜欢什么口味的刨冰？",
      "post_time": "2025-07-22 22:41:57",
      "image_count": 0,
      "image_urls": null,
      "local_image_paths": null,
      "likes": 0,
      "comments": 0,
      "views": 0,
      "board": "Dear. IU",
      "members_only": 0,
      "author_username": "うさぎ",
      "author_avatar": "https://dearimage.iu101.org/images/avatars/avatar_43.jpeg",
      "author_local_avatar": "https://dearimage.iu101.org/images/avatars/avatar_43.jpeg",
      "fan_comments": [],
      "direct_iu_replies": [
        {
          "id": 967,
          "content_ko": "나는 그냥 팥빙수!!",
          "content_zh": "我就吃红豆冰沙！！",
          "image_count": 0,
          "image_urls": null,
          "local_image_paths": null,
          "replied_at": "2025-07-22 22:43:25"
        }
      ]
    },
    {
      "id": 288,
      "post_uuid": "0198344c-b349-a439-cec0-35206ccd4a23",
      "title_ko": null,
      "title_zh": null,
      "content_ko": "언니, 혹시 오늘도 체크 셔츠 입고 있어요??\n나는 알고있어~ 언제나 언니가 입고있으니까🤭\n오늘은 어떤 체크셔츠를 골랐어~??",
      "content_zh": "姐姐，今天也穿格子衬衫吗？我知道~因为姐姐总是穿着呢🤭今天选了什么样的格子衬衫~？",
      "post_time": "2025-07-22 22:41:38",
      "image_count": 0,
      "image_urls": null,
      "local_image_paths": null,
      "likes": 0,
      "comments": 0,
      "views": 0,
      "board": "Dear. IU",
      "members_only": 0,
      "author_username": "♡토와♡",
      "author_avatar": "https://dearimage.iu101.org/images/avatars/avatar_215.jpeg",
      "author_local_avatar": "https://dearimage.iu101.org/images/avatars/avatar_215.jpeg",
      "fan_comments": [],
      "direct_iu_replies": [
        {
          "id": 966,
          "content_ko": "나 오늘은 초록 셔츠!!!",
          "content_zh": "我今天穿绿色衬衫！！！",
          "image_count": 0,
          "image_urls": null,
          "local_image_paths": null,
          "replied_at": "2025-07-22 22:44:17"
        }
      ]
    },
    {
      "id": 287,
      "post_uuid": "01983447-8cfb-f57a-6cdf-4a29aac52c1e",
      "title_ko": null,
      "title_zh": null,
      "content_ko": "슬슬 다들 일어나고 있는 것 같은데요\n넘 늦게까지 일하셨는데 왜 이렇게 일찍 일어나서 애나님들이랑 대화를 하세요, 푹 주무시고 일어나서 하세요 건강하셔야죠",
      "content_zh": "大家好像都渐渐起床了呢。\n您工作到这么晚，为什么这么早起来和孩子们说话呢？好好睡一觉再起来聊天吧，您要保重身体啊。",
      "post_time": "2025-07-22 22:36:01",
      "image_count": 0,
      "image_urls": null,
      "local_image_paths": null,
      "likes": 0,
      "comments": 0,
      "views": 0,
      "board": "Dear. IU",
      "members_only": 0,
      "author_username": "복아유~",
      "author_avatar": null,
      "author_local_avatar": null,
      "fan_comments": [],
      "direct_iu_replies": [
        {
          "id": 965,
          "content_ko": "일 해야 하니까!! 🤗 \n쉬는 날 푹~ 쉴게요 걱정해 줘서 고마워요 마음 따뜻💚",
          "content_zh": "因为要工作嘛！！🤗 工作日好好休息，谢谢大家的关心，心里暖暖的💚",
          "image_count": 0,
          "image_urls": null,
          "local_image_paths": null,
          "replied_at": "2025-07-22 22:48:23"
        }
      ]
    },
    {
      "id": 297,
      "post_uuid": "01982088-c9a8-5262-b6f5-12a545c8e277",
      "title_ko": null,
      "title_zh": null,
      "content_ko": "앜ㅋㅋㅋㅋㅋ 맞는 말인데 넘 웃기더🥰 블링블링🥰",
      "content_zh": "哈哈哈 确实是实话 但太好笑了🥰 闪闪发亮🥰",
      "post_time": "2025-07-19 02:34:52",
      "image_count": 1,
      "image_urls": "https://dearimage.iu101.org/images/posts/post_297_788999608.png",
      "local_image_paths": "https://dearimage.iu101.org/images/posts/post_297_788999608.png",
      "likes": 0,
      "comments": 0,
      "views": 0,
      "board": "Dear. IU",
      "members_only": 0,
      "author_username": "뽀쨜님",
      "author_avatar": "https://dearimage.iu101.org/images/avatars/avatar_337.jpeg",
      "author_local_avatar": "https://dearimage.iu101.org/images/avatars/avatar_337.jpeg",
      "fan_comments": [],
      "direct_iu_replies": [
        {
          "id": 1019,
          "content_ko": "노랑 아니고 형광인데애애애애 네온옐로우 🥺",
          "content_zh": "不是黄色，是荧光，霓虹黄 🥺",
          "image_count": 0,
          "image_urls": null,
          "local_image_paths": null,
          "replied_at": "2025-07-19 02:36:34"
        }
      ]
    },
    {
      "id": 296,
      "post_uuid": "01982084-59d3-9a85-d10a-cf1dc5fb65a9",
      "title_ko": null,
      "title_zh": null,
      "content_ko": "드레스는 언니가 직접 고른거야??\n예쁜 드레스도 정말 잘 어울리더라구~\n팅커벨 같아서 너무 귀여웠다🧚🤍\n언니는 유나의 공주야~",
      "content_zh": "这条裙子是姐姐亲自挑选的吗？\n漂亮的裙子真的非常适合你呢~\n像小仙女一样可爱极了🧚🤍\n姐姐就是优娜的公主~",
      "post_time": "2025-07-19 02:30:01",
      "image_count": 0,
      "image_urls": null,
      "local_image_paths": null,
      "likes": 0,
      "comments": 0,
      "views": 0,
      "board": "Dear. IU",
      "members_only": 0,
      "author_username": "♡토와♡",
      "author_avatar": "https://dearimage.iu101.org/images/avatars/avatar_215.jpeg",
      "author_local_avatar": "https://dearimage.iu101.org/images/avatars/avatar_215.jpeg",
      "fan_comments": [],
      "direct_iu_replies": [
        {
          "id": 1018,
          "content_ko": "이번에 입고 싶은 드레스가 정말 많았어! 오랜만에 파스텔 톤 입으면 좋아할 것 같아서 마지막에 바꿨어!!",
          "content_zh": "这次想穿的裙子真的很多！好久没穿柔和色调了，感觉应该会喜欢，最后换了！",
          "image_count": 0,
          "image_urls": null,
          "local_image_paths": null,
          "replied_at": "2025-07-19 02:38:25"
        }
      ]
    },
    {
      "id": 295,
      "post_uuid": "0198207e-53fd-2ec7-4c90-8f7d1c8ef741",
      "title_ko": null,
      "title_zh": null,
      "content_ko": "아이유님 혹시 어제 청룡에서 네컷 사진 찍었어용? 기계가 몇대 없었으면 못찍었을수도있을거같은데😖",
      "content_zh": "IU啊，你昨天在青龙拍了四张照片吗？机器好像没几台，可能拍不了呢😖",
      "post_time": "2025-07-19 02:23:26",
      "image_count": 1,
      "image_urls": "https://dearimage.iu101.org/images/posts/post_295_1478430355.jpg",
      "local_image_paths": "https://dearimage.iu101.org/images/posts/post_295_1478430355.jpg",
      "likes": 0,
      "comments": 0,
      "views": 0,
      "board": "Dear. IU",
      "members_only": 0,
      "author_username": "미니언",
      "author_avatar": "https://dearimage.iu101.org/images/avatars/avatar_89.gif",
      "author_local_avatar": "https://dearimage.iu101.org/images/avatars/avatar_89.gif",
      "fan_comments": [],
      "direct_iu_replies": [
        {
          "id": 1017,
          "content_ko": "찍었어 두 번이나 찍었어",
          "content_zh": "拍了，拍了两次",
          "image_count": 0,
          "image_urls": null,
          "local_image_paths": null,
          "replied_at": "2025-07-19 02:39:07"
        }
      ]
    },
    {
      "id": 294,
      "post_uuid": "0198207d-90a7-be90-ac6e-7ec913511bc9",
      "title_ko": null,
      "title_zh": null,
      "content_ko": "언니 오늘은 기분이 너무 좋아??\n나도 기분이 너~~~~~무 좋아‼︎\n오늘은 많은 기쁜 선물을 유애나에게 주어서 고마워\n언니가 제일 예뻐서 빛났어‼︎ 언니는 유나의 자랑이야 ‼︎\n정말 축하해💗💗💗💗",
      "content_zh": "姐姐今天心情特别好吗？？\n我心情也超级好‼︎\n今天给유애나这么多开心的礼物，谢谢你\n姐姐最漂亮了，闪闪发光‼︎ 姐姐是유나的骄傲‼︎\n真的恭喜你💗💗💗💗",
      "post_time": "2025-07-19 02:22:36",
      "image_count": 0,
      "image_urls": null,
      "local_image_paths": null,
      "likes": 0,
      "comments": 0,
      "views": 0,
      "board": "Dear. IU",
      "members_only": 0,
      "author_username": "♡토와♡",
      "author_avatar": "https://dearimage.iu101.org/images/avatars/avatar_215.jpeg",
      "author_local_avatar": "https://dearimage.iu101.org/images/avatars/avatar_215.jpeg",
      "fan_comments": [],
      "direct_iu_replies": [
        {
          "id": 1016,
          "content_ko": "잠깐 깨가지고 들렀는데 다들 축하해 주니 너무 고맙네 🩵 나는 오늘 휴일이거든!! 좀만 더 자고 올게!! 잘 놀고 있어어🥰",
          "content_zh": "只是醒了一会儿过来，大家祝贺我太感谢了 🩵 我今天休息！！再睡一会儿就上来！！玩得开心🥰",
          "image_count": 0,
          "image_urls": null,
          "local_image_paths": null,
          "replied_at": "2025-07-19 02:40:48"
        }
      ]
    },
    {
      "id": 299,
      "post_uuid": "019802a2-2b5a-1777-faf0-ee3c7333a347",
      "title_ko": null,
      "title_zh": null,
      "content_ko": "누나! 그.. 바이서머 혹시 정식 발매 하실건가요.. ㅎㅎ 여름이 끝나가네요",
      "content_zh": "姐姐！那个...Vaisummer会正式发售吗？呵呵，夏天快结束了呢。",
      "post_time": "2025-07-13 07:13:59",
      "image_count": 0,
      "image_urls": null,
      "local_image_paths": null,
      "likes": 0,
      "comments": 0,
      "views": 0,
      "board": "Dear. IU",
      "members_only": 0,
      "author_username": "hoonigan",
      "author_avatar": null,
      "author_local_avatar": null,
      "fan_comments": [],
      "direct_iu_replies": [
        {
          "id": 1043,
          "content_ko": "여름은... 이제 시작이야....🥹",
          "content_zh": "夏天...才刚刚开始....🥹",
          "image_count": 0,
          "image_urls": null,
          "local_image_paths": null,
          "replied_at": "2025-07-13 07:23:16"
        }
      ]
    },
    {
      "id": 311,
      "post_uuid": "0197fda4-7bea-8d70-9fbd-5a12952ac329",
      "title_ko": null,
      "title_zh": null,
      "content_ko": "언니는 여행 가면 조금 힘들어도 하나라도 많이 여러곳을 가는편이에요? 아니면 천천히 가서 피곤해지면 바로 숙소에 돌아가는편이에요?🧳",
      "content_zh": "姐姐旅行的时候，是倾向于即使有点累也要多去几个地方呢？还是慢慢逛，一累了就马上回住宿的地方？🧳",
      "post_time": "2025-07-12 07:58:24",
      "image_count": 0,
      "image_urls": null,
      "local_image_paths": null,
      "likes": 0,
      "comments": 0,
      "views": 0,
      "board": "Dear. IU",
      "members_only": 0,
      "author_username": "미레짱",
      "author_avatar": "https://dearimage.iu101.org/images/avatars/avatar_173.jpeg",
      "author_local_avatar": "https://dearimage.iu101.org/images/avatars/avatar_173.jpeg",
      "fan_comments": [],
      "direct_iu_replies": [
        {
          "id": 1055,
          "content_ko": "같이 간 사람들 분위기에 맞추는 편인데 저는 피곤하면 숙소 가는 걸 좋아해요 🤫",
          "content_zh": "我比较会配合同行的人的氛围，但我累了的话喜欢回住宿的地方 🤫",
          "image_count": 0,
          "image_urls": null,
          "local_image_paths": null,
          "replied_at": "2025-07-12 07:59:57"
        }
      ]
    },
    {
      "id": 310,
      "post_uuid": "0197fda3-d8cb-b607-8f5f-9af39bfd6b5b",
      "title_ko": null,
      "title_zh": null,
      "content_ko": "언니! 제 이름이 제비꽃인데 (일본어로 스미레) 언니가 좋아하는 꽃이 제비꽃이라서 너무 좋아요🥹제 동생은 좀 특이하고 예쁜 이름이라서 가끔 부럽다고 생각했었는데 이젠  언니 덕분에 제 이름을 좋아하게 됐어요!! 앞으로는 내 이름은 지은언니가 좋아하는 이름이라고 자랑스럽게 생각해서 살게요 너무너무 고마워요🥹💜",
      "content_zh": "姐姐！我的名字叫紫花（日语叫すみれ），因为姐姐喜欢紫花，所以我特别开心🥹以前总觉得妹妹的名字很特别很漂亮，有时候会有点羡慕，但现在因为姐姐的缘故，我也开始喜欢自己的名字了！！以后我会自豪地想：我的名字是知恩姐姐喜欢的名字。真的真的太感谢了🥹💜",
      "post_time": "2025-07-12 07:57:42",
      "image_count": 0,
      "image_urls": null,
      "local_image_paths": null,
      "likes": 0,
      "comments": 0,
      "views": 0,
      "board": "Dear. IU",
      "members_only": 0,
      "author_username": "미레짱",
      "author_avatar": "https://dearimage.iu101.org/images/avatars/avatar_173.jpeg",
      "author_local_avatar": "https://dearimage.iu101.org/images/avatars/avatar_173.jpeg",
      "fan_comments": [],
      "direct_iu_replies": [
        {
          "id": 1054,
          "content_ko": "제비꽃이 일본어로 스미레구나! 잊지 않을 듯!! \n이름 너무 예뿌다 미레짱",
          "content_zh": "紫罗兰的日语是スミレ啊！应该不会忘记！！ 名字太好听了美玲酱",
          "image_count": 0,
          "image_urls": null,
          "local_image_paths": null,
          "replied_at": "2025-07-12 08:01:12"
        }
      ]
    }
  ]
}