{
  "page": 22,
  "totalPages": 45,
  "total": 895,
  "data": [
    {
      "id": 492,
      "post_uuid": "01979692-3f8b-cdf9-ca2a-c1045e12de7c",
      "title_ko": null,
      "title_zh": null,
      "content_ko": "지은언니 언니는 대본볼때 태블릿으로 봐요 아님 종이 대본으로 봐요?-?",
      "content_zh": "知恩姐姐，你看剧本时用平板看还是纸质剧本看？-？",
      "post_time": "2025-06-22 07:37:36",
      "image_count": 0,
      "image_urls": null,
      "local_image_paths": null,
      "likes": 0,
      "comments": 0,
      "views": 0,
      "board": "Dear. IU",
      "members_only": 0,
      "author_username": "김현아",
      "author_avatar": null,
      "author_local_avatar": null,
      "fan_comments": [],
      "direct_iu_replies": [
        {
          "id": 1318,
          "content_ko": "핸드폰으로 볼 때도 있는데 보통은 종이대본이요! ",
          "content_zh": "也有用手机看的，但通常是纸质剧本！",
          "image_count": 0,
          "image_urls": null,
          "local_image_paths": null,
          "replied_at": "2025-06-22 07:42:43"
        }
      ]
    },
    {
      "id": 495,
      "post_uuid": "01978fe2-d551-d8d1-e10e-228222f8fe5d",
      "title_ko": null,
      "title_zh": null,
      "content_ko": "너랑나 후주 깔끔한 버전 음원이나 클립으로 공개해 주시면 좋겠다 .. 🥹\n아이유 공연 피날레의 상징 같은 거기도 하고, 그 부분만 들으면 영원히 끝나지 않을 행복으로 달려가는 벅찬 기분이 들어서 진짜 너~무 좋아 ଘ(੭ˊᵕˋ)੭* ੈ✩‧₊˚ ",
      "content_zh": "希望你们能公开与IU合唱《后周》的干净版本音频或视频片段.. 🥹\n那里就像是IU演唱会结尾的象征一样，光是听到那一段就会涌起奔向永恒幸福的激动心情，真的太喜欢了 ଘ(੭ˊᵕˋ)੭* ੈ✩‧₊˚",
      "post_time": "2025-06-21 00:28:17",
      "image_count": 0,
      "image_urls": null,
      "local_image_paths": null,
      "likes": 0,
      "comments": 0,
      "views": 0,
      "board": "Dear. IU",
      "members_only": 0,
      "author_username": "말랑찹쌀떡",
      "author_avatar": "https://dearimage.iu101.org/images/avatars/avatar_29.jpeg",
      "author_local_avatar": "https://dearimage.iu101.org/images/avatars/avatar_29.jpeg",
      "fan_comments": [],
      "direct_iu_replies": [
        {
          "id": 1321,
          "content_ko": "그거 너무 좋지 🥹🥰🥰🥰 \n하지만 공연장에서만 들을 수 있어요😌",
          "content_zh": "那个太好了 🥹🥰🥰🥰",
          "image_count": 0,
          "image_urls": null,
          "local_image_paths": null,
          "replied_at": "2025-06-21 00:30:36"
        }
      ]
    },
    {
      "id": 494,
      "post_uuid": "01978fe2-59e8-f409-1a6e-cd558eb827be",
      "title_ko": null,
      "title_zh": null,
      "content_ko": "지은앙 난 좀 아까 퇴근했어ㅜㅠㅠ 어젯밤엔 환자가 갑자기 욕하고 화내서 너무 힘든밤이었어 ㅠㅠㅠ 아픈건 이해하지만 ㅠㅠ 이렇게까지 일을 해야하는건가 회의감이 들어... ㅠㅠㅠㅜ 푸우... 너무 지친다 ㅠㅠ 그래도 지은이 노래들으면서 겨우 또 하루를 버틸 수 있었어ㅜㅠㅠ 고마워ㅠㅠ ",
      "content_zh": "知恩啊，我刚才下班了呜呜呜 昨晚病人突然骂人发火，真是难熬的一夜呜呜呜 虽然理解他们生病了呜呜呜 但真的必须做到这种程度吗，让我感到很迷茫呜呜呜 呼...太累了呜呜呜 不过听了知恩的歌，勉强又撑过了一天呜呜呜 谢谢你呜呜呜",
      "post_time": "2025-06-21 00:27:45",
      "image_count": 0,
      "image_urls": null,
      "local_image_paths": null,
      "likes": 0,
      "comments": 0,
      "views": 0,
      "board": "Dear. IU",
      "members_only": 0,
      "author_username": "미미미루",
      "author_avatar": null,
      "author_local_avatar": null,
      "fan_comments": [],
      "direct_iu_replies": [
        {
          "id": 1320,
          "content_ko": "아이구..너무 고된 하루였겠다.. 얼른 좀 푹 쉬어\n편찮은 환자분을 이해하려는 모습이 프로답고 멋져!!\n Billy joel-Vienna \n내가 지칠 때마다 듣는 곡이야 가사가 위로가 되길 바라 푹 자 정말 고생했어💗",
          "content_zh": "哎呀，今天一定很辛苦了吧...赶紧好好休息一下吧\n想要理解身体不适的患者的样子真是专业又帅气！！\nBilly Joel - Vienna\n这是我疲惫时总会听的歌，希望歌词能给你安慰，好好睡一觉吧，真的辛苦了💗",
          "image_count": 0,
          "image_urls": null,
          "local_image_paths": null,
          "replied_at": "2025-06-21 00:34:37"
        }
      ]
    },
    {
      "id": 493,
      "post_uuid": "01978fe2-01cd-03bd-fec3-6649be8cbaf3",
      "title_ko": null,
      "title_zh": null,
      "content_ko": "지은님, 청원을 그만 내고 이제 좀 자요🙂‍↕️\n이따 배고프면 자고 싶어도 못 자요",
      "content_zh": "知恩，别再申请了，现在早点睡吧🙂‍↕️",
      "post_time": "2025-06-21 00:27:22",
      "image_count": 0,
      "image_urls": null,
      "local_image_paths": null,
      "likes": 0,
      "comments": 0,
      "views": 0,
      "board": "Dear. IU",
      "members_only": 0,
      "author_username": "유지중지",
      "author_avatar": null,
      "author_local_avatar": null,
      "fan_comments": [],
      "direct_iu_replies": [
        {
          "id": 1319,
          "content_ko": "알겠어요 흐름이 더 끊기기 전에 다시 잘게!\n한 쪽 눈 감고 쓰고 있었음 🥴 다시 잠들 수 있을 것 같아요!",
          "content_zh": "知道了，在思绪变得更混乱之前好好整理一下！\n刚才闭着一只眼睛写的 🥴 现在感觉又能重新入睡了！",
          "image_count": 0,
          "image_urls": null,
          "local_image_paths": null,
          "replied_at": "2025-06-21 00:36:36"
        }
      ]
    },
    {
      "id": 497,
      "post_uuid": "01978fde-3df6-25e7-2b09-64736b23b8aa",
      "title_ko": null,
      "title_zh": null,
      "content_ko": "진짜 부탁해… 제발\n내년에는 제일 크고 자리 제일 많은 공연장에서 하면 안 될까…?\n진짜 표 구하는 거 너무 힘들었어🙏🏻🥹♥️\n지은아🌸♥️\n",
      "content_zh": "真的拜托了... 拜托了\n明年能不能在最大、座位最多的演出厅举办呢...？\n真的太难买到票了🙏🏻🥹♥️\n知恩啊🌸♥️",
      "post_time": "2025-06-21 00:23:16",
      "image_count": 0,
      "image_urls": null,
      "local_image_paths": null,
      "likes": 0,
      "comments": 0,
      "views": 0,
      "board": "Dear. IU",
      "members_only": 0,
      "author_username": "엘사957",
      "author_avatar": null,
      "author_local_avatar": null,
      "fan_comments": [],
      "direct_iu_replies": [
        {
          "id": 1323,
          "content_ko": "예를 들어... 그게 오딜까..? 🥹",
          "content_zh": "比如...那个会来吗..? 🥹",
          "image_count": 0,
          "image_urls": null,
          "local_image_paths": null,
          "replied_at": "2025-06-21 00:23:46"
        }
      ]
    },
    {
      "id": 496,
      "post_uuid": "01978fde-02a1-12cd-7b8b-142358b19a34",
      "title_ko": null,
      "title_zh": null,
      "content_ko": "지은아, 만약에 파김치를 엄청 좋아하지 않는다면, 파전은 좋아해?",
      "content_zh": "知恩啊，如果不太喜欢韭菜泡菜的话，韭菜煎饼喜欢吗？",
      "post_time": "2025-06-21 00:23:01",
      "image_count": 0,
      "image_urls": null,
      "local_image_paths": null,
      "likes": 0,
      "comments": 0,
      "views": 0,
      "board": "Dear. IU",
      "members_only": 0,
      "author_username": "파김치",
      "author_avatar": "https://dearimage.iu101.org/images/avatars/avatar_39.jpeg",
      "author_local_avatar": "https://dearimage.iu101.org/images/avatars/avatar_39.jpeg",
      "fan_comments": [],
      "direct_iu_replies": [
        {
          "id": 1322,
          "content_ko": "파전은 최고지~~~~!",
          "content_zh": "泡饼最棒了~~~~!",
          "image_count": 0,
          "image_urls": null,
          "local_image_paths": null,
          "replied_at": "2025-06-21 00:24:13"
        }
      ]
    },
    {
      "id": 509,
      "post_uuid": "01978fba-4859-05b0-3e71-9698c0572e43",
      "title_ko": null,
      "title_zh": null,
      "content_ko": "Can I see you in concert? 😭… I hope ",
      "content_zh": "我能在演唱会上见到你吗？😭…希望如此",
      "post_time": "2025-06-20 23:43:59",
      "image_count": 0,
      "image_urls": null,
      "local_image_paths": null,
      "likes": 0,
      "comments": 0,
      "views": 0,
      "board": "Dear. IU",
      "members_only": 0,
      "author_username": "TurkishDelight",
      "author_avatar": null,
      "author_local_avatar": null,
      "fan_comments": [],
      "direct_iu_replies": [
        {
          "id": 1335,
          "content_ko": "Next year.. maybe..? 🥹",
          "content_zh": "Next year.. maybe..? 🥹",
          "image_count": 0,
          "image_urls": null,
          "local_image_paths": null,
          "replied_at": "2025-06-20 23:45:03"
        }
      ]
    },
    {
      "id": 508,
      "post_uuid": "01978fb9-f16e-1950-be97-65591fd91bce",
      "title_ko": null,
      "title_zh": null,
      "content_ko": "세 번째 아들이 노란색 인물이 기울어지는 이유를 물었습니다?\n어떻게 대답해야합니까? 😂\n\nMy 3 year-old son asked me why the yellow head was tilted ?",
      "content_zh": "三岁的儿子问我为什么那个黄色的小人头是歪的？\n我该怎么回答呢？😂\n\n我的三岁儿子问我为什么那个黄色的脑袋是倾斜的？",
      "post_time": "2025-06-20 23:43:37",
      "image_count": 1,
      "image_urls": "https://dearimage.iu101.org/images/posts/post_508_1378732063.jpeg",
      "local_image_paths": "https://dearimage.iu101.org/images/posts/post_508_1378732063.jpeg",
      "likes": 0,
      "comments": 0,
      "views": 0,
      "board": "Dear. IU",
      "members_only": 0,
      "author_username": "Liam_HK",
      "author_avatar": null,
      "author_local_avatar": null,
      "fan_comments": [],
      "direct_iu_replies": [
        {
          "id": 1334,
          "content_ko": "He probably got a backache from stretching his sides 🥹",
          "content_zh": "He probably got a backache from stretching his sides 🥹",
          "image_count": 0,
          "image_urls": null,
          "local_image_paths": null,
          "replied_at": "2025-06-20 23:47:46"
        }
      ]
    },
    {
      "id": 507,
      "post_uuid": "01978fb9-eaae-c58f-6d87-122fc3f5bd0c",
      "title_ko": null,
      "title_zh": null,
      "content_ko": "야 이지은!!\n핸드폰 내려놓고!\n더 자!",
      "content_zh": "喂 李知恩！！",
      "post_time": "2025-06-20 23:43:35",
      "image_count": 0,
      "image_urls": null,
      "local_image_paths": null,
      "likes": 0,
      "comments": 0,
      "views": 0,
      "board": "Dear. IU",
      "members_only": 0,
      "author_username": "opuopu",
      "author_avatar": null,
      "author_local_avatar": null,
      "fan_comments": [],
      "direct_iu_replies": [
        {
          "id": 1333,
          "content_ko": "알겠어 😤!!",
          "content_zh": "知道了 😤!!",
          "image_count": 0,
          "image_urls": null,
          "local_image_paths": null,
          "replied_at": "2025-06-20 23:48:28"
        }
      ]
    },
    {
      "id": 506,
      "post_uuid": "01978fb9-df87-653d-900a-6d61e92a8cfe",
      "title_ko": null,
      "title_zh": null,
      "content_ko": "언니, 아침 먹었어요? 국수 먹고 있어요.",
      "content_zh": "姐姐，吃早饭了吗？我在吃面条。",
      "post_time": "2025-06-20 23:43:32",
      "image_count": 1,
      "image_urls": "https://dearimage.iu101.org/images/posts/post_506_1105046991.jpeg",
      "local_image_paths": "https://dearimage.iu101.org/images/posts/post_506_1105046991.jpeg",
      "likes": 0,
      "comments": 0,
      "views": 0,
      "board": "Dear. IU",
      "members_only": 0,
      "author_username": "猫猫猫",
      "author_avatar": null,
      "author_local_avatar": null,
      "fan_comments": [],
      "direct_iu_replies": [
        {
          "id": 1332,
          "content_ko": "다들 아침부터 든든하게 먹는구나아",
          "content_zh": "大家从早上就开始吃得饱饱的啊",
          "image_count": 0,
          "image_urls": null,
          "local_image_paths": null,
          "replied_at": "2025-06-20 23:48:45"
        }
      ]
    },
    {
      "id": 505,
      "post_uuid": "01978fb9-0fe9-e0c8-57da-d1520c78d504",
      "title_ko": null,
      "title_zh": null,
      "content_ko": "웅니~ 언니~ 노래 Love Wins All 을 태국 더 보이스에서 누가 불렀대요! 너무 신기해요! 🩷🩷🩷 이렇게 누가 언니 노래를 불러주는 걸 보니까, 진짜로 사랑이 모든 걸 이긴다는 말이 느껴졌어요. 너무 감동이에요! ",
      "content_zh": "呜哇~姐姐~《Love Wins All》这首歌在泰国好声音里是谁唱的呀！太神奇了！🩷🩷🩷看到有人唱姐姐的歌，真的能感受到爱能战胜一切这句话，太感动了！",
      "post_time": "2025-06-20 23:42:39",
      "image_count": 0,
      "image_urls": null,
      "local_image_paths": null,
      "likes": 0,
      "comments": 0,
      "views": 0,
      "board": "Dear. IU",
      "members_only": 0,
      "author_username": "큐레스♡",
      "author_avatar": null,
      "author_local_avatar": null,
      "fan_comments": [],
      "direct_iu_replies": [
        {
          "id": 1331,
          "content_ko": "너무 좋다 잘 들었어요💗",
          "content_zh": "太好了 听到了💗",
          "image_count": 0,
          "image_urls": null,
          "local_image_paths": null,
          "replied_at": "2025-06-20 23:53:20"
        }
      ]
    },
    {
      "id": 504,
      "post_uuid": "01978fb8-6e66-0036-6d6f-e226306a87e2",
      "title_ko": null,
      "title_zh": null,
      "content_ko": "지은아~ 혹시 목소리 안 나올 때 꿀팁 있엉?ㅠㅠ나 선생님이라서 목 계속 써야하는데 목소리가 아예 안 나와ㅠㅠㅠ오늘 수업 걱정하면서 출근 중이야...",
      "content_zh": "知恩~声音出不来的时候有什么小贴士？ㅠㅠ我是老师所以要一直用嗓子，声音完全出不来ㅠㅠㅠ担心今天上课中上班...",
      "post_time": "2025-06-20 23:41:58",
      "image_count": 0,
      "image_urls": null,
      "local_image_paths": null,
      "likes": 0,
      "comments": 0,
      "views": 0,
      "board": "Dear. IU",
      "members_only": 0,
      "author_username": "동갑내기",
      "author_avatar": null,
      "author_local_avatar": null,
      "fan_comments": [],
      "direct_iu_replies": [
        {
          "id": 1330,
          "content_ko": "목소리를 평소보다 높게 가늘게 내도 안 나와?",
          "content_zh": "声音比平时更高更细也出不来吗？",
          "image_count": 0,
          "image_urls": null,
          "local_image_paths": null,
          "replied_at": "2025-06-20 23:55:15"
        }
      ]
    },
    {
      "id": 502,
      "post_uuid": "01978fb8-4e85-82eb-c05d-0e02bda8a482",
      "title_ko": null,
      "title_zh": null,
      "content_ko": "희주로 촬영하면서 아이유TV도 찍고 있죠?! 너무 기대돼요!! 촬영장 분위기 완전 궁금해요 😆🎬 애선이는 아이유TV에서 못 봐서 너무 아쉬웠거든요 ㅠㅠ",
      "content_zh": "拍摄希珠的同时也在拍IU TV吗？！太期待了！！拍摄现场氛围超级好奇 😆🎬 爱仙在IU TV里看不到太遗憾了 ㅠㅠ",
      "post_time": "2025-06-20 23:41:50",
      "image_count": 0,
      "image_urls": null,
      "local_image_paths": null,
      "likes": 0,
      "comments": 0,
      "views": 0,
      "board": "Dear. IU",
      "members_only": 0,
      "author_username": "엘레나♡",
      "author_avatar": null,
      "author_local_avatar": null,
      "fan_comments": [],
      "direct_iu_replies": [
        {
          "id": 1328,
          "content_ko": "월요일에 첫 개시다 아이유티비 희주편!",
          "content_zh": "周一首次公开 iutv 赫珠篇！",
          "image_count": 0,
          "image_urls": null,
          "local_image_paths": null,
          "replied_at": "2025-06-20 23:56:38"
        }
      ]
    },
    {
      "id": 503,
      "post_uuid": "01978fb8-5096-d27d-52a7-6f683c7dc836",
      "title_ko": null,
      "title_zh": null,
      "content_ko": "언니는 같은 mbti인 사람이랑 잘 맞는 것 같아요??!?",
      "content_zh": "姐姐觉得同MBTI的人相处得来吗？？！？",
      "post_time": "2025-06-20 23:41:50",
      "image_count": 0,
      "image_urls": null,
      "local_image_paths": null,
      "likes": 0,
      "comments": 0,
      "views": 0,
      "board": "Dear. IU",
      "members_only": 0,
      "author_username": "치리슨",
      "author_avatar": null,
      "author_local_avatar": null,
      "fan_comments": [],
      "direct_iu_replies": [
        {
          "id": 1329,
          "content_ko": "내 주변에 같은 mbti인 사람이 별로 없어 🥹",
          "content_zh": "我身边相同mbti的人不多 🥹",
          "image_count": 0,
          "image_urls": null,
          "local_image_paths": null,
          "replied_at": "2025-06-20 23:56:08"
        }
      ]
    },
    {
      "id": 501,
      "post_uuid": "01978fb8-23ed-3c88-b073-677e950b1296",
      "title_ko": null,
      "title_zh": null,
      "content_ko": "지은언니!\n최근의 망했다 라는 에피소드 주세요!!",
      "content_zh": "知恩姐姐！",
      "post_time": "2025-06-20 23:41:39",
      "image_count": 0,
      "image_urls": null,
      "local_image_paths": null,
      "likes": 0,
      "comments": 0,
      "views": 0,
      "board": "Dear. IU",
      "members_only": 0,
      "author_username": "うさぎ",
      "author_avatar": "https://dearimage.iu101.org/images/avatars/avatar_43.jpeg",
      "author_local_avatar": "https://dearimage.iu101.org/images/avatars/avatar_43.jpeg",
      "fan_comments": [],
      "direct_iu_replies": [
        {
          "id": 1327,
          "content_ko": "아무래도 휴일인 오늘 이 시간에 깨버려서..\n망했지..",
          "content_zh": "反正今天是假日这个时间就醒来了..",
          "image_count": 0,
          "image_urls": null,
          "local_image_paths": null,
          "replied_at": "2025-06-20 23:57:47"
        }
      ]
    },
    {
      "id": 500,
      "post_uuid": "01978fb6-a98f-c974-635b-35482af39eb0",
      "title_ko": null,
      "title_zh": null,
      "content_ko": "누나 고구마 식빵은\n진지한 빵인가요?",
      "content_zh": "姐姐红薯面包",
      "post_time": "2025-06-20 23:40:02",
      "image_count": 0,
      "image_urls": null,
      "local_image_paths": null,
      "likes": 0,
      "comments": 0,
      "views": 0,
      "board": "Dear. IU",
      "members_only": 0,
      "author_username": "별빛재성",
      "author_avatar": null,
      "author_local_avatar": null,
      "fan_comments": [],
      "direct_iu_replies": [
        {
          "id": 1326,
          "content_ko": "아니지 신나는 빵",
          "content_zh": "不对是欢快的面包",
          "image_count": 0,
          "image_urls": null,
          "local_image_paths": null,
          "replied_at": "2025-06-21 00:02:11"
        }
      ]
    },
    {
      "id": 499,
      "post_uuid": "01978fb6-4053-40f1-1be2-dc5bb3231746",
      "title_ko": null,
      "title_zh": null,
      "content_ko": "이번 꽃갈피 누가봐도 락앨범인데 락페스티벌 안나오나요??",
      "content_zh": "这次花夹子一看就是摇滚专辑，不参加摇滚音乐节吗？？",
      "post_time": "2025-06-20 23:39:35",
      "image_count": 0,
      "image_urls": null,
      "local_image_paths": null,
      "likes": 0,
      "comments": 0,
      "views": 0,
      "board": "Dear. IU",
      "members_only": 0,
      "author_username": "이상비행",
      "author_avatar": null,
      "author_local_avatar": null,
      "fan_comments": [],
      "direct_iu_replies": [
        {
          "id": 1325,
          "content_ko": "완전 락은 맞지",
          "content_zh": "确实是摇滚",
          "image_count": 0,
          "image_urls": null,
          "local_image_paths": null,
          "replied_at": "2025-06-21 00:04:24"
        }
      ]
    },
    {
      "id": 516,
      "post_uuid": "01978fac-e487-eb97-f583-1e97ec842481",
      "title_ko": null,
      "title_zh": null,
      "content_ko": "언니, 주말에도 열심히 일해요?",
      "content_zh": "知恩啊，2019年在台北你亲自弹吉他唱的那首中文歌...还记得吗？🥺",
      "post_time": "2025-06-20 23:29:22",
      "image_count": 0,
      "image_urls": null,
      "local_image_paths": null,
      "likes": 0,
      "comments": 0,
      "views": 0,
      "board": "Dear. IU",
      "members_only": 0,
      "author_username": "iu爱娜李",
      "author_avatar": null,
      "author_local_avatar": null,
      "fan_comments": [],
      "direct_iu_replies": [
        {
          "id": 1342,
          "content_ko": "오늘은 쉬구 내일은 일하구~.~",
          "content_zh": "今天休息明天工作~.~",
          "image_count": 0,
          "image_urls": null,
          "local_image_paths": null,
          "replied_at": "2025-06-20 23:30:24"
        }
      ]
    },
    {
      "id": 515,
      "post_uuid": "01978fac-a633-f2f9-7555-f217e2bf354f",
      "title_ko": null,
      "title_zh": null,
      "content_ko": "지은언니 카레 좋아해요? 저는 아침으로 카레먹는중인데 언니는 뭐 드셨어요?!",
      "content_zh": "姐姐！我知道了帖子右上角可以点击重新编辑。那我一定要问一个你可以回答\"是\"的问题。如果你回复我，我可以把帖子内容重新编辑成\"喜欢吗\"吗？哈哈",
      "post_time": "2025-06-20 23:29:06",
      "image_count": 0,
      "image_urls": null,
      "local_image_paths": null,
      "likes": 0,
      "comments": 0,
      "views": 0,
      "board": "Dear. IU",
      "members_only": 0,
      "author_username": "김현아",
      "author_avatar": null,
      "author_local_avatar": null,
      "fan_comments": [],
      "direct_iu_replies": [
        {
          "id": 1341,
          "content_ko": "아직 침대인 중 😌 더 자고 싶어서 ",
          "content_zh": "还在床上 😌还想再睡",
          "image_count": 0,
          "image_urls": null,
          "local_image_paths": null,
          "replied_at": "2025-06-20 23:31:15"
        }
      ]
    },
    {
      "id": 514,
      "post_uuid": "01978fab-acc9-0359-623b-359a91deebb1",
      "title_ko": null,
      "title_zh": null,
      "content_ko": "지은아, 2019년에 타이베이에서\n직접 기타 치면서 불렀던 그 중국어 노래… 아직 기억나? 🥺",
      "content_zh": "知恩啊，2019年在台北你亲手弹吉他唱的那首中文歌...还记得吗？🥺",
      "post_time": "2025-06-20 23:28:02",
      "image_count": 1,
      "image_urls": "https://dearimage.iu101.org/images/posts/post_514_1343861648.jpeg",
      "local_image_paths": "https://dearimage.iu101.org/images/posts/post_514_1343861648.jpeg",
      "likes": 0,
      "comments": 0,
      "views": 0,
      "board": "Dear. IU",
      "members_only": 0,
      "author_username": "파김치",
      "author_avatar": "https://dearimage.iu101.org/images/avatars/avatar_39.jpeg",
      "author_local_avatar": "https://dearimage.iu101.org/images/avatars/avatar_39.jpeg",
      "fan_comments": [],
      "direct_iu_replies": [
        {
          "id": 1340,
          "content_ko": "워더 바오베이 바오베이 개미인어 티엔티엔 \n량리진예 떠 하우옌~",
          "content_zh": "沃德包贝包贝蚂蚁人鱼天天天",
          "image_count": 0,
          "image_urls": null,
          "local_image_paths": null,
          "replied_at": "2025-06-20 23:35:17"
        }
      ]
    }
  ]
}