{
  "page": 1,
  "totalPages": 45,
  "total": 895,
  "data": [
    {
      "id": 11,
      "post_uuid": "019c9c08-1027-9ae0-0c4a-aac2d7160f65",
      "title_ko": null,
      "title_zh": null,
      "content_ko": "언니이 ㅠㅠ 대군부인 나올 당시에 나 중학교 2 학년 첫 시험인데 어쩌지 ㅠㅠㅠㅠ",
      "content_zh": "姐姐呜呜呜，大君夫人出来的时候我正好是初二上学期第一次考试，怎么办呜呜呜呜",
      "post_time": "2026-02-26 22:18:20",
      "image_count": 0,
      "image_urls": null,
      "local_image_paths": null,
      "likes": 0,
      "comments": 0,
      "views": 0,
      "board": "Dear. IU",
      "members_only": 0,
      "author_username": "우리집알감자",
      "author_avatar": "https://dearimage.iu101.org/images/avatars/avatar_44.jpeg",
      "author_local_avatar": "https://dearimage.iu101.org/images/avatars/avatar_44.jpeg",
      "fan_comments": [],
      "direct_iu_replies": [
        {
          "id": 114,
          "content_ko": "시험 보구 방송은 재방으로 보면 되지!",
          "content_zh": "考试的话看重播就行了！",
          "image_count": 0,
          "image_urls": null,
          "local_image_paths": null,
          "replied_at": "2026-02-26 23:56:19"
        }
      ]
    },
    {
      "id": 10,
      "post_uuid": "019c9bf6-65fb-d085-07f4-dcdf7a20276b",
      "title_ko": null,
      "title_zh": null,
      "content_ko": "언니 저 일본가여!!💜💜",
      "content_zh": "姐姐我去日本啦！！💜💜",
      "post_time": "2026-02-26 21:59:02",
      "image_count": 0,
      "image_urls": null,
      "local_image_paths": null,
      "likes": 0,
      "comments": 0,
      "views": 0,
      "board": "Dear. IU",
      "members_only": 0,
      "author_username": "중딩이지우개",
      "author_avatar": null,
      "author_local_avatar": null,
      "fan_comments": [],
      "direct_iu_replies": [
        {
          "id": 113,
          "content_ko": "놀러 가는구나~~ 조심히 재밌게 놀다와♥️",
          "content_zh": "要去玩啊~~小心点开心地玩回来♥️",
          "image_count": 0,
          "image_urls": null,
          "local_image_paths": null,
          "replied_at": "2026-02-26 23:57:15"
        }
      ]
    },
    {
      "id": 9,
      "post_uuid": "019c9bbd-009f-bd61-8e83-785a774989f1",
      "title_ko": null,
      "title_zh": null,
      "content_ko": "언니 너무 예쁘고 너무 귀여워요😍\n근데 언니 진짜 살이 많이 빠진 것 같아요😢 ?\n왜 새 드라마 촬영 끝난 뒤에 오히려 더 마르셨어요ㅠㅠ?\n일이 너무 바쁘신 거예요?ㅠㅠ\n몸은 괜찮아요?\n또 일이 바빠서 밥을 제대로 못 챙겨 드신 건 아니죠?\n아무리 바빠도 꼭 더 많이 드셔야 해요!\n언니, 일이 너무 바쁜데… 근육이 꼭 있어야 버틸 체력이 생겨요!\n근육을 더 키워야 몸도 건강해요!\n약속이에요～\n올해도 우리 아이유애나, 건강하게 같이 행복하게 즐겨요❤️‍🔥",
      "content_zh": "姐姐太美了，也太可爱了😍\n但是姐姐真的瘦了好多😢\n为什么新剧拍完之后反而更瘦了呢ㅠㅠ\n工作太忙了吗？ㅠㅠ\n身体还好吗？\n不会是因为太忙连饭都吃不好吧？\n再怎么忙也一定要好好吃饭！\n姐姐，虽然工作很忙...但一定要有肌肉才能有足够的体力支撑！\n多长些肌肉身体才会健康！\n这是约定～\n今年我们也要一起健健康康、开开心心地享受❤️‍🔥",
      "post_time": "2026-02-26 20:56:20",
      "image_count": 2,
      "image_urls": "https://dearimage.iu101.org/images/remote/post_9_0.jpeg|https://dearimage.iu101.org/images/remote/post_9_1.jpeg",
      "local_image_paths": "https://dearimage.iu101.org/images/posts/post_9_638686380.jpeg|https://dearimage.iu101.org/images/posts/post_9_748284377.jpeg",
      "likes": 0,
      "comments": 0,
      "views": 0,
      "board": "Dear. IU",
      "members_only": 0,
      "author_username": "황샤오츄Dionus1996",
      "author_avatar": "https://dearimage.iu101.org/images/avatars/avatar_80.jpeg",
      "author_local_avatar": "https://dearimage.iu101.org/images/avatars/avatar_80.jpeg",
      "fan_comments": [],
      "direct_iu_replies": [
        {
          "id": 112,
          "content_ko": "맞아요! 드라마 찍으면서 근육 관리에 소홀했어... 3월엔 꼭 근육 키울 거야!!",
          "content_zh": "是啊！拍电视剧的时候疏于肌肉管理了...3月一定要练好肌肉！！",
          "image_count": 0,
          "image_urls": null,
          "local_image_paths": null,
          "replied_at": "2026-02-26 23:58:38"
        }
      ]
    },
    {
      "id": 8,
      "post_uuid": "019c9aa1-6c86-052a-b635-c5d3cd3c93b6",
      "title_ko": null,
      "title_zh": null,
      "content_ko": "언니, 곧 성적 발표 시간이에요. 나는 합격할 거예요, 그렇죠?",
      "content_zh": "姐姐，马上就要公布成绩了。我会合格的，对吧？",
      "post_time": "2026-02-26 15:46:36",
      "image_count": 0,
      "image_urls": null,
      "local_image_paths": null,
      "likes": 0,
      "comments": 0,
      "views": 0,
      "board": "Dear. IU",
      "members_only": 0,
      "author_username": "Forever",
      "author_avatar": null,
      "author_local_avatar": null,
      "fan_comments": [],
      "direct_iu_replies": [
        {
          "id": 111,
          "content_ko": "어떻게 됐나!!",
          "content_zh": "怎么样了！！",
          "image_count": 0,
          "image_urls": null,
          "local_image_paths": null,
          "replied_at": "2026-02-27 00:00:44"
        }
      ]
    },
    {
      "id": 7,
      "post_uuid": "019c9a80-da5f-1004-5a24-8f09a8715a6d",
      "title_ko": null,
      "title_zh": null,
      "content_ko": "언니이 에티 팝업같이 피부가 무조건 좋아야 하는 날 전날에 꼭 하는 루틴같은거 있어요?? 궁금해요 !!💗",
      "content_zh": "欧尼，像 ETV pop 那样的皮肤状态特别好的前一天，你有没有什么必做的护肤流程呀？好奇！💗",
      "post_time": "2026-02-26 15:11:01",
      "image_count": 0,
      "image_urls": null,
      "local_image_paths": null,
      "likes": 0,
      "comments": 0,
      "views": 0,
      "board": "Dear. IU",
      "members_only": 0,
      "author_username": "우리집알감자",
      "author_avatar": "https://dearimage.iu101.org/images/avatars/avatar_44.jpeg",
      "author_local_avatar": "https://dearimage.iu101.org/images/avatars/avatar_44.jpeg",
      "fan_comments": [],
      "direct_iu_replies": [
        {
          "id": 110,
          "content_ko": "피부과 가서 잠깐이라도 관리 받기!",
          "content_zh": "去皮肤科稍微护理一下吧！",
          "image_count": 0,
          "image_urls": null,
          "local_image_paths": null,
          "replied_at": "2026-02-27 00:04:52"
        }
      ]
    },
    {
      "id": 6,
      "post_uuid": "019c9a16-dadd-7cb4-3371-57f4d4d744b1",
      "title_ko": null,
      "title_zh": null,
      "content_ko": "지은아, 왜 귀가 빨개?\n귀걸이가 안 맞아? 아파?",
      "content_zh": "知恩啊，为什么耳朵这么红？\n耳环不合适吗？疼吗？",
      "post_time": "2026-02-26 13:15:15",
      "image_count": 1,
      "image_urls": "https://dearimage.iu101.org/images/remote/post_6_0.jpeg",
      "local_image_paths": "https://dearimage.iu101.org/images/posts/post_6_92963352.jpeg",
      "likes": 0,
      "comments": 0,
      "views": 0,
      "board": "Dear. IU",
      "members_only": 0,
      "author_username": "파김치",
      "author_avatar": "https://dearimage.iu101.org/images/avatars/avatar_39.jpeg",
      "author_local_avatar": "https://dearimage.iu101.org/images/avatars/avatar_39.jpeg",
      "fan_comments": [],
      "direct_iu_replies": [
        {
          "id": 109,
          "content_ko": "응!! 귀걸이 침 굵기가 조금 굵었어!!",
          "content_zh": "嗯！耳钉针有点粗啊！！",
          "image_count": 0,
          "image_urls": null,
          "local_image_paths": null,
          "replied_at": "2026-02-27 00:08:41"
        }
      ]
    },
    {
      "id": 21,
      "post_uuid": "019bd86e-d772-ea70-7ea7-ce36bf698362",
      "title_ko": null,
      "title_zh": null,
      "content_ko": "언니 교복처럼 입고다니는 기모바지 정보좀요. 히히",
      "content_zh": "姐姐，像校服那种加绒裤给我分享一下嘛~嘿嘿",
      "post_time": "2026-01-19 22:45:01",
      "image_count": 0,
      "image_urls": null,
      "local_image_paths": null,
      "likes": 0,
      "comments": 0,
      "views": 0,
      "board": "Dear. IU",
      "members_only": 0,
      "author_username": "다영",
      "author_avatar": "https://dearimage.iu101.org/images/avatars/avatar_9.jpeg",
      "author_local_avatar": "https://dearimage.iu101.org/images/avatars/avatar_9.jpeg",
      "fan_comments": [],
      "direct_iu_replies": [
        {
          "id": 192,
          "content_ko": "청바지를 말하는 건가 츄리닝바지를 말하는 건가?",
          "content_zh": "说的是牛仔裤还是运动裤？",
          "image_count": 0,
          "image_urls": null,
          "local_image_paths": null,
          "replied_at": "2026-01-19 22:46:49"
        }
      ]
    },
    {
      "id": 20,
      "post_uuid": "019bd86e-b646-7ac0-83f5-c21b9c4dbb7f",
      "title_ko": null,
      "title_zh": null,
      "content_ko": "저는 서른살인디.. 조심할 거 알려주세유",
      "content_zh": "我三十岁了呢..告诉我该注意点什么吧～",
      "post_time": "2026-01-19 22:44:52",
      "image_count": 0,
      "image_urls": null,
      "local_image_paths": null,
      "likes": 0,
      "comments": 0,
      "views": 0,
      "board": "Dear. IU",
      "members_only": 0,
      "author_username": "램프요정지니",
      "author_avatar": "https://dearimage.iu101.org/images/avatars/avatar_128.jpeg",
      "author_local_avatar": "https://dearimage.iu101.org/images/avatars/avatar_128.jpeg",
      "fan_comments": [],
      "direct_iu_replies": [
        {
          "id": 191,
          "content_ko": "감기조심 차조심 무리조심",
          "content_zh": "注意开车 注意感冒 注意别太累",
          "image_count": 0,
          "image_urls": null,
          "local_image_paths": null,
          "replied_at": "2026-01-19 22:48:02"
        }
      ]
    },
    {
      "id": 19,
      "post_uuid": "019bd86e-a7e5-d7a4-c789-5355bfa2eeb6",
      "title_ko": null,
      "title_zh": null,
      "content_ko": "다영이도 좋아해줘",
      "content_zh": "多英也喜欢我吧",
      "post_time": "2026-01-19 22:44:49",
      "image_count": 0,
      "image_urls": null,
      "local_image_paths": null,
      "likes": 0,
      "comments": 0,
      "views": 0,
      "board": "Dear. IU",
      "members_only": 0,
      "author_username": "다영",
      "author_avatar": "https://dearimage.iu101.org/images/avatars/avatar_9.jpeg",
      "author_local_avatar": "https://dearimage.iu101.org/images/avatars/avatar_9.jpeg",
      "fan_comments": [],
      "direct_iu_replies": [
        {
          "id": 190,
          "content_ko": "다영이도 많이 좋아하지~!",
          "content_zh": "多英也很好呢~！",
          "image_count": 0,
          "image_urls": null,
          "local_image_paths": null,
          "replied_at": "2026-01-19 22:48:40"
        }
      ]
    },
    {
      "id": 18,
      "post_uuid": "019bd86d-c9a4-92b5-198b-d4f839494399",
      "title_ko": null,
      "title_zh": null,
      "content_ko": "대군부인 방영 후 공개하실 비하인드 사진은 차곡차곡 잘 모으고 계신가요? 드라마도 드라마지만 델루나때처럼 다채로운 착장 셀카 볼 생각에 더 설레네요☺️",
      "content_zh": "《二十一世纪大君夫人》播出后要公开的幕后照片，您都好好收集起来了吗？电视剧固然好看，但更让人激动的是能像 DELUNA 那时候一样，看到各种多彩造型的自拍照片呢☺️",
      "post_time": "2026-01-19 22:43:52",
      "image_count": 1,
      "image_urls": "https://dearimage.iu101.org/images/remote/post_18_0.jpg",
      "local_image_paths": "https://dearimage.iu101.org/images/posts/post_18_1030094144.jpg",
      "likes": 0,
      "comments": 0,
      "views": 0,
      "board": "Dear. IU",
      "members_only": 0,
      "author_username": "푸른행운",
      "author_avatar": null,
      "author_local_avatar": null,
      "fan_comments": [],
      "direct_iu_replies": [
        {
          "id": 189,
          "content_ko": "사진이.. 너무 많아....",
          "content_zh": "照片...太多了....",
          "image_count": 1,
          "image_urls": "https://dearimage.iu101.org/images/replies/reply_189_1153725535.jpeg",
          "local_image_paths": "https://dearimage.iu101.org/images/replies/reply_189_1153725535.jpeg",
          "replied_at": "2026-01-19 22:53:23"
        }
      ]
    },
    {
      "id": 17,
      "post_uuid": "019bd86d-6865-2caf-79ba-65c25054ed41",
      "title_ko": null,
      "title_zh": null,
      "content_ko": "아이유 씨, 내가 태어난 바다로 돌아왔어. 이게 내 아이와 나의 바다!",
      "content_zh": "IU，我回到了我出生的海边。这是我和我的孩子的海！",
      "post_time": "2026-01-19 22:43:27",
      "image_count": 3,
      "image_urls": "https://dearimage.iu101.org/images/remote/post_17_0.jpeg|https://dearimage.iu101.org/images/remote/post_17_1.jpeg|https://dearimage.iu101.org/images/remote/post_17_2.jpeg",
      "local_image_paths": "https://dearimage.iu101.org/images/posts/post_17_1070423207.jpeg|https://dearimage.iu101.org/images/posts/post_17_1085014119.jpeg|https://dearimage.iu101.org/images/posts/post_17_1085277886.jpeg",
      "likes": 0,
      "comments": 0,
      "views": 0,
      "board": "Dear. IU",
      "members_only": 0,
      "author_username": "これちゃん",
      "author_avatar": null,
      "author_local_avatar": null,
      "fan_comments": [],
      "direct_iu_replies": [
        {
          "id": 188,
          "content_ko": "코레짱! 감기 조심해!!",
          "content_zh": "小可爱！注意感冒！！",
          "image_count": 0,
          "image_urls": null,
          "local_image_paths": null,
          "replied_at": "2026-01-19 22:54:46"
        }
      ]
    },
    {
      "id": 29,
      "post_uuid": "019bd867-8261-79f1-8048-35008c96edc0",
      "title_ko": null,
      "title_zh": null,
      "content_ko": "너무 춥다…졸리다…징짱 보고싶다..",
      "content_zh": "太冷了...好困...想看甄嬛传..",
      "post_time": "2026-01-19 22:37:00",
      "image_count": 0,
      "image_urls": null,
      "local_image_paths": null,
      "likes": 0,
      "comments": 0,
      "views": 0,
      "board": "Dear. IU",
      "members_only": 0,
      "author_username": "파루파루",
      "author_avatar": null,
      "author_local_avatar": null,
      "fan_comments": [],
      "direct_iu_replies": [
        {
          "id": 200,
          "content_ko": "나도 너무 졸리다....",
          "content_zh": "我也很困....",
          "image_count": 0,
          "image_urls": null,
          "local_image_paths": null,
          "replied_at": "2026-01-19 22:38:04"
        }
      ]
    },
    {
      "id": 28,
      "post_uuid": "019bd867-73f7-8dda-717a-07eadf0c36ea",
      "title_ko": null,
      "title_zh": null,
      "content_ko": "언니 🫂이 이모티콘이 뭘 의미하는고야?",
      "content_zh": "姐姐🫂这个表情符号是什么意思呀？",
      "post_time": "2026-01-19 22:36:57",
      "image_count": 0,
      "image_urls": null,
      "local_image_paths": null,
      "likes": 0,
      "comments": 0,
      "views": 0,
      "board": "Dear. IU",
      "members_only": 0,
      "author_username": "예뻐요찰칵",
      "author_avatar": null,
      "author_local_avatar": null,
      "fan_comments": [],
      "direct_iu_replies": [
        {
          "id": 199,
          "content_ko": "안아주는 거야 🫂",
          "content_zh": "拥抱一下 🫂",
          "image_count": 0,
          "image_urls": null,
          "local_image_paths": null,
          "replied_at": "2026-01-19 22:38:20"
        }
      ]
    },
    {
      "id": 27,
      "post_uuid": "019bd867-6c80-e775-2b63-441a3bc7f091",
      "title_ko": null,
      "title_zh": null,
      "content_ko": "어제 가슴혹수술하고 병원에서 아침먹으면서 베리즈들어와봤는데 지은양이 팬들과 소통중이었네 ㅎㅎ 팬 생각하는모습이 너무좋다~~^^\n나두 42 세 여성팬!! ㅎㅎ ",
      "content_zh": "昨天做了胸部手术，在医院吃早饭的时候上来看了看 Berryz，知恩正在和粉丝们互动呢，看到她这么为粉丝着想的样子真是太好了~~^^\n我也是 42 岁的女粉丝！ㅎㅎ",
      "post_time": "2026-01-19 22:36:55",
      "image_count": 0,
      "image_urls": null,
      "local_image_paths": null,
      "likes": 0,
      "comments": 0,
      "views": 0,
      "board": "Dear. IU",
      "members_only": 0,
      "author_username": "치치(화성)",
      "author_avatar": null,
      "author_local_avatar": null,
      "fan_comments": [],
      "direct_iu_replies": [
        {
          "id": 198,
          "content_ko": "아프지 않았어 언니? 푹 잘 쉬어 고생했어요💜",
          "content_zh": "没生病吧姐姐？好好休息辛苦了💜",
          "image_count": 0,
          "image_urls": null,
          "local_image_paths": null,
          "replied_at": "2026-01-19 22:39:10"
        }
      ]
    },
    {
      "id": 26,
      "post_uuid": "019bd867-171c-3e43-4235-83aa2068f986",
      "title_ko": null,
      "title_zh": null,
      "content_ko": "요즘 일이 너무 힘들어요 🥲 분명 괜찮았다고 생각했는데 저번주부터 너어어무 힘들어요... 저두 한 번만 안아줄 수 있어요...?🥺",
      "content_zh": "最近工作太辛苦了🥲 明明之前还好好的，但从上周开始变得特别累...我也只能抱一次安慰一下自己吗...？🥺",
      "post_time": "2026-01-19 22:36:33",
      "image_count": 0,
      "image_urls": null,
      "local_image_paths": null,
      "likes": 0,
      "comments": 0,
      "views": 0,
      "board": "Dear. IU",
      "members_only": 0,
      "author_username": "초콩빈",
      "author_avatar": "https://dearimage.iu101.org/images/avatars/avatar_132.jpg",
      "author_local_avatar": "https://dearimage.iu101.org/images/avatars/avatar_132.jpg",
      "fan_comments": [],
      "direct_iu_replies": [
        {
          "id": 197,
          "content_ko": "🫂 지나가라..지나가라..",
          "content_zh": "🫂过去吧..过去吧..",
          "image_count": 0,
          "image_urls": null,
          "local_image_paths": null,
          "replied_at": "2026-01-19 22:40:28"
        }
      ]
    },
    {
      "id": 25,
      "post_uuid": "019bd867-0cc7-c99e-2f45-600b39459b0a",
      "title_ko": null,
      "title_zh": null,
      "content_ko": "언니 입면 말고 수면 유지에는 뭐가 좋아..?\n유지가 어려워 ㅠ",
      "content_zh": "姐姐，除了吃药之外，还有什么能帮助保持睡眠的吗？\n真的很难坚持啊 ㅠ",
      "post_time": "2026-01-19 22:36:30",
      "image_count": 0,
      "image_urls": null,
      "local_image_paths": null,
      "likes": 0,
      "comments": 0,
      "views": 0,
      "board": "Dear. IU",
      "members_only": 0,
      "author_username": "아니유",
      "author_avatar": null,
      "author_local_avatar": null,
      "fan_comments": [],
      "direct_iu_replies": [
        {
          "id": 196,
          "content_ko": "나도 평생의 숙제야 ~.~ 알게 되면 서로 알려주자!",
          "content_zh": "我也是终生的作业~.~知道了就互相告诉吧！",
          "image_count": 0,
          "image_urls": null,
          "local_image_paths": null,
          "replied_at": "2026-01-19 22:41:27"
        }
      ]
    },
    {
      "id": 24,
      "post_uuid": "019bd866-f795-fab4-a2ab-cb0354f82a8d",
      "title_ko": null,
      "title_zh": null,
      "content_ko": "저 이제 스무살인디..조심할 거 알려쥬쇼",
      "content_zh": "我现在二十岁了..告诉我要小心的事吧",
      "post_time": "2026-01-19 22:36:25",
      "image_count": 0,
      "image_urls": null,
      "local_image_paths": null,
      "likes": 0,
      "comments": 0,
      "views": 0,
      "board": "Dear. IU",
      "members_only": 0,
      "author_username": "징징잉",
      "author_avatar": null,
      "author_local_avatar": null,
      "fan_comments": [],
      "direct_iu_replies": [
        {
          "id": 195,
          "content_ko": "차조심 감기조심 ",
          "content_zh": "注意开车 注意感冒",
          "image_count": 0,
          "image_urls": null,
          "local_image_paths": null,
          "replied_at": "2026-01-19 22:42:37"
        }
      ]
    },
    {
      "id": 23,
      "post_uuid": "019bd866-a18f-944c-7edf-40bd67ae3930",
      "title_ko": null,
      "title_zh": null,
      "content_ko": "오니, 어렸을 때 가장 좋아했던 만화 기억나? ",
      "content_zh": "姐姐，小时候最喜欢的漫画还记得吗？",
      "post_time": "2026-01-19 22:36:03",
      "image_count": 0,
      "image_urls": null,
      "local_image_paths": null,
      "likes": 0,
      "comments": 0,
      "views": 0,
      "board": "Dear. IU",
      "members_only": 0,
      "author_username": "IUfans4ever",
      "author_avatar": "https://dearimage.iu101.org/images/avatars/avatar_129.jpg",
      "author_local_avatar": "https://dearimage.iu101.org/images/avatars/avatar_129.jpg",
      "fan_comments": [],
      "direct_iu_replies": [
        {
          "id": 194,
          "content_ko": "음... 천사소녀 네티..? 구슬 동자! 티몬과 품바!",
          "content_zh": "嗯...天使少女妮蒂..？玻璃珠眼睛！提蒙和品巴！",
          "image_count": 0,
          "image_urls": null,
          "local_image_paths": null,
          "replied_at": "2026-01-19 22:43:46"
        }
      ]
    },
    {
      "id": 22,
      "post_uuid": "019bd866-824e-0b72-1a5d-ba3652ea3292",
      "title_ko": null,
      "title_zh": null,
      "content_ko": "언니 나는 혜인이얌 혜인이는 지은언니를 조아해 지은언니도 혜인이를 좋아할..까나?🩵",
      "content_zh": "姐姐我是惠仁呀，惠仁喜欢知恩姐姐，知恩姐姐也会喜欢惠仁吧..吧？🩵",
      "post_time": "2026-01-19 22:35:55",
      "image_count": 0,
      "image_urls": null,
      "local_image_paths": null,
      "likes": 0,
      "comments": 0,
      "views": 0,
      "board": "Dear. IU",
      "members_only": 0,
      "author_username": "이혜인",
      "author_avatar": "https://dearimage.iu101.org/images/avatars/avatar_101.jpg",
      "author_local_avatar": "https://dearimage.iu101.org/images/avatars/avatar_101.jpg",
      "fan_comments": [],
      "direct_iu_replies": [
        {
          "id": 193,
          "content_ko": "혜인이 좋아",
          "content_zh": "喜欢惠仁",
          "image_count": 0,
          "image_urls": null,
          "local_image_paths": null,
          "replied_at": "2026-01-19 22:44:14"
        }
      ]
    },
    {
      "id": 37,
      "post_uuid": "019bd85b-b8a8-637d-14f4-b7348f8d8220",
      "title_ko": null,
      "title_zh": null,
      "content_ko": "언니 혹시 곧 새로운 콘텐츠 있어요? 너무 기다리고 있어요 ㅠㅠ",
      "content_zh": "姐姐，新的内容快出来了吗？我等得好着急ㅠㅠ",
      "post_time": "2026-01-19 22:24:08",
      "image_count": 0,
      "image_urls": null,
      "local_image_paths": null,
      "likes": 0,
      "comments": 0,
      "views": 0,
      "board": "Dear. IU",
      "members_only": 0,
      "author_username": "엘레나♡",
      "author_avatar": null,
      "author_local_avatar": null,
      "fan_comments": [],
      "direct_iu_replies": [
        {
          "id": 208,
          "content_ko": "당장은 없어.. 3월 초부터 팡팡 터지지 않을까 싶어요!",
          "content_zh": "现在还没有..3月初应该会陆续爆发吧！",
          "image_count": 0,
          "image_urls": null,
          "local_image_paths": null,
          "replied_at": "2026-01-19 22:31:12"
        }
      ]
    }
  ]
}
