{
  "page": 43,
  "totalPages": 45,
  "total": 895,
  "data": [
    {
      "id": 974,
      "post_uuid": "0196e411-40d4-1fe4-7664-6ae3b48b5d29",
      "title_ko": null,
      "title_zh": null,
      "content_ko": "언니!! 어제 우리쿠애나는 함께 언니의 생일을 축하했어요!!\n너무 재밌어요~~~ \n보고 싶어요~~ ",
      "content_zh": "姐姐！！昨天我们 Ukiss 一起庆祝了姐姐的生日！！",
      "post_time": "2025-05-18 15:44:18",
      "image_count": 5,
      "image_urls": "https://dearimage.iu101.org/images/posts/post_974_234102809.jpeg",
      "local_image_paths": "https://dearimage.iu101.org/images/posts/post_974_224443847.jpeg|https://dearimage.iu101.org/images/posts/post_974_232564969.jpeg|https://dearimage.iu101.org/images/posts/post_974_234102809.jpeg|https://dearimage.iu101.org/images/posts/post_974_233842569.jpeg|https://dearimage.iu101.org/images/posts/post_974_233679804.jpeg",
      "likes": 0,
      "comments": 0,
      "views": 0,
      "board": "Dear. IU",
      "members_only": 0,
      "author_username": "xinyuen",
      "author_avatar": null,
      "author_local_avatar": null,
      "fan_comments": [],
      "direct_iu_replies": [
        {
          "id": 1808,
          "content_ko": "보고 싶다 쿠애나 🥹",
          "content_zh": "想见库爱娜 🥹",
          "image_count": 0,
          "image_urls": null,
          "local_image_paths": null,
          "replied_at": "2025-05-18 15:54:58"
        },
        {
          "id": 1807,
          "content_ko": "힘든 날에는~~ 쿠알라룸푸르으~~😁",
          "content_zh": "辛苦的日子里~~ 吉隆坡~~😁",
          "image_count": 0,
          "image_urls": null,
          "local_image_paths": null,
          "replied_at": "2025-05-18 15:55:24"
        }
      ]
    },
    {
      "id": 973,
      "post_uuid": "0196e411-380a-6b01-dfeb-b84ab0777fd6",
      "title_ko": null,
      "title_zh": null,
      "content_ko": "언니는 월요일이 어떻다고 생각합니까?",
      "content_zh": "姐姐觉得星期一怎么样？",
      "post_time": "2025-05-18 15:44:15",
      "image_count": 0,
      "image_urls": null,
      "local_image_paths": null,
      "likes": 0,
      "comments": 0,
      "views": 0,
      "board": "Dear. IU",
      "members_only": 0,
      "author_username": "제유",
      "author_avatar": "https://dearimage.iu101.org/images/avatars/avatar_59.jpeg",
      "author_local_avatar": "https://dearimage.iu101.org/images/avatars/avatar_59.jpeg",
      "fan_comments": [],
      "direct_iu_replies": [
        {
          "id": 1806,
          "content_ko": "솔직히 월화수목금토일이 크게 다르지 않다 😆",
          "content_zh": "说实话周一到周日差别不大 😆",
          "image_count": 0,
          "image_urls": null,
          "local_image_paths": null,
          "replied_at": "2025-05-18 15:56:14"
        }
      ]
    },
    {
      "id": 972,
      "post_uuid": "0196e411-031b-d936-5b46-fb7a9b995ad1",
      "title_ko": null,
      "title_zh": null,
      "content_ko": "각 곡을 선택한 이유가 너무 궁금하다!! 첫 공개곡인 빨간운동화를 고른 이유는 뭐야?",
      "content_zh": "特别想知道选择每首歌的理由！！为什么选红运动鞋作为第一首公开曲？",
      "post_time": "2025-05-18 15:44:02",
      "image_count": 0,
      "image_urls": null,
      "local_image_paths": null,
      "likes": 0,
      "comments": 0,
      "views": 0,
      "board": "Dear. IU",
      "members_only": 0,
      "author_username": "딱복물복",
      "author_avatar": "https://dearimage.iu101.org/images/avatars/avatar_254.jpeg",
      "author_local_avatar": "https://dearimage.iu101.org/images/avatars/avatar_254.jpeg",
      "fan_comments": [],
      "direct_iu_replies": [
        {
          "id": 1805,
          "content_ko": "새 한 주를 시작하는 유애나들의 기분이 좋았으면 하고 바라기 때문입니다 🙂‍↕️",
          "content_zh": "因为希望开始新一周的尤爱娜们心情愉快 🙂‍↕️",
          "image_count": 0,
          "image_urls": null,
          "local_image_paths": null,
          "replied_at": "2025-05-18 15:59:25"
        }
      ]
    },
    {
      "id": 971,
      "post_uuid": "0196e410-ff89-4fe6-82a9-0c2c5fd476ae",
      "title_ko": null,
      "title_zh": null,
      "content_ko": "언니~ 저는 넬 시험 있는데… 힘 좀 주세요! 😞💪🏻 ",
      "content_zh": "姐姐~ 我要考 NEL 考试...给我加油吧！😞💪🏻",
      "post_time": "2025-05-18 15:44:01",
      "image_count": 1,
      "image_urls": "https://dearimage.iu101.org/images/posts/post_971_1365449556.jpeg",
      "local_image_paths": "https://dearimage.iu101.org/images/posts/post_971_1365449556.jpeg",
      "likes": 0,
      "comments": 0,
      "views": 0,
      "board": "Dear. IU",
      "members_only": 0,
      "author_username": "이지은바라기",
      "author_avatar": null,
      "author_local_avatar": null,
      "fan_comments": [],
      "direct_iu_replies": [
        {
          "id": 1804,
          "content_ko": "내가 저번에 모르면 몇 번이랬지!? 기억하지?!",
          "content_zh": "我上次说不知道是几个!? 记得吧？！",
          "image_count": 0,
          "image_urls": null,
          "local_image_paths": null,
          "replied_at": "2025-05-18 15:59:50"
        }
      ]
    },
    {
      "id": 970,
      "post_uuid": "0196e410-e8bf-ad7c-3d23-17b391f32cc8",
      "title_ko": null,
      "title_zh": null,
      "content_ko": "언니.. 근데 진지하게 꽃갈피 셋 사진들 너무 예뻐\n나중에 미공개 사진들 스무 장 꽉꽉 채워서 많이 많이 올려줘요🥲 알겠찌이?!",
      "content_zh": "姐姐... 说真的，那三张花絮照片太好看了\n之后把未公开的照片多上传二十张，满满当当地发给我看好吗🥲知道了吗？！",
      "post_time": "2025-05-18 15:43:55",
      "image_count": 0,
      "image_urls": null,
      "local_image_paths": null,
      "likes": 0,
      "comments": 0,
      "views": 0,
      "board": "Dear. IU",
      "members_only": 0,
      "author_username": "땡경",
      "author_avatar": "https://dearimage.iu101.org/images/avatars/avatar_196.png",
      "author_local_avatar": "https://dearimage.iu101.org/images/avatars/avatar_196.png",
      "fan_comments": [],
      "direct_iu_replies": [
        {
          "id": 1803,
          "content_ko": "비하인드 말고 미공개 사진이라?! 일단 기억해 둘게!! 이번에 사진 진짜 좋지 나도 너무 마음에 들어!! 🥰",
          "content_zh": "不是幕后而是未公开照片？！先记下来!! 这次照片真的不错，我也很喜欢!! 🥰",
          "image_count": 0,
          "image_urls": null,
          "local_image_paths": null,
          "replied_at": "2025-05-18 16:01:32"
        }
      ]
    },
    {
      "id": 969,
      "post_uuid": "0196e410-e255-79db-32ae-c10d7ba5ad79",
      "title_ko": null,
      "title_zh": null,
      "content_ko": "언니 언제 잘거에요??",
      "content_zh": "姐姐什么时候睡觉啊？？",
      "post_time": "2025-05-18 15:43:53",
      "image_count": 0,
      "image_urls": null,
      "local_image_paths": null,
      "likes": 0,
      "comments": 0,
      "views": 0,
      "board": "Dear. IU",
      "members_only": 0,
      "author_username": "투투",
      "author_avatar": null,
      "author_local_avatar": null,
      "fan_comments": [],
      "direct_iu_replies": [
        {
          "id": 1802,
          "content_ko": "투투야 얼릉 자 나 내일도 온다니까아~~~~🤫",
          "content_zh": "图图快睡吧明天我也来~~~~🤫",
          "image_count": 0,
          "image_urls": null,
          "local_image_paths": null,
          "replied_at": "2025-05-18 16:02:02"
        }
      ]
    },
    {
      "id": 968,
      "post_uuid": "0196e410-a78a-bdc6-ea97-281e54e6b53c",
      "title_ko": null,
      "title_zh": null,
      "content_ko": "누나 혹시 타이틀곡 힌트 이모티콘으로 주실 수 있어요?! 아니면 다음 티저 힌트라도..?",
      "content_zh": "姐姐能用表情符号给我们一些主打歌的提示吗？或者下个预告片的提示也行...？",
      "post_time": "2025-05-18 15:43:38",
      "image_count": 0,
      "image_urls": null,
      "local_image_paths": null,
      "likes": 0,
      "comments": 0,
      "views": 0,
      "board": "Dear. IU",
      "members_only": 0,
      "author_username": "별모양쿠키",
      "author_avatar": null,
      "author_local_avatar": null,
      "fan_comments": [],
      "direct_iu_replies": [
        {
          "id": 1801,
          "content_ko": "타이틀곡 이모지는 이거다 싶은 게 없구\n다음 티저 힌트 간다!!",
          "content_zh": "主打歌的表情符号没有特别想用的",
          "image_count": 0,
          "image_urls": null,
          "local_image_paths": null,
          "replied_at": "2025-05-18 16:04:14"
        },
        {
          "id": 1800,
          "content_ko": "📞",
          "content_zh": "📞",
          "image_count": 0,
          "image_urls": null,
          "local_image_paths": null,
          "replied_at": "2025-05-18 16:04:32"
        }
      ]
    },
    {
      "id": 967,
      "post_uuid": "0196e410-a127-3948-4ae2-b56da9e4ed72",
      "title_ko": null,
      "title_zh": null,
      "content_ko": "언니 웃참생파 그거 봤어요? ㅋㅋㅋㅋㅋㅋㅋ 언니 시작부터 웃음 못참던데!!!!",
      "content_zh": "姐姐，你看了《笑长生派》那个视频吗？哈哈哈 姐姐从开始就忍不住笑了！！！",
      "post_time": "2025-05-18 15:43:37",
      "image_count": 0,
      "image_urls": null,
      "local_image_paths": null,
      "likes": 0,
      "comments": 0,
      "views": 0,
      "board": "Dear. IU",
      "members_only": 0,
      "author_username": "몽몽몽몽",
      "author_avatar": null,
      "author_local_avatar": null,
      "fan_comments": [],
      "direct_iu_replies": [
        {
          "id": 1799,
          "content_ko": "거기 입장할 때부터 분위기 찐으로 삼엄해서 진짜 더 웃겨 몬주알죠",
          "content_zh": "从那里入场开始氛围就很严肃所以更搞笑你知道吧",
          "image_count": 0,
          "image_urls": null,
          "local_image_paths": null,
          "replied_at": "2025-05-18 16:05:17"
        }
      ]
    },
    {
      "id": 966,
      "post_uuid": "0196e410-9ca5-7e56-dac3-9c901a2eaf84",
      "title_ko": null,
      "title_zh": null,
      "content_ko": "누나 혹시 박카스 의미 부여해도 되죠??",
      "content_zh": "姐姐可以给朴卡斯赋予意义吗？？",
      "post_time": "2025-05-18 15:43:36",
      "image_count": 1,
      "image_urls": "https://dearimage.iu101.org/images/posts/post_966_64657438.jpg",
      "local_image_paths": "https://dearimage.iu101.org/images/posts/post_966_64657438.jpg",
      "likes": 0,
      "comments": 0,
      "views": 0,
      "board": "Dear. IU",
      "members_only": 0,
      "author_username": "JJuney⊰✿⊰✿⊰✿",
      "author_avatar": null,
      "author_local_avatar": null,
      "fan_comments": [],
      "direct_iu_replies": [
        {
          "id": 1798,
          "content_ko": "Aㅏ....",
          "content_zh": "Aㅏ....",
          "image_count": 0,
          "image_urls": null,
          "local_image_paths": null,
          "replied_at": "2025-05-18 16:05:35"
        }
      ]
    },
    {
      "id": 965,
      "post_uuid": "0196e410-8800-bbf0-da43-7f6e573b319f",
      "title_ko": null,
      "title_zh": null,
      "content_ko": "언니! 김초엽 작가 책도 많이 읽으시나요? 므레모사 읽었는데 언니에게도 추천하고 싶었어요!!!",
      "content_zh": "姐姐！金所炫作家的书你也读很多吗？我读了《姆雷莫萨》，也想推荐给姐姐看！！！",
      "post_time": "2025-05-18 15:43:30",
      "image_count": 0,
      "image_urls": null,
      "local_image_paths": null,
      "likes": 0,
      "comments": 0,
      "views": 0,
      "board": "Dear. IU",
      "members_only": 0,
      "author_username": "ㅇㅖ린",
      "author_avatar": null,
      "author_local_avatar": null,
      "fan_comments": [],
      "direct_iu_replies": [
        {
          "id": 1797,
          "content_ko": "초엽작가님 책 좋아해요 므레모사는 안 읽어 봤는데 읽어볼게요!!",
          "content_zh": "很喜欢初叶作家的书 梦游仙境没看过但会去看看的！！",
          "image_count": 0,
          "image_urls": null,
          "local_image_paths": null,
          "replied_at": "2025-05-18 16:06:45"
        }
      ]
    },
    {
      "id": 964,
      "post_uuid": "0196e410-5cd2-e144-55e9-696cf9e8b364",
      "title_ko": null,
      "title_zh": null,
      "content_ko": "我认为姐姐你该去睡觉了😠",
      "content_zh": "我觉得姐姐你应该去睡觉了😠",
      "post_time": "2025-05-18 15:43:19",
      "image_count": 0,
      "image_urls": null,
      "local_image_paths": null,
      "likes": 0,
      "comments": 0,
      "views": 0,
      "board": "Dear. IU",
      "members_only": 0,
      "author_username": "Schnee",
      "author_avatar": "https://dearimage.iu101.org/images/avatars/avatar_483.jpeg",
      "author_local_avatar": "https://dearimage.iu101.org/images/avatars/avatar_483.jpeg",
      "fan_comments": [],
      "direct_iu_replies": [
        {
          "id": 1796,
          "content_ko": "벌써? 🫩",
          "content_zh": "已经了吗？🫩",
          "image_count": 0,
          "image_urls": null,
          "local_image_paths": null,
          "replied_at": "2025-05-18 16:07:25"
        }
      ]
    },
    {
      "id": 963,
      "post_uuid": "0196e410-4892-afcf-6007-114a90c6b755",
      "title_ko": null,
      "title_zh": null,
      "content_ko": "언니 내가 유애나 8 기 가입 까먹었어 힝 ㅠㅠ\n아니 계속 가입해왔는데 하필 ㅠㅠ\n",
      "content_zh": "欧尼我忘记加入 IUana 第 8 期了呜呜 ㅠㅠ",
      "post_time": "2025-05-18 15:43:14",
      "image_count": 0,
      "image_urls": null,
      "local_image_paths": null,
      "likes": 0,
      "comments": 0,
      "views": 0,
      "board": "Dear. IU",
      "members_only": 0,
      "author_username": "注销的用户",
      "author_avatar": null,
      "author_local_avatar": null,
      "fan_comments": [],
      "direct_iu_replies": [
        {
          "id": 1795,
          "content_ko": "괜찮아! 우리가 앞으로 몇○○○을 더 같이 할 건데!! 👭",
          "content_zh": "没关系！我们以后还要一起做很多很多事呢！！👭",
          "image_count": 0,
          "image_urls": null,
          "local_image_paths": null,
          "replied_at": "2025-05-18 16:08:38"
        }
      ]
    },
    {
      "id": 962,
      "post_uuid": "0196e410-2b63-d9de-a496-e43955ef07d7",
      "title_ko": null,
      "title_zh": null,
      "content_ko": "보검님이랑 뮤비 촬영 목격담이 올라왔던데!!!!!\n그럼 차은우님이랑 찍은 거까지 최소 뮤비 2 개라는 거징니~?",
      "content_zh": "有人上传了朴健和拍 MV 的目击证言！！！\n那加上和车银优一起拍的，至少有两部 MV 了吧~？",
      "post_time": "2025-05-18 15:43:07",
      "image_count": 0,
      "image_urls": null,
      "local_image_paths": null,
      "likes": 0,
      "comments": 0,
      "views": 0,
      "board": "Dear. IU",
      "members_only": 0,
      "author_username": "별하달",
      "author_avatar": "https://dearimage.iu101.org/images/avatars/avatar_19.jpeg",
      "author_local_avatar": "https://dearimage.iu101.org/images/avatars/avatar_19.jpeg",
      "fan_comments": [],
      "direct_iu_replies": [
        {
          "id": 1794,
          "content_ko": "하나는 잘못된 정보인 듯 🤫",
          "content_zh": "其中一个是错误信息 🤫",
          "image_count": 0,
          "image_urls": null,
          "local_image_paths": null,
          "replied_at": "2025-05-18 16:09:33"
        }
      ]
    },
    {
      "id": 961,
      "post_uuid": "0196e40f-8d7c-8048-5e8c-6e9297ac4444",
      "title_ko": null,
      "title_zh": null,
      "content_ko": "언니 나 오늘 생일인데!! 혹시 생일 축하해 줄 수 있어??!!",
      "content_zh": "欧尼我今天生日！能祝我生日快乐吗？！",
      "post_time": "2025-05-18 15:42:26",
      "image_count": 0,
      "image_urls": null,
      "local_image_paths": null,
      "likes": 0,
      "comments": 0,
      "views": 0,
      "board": "Dear. IU",
      "members_only": 0,
      "author_username": "이유없는이유는없다",
      "author_avatar": null,
      "author_local_avatar": null,
      "fan_comments": [],
      "direct_iu_replies": [
        {
          "id": 1793,
          "content_ko": "생일 축하해 🎂🎁🥳🎉😘",
          "content_zh": "生日快乐 🎂🎁🥳🎉😘",
          "image_count": 0,
          "image_urls": null,
          "local_image_paths": null,
          "replied_at": "2025-05-18 16:12:02"
        }
      ]
    },
    {
      "id": 960,
      "post_uuid": "0196e40f-5341-804b-d9f7-bd58518e8dc3",
      "title_ko": null,
      "title_zh": null,
      "content_ko": "생카에 운동화 두는건 언니생각인가요🥹🥹",
      "content_zh": "生图里放运动鞋是想着欧尼吗🥹🥹",
      "post_time": "2025-05-18 15:42:11",
      "image_count": 0,
      "image_urls": null,
      "local_image_paths": null,
      "likes": 0,
      "comments": 0,
      "views": 0,
      "board": "Dear. IU",
      "members_only": 0,
      "author_username": "어서",
      "author_avatar": "https://dearimage.iu101.org/images/avatars/avatar_235.jpeg",
      "author_local_avatar": "https://dearimage.iu101.org/images/avatars/avatar_235.jpeg",
      "fan_comments": [],
      "direct_iu_replies": [
        {
          "id": 1792,
          "content_ko": "아님!! 이담의 과감한 스포일러에 저도 깜짝 놀랐지만 재밌을 것 같아서 킵고잉함 🙂‍↕️",
          "content_zh": "不过！！对于之后的大胆剧透我也吓了一跳但感觉会很有趣所以继续进行 🙂‍↕️",
          "image_count": 0,
          "image_urls": null,
          "local_image_paths": null,
          "replied_at": "2025-05-18 16:13:28"
        }
      ]
    },
    {
      "id": 959,
      "post_uuid": "0196e40f-32c3-f900-7187-0de1f30b5639",
      "title_ko": null,
      "title_zh": null,
      "content_ko": "누나, 이번 트랙은 녹음할 때 힘들지는 않았어요?🥺 전에 럽윈올 녹음할 때 누나 아팠던 거 생각하면ㅠㅠ😭 더는 아프지 말아요 누나!💜",
      "content_zh": "欧尼，这次音轨录制时辛苦吗？🥺想到之前 Love wins all 录制时欧尼生病了ㅠㅠ😭欧尼不要再生病了！💜",
      "post_time": "2025-05-18 15:42:03",
      "image_count": 0,
      "image_urls": null,
      "local_image_paths": null,
      "likes": 0,
      "comments": 0,
      "views": 0,
      "board": "Dear. IU",
      "members_only": 0,
      "author_username": "영훈스윗",
      "author_avatar": null,
      "author_local_avatar": null,
      "fan_comments": [],
      "direct_iu_replies": [
        {
          "id": 1791,
          "content_ko": "이번 녹음은 한 곡 빼고 🤫 다 너무 수월하게 재미있게 했어요!",
          "content_zh": "这次录音除了其中一首 🤫其他都做得很顺利很开心！",
          "image_count": 0,
          "image_urls": null,
          "local_image_paths": null,
          "replied_at": "2025-05-18 16:14:17"
        }
      ]
    },
    {
      "id": 957,
      "post_uuid": "0196e40f-0e85-75f4-5fdf-f9ecd855ce05",
      "title_ko": null,
      "title_zh": null,
      "content_ko": "언니는 그 색깔의 574 가 가장 마음에 들었다",
      "content_zh": "欧尼最喜欢那个颜色的 574",
      "post_time": "2025-05-18 15:41:54",
      "image_count": 0,
      "image_urls": null,
      "local_image_paths": null,
      "likes": 0,
      "comments": 0,
      "views": 0,
      "board": "Dear. IU",
      "members_only": 0,
      "author_username": "OShang",
      "author_avatar": null,
      "author_local_avatar": null,
      "fan_comments": [],
      "direct_iu_replies": [
        {
          "id": 1789,
          "content_ko": "I love 574",
          "content_zh": "I love 574",
          "image_count": 0,
          "image_urls": null,
          "local_image_paths": null,
          "replied_at": "2025-05-18 16:14:43"
        }
      ]
    },
    {
      "id": 958,
      "post_uuid": "0196e40f-100b-ca5c-e578-9f728a1c9bf4",
      "title_ko": null,
      "title_zh": null,
      "content_ko": "그럼 8 곡 업 아니면 다운?",
      "content_zh": "那么 8 首是 up 还是 down？",
      "post_time": "2025-05-18 15:41:54",
      "image_count": 0,
      "image_urls": null,
      "local_image_paths": null,
      "likes": 0,
      "comments": 0,
      "views": 0,
      "board": "Dear. IU",
      "members_only": 0,
      "author_username": "지나가던시민",
      "author_avatar": null,
      "author_local_avatar": null,
      "fan_comments": [],
      "direct_iu_replies": [
        {
          "id": 1790,
          "content_ko": "다운",
          "content_zh": "下降",
          "image_count": 0,
          "image_urls": null,
          "local_image_paths": null,
          "replied_at": "2025-05-18 16:14:29"
        }
      ]
    },
    {
      "id": 956,
      "post_uuid": "0196e40e-fe1d-e971-77ce-e7ea6327ab80",
      "title_ko": null,
      "title_zh": null,
      "content_ko": "엉니 우리 아직 공카 못 잃었지만 베리즈도 좋긴 좋다 그쵸……",
      "content_zh": "嗯尼我们虽然还没失去公咖但 Berryz 也很好对吧……",
      "post_time": "2025-05-18 15:41:49",
      "image_count": 0,
      "image_urls": null,
      "local_image_paths": null,
      "likes": 0,
      "comments": 0,
      "views": 0,
      "board": "Dear. IU",
      "members_only": 0,
      "author_username": "찡니뽀",
      "author_avatar": "https://dearimage.iu101.org/images/avatars/avatar_83.jpeg",
      "author_local_avatar": "https://dearimage.iu101.org/images/avatars/avatar_83.jpeg",
      "fan_comments": [],
      "direct_iu_replies": [
        {
          "id": 1788,
          "content_ko": "정말 다른 매력!! 둘 다 함께해🫶",
          "content_zh": "真的不同魅力！！两个一起🫶",
          "image_count": 0,
          "image_urls": null,
          "local_image_paths": null,
          "replied_at": "2025-05-18 16:15:09"
        }
      ]
    },
    {
      "id": 989,
      "post_uuid": "0196e3f2-a882-2eac-0cf9-e168da1b0290",
      "title_ko": null,
      "title_zh": null,
      "content_ko": "징니는 과연 몇 테이크만에 오케이 했을까??",
      "content_zh": "知恩到底拍了几条就过了？？",
      "post_time": "2025-05-18 15:10:53",
      "image_count": 0,
      "image_urls": null,
      "local_image_paths": null,
      "likes": 0,
      "comments": 0,
      "views": 0,
      "board": "Dear. IU",
      "members_only": 0,
      "author_username": "백땅꿀설탕",
      "author_avatar": null,
      "author_local_avatar": null,
      "fan_comments": [],
      "direct_iu_replies": [
        {
          "id": 1823,
          "content_ko": "3 테이크였던 것으로 기억..? 🤔",
          "content_zh": "我记得是3次拍摄..? 🤔",
          "image_count": 0,
          "image_urls": null,
          "local_image_paths": null,
          "replied_at": "2025-05-18 15:25:39"
        }
      ]
    }
  ]
}
