{
  "page": 34,
  "totalPages": 45,
  "total": 895,
  "data": [
    {
      "id": 738,
      "post_uuid": "019732de-962d-ded3-b016-2bb8c6c15775",
      "title_ko": null,
      "title_zh": null,
      "content_ko": "언니...저 투표사무원 하는중인데 투표소가 지하주차장이라 여기 완전 모기집이에요~~~~🦟🦟🦟의자밑으로 탭댄스추는중~~~ㅠㅠㅠㅠㅠㅠ벌써 다섯방 물렸어잉ㅠㅠㅠ",
      "content_zh": "姐姐...我在当投票工作人员，投票站是地下停车场，这里完全是蚊子窝~~~~🦟🦟🦟在椅子下面跳踢踏舞~~~ㅠㅠㅠㅠㅠㅠ已经被咬五次了ㅠㅠㅠ",
      "post_time": "2025-06-02 22:58:57",
      "image_count": 0,
      "image_urls": null,
      "local_image_paths": null,
      "likes": 0,
      "comments": 0,
      "views": 0,
      "board": "Dear. IU",
      "members_only": 0,
      "author_username": "해나애나",
      "author_avatar": null,
      "author_local_avatar": null,
      "fan_comments": [],
      "direct_iu_replies": [
        {
          "id": 1568,
          "content_ko": "으악 안 돼!!! 모기 퇴치제!!!!!!! ",
          "content_zh": "啊啊不行！！！驱蚊剂！！！！！",
          "image_count": 0,
          "image_urls": null,
          "local_image_paths": null,
          "replied_at": "2025-06-02 22:59:53"
        }
      ]
    },
    {
      "id": 737,
      "post_uuid": "019732de-7821-84e5-b7d0-b4d418851a1c",
      "title_ko": null,
      "title_zh": null,
      "content_ko": "안녕하세요 누나!\n조금 이른 감이 없진 않지만 저녁 메뉴 추천해 주 실수 있나요? 좋은 하루 되세요",
      "content_zh": "你好姐姐！\n虽然有点早，但能推荐一下晚餐菜单吗？祝你有美好的一天。",
      "post_time": "2025-06-02 22:58:50",
      "image_count": 0,
      "image_urls": null,
      "local_image_paths": null,
      "likes": 0,
      "comments": 0,
      "views": 0,
      "board": "Dear. IU",
      "members_only": 0,
      "author_username": "김고양이",
      "author_avatar": null,
      "author_local_avatar": null,
      "fan_comments": [],
      "direct_iu_replies": [
        {
          "id": 1567,
          "content_ko": "라면에 김치에 김밥?",
          "content_zh": "拉面配泡菜配紫菜包饭？",
          "image_count": 0,
          "image_urls": null,
          "local_image_paths": null,
          "replied_at": "2025-06-02 23:06:43"
        },
        {
          "id": 1566,
          "content_ko": "아 김밥은 참치 김밥!",
          "content_zh": "啊紫菜包饭是金枪鱼紫菜包饭！",
          "image_count": 0,
          "image_urls": null,
          "local_image_paths": null,
          "replied_at": "2025-06-02 23:07:04"
        }
      ]
    },
    {
      "id": 743,
      "post_uuid": "019732cc-cc9c-8656-8ede-47133aa844e5",
      "title_ko": null,
      "title_zh": null,
      "content_ko": "언니!!! 지금 일어나는거에요? 아니면 자기전이요?",
      "content_zh": "姐姐！！！现在是刚醒吗？还是睡前？",
      "post_time": "2025-06-02 22:39:31",
      "image_count": 0,
      "image_urls": null,
      "local_image_paths": null,
      "likes": 0,
      "comments": 0,
      "views": 0,
      "board": "Dear. IU",
      "members_only": 0,
      "author_username": "루카.",
      "author_avatar": "https://dearimage.iu101.org/images/avatars/avatar_273.jpeg",
      "author_local_avatar": "https://dearimage.iu101.org/images/avatars/avatar_273.jpeg",
      "fan_comments": [],
      "direct_iu_replies": [
        {
          "id": 1573,
          "content_ko": "일어났지요~~~~~😙",
          "content_zh": "起床了吧~~~~~😙",
          "image_count": 0,
          "image_urls": null,
          "local_image_paths": null,
          "replied_at": "2025-06-02 22:41:39"
        }
      ]
    },
    {
      "id": 742,
      "post_uuid": "019732cc-824c-3364-1634-4b5f9c86871c",
      "title_ko": null,
      "title_zh": null,
      "content_ko": "🗳️굿모닝~ 오늘은 선거일! \n소중한 한표 잊지 마세요😊",
      "content_zh": "🗳️早安~今天是选举日！",
      "post_time": "2025-06-02 22:39:12",
      "image_count": 1,
      "image_urls": "https://dearimage.iu101.org/images/posts/post_742_617723836.jpeg",
      "local_image_paths": "https://dearimage.iu101.org/images/posts/post_742_617723836.jpeg",
      "likes": 0,
      "comments": 0,
      "views": 0,
      "board": "Dear. IU",
      "members_only": 0,
      "author_username": "나의취미는아이유",
      "author_avatar": null,
      "author_local_avatar": null,
      "fan_comments": [],
      "direct_iu_replies": [
        {
          "id": 1572,
          "content_ko": "잊지 마세요 🏃‍♀️🏃‍♀️🏃‍♀️🏃‍♀️🏃‍♀️🏃‍♀️🏃‍♀️",
          "content_zh": "不要忘记🏃‍♀️🏃‍♀️🏃‍♀️🏃‍♀️🏃‍♀️🏃‍♀️🏃‍♀️",
          "image_count": 0,
          "image_urls": null,
          "local_image_paths": null,
          "replied_at": "2025-06-02 22:42:05"
        }
      ]
    },
    {
      "id": 741,
      "post_uuid": "019732cc-1226-450c-02d9-f6b81009ae19",
      "title_ko": null,
      "title_zh": null,
      "content_ko": "아이유 언니, 혹시 아직도 많은 팬들이 네모의 꿈 뮤직비디오를 기다리고 있다는 거 알고 계신가요?\n노래가 정말 아름답고 가사도 깊은데, 멜로디와 리듬은 반대로 참 재미있고 중독성도 강해서 계속 흥얼거리게 돼요.\n저를 포함한 많은 팬들이 이 노래의 뮤직비디오를 언젠가 꼭 볼 수 있기를 간절히 바라고 있어요.\n혹시 언니께서 나중에라도 공개해주실 가능성이 있을까요?\n멀리서지만 항상 언니를 진심으로 응원하고 있어요. 늘 좋은 음악 들려줘서 정말 고마워요. 💜",
      "content_zh": "IU欧尼，您知道现在还有很多粉丝在期待《Nemo的梦》的MV吗？\n这首歌真的非常优美，歌词也很有深度，而旋律和节奏却意外地有趣且洗脑，让人忍不住一直哼唱。\n包括我在内的很多粉丝都真心希望能有机会看到这首歌的MV。\n欧尼以后有没有可能公开呢？\n虽然相隔遥远，但我会一直真心支持您。谢谢您总是带来这么好的音乐。💜",
      "post_time": "2025-06-02 22:38:44",
      "image_count": 0,
      "image_urls": null,
      "local_image_paths": null,
      "likes": 0,
      "comments": 0,
      "views": 0,
      "board": "Dear. IU",
      "members_only": 0,
      "author_username": "엘레나♡",
      "author_avatar": null,
      "author_local_avatar": null,
      "fan_comments": [],
      "direct_iu_replies": [
        {
          "id": 1571,
          "content_ko": "늦게라도. 알겠어!",
          "content_zh": "就算晚点也知道了！",
          "image_count": 0,
          "image_urls": null,
          "local_image_paths": null,
          "replied_at": "2025-06-02 22:43:33"
        }
      ]
    },
    {
      "id": 740,
      "post_uuid": "019732cb-a545-69db-8774-ab510663d4ac",
      "title_ko": null,
      "title_zh": null,
      "content_ko": "난 스무살!! 드디어 투표권이 생걋다!! 꺄호 오늘은 투표하는날",
      "content_zh": "我二十岁了！！终于有投票权了！！呀今天是投票日",
      "post_time": "2025-06-02 22:38:16",
      "image_count": 0,
      "image_urls": null,
      "local_image_paths": null,
      "likes": 0,
      "comments": 0,
      "views": 0,
      "board": "Dear. IU",
      "members_only": 0,
      "author_username": "쥬쥬",
      "author_avatar": null,
      "author_local_avatar": null,
      "fan_comments": [],
      "direct_iu_replies": [
        {
          "id": 1570,
          "content_ko": "축하해 쥬쥬! 소중한 권리 행사하고 오도록!!!! \n>.<",
          "content_zh": "恭喜小秋！好好行使珍贵的权利回来哦！！",
          "image_count": 0,
          "image_urls": null,
          "local_image_paths": null,
          "replied_at": "2025-06-02 22:44:42"
        }
      ]
    },
    {
      "id": 739,
      "post_uuid": "019732cb-38ff-2788-98b5-8fbb1552e4cd",
      "title_ko": null,
      "title_zh": null,
      "content_ko": "언니 어제 학교에서 제일 잘하는 졸업생이 되었어요. 언니의 노래가 공부에 큰 힘이 되어줘서 정말 감사해요. 아이유 사랑해요. ( 번역을 사용합니다 )",
      "content_zh": "姐姐，昨天我在学校成了最优秀的毕业生。姐姐的歌给了我学习上很大的力量，真的非常感谢。爱IU。（使用翻译）",
      "post_time": "2025-06-02 22:37:48",
      "image_count": 1,
      "image_urls": "https://dearimage.iu101.org/images/posts/post_739_847877493.jpg",
      "local_image_paths": "https://dearimage.iu101.org/images/posts/post_739_847877493.jpg",
      "likes": 0,
      "comments": 0,
      "views": 0,
      "board": "Dear. IU",
      "members_only": 0,
      "author_username": "Husnyu",
      "author_avatar": null,
      "author_local_avatar": null,
      "fan_comments": [],
      "direct_iu_replies": [
        {
          "id": 1569,
          "content_ko": "축하해! 얼마나 많이 노력했을까 쓰담쓰담 토닥토닥 🥹",
          "content_zh": "恭喜！一定付出了很多努力吧摸摸头拍拍背🥹",
          "image_count": 0,
          "image_urls": null,
          "local_image_paths": null,
          "replied_at": "2025-06-02 22:46:10"
        }
      ]
    },
    {
      "id": 750,
      "post_uuid": "019732b2-73eb-b3ea-f0fc-08aadec65b42",
      "title_ko": null,
      "title_zh": null,
      "content_ko": "유모닝~",
      "content_zh": "早安~",
      "post_time": "2025-06-02 22:10:45",
      "image_count": 1,
      "image_urls": "https://dearimage.iu101.org/images/posts/post_750_1918054035.jpg",
      "local_image_paths": "https://dearimage.iu101.org/images/posts/post_750_1918054035.jpg",
      "likes": 0,
      "comments": 0,
      "views": 0,
      "board": "Dear. IU",
      "members_only": 0,
      "author_username": "미니언",
      "author_avatar": "https://dearimage.iu101.org/images/avatars/avatar_89.gif",
      "author_local_avatar": "https://dearimage.iu101.org/images/avatars/avatar_89.gif",
      "fan_comments": [],
      "direct_iu_replies": [
        {
          "id": 1580,
          "content_ko": "유모닝~~~~🌸",
          "content_zh": "早安~~~~🌸",
          "image_count": 0,
          "image_urls": null,
          "local_image_paths": null,
          "replied_at": "2025-06-02 22:24:46"
        }
      ]
    },
    {
      "id": 749,
      "post_uuid": "019732ad-7c08-80a4-3c66-2d6b708acb66",
      "title_ko": null,
      "title_zh": null,
      "content_ko": "아침 일찍부터 투표하고 왔어요 〰️",
      "content_zh": "一大早来投票了 〰️",
      "post_time": "2025-06-02 22:05:19",
      "image_count": 0,
      "image_urls": null,
      "local_image_paths": null,
      "likes": 0,
      "comments": 0,
      "views": 0,
      "board": "Dear. IU",
      "members_only": 0,
      "author_username": "한여름밤_현이",
      "author_avatar": null,
      "author_local_avatar": null,
      "fan_comments": [],
      "direct_iu_replies": [
        {
          "id": 1579,
          "content_ko": "아이고 대단하다 피곤하진 않았어요?",
          "content_zh": "哎呀厉害啊不累吗？",
          "image_count": 0,
          "image_urls": null,
          "local_image_paths": null,
          "replied_at": "2025-06-02 22:25:18"
        }
      ]
    },
    {
      "id": 748,
      "post_uuid": "01973292-5914-b53d-7896-add2393b2910",
      "title_ko": null,
      "title_zh": null,
      "content_ko": "오늘 일찍 일어나서\n인생 처음으로 투표해봤어요!! \n오늘 일찍 부터 촬영 고생하시구 날씨 왕 좋았으면\n좋겠다!!🥰 사랑해요 화이팅",
      "content_zh": "今天早早起床，\n人生第一次去投票了！！\n从今天开始拍摄辛苦了，如果天气一直这么好就太棒了！！🥰 爱你们，加油",
      "post_time": "2025-06-02 21:35:41",
      "image_count": 1,
      "image_urls": "https://dearimage.iu101.org/images/posts/post_748_1978478880.jpg",
      "local_image_paths": "https://dearimage.iu101.org/images/posts/post_748_1978478880.jpg",
      "likes": 0,
      "comments": 0,
      "views": 0,
      "board": "Dear. IU",
      "members_only": 0,
      "author_username": "JAEHUN",
      "author_avatar": null,
      "author_local_avatar": null,
      "fan_comments": [],
      "direct_iu_replies": [
        {
          "id": 1578,
          "content_ko": "오늘 제가 있는 곳은 덥지도 않고 날씨 왕 좋을 예정!! 🙂‍↕️서울도 날씨 끝내주길!!",
          "content_zh": "今天我所在的地方不热天气预计超棒！！🙂‍↕️首尔天气也要完美！！",
          "image_count": 0,
          "image_urls": null,
          "local_image_paths": null,
          "replied_at": "2025-06-02 22:26:36"
        }
      ]
    },
    {
      "id": 747,
      "post_uuid": "01973292-0674-ca9f-9a08-e37f2939499b",
      "title_ko": null,
      "title_zh": null,
      "content_ko": "언니 우리 이 날 데이트 재밌었지 ~! 🐥🐥\n담에는 내가 탕수육 살게 또 놀쟈 💗",
      "content_zh": "姐姐我们那天约会很有趣吧~！ 🐥🐥",
      "post_time": "2025-06-02 21:35:20",
      "image_count": 1,
      "image_urls": "https://dearimage.iu101.org/images/posts/post_747_1923187435.jpeg",
      "local_image_paths": "https://dearimage.iu101.org/images/posts/post_747_1923187435.jpeg",
      "likes": 0,
      "comments": 0,
      "views": 0,
      "board": "Dear. IU",
      "members_only": 0,
      "author_username": "말랑찹쌀떡",
      "author_avatar": "https://dearimage.iu101.org/images/avatars/avatar_29.jpeg",
      "author_local_avatar": "https://dearimage.iu101.org/images/avatars/avatar_29.jpeg",
      "fan_comments": [],
      "direct_iu_replies": [
        {
          "id": 1577,
          "content_ko": "이 날 진짜...캔모아 갔어야 하는데 줄 넘 길어가지구.. ㅜㅜ 다음엔 꼭 가자!!!",
          "content_zh": "这天真的...应该去现场的但是队伍太长了..ㅜㅜ下次一定要去！！！",
          "image_count": 0,
          "image_urls": null,
          "local_image_paths": null,
          "replied_at": "2025-06-02 22:27:25"
        }
      ]
    },
    {
      "id": 746,
      "post_uuid": "01973243-2b78-3033-fdc3-ea6bd9dce3a0",
      "title_ko": null,
      "title_zh": null,
      "content_ko": "언니 나는 투표사무원이라 지금 일하러 왔어~! 15시간 동안 파이팅해볼게 언니도 오늘 첫 촬영 파이팅이야!!",
      "content_zh": "姐姐，我是投票工作人员，现在来上班了~！15小时加油！姐姐今天第一天拍摄也加油！！",
      "post_time": "2025-06-02 20:09:12",
      "image_count": 0,
      "image_urls": null,
      "local_image_paths": null,
      "likes": 0,
      "comments": 0,
      "views": 0,
      "board": "Dear. IU",
      "members_only": 0,
      "author_username": "챙애나",
      "author_avatar": null,
      "author_local_avatar": null,
      "fan_comments": [],
      "direct_iu_replies": [
        {
          "id": 1576,
          "content_ko": "아이고 긴 하루가 되겠구나 챙이 파이팅!!!!!!! ",
          "content_zh": "哎呀漫长的一天开始了，灿伊加油！！！！！",
          "image_count": 0,
          "image_urls": null,
          "local_image_paths": null,
          "replied_at": "2025-06-02 22:33:22"
        }
      ]
    },
    {
      "id": 745,
      "post_uuid": "019731d3-cb2e-98c2-bc51-9b09c302862a",
      "title_ko": null,
      "title_zh": null,
      "content_ko": "북극광을 구경하던 중 '꽃갈피 3'을 반복해서 틀었는데, 그날 밤 열 명이 팬이 됐어요.",
      "content_zh": "看极光时循环播放《花路3》，那天晚上多了十个粉丝。",
      "post_time": "2025-06-02 18:07:33",
      "image_count": 2,
      "image_urls": "https://dearimage.iu101.org/images/posts/post_745_1210939522.jpeg",
      "local_image_paths": "https://dearimage.iu101.org/images/posts/post_745_1210939522.jpeg|https://dearimage.iu101.org/images/posts/post_745_1208871782.jpeg",
      "likes": 0,
      "comments": 0,
      "views": 0,
      "board": "Dear. IU",
      "members_only": 0,
      "author_username": "줄리앙",
      "author_avatar": "https://dearimage.iu101.org/images/avatars/avatar_145.jpeg",
      "author_local_avatar": "https://dearimage.iu101.org/images/avatars/avatar_145.jpeg",
      "fan_comments": [],
      "direct_iu_replies": [
        {
          "id": 1575,
          "content_ko": "와 너무 예쁘다....",
          "content_zh": "哇太美了....",
          "image_count": 0,
          "image_urls": null,
          "local_image_paths": null,
          "replied_at": "2025-06-02 22:34:28"
        }
      ]
    },
    {
      "id": 744,
      "post_uuid": "019731ce-3ecb-8bcb-b5bb-8a0d7d6fe4b1",
      "title_ko": null,
      "title_zh": null,
      "content_ko": "언니는 엄청난 부담감과 책임감에 따른 스트레스가 많을때 어떻게 이겨내는 편이에요..? \n회사에서 저에게 무리한 걸 요구하는데 재밌겠다, 할수 있겠다 싶다가도 새벽에 잠이 깰정도로 너무 부담스러워서 미칠 것 같아요.. \n회사에 못하겠다 라고 말하기엔 못해내는 제 자신이 싫기도 하고 저 말고 할 사람이 없기도 해요🥹 \n언니 노래를 들으면서 하루하루 묵묵히 살아내고는 있는데 저보다 사회생활을 많이 해본 선배로서 조언 해준다면 더 잘 헤쳐나갈수 있을것 같아요🥹 \n올해부터 대운이라고 했는데,,,언제 저에게 좋은날이 올랑가요",
      "content_zh": "姐姐面对巨大的压力和责任感时，通常是怎么熬过来的呢？\n公司对我提出过分的要求时，一开始还会觉得有趣、能应付，但半夜会被压力折磨到睡不着觉，感觉快要崩溃了。\n虽然也讨厌自己无法胜任的样子，但又找不到其他人可以替代我🥹\n每天听着姐姐的歌，默默坚持着生活，不过作为比我更有社会经验的前辈，如果能给我一些建议的话，我想我能更好地度过难关🥹\n从今年开始说是大运年，可是我的好日子什么时候才能来呢",
      "post_time": "2025-06-02 18:01:29",
      "image_count": 0,
      "image_urls": null,
      "local_image_paths": null,
      "likes": 0,
      "comments": 0,
      "views": 0,
      "board": "Dear. IU",
      "members_only": 0,
      "author_username": "또바기",
      "author_avatar": null,
      "author_local_avatar": null,
      "fan_comments": [],
      "direct_iu_replies": [
        {
          "id": 1574,
          "content_ko": "회사도 실리를 추구해야 할 텐데 엉뚱한 사람한테 큰 프로젝트를 덜컥 맡기진 않았을 것 같고 \n충분히 해낼 수 있을 거라는 믿음을 가지고 맡긴 걸 텐데 본인을 좀 더 회사 관점에서 믿어보는 건 어때요?! 과연 못해낼까? \n스트레스 받는 것 자체가 너무 싫다면 못할 것 같다고 하루라도 빨리 회사에 의견 전달하는 걸 추천! 근데 본인 마음 속 어딘가에 ‘아 어떻게 저떻게 할 수 있을 것 같긴 한데..’ 혹은 ‘하고 싶긴 한데..’하는 마음이 있다면 한 번쯤 무리해 보는 것도 추천! 대운 그런 건 자기가 하기 나름이라고 들었음!",
          "content_zh": "公司肯定也是要追求实际利益的，应该不会随便把重要项目交给不合适的人，肯定是觉得你有能力完成才会交给你。不如试着从公司的角度多相信自己一些？真的做不好吗？如果你特别讨厌承受压力，建议尽早向公司表明自己无法胜任。但如果你心里还有一点\"好像可以试试看\"或\"其实也想做\"的想法，那还是建议挑战一次！听说好运这种东西全靠自己努力争取！",
          "image_count": 0,
          "image_urls": null,
          "local_image_paths": null,
          "replied_at": "2025-06-02 22:40:59"
        }
      ]
    },
    {
      "id": 752,
      "post_uuid": "01973157-d909-c7e2-4fba-fdd768350b55",
      "title_ko": null,
      "title_zh": null,
      "content_ko": "엉니 나 이거 프린트해서 내일 투표 때 도장 찍구 올게 🩵",
      "content_zh": "姐姐，我会把这个打印出来明天投票时带着 🩵",
      "post_time": "2025-06-02 15:52:10",
      "image_count": 1,
      "image_urls": "https://dearimage.iu101.org/images/posts/post_752_423264182.jpeg",
      "local_image_paths": "https://dearimage.iu101.org/images/posts/post_752_423264182.jpeg",
      "likes": 0,
      "comments": 0,
      "views": 0,
      "board": "Dear. IU",
      "members_only": 0,
      "author_username": "임선아",
      "author_avatar": "https://dearimage.iu101.org/images/avatars/avatar_428.jpeg",
      "author_local_avatar": "https://dearimage.iu101.org/images/avatars/avatar_428.jpeg",
      "fan_comments": [],
      "direct_iu_replies": [
        {
          "id": 1582,
          "content_ko": "다들 센스도 좋아아 나도 할 걸",
          "content_zh": "大家都很有sense我也该做的",
          "image_count": 0,
          "image_urls": null,
          "local_image_paths": null,
          "replied_at": "2025-06-02 15:53:21"
        }
      ]
    },
    {
      "id": 751,
      "post_uuid": "01973157-9e3c-d34e-5673-4e3a889c98d6",
      "title_ko": null,
      "title_zh": null,
      "content_ko": "지은 언니, 80세까지 노래할 거 약속해요🙆",
      "content_zh": "智恩姐姐，承诺唱到80岁okay",
      "post_time": "2025-06-02 15:51:55",
      "image_count": 0,
      "image_urls": null,
      "local_image_paths": null,
      "likes": 0,
      "comments": 0,
      "views": 0,
      "board": "Dear. IU",
      "members_only": 0,
      "author_username": "YeMIU",
      "author_avatar": "https://dearimage.iu101.org/images/avatars/avatar_554.jpeg",
      "author_local_avatar": "https://dearimage.iu101.org/images/avatars/avatar_554.jpeg",
      "fan_comments": [],
      "direct_iu_replies": [
        {
          "id": 1581,
          "content_ko": "저...70 아니었나요..?",
          "content_zh": "我...不是70吗..？",
          "image_count": 0,
          "image_urls": null,
          "local_image_paths": null,
          "replied_at": "2025-06-02 15:54:44"
        }
      ]
    },
    {
      "id": 763,
      "post_uuid": "01973144-0044-3e49-408d-c38c6129704e",
      "title_ko": null,
      "title_zh": null,
      "content_ko": "징니!! 이번주도 드라마 촬영하나요?!!",
      "content_zh": "知恩！！这周也在拍电视剧吗？！",
      "post_time": "2025-06-02 15:30:29",
      "image_count": 0,
      "image_urls": null,
      "local_image_paths": null,
      "likes": 0,
      "comments": 0,
      "views": 0,
      "board": "Dear. IU",
      "members_only": 0,
      "author_username": "오이맛당근",
      "author_avatar": null,
      "author_local_avatar": null,
      "fan_comments": [],
      "direct_iu_replies": [
        {
          "id": 1593,
          "content_ko": "넹 내일도 아침콜~~~! 잠자리에 들었어요",
          "content_zh": "嗯明天也早安~~~！已经躺下睡觉了",
          "image_count": 0,
          "image_urls": null,
          "local_image_paths": null,
          "replied_at": "2025-06-02 15:31:15"
        }
      ]
    },
    {
      "id": 762,
      "post_uuid": "01973143-f711-ce49-037e-62e91c1d7859",
      "title_ko": null,
      "title_zh": null,
      "content_ko": "이거 봐요!!! 석촌호수에서 아기애나들이 더운데 홍보한다고 돌아다녓대요🥺",
      "content_zh": "快看这个！！！在石村湖边BABY AEANA们很热还在到处宣传呢🥺",
      "post_time": "2025-06-02 15:30:27",
      "image_count": 1,
      "image_urls": "https://dearimage.iu101.org/images/posts/post_762_1331124702.jpeg",
      "local_image_paths": "https://dearimage.iu101.org/images/posts/post_762_1331124702.jpeg",
      "likes": 0,
      "comments": 0,
      "views": 0,
      "board": "Dear. IU",
      "members_only": 0,
      "author_username": "윤주안",
      "author_avatar": "https://dearimage.iu101.org/images/avatars/avatar_37.jpeg",
      "author_local_avatar": "https://dearimage.iu101.org/images/avatars/avatar_37.jpeg",
      "fan_comments": [],
      "direct_iu_replies": [
        {
          "id": 1592,
          "content_ko": "아이고 얘들아 이담에 본인들이라고 주소 남겨! 이모가 사인 시디 보내줄게 요즘 낮에 덥던데 니궁 ㅠㅠ 고생했어어🫶",
          "content_zh": "哎呀孩子们下次留地址给我！阿姨给你们寄签名CD最近白天很热你们辛苦了ㅠㅠ辛苦了🫶",
          "image_count": 0,
          "image_urls": null,
          "local_image_paths": null,
          "replied_at": "2025-06-02 15:33:05"
        }
      ]
    },
    {
      "id": 761,
      "post_uuid": "01973143-f4a9-48d8-6941-b04db1e39010",
      "title_ko": null,
      "title_zh": null,
      "content_ko": "중학교 때 친구들이랑 증명사진을 서로 나눠 가졌던 기억이 나요 🥹\n이제 아이유 언니도 제 친구가 된 건가요? 헤헷",
      "content_zh": "初中时和朋友们互相分享证件照的记忆浮现出来了 🥹 现在IU姐姐也成了我的朋友吗？嘿嘿",
      "post_time": "2025-06-02 15:30:26",
      "image_count": 2,
      "image_urls": "https://dearimage.iu101.org/images/posts/post_761_648656744.jpeg",
      "local_image_paths": "https://dearimage.iu101.org/images/posts/post_761_259308586.jpeg|https://dearimage.iu101.org/images/posts/post_761_648656744.jpeg",
      "likes": 0,
      "comments": 0,
      "views": 0,
      "board": "Dear. IU",
      "members_only": 0,
      "author_username": "라라",
      "author_avatar": null,
      "author_local_avatar": null,
      "fan_comments": [],
      "direct_iu_replies": [
        {
          "id": 1591,
          "content_ko": "칭긔칭긔^^*",
          "content_zh": "亲亲^^*",
          "image_count": 0,
          "image_urls": null,
          "local_image_paths": null,
          "replied_at": "2025-06-02 15:33:41"
        }
      ]
    },
    {
      "id": 760,
      "post_uuid": "01973143-f1df-3776-cafb-16db1a1fa732",
      "title_ko": null,
      "title_zh": null,
      "content_ko": "지은언니💜 \n오늘은 뭐해요?\n스케줄있어요?",
      "content_zh": "知恩姐姐💜 今天在做什么？有安排吗？",
      "post_time": "2025-06-02 15:30:25",
      "image_count": 0,
      "image_urls": null,
      "local_image_paths": null,
      "likes": 0,
      "comments": 0,
      "views": 0,
      "board": "Dear. IU",
      "members_only": 0,
      "author_username": "아이유애나나",
      "author_avatar": "https://dearimage.iu101.org/images/avatars/avatar_160.jpeg",
      "author_local_avatar": "https://dearimage.iu101.org/images/avatars/avatar_160.jpeg",
      "fan_comments": [],
      "direct_iu_replies": [
        {
          "id": 1590,
          "content_ko": "서울에서 멀리 날아 왔어요! 낼 첫 씬부터!",
          "content_zh": "从首尔飞得很远来了！明天第一个场景开始！",
          "image_count": 0,
          "image_urls": null,
          "local_image_paths": null,
          "replied_at": "2025-06-02 15:34:46"
        }
      ]
    }
  ]
}