{
  "page": 21,
  "totalPages": 45,
  "total": 895,
  "data": [
    {
      "id": 477,
      "post_uuid": "0197977b-1f09-bc54-59df-66e9f170680f",
      "title_ko": null,
      "title_zh": null,
      "content_ko": "오늘 몇시에 자요?\n내일도 일하로 가시죠?",
      "content_zh": "今天几点睡？",
      "post_time": "2025-06-22 11:51:57",
      "image_count": 0,
      "image_urls": null,
      "local_image_paths": null,
      "likes": 0,
      "comments": 0,
      "views": 0,
      "board": "Dear. IU",
      "members_only": 0,
      "author_username": "루카.",
      "author_avatar": "https://dearimage.iu101.org/images/avatars/avatar_273.jpeg",
      "author_local_avatar": "https://dearimage.iu101.org/images/avatars/avatar_273.jpeg",
      "fan_comments": [],
      "direct_iu_replies": [
        {
          "id": 1303,
          "content_ko": "오늘은 일찍 자야 돼요 내일 일찍 나가거든요😻 그리고 내일은 오랜만에 출장이야! 짐도 싸야 해! 😻😻",
          "content_zh": "今天得早点睡，因为明天要早起呢😻 明天好久没出差了！还得收拾行李！😻😻",
          "image_count": 0,
          "image_urls": null,
          "local_image_paths": null,
          "replied_at": "2025-06-22 11:55:21"
        }
      ]
    },
    {
      "id": 476,
      "post_uuid": "0197977a-7a21-67c0-df90-aade26342b86",
      "title_ko": null,
      "title_zh": null,
      "content_ko": "💜지은 언니!💜\n이건 모기 잡을 때 🍯팁이얌 ~!! \n양 옆으로 말고 🌟위 아래로⭐️ 때려잡기 !!! 명심해 !!💫✨ ",
      "content_zh": "💜知恩姐姐！💜\n这个是打蚊子的🍯小窍门~！！\n不是左右拍打🌟而是上下拍打⭐️！要记住哦！！💫✨",
      "post_time": "2025-06-22 11:51:15",
      "image_count": 1,
      "image_urls": "https://dearimage.iu101.org/images/posts/post_476_2075161418.jpeg",
      "local_image_paths": "https://dearimage.iu101.org/images/posts/post_476_2075161418.jpeg",
      "likes": 0,
      "comments": 0,
      "views": 0,
      "board": "Dear. IU",
      "members_only": 0,
      "author_username": "♥ㅏ꼬운유애나아효밍♥",
      "author_avatar": "https://dearimage.iu101.org/images/avatars/avatar_197.gif",
      "author_local_avatar": "https://dearimage.iu101.org/images/avatars/avatar_197.gif",
      "fan_comments": [],
      "direct_iu_replies": [
        {
          "id": 1302,
          "content_ko": "아하 심장 뛴다",
          "content_zh": "啊心跳加速了",
          "image_count": 0,
          "image_urls": null,
          "local_image_paths": null,
          "replied_at": "2025-06-22 11:56:57"
        }
      ]
    },
    {
      "id": 475,
      "post_uuid": "01979778-4bd9-e2b2-2dfa-0261c6985350",
      "title_ko": null,
      "title_zh": null,
      "content_ko": "퇴근하고 집에 와서 쉬고 있었는데 아부지께서 모임에 가셨다가 회를 사오셨어요. 지은 님은 회 좋아하세요? 좋아하시면 회 한 점 하실래요...?!🤭",
      "content_zh": "下班回到家正在休息，爸爸从聚会回来时买了生鱼片。知恩喜欢生鱼片吗？如果喜欢的话，要吃一片吗…？🤭",
      "post_time": "2025-06-22 11:48:52",
      "image_count": 1,
      "image_urls": "https://dearimage.iu101.org/images/posts/post_475_73381297.jpg",
      "local_image_paths": "https://dearimage.iu101.org/images/posts/post_475_73381297.jpg",
      "likes": 0,
      "comments": 0,
      "views": 0,
      "board": "Dear. IU",
      "members_only": 0,
      "author_username": "앵미쓰",
      "author_avatar": null,
      "author_local_avatar": null,
      "fan_comments": [],
      "direct_iu_replies": [
        {
          "id": 1301,
          "content_ko": "와 앵미쓰 쌈 좀 싸시네 😱 (아~ 한 거임)",
          "content_zh": "哇英美姐卷点生菜吃 😱 （啊~是这个意思）",
          "image_count": 0,
          "image_urls": null,
          "local_image_paths": null,
          "replied_at": "2025-06-22 12:00:41"
        }
      ]
    },
    {
      "id": 474,
      "post_uuid": "01979778-1070-dd61-e678-b87428373648",
      "title_ko": null,
      "title_zh": null,
      "content_ko": "지은님~ 피곤할 때 무조건 먹는 힐링 음식 있나요?! 🍜🍲✨ 저도 따라 먹어볼래요앙 🥹💕",
      "content_zh": "知恩～累的时候一定吃的治愈食物有吗？！🍜🍲✨ 我也想跟着吃 🥹💕",
      "post_time": "2025-06-22 11:48:37",
      "image_count": 0,
      "image_urls": null,
      "local_image_paths": null,
      "likes": 0,
      "comments": 0,
      "views": 0,
      "board": "Dear. IU",
      "members_only": 0,
      "author_username": "VernforIU",
      "author_avatar": "https://dearimage.iu101.org/images/avatars/avatar_162.jpeg",
      "author_local_avatar": "https://dearimage.iu101.org/images/avatars/avatar_162.jpeg",
      "fan_comments": [],
      "direct_iu_replies": [
        {
          "id": 1300,
          "content_ko": "저는 피곤하면 그렇게 잘 익은 백김치가 땡겨요🥴",
          "content_zh": "我累了的时候就想要那种很熟的白泡菜🥴",
          "image_count": 0,
          "image_urls": null,
          "local_image_paths": null,
          "replied_at": "2025-06-22 12:01:17"
        }
      ]
    },
    {
      "id": 473,
      "post_uuid": "01979775-a430-52dd-fb1e-02e4891796aa",
      "title_ko": null,
      "title_zh": null,
      "content_ko": "언니!!!고수 좋아해요?!!🥰🥰🥰",
      "content_zh": "姐姐！！！喜欢菠菜吗？！🥰🥰🥰",
      "post_time": "2025-06-22 11:45:58",
      "image_count": 1,
      "image_urls": "https://dearimage.iu101.org/images/posts/post_473_166597242.jpg",
      "local_image_paths": "https://dearimage.iu101.org/images/posts/post_473_166597242.jpg",
      "likes": 0,
      "comments": 0,
      "views": 0,
      "board": "Dear. IU",
      "members_only": 0,
      "author_username": "IU_IstanU",
      "author_avatar": null,
      "author_local_avatar": null,
      "fan_comments": [],
      "direct_iu_replies": [
        {
          "id": 1299,
          "content_ko": "미안.. 나 진짜 고수는 미안..🥹",
          "content_zh": "抱歉..我真的不是高手抱歉..🥹",
          "image_count": 0,
          "image_urls": null,
          "local_image_paths": null,
          "replied_at": "2025-06-22 12:06:14"
        }
      ]
    },
    {
      "id": 472,
      "post_uuid": "01979775-849c-f12d-1e1f-7f56c62034a7",
      "title_ko": null,
      "title_zh": null,
      "content_ko": "지은아, 너는 커피 안 마시잖아.\n근데 너무 졸린데 자면 안 되는 상황이면,\n그럴 땐 뭐 먹거나 마셔서 정신 차려?\n(밥 빼고!)",
      "content_zh": "知恩啊，你不喝咖啡的。\n但如果太困了又不能睡的话，\n那时候吃什么或喝什么来提神呢？\n（除了吃饭！）",
      "post_time": "2025-06-22 11:45:50",
      "image_count": 0,
      "image_urls": null,
      "local_image_paths": null,
      "likes": 0,
      "comments": 0,
      "views": 0,
      "board": "Dear. IU",
      "members_only": 0,
      "author_username": "파김치",
      "author_avatar": "https://dearimage.iu101.org/images/avatars/avatar_39.jpeg",
      "author_local_avatar": "https://dearimage.iu101.org/images/avatars/avatar_39.jpeg",
      "fan_comments": [],
      "direct_iu_replies": [
        {
          "id": 1298,
          "content_ko": "물..? 미안 뭔가 딱히 없네 🥺 \n‘밥 빼고’라고 말했지만 밥 말고는 진짜 생각나는 게 없네.. 오늘도 아침에 엄청 졸렸는데 밥 먹으니까 깨더라고!! 나는 아침에 배가 많이 고픈 편이라서",
          "content_zh": "水...？对不起，好像真的没什么特别的 🥺  \n虽然说了“除了饭”，但除了饭真的想不出别的了.. 今天早上也特别困，但一吃饭就清醒了！！我早上通常很饿",
          "image_count": 0,
          "image_urls": null,
          "local_image_paths": null,
          "replied_at": "2025-06-22 12:10:41"
        }
      ]
    },
    {
      "id": 480,
      "post_uuid": "0197976a-a7ae-d9b2-1ff0-4e786db7917e",
      "title_ko": null,
      "title_zh": null,
      "content_ko": "아이유님 김밥을 자주드시는거같은데 좋아해서 자주먹는거에요? 아니면 헤메스 셋팅해놓고 먹기 편한걸 고르다보니 자주 먹는거에요? 초밥🍣은 어때요? 묵은지 광어 초밥이 내 차애초밥이거든요(최애는 그냥 광어 삼애는 고등어)",
      "content_zh": "IU，看你经常吃紫菜包饭，是因为喜欢才常吃的吗？还是因为海王星套餐里设置好了，挑着方便吃的就经常吃了？寿司 sushi 怎么样？我最爱的是腌萝卜比目鱼寿司（最喜爱的就是比目鱼，其次是鲭鱼）。",
      "post_time": "2025-06-22 11:33:58",
      "image_count": 0,
      "image_urls": null,
      "local_image_paths": null,
      "likes": 0,
      "comments": 0,
      "views": 0,
      "board": "Dear. IU",
      "members_only": 0,
      "author_username": "미니언",
      "author_avatar": "https://dearimage.iu101.org/images/avatars/avatar_89.gif",
      "author_local_avatar": "https://dearimage.iu101.org/images/avatars/avatar_89.gif",
      "fan_comments": [],
      "direct_iu_replies": [
        {
          "id": 1306,
          "content_ko": "네 김밥이 먹기 편해서요! 맛있기도 하고🥴\n초밥도 좋아하는데 쉬는 날 종종 먹어요! ",
          "content_zh": "是的，紫菜包饭吃起来很方便！也很好吃呢🥴",
          "image_count": 0,
          "image_urls": null,
          "local_image_paths": null,
          "replied_at": "2025-06-22 11:37:13"
        }
      ]
    },
    {
      "id": 479,
      "post_uuid": "01979767-128c-b10e-5d32-b8eec075c3ba",
      "title_ko": null,
      "title_zh": null,
      "content_ko": "언니, 나 오늘 열매 먹었어, 좋아하니?",
      "content_zh": "姐姐，我今天吃了果实，喜欢吗？",
      "post_time": "2025-06-22 11:30:04",
      "image_count": 1,
      "image_urls": "https://dearimage.iu101.org/images/posts/post_479_354275899.jpeg",
      "local_image_paths": "https://dearimage.iu101.org/images/posts/post_479_354275899.jpeg",
      "likes": 0,
      "comments": 0,
      "views": 0,
      "board": "Dear. IU",
      "members_only": 0,
      "author_username": "Holssiwyiis_",
      "author_avatar": null,
      "author_local_avatar": null,
      "fan_comments": [],
      "direct_iu_replies": [
        {
          "id": 1305,
          "content_ko": "리치 너무 맛있지 🥴",
          "content_zh": "梨汁太好喝了 🥴",
          "image_count": 0,
          "image_urls": null,
          "local_image_paths": null,
          "replied_at": "2025-06-22 11:39:20"
        }
      ]
    },
    {
      "id": 478,
      "post_uuid": "01979755-5f63-8345-c8a3-a43f97fabbe8",
      "title_ko": null,
      "title_zh": null,
      "content_ko": "언니! 첫 여름 완주 너무 재밌게 읽었어요🌳\n전 28살인데 책을 읽기 시작한지 얼마 안돼서..\n데미안은 내용은 재밌는데 좀 문체가 어려운 것 같고 채식주의자, 소년이 온다, 레몬, 최선의 삶, 창문넘어 도망친 100세 노인, 첫 여름 완주 정도..? 재밌게 읽었어용!\n소설이 아무래도 읽기 쉽고 재밌는 것 같은데 추천해줄만한 생각나는 소설 있나요🤔?",
      "content_zh": "姐姐！《初夏完跑》读得非常有趣呢🌳\n我今年28岁，刚开始读书没多久..\n《德米安》内容虽然有趣，但文风有点难懂。《素食主义者》、《少年来了》、《柠檬》、《最好的人生》、《从窗户逃出去的100岁老人》、《初夏完跑》这些书我都读得很开心！\n小说读起来比较轻松有趣，有什么想到的可以推荐的小说吗🤔？",
      "post_time": "2025-06-22 11:10:44",
      "image_count": 0,
      "image_urls": null,
      "local_image_paths": null,
      "likes": 0,
      "comments": 0,
      "views": 0,
      "board": "Dear. IU",
      "members_only": 0,
      "author_username": "금요일에만날까요",
      "author_avatar": null,
      "author_local_avatar": null,
      "fan_comments": [],
      "direct_iu_replies": [
        {
          "id": 1304,
          "content_ko": "재미라고 하니까 딱 떠오른 작품이 \n퀴즈쇼 진짜 재밌는데..!! ",
          "content_zh": "说到有趣，马上想到的作品就是",
          "image_count": 0,
          "image_urls": null,
          "local_image_paths": null,
          "replied_at": "2025-06-22 11:53:14"
        }
      ]
    },
    {
      "id": 483,
      "post_uuid": "019796db-8bd4-366b-eb09-499b44f5b20b",
      "title_ko": null,
      "title_zh": null,
      "content_ko": "언니 최근에 엄청 크게 웃은 에피소드가 있나요?🤣\n언니의 일상에 항상 웃음이 끊이질 않길 바래..⭐️",
      "content_zh": "姐姐最近有什么让你笑得特别开心的事情吗？🤣\n希望姐姐的日常生活总是充满欢声笑语..⭐️",
      "post_time": "2025-06-22 08:57:40",
      "image_count": 0,
      "image_urls": null,
      "local_image_paths": null,
      "likes": 0,
      "comments": 0,
      "views": 0,
      "board": "Dear. IU",
      "members_only": 0,
      "author_username": "은정♥",
      "author_avatar": "https://dearimage.iu101.org/images/avatars/avatar_402.jpeg",
      "author_local_avatar": "https://dearimage.iu101.org/images/avatars/avatar_402.jpeg",
      "fan_comments": [],
      "direct_iu_replies": [
        {
          "id": 1309,
          "content_ko": "나 그 최근에 샘이랑 마크 자컨 찍었을 때 \n그때 진~~짜 크게, 많이 웃었던 거 같애!! ㅋㅋ",
          "content_zh": "我最近和萨姆还有马克一起拍照的时候，\n那时候真的笑得特别大声，特别开心！！哈哈",
          "image_count": 0,
          "image_urls": null,
          "local_image_paths": null,
          "replied_at": "2025-06-22 09:24:52"
        }
      ]
    },
    {
      "id": 482,
      "post_uuid": "019796d3-cdee-5b70-eade-0ce7414eb897",
      "title_ko": null,
      "title_zh": null,
      "content_ko": "비빔국수의 킥은 김치라고 생각합니다. 꿈빛셰프유님도 그렇게 생각하시나요?",
      "content_zh": "我觉得拌面的点睛之笔是泡菜。梦之厨师IU也是这样想的吗？",
      "post_time": "2025-06-22 08:49:12",
      "image_count": 1,
      "image_urls": "https://dearimage.iu101.org/images/posts/post_482_1637159578.jpeg",
      "local_image_paths": "https://dearimage.iu101.org/images/posts/post_482_1637159578.jpeg",
      "likes": 0,
      "comments": 0,
      "views": 0,
      "board": "Dear. IU",
      "members_only": 0,
      "author_username": "김지현",
      "author_avatar": "https://dearimage.iu101.org/images/avatars/avatar_310.jpeg",
      "author_local_avatar": "https://dearimage.iu101.org/images/avatars/avatar_310.jpeg",
      "fan_comments": [],
      "direct_iu_replies": [
        {
          "id": 1308,
          "content_ko": " 찾았다 나의 영혼의 단짝.",
          "content_zh": "找到了我的灵魂伴侣。",
          "image_count": 0,
          "image_urls": null,
          "local_image_paths": null,
          "replied_at": "2025-06-22 09:31:58"
        }
      ]
    },
    {
      "id": 481,
      "post_uuid": "019796d0-3416-d3ee-2bd2-272e9413b265",
      "title_ko": null,
      "title_zh": null,
      "content_ko": "놀러가고 싶은 마음과 매출을 놓지 못하는\n이 이중적인 양가감정을 어쩌면 좋을까 😭😭\n사장님은 너무 어려워~~~!",
      "content_zh": "想去玩的心情和放不下销售额的纠结，\n这种双重的矛盾情感该怎么办才好呢 😭😭\n当老板真是太难了~~~！",
      "post_time": "2025-06-22 08:45:16",
      "image_count": 0,
      "image_urls": null,
      "local_image_paths": null,
      "likes": 0,
      "comments": 0,
      "views": 0,
      "board": "Dear. IU",
      "members_only": 0,
      "author_username": "딱복물복",
      "author_avatar": "https://dearimage.iu101.org/images/avatars/avatar_254.jpeg",
      "author_local_avatar": "https://dearimage.iu101.org/images/avatars/avatar_254.jpeg",
      "fan_comments": [],
      "direct_iu_replies": [
        {
          "id": 1307,
          "content_ko": "천방지축 돌아가는 사장님의 하루~~~\n우리의 사장~~님은 정말 못 말려~~~~~",
          "content_zh": "转来转去的一天啊，社长的日常~~~",
          "image_count": 0,
          "image_urls": null,
          "local_image_paths": null,
          "replied_at": "2025-06-22 09:35:16"
        }
      ]
    },
    {
      "id": 484,
      "post_uuid": "019796b3-0557-12ed-9f92-2c2287cfd6fc",
      "title_ko": null,
      "title_zh": null,
      "content_ko": "언니 오늘도 김밥 드셨나요ˀ̣ˀ̣ˀ̣ˀ̣ ",
      "content_zh": "姐姐今天也吃了紫菜包饭吗ˀ̣ˀ̣ˀ̣ˀ̣",
      "post_time": "2025-06-22 08:13:24",
      "image_count": 0,
      "image_urls": null,
      "local_image_paths": null,
      "likes": 0,
      "comments": 0,
      "views": 0,
      "board": "Dear. IU",
      "members_only": 0,
      "author_username": "현비누",
      "author_avatar": null,
      "author_local_avatar": null,
      "fan_comments": [],
      "direct_iu_replies": [
        {
          "id": 1310,
          "content_ko": "오늘은~~ 현장 밥차 먹었어요! ",
          "content_zh": "今天吃了现场的餐车！",
          "image_count": 0,
          "image_urls": null,
          "local_image_paths": null,
          "replied_at": "2025-06-22 08:32:38"
        }
      ]
    },
    {
      "id": 491,
      "post_uuid": "019796b2-d617-e301-6b19-c49b8ac5f677",
      "title_ko": null,
      "title_zh": null,
      "content_ko": "언니 오늘 희주 대사 많았어요?\n희주는 말 빠르게 하는 스타일이에요?\n촬영하느라 많이 바쁘시죠? 무대 위에서도, 화면 속에서도 언제나 멋진 언니 응원하고 있어요! \n오늘도 힘내세요",
      "content_zh": "姐姐，今天熙珠的台词很多吗？\n熙珠是说话很快的风格吗？\n拍摄一定很忙吧？无论在舞台上还是镜头里，姐姐总是那么帅气，我们一直在为你加油！\n今天也要加油哦",
      "post_time": "2025-06-22 08:13:12",
      "image_count": 0,
      "image_urls": null,
      "local_image_paths": null,
      "likes": 0,
      "comments": 0,
      "views": 0,
      "board": "Dear. IU",
      "members_only": 0,
      "author_username": "융융",
      "author_avatar": null,
      "author_local_avatar": null,
      "fan_comments": [],
      "direct_iu_replies": [
        {
          "id": 1317,
          "content_ko": "오늘은 광고 찍는 중이고 내일이 진짜 대사 많은 날이에요!! 그래서 오늘도 계속 중얼중얼 중 ㅋㅋ어떻게 알았지! 😳",
          "content_zh": "今天在拍广告，明天才是真正台词很多的一天！！所以今天也在一直念念有词 ㅋㅋ怎么知道的！ 😳",
          "image_count": 0,
          "image_urls": null,
          "local_image_paths": null,
          "replied_at": "2025-06-22 08:14:41"
        }
      ]
    },
    {
      "id": 490,
      "post_uuid": "019796b2-a945-08f6-04f9-b76ab7937072",
      "title_ko": null,
      "title_zh": null,
      "content_ko": "언니 베리즈에 댓글 안 달고 글만 보고 갈 때도 있어요?!",
      "content_zh": "姐姐在Berryz只看文章不评论也有吗？！",
      "post_time": "2025-06-22 08:13:00",
      "image_count": 0,
      "image_urls": null,
      "local_image_paths": null,
      "likes": 0,
      "comments": 0,
      "views": 0,
      "board": "Dear. IU",
      "members_only": 0,
      "author_username": "유랑이",
      "author_avatar": "https://dearimage.iu101.org/images/avatars/avatar_433.jpeg",
      "author_local_avatar": "https://dearimage.iu101.org/images/avatars/avatar_433.jpeg",
      "fan_comments": [],
      "direct_iu_replies": [
        {
          "id": 1316,
          "content_ko": "넹! 😽",
          "content_zh": "嗯！ 😽",
          "image_count": 0,
          "image_urls": null,
          "local_image_paths": null,
          "replied_at": "2025-06-22 08:15:22"
        }
      ]
    },
    {
      "id": 489,
      "post_uuid": "019796ae-e77f-2995-ca7b-1bd79c6eff2b",
      "title_ko": null,
      "title_zh": null,
      "content_ko": "언니, 오늘 하늘 봤어요? 저쪽 서울은 흐려요? 여기 하늘은 살짝 흐린데도 예뻐요. 언니는 흐린 날 좋아해요?",
      "content_zh": "姐姐，今天看了天空吗？那边首尔阴天吗？这里虽然有点阴天但也很好看。姐姐喜欢阴天吗？",
      "post_time": "2025-06-22 08:08:54",
      "image_count": 0,
      "image_urls": null,
      "local_image_paths": null,
      "likes": 0,
      "comments": 0,
      "views": 0,
      "board": "Dear. IU",
      "members_only": 0,
      "author_username": "不甜",
      "author_avatar": "https://dearimage.iu101.org/images/avatars/avatar_22.jpeg",
      "author_local_avatar": "https://dearimage.iu101.org/images/avatars/avatar_22.jpeg",
      "fan_comments": [],
      "direct_iu_replies": [
        {
          "id": 1315,
          "content_ko": "저는 흐린 날, 비오는 날 좋아해요!",
          "content_zh": "我喜欢阴天，下雨天！",
          "image_count": 0,
          "image_urls": null,
          "local_image_paths": null,
          "replied_at": "2025-06-22 08:16:50"
        }
      ]
    },
    {
      "id": 488,
      "post_uuid": "019796ae-32c6-a2a8-b2e8-e509351744e4",
      "title_ko": null,
      "title_zh": null,
      "content_ko": "언니~ 오늘 FYI 좀 알려주실 수 있을까요? 부탁드려요~ 🥹🥹🥹",
      "content_zh": "姐姐~今天FYI能告诉我一些吗？拜托了~ 🥹🥹🥹",
      "post_time": "2025-06-22 08:08:08",
      "image_count": 0,
      "image_urls": null,
      "local_image_paths": null,
      "likes": 0,
      "comments": 0,
      "views": 0,
      "board": "Dear. IU",
      "members_only": 0,
      "author_username": "큐레스♡",
      "author_avatar": null,
      "author_local_avatar": null,
      "fan_comments": [],
      "direct_iu_replies": [
        {
          "id": 1314,
          "content_ko": "FYI 뭘까... 뭘까.... 내가 놓치고 있는 새로운 신조어인가...",
          "content_zh": "FYI是什么...是什么....是我错过了什么新流行语吗...",
          "image_count": 0,
          "image_urls": null,
          "local_image_paths": null,
          "replied_at": "2025-06-22 08:17:58"
        }
      ]
    },
    {
      "id": 487,
      "post_uuid": "019796a8-3dba-2159-5949-68fa0207bd63",
      "title_ko": null,
      "title_zh": null,
      "content_ko": "아이유 님, 안녕하세요! \n저도 브로콜리를 먹으면서 \"음… 별로 맛이 없네?\" 하고 있었는데, 갑자기 금명이가 \"나 브로콜리 안 좋아해!\" 하고 외치는 거예요. 순간 입에 있던 브로콜리가 그대로 멈춰 선 줄 알았지 뭐예요! 😂🥦 \n\n드라마 재탕 중인데, 그 장면 혹시 기억나시나요?  \n다시 봐도 유난히 재미있고 기억에 남더라고요. 아이유 님은 브로콜리 좋아하시나요?\n결국 저도 브로콜리가 꼭 사탕이라고 상상하며 먹어야만 했답니다. \n\n정말 연기라기보다 금명이의 진짜 마음이 느껴지는 순간 같아서, 오래 기억에 남았어요.  💜 \n\n#브로콜리맛있게먹는법",
      "content_zh": "IU，你好！\n我也在吃西兰花的时候心想\"嗯……没什么味道啊？\"，突然金明喊了句\"我不喜欢西兰花！\"，我嘴里的西兰花瞬间就停住了！😂 broccoli\n\n正在重播这部剧，不知道你还记得那个场景吗？\n即使再看一遍，也觉得特别有趣，印象深刻。IU你喜不喜欢西兰花呢？\n最后我也只能想象着西兰花是糖果才能吃下去。\n\n感觉这瞬间不是演技，而是金明的真实心情，所以一直记到现在。💜\n\n#如何美味地吃西兰花",
      "post_time": "2025-06-22 08:01:37",
      "image_count": 0,
      "image_urls": null,
      "local_image_paths": null,
      "likes": 0,
      "comments": 0,
      "views": 0,
      "board": "Dear. IU",
      "members_only": 0,
      "author_username": "Like_A_Star",
      "author_avatar": null,
      "author_local_avatar": null,
      "fan_comments": [],
      "direct_iu_replies": [
        {
          "id": 1313,
          "content_ko": "브로콜리 초장 찍거나 살짝 간 더해서 먹으면 얼마나 맛있는데애 😻",
          "content_zh": "西兰花蘸酱油或者稍微加点盐吃有多好吃啊 😻",
          "image_count": 0,
          "image_urls": null,
          "local_image_paths": null,
          "replied_at": "2025-06-22 08:24:41"
        }
      ]
    },
    {
      "id": 486,
      "post_uuid": "019796a6-6469-b113-9f58-891665333b95",
      "title_ko": null,
      "title_zh": null,
      "content_ko": "언니는 배추김치 먹을 때 어느 부분이 좋아요?\n나는 이파리 부분!! 줄기 부분은 너무 뻣뻣하고 양념이 잘 읎어",
      "content_zh": "姐姐，吃白菜泡菜的时候喜欢哪个部分？\n我喜欢叶子部分！茎的部分太硬了，而且不容易入味。",
      "post_time": "2025-06-22 07:59:36",
      "image_count": 0,
      "image_urls": null,
      "local_image_paths": null,
      "likes": 0,
      "comments": 0,
      "views": 0,
      "board": "Dear. IU",
      "members_only": 0,
      "author_username": "✨리다✨",
      "author_avatar": null,
      "author_local_avatar": null,
      "fan_comments": [],
      "direct_iu_replies": [
        {
          "id": 1312,
          "content_ko": "저는 줄기 부분을 좋아하는데 😽 \n노나 먹자",
          "content_zh": "我喜欢茎的部分 😽",
          "image_count": 0,
          "image_urls": null,
          "local_image_paths": null,
          "replied_at": "2025-06-22 08:25:53"
        }
      ]
    },
    {
      "id": 485,
      "post_uuid": "019796a3-f721-2dfb-c6cb-e8a8817374e3",
      "title_ko": null,
      "title_zh": null,
      "content_ko": "월요일에 아티비가 나온다는 뜻 인가요? 아님 월요일부터 아티비을 찍는다는 말인가여??",
      "content_zh": "是说周一会有Artibe出来吗？还是说从周一开始拍Artibe？",
      "post_time": "2025-06-22 07:56:57",
      "image_count": 1,
      "image_urls": "https://dearimage.iu101.org/images/posts/post_485_698980455.jpg",
      "local_image_paths": "https://dearimage.iu101.org/images/posts/post_485_698980455.jpg",
      "likes": 0,
      "comments": 0,
      "views": 0,
      "board": "Dear. IU",
      "members_only": 0,
      "author_username": "뮈푀",
      "author_avatar": null,
      "author_local_avatar": null,
      "fan_comments": [],
      "direct_iu_replies": [
        {
          "id": 1311,
          "content_ko": "악 내가 헷갈리게 말했구나 미안!! 🙀 첫 촬영이라는 얘기였고 애나들이 보는 건 드라마 방영할 때일 거야..",
          "content_zh": "啊我表达得让人困惑了对不起！！ 🙀 我说的是第一次拍摄，粉丝们看到的话应该是在电视剧播出的时候..",
          "image_count": 0,
          "image_urls": null,
          "local_image_paths": null,
          "replied_at": "2025-06-22 08:29:35"
        }
      ]
    }
  ]
}