{
  "page": 3,
  "totalPages": 45,
  "total": 895,
  "data": [
    {
      "id": 59,
      "post_uuid": "019bd826-9890-dfba-530c-eadead893049",
      "title_ko": null,
      "title_zh": null,
      "content_ko": "지은아, 모자랑 마스크 쓰고 있으면 정말 아무도 못 알아봐?",
      "content_zh": "知恩啊，戴着帽子和口罩真的谁都认不出来吗？",
      "post_time": "2026-01-19 21:26:06",
      "image_count": 0,
      "image_urls": null,
      "local_image_paths": null,
      "likes": 0,
      "comments": 0,
      "views": 0,
      "board": "Dear. IU",
      "members_only": 0,
      "author_username": "파김치",
      "author_avatar": "https://dearimage.iu101.org/images/avatars/avatar_39.jpeg",
      "author_local_avatar": "https://dearimage.iu101.org/images/avatars/avatar_39.jpeg",
      "fan_comments": [],
      "direct_iu_replies": [
        {
          "id": 230,
          "content_ko": "절대 못 알아 봐!!",
          "content_zh": "绝对认不出来的！！",
          "image_count": 0,
          "image_urls": null,
          "local_image_paths": null,
          "replied_at": "2026-01-19 21:28:52"
        }
      ]
    },
    {
      "id": 58,
      "post_uuid": "019bd826-87f3-d0b2-2fc8-3ffbee071e34",
      "title_ko": null,
      "title_zh": null,
      "content_ko": "일어나자마자 베리즈 온 거야?",
      "content_zh": "一起床就看到Berryz的消息了吗？",
      "post_time": "2026-01-19 21:26:02",
      "image_count": 0,
      "image_urls": null,
      "local_image_paths": null,
      "likes": 0,
      "comments": 0,
      "views": 0,
      "board": "Dear. IU",
      "members_only": 0,
      "author_username": "이혜인",
      "author_avatar": "https://dearimage.iu101.org/images/avatars/avatar_101.jpg",
      "author_local_avatar": "https://dearimage.iu101.org/images/avatars/avatar_101.jpg",
      "fan_comments": [],
      "direct_iu_replies": [
        {
          "id": 229,
          "content_ko": "응 보고 싶어서",
          "content_zh": "嗯因为想见你",
          "image_count": 0,
          "image_urls": null,
          "local_image_paths": null,
          "replied_at": "2026-01-19 21:29:33"
        }
      ]
    },
    {
      "id": 57,
      "post_uuid": "019bd826-839b-4706-6863-a816256ec8ef",
      "title_ko": null,
      "title_zh": null,
      "content_ko": "언니 사월 좋아해요？ 내 생일은 사월이에요",
      "content_zh": "姐姐喜欢四月吗？我的生日在四月",
      "post_time": "2026-01-19 21:26:01",
      "image_count": 0,
      "image_urls": null,
      "local_image_paths": null,
      "likes": 0,
      "comments": 0,
      "views": 0,
      "board": "Dear. IU",
      "members_only": 0,
      "author_username": "즈즈",
      "author_avatar": "https://dearimage.iu101.org/images/avatars/avatar_151.jpeg",
      "author_local_avatar": "https://dearimage.iu101.org/images/avatars/avatar_151.jpeg",
      "fan_comments": [],
      "direct_iu_replies": [
        {
          "id": 228,
          "content_ko": "즈즈야 사월해♥️",
          "content_zh": "兹兹呀四月快乐♥️",
          "image_count": 0,
          "image_urls": null,
          "local_image_paths": null,
          "replied_at": "2026-01-19 21:29:50"
        }
      ]
    },
    {
      "id": 56,
      "post_uuid": "019bd826-7bb9-d884-ec33-8f1d7b8465a6",
      "title_ko": null,
      "title_zh": null,
      "content_ko": "언니 오늘 다시 잘거에요? 아님 스케줄?!",
      "content_zh": "姐姐今天要早点休息吗？还是有行程？！",
      "post_time": "2026-01-19 21:25:59",
      "image_count": 0,
      "image_urls": null,
      "local_image_paths": null,
      "likes": 0,
      "comments": 0,
      "views": 0,
      "board": "Dear. IU",
      "members_only": 0,
      "author_username": "나의사랑시",
      "author_avatar": null,
      "author_local_avatar": null,
      "fan_comments": [],
      "direct_iu_replies": [
        {
          "id": 227,
          "content_ko": "나가야 한다아앙아앙으아 몸이 천근만근",
          "content_zh": "必须出去啊啊啊啊身体千斤重",
          "image_count": 0,
          "image_urls": null,
          "local_image_paths": null,
          "replied_at": "2026-01-19 21:30:17"
        }
      ]
    },
    {
      "id": 55,
      "post_uuid": "019bd826-7536-7667-5ca6-5b20ec21a1db",
      "title_ko": null,
      "title_zh": null,
      "content_ko": "지은아, 마할 키타 한 번만 해주면 내 한 달은 바로 행복해져 🥹",
      "content_zh": "知恩啊，给我发一次Mahal kita的话我一个月都会很开心呢 🥹",
      "post_time": "2026-01-19 21:25:57",
      "image_count": 0,
      "image_urls": null,
      "local_image_paths": null,
      "likes": 0,
      "comments": 0,
      "views": 0,
      "board": "Dear. IU",
      "members_only": 0,
      "author_username": "paulabianca",
      "author_avatar": "https://dearimage.iu101.org/images/avatars/avatar_74.jpeg",
      "author_local_avatar": "https://dearimage.iu101.org/images/avatars/avatar_74.jpeg",
      "fan_comments": [],
      "direct_iu_replies": [
        {
          "id": 226,
          "content_ko": "행복한 한 달 보내 mahal kita♥️",
          "content_zh": "幸福的一个月 mahal kita♥️",
          "image_count": 0,
          "image_urls": null,
          "local_image_paths": null,
          "replied_at": "2026-01-19 21:30:49"
        }
      ]
    },
    {
      "id": 54,
      "post_uuid": "019bd826-2d30-a7fc-f37d-304f2ebeeb65",
      "title_ko": null,
      "title_zh": null,
      "content_ko": "저번에 두쫀쿠 사서 드실때 서울은 품절대란 이였을텐데 어케 구매 했어용?? 품절 아닌곳이 있었나용??? ",
      "content_zh": "上次买铜鼓的时候首尔应该都断货了，你是怎么买到的？还有没断货的地方吗？",
      "post_time": "2026-01-19 21:25:39",
      "image_count": 0,
      "image_urls": null,
      "local_image_paths": null,
      "likes": 0,
      "comments": 0,
      "views": 0,
      "board": "Dear. IU",
      "members_only": 0,
      "author_username": "뮈푀",
      "author_avatar": null,
      "author_local_avatar": null,
      "fan_comments": [],
      "direct_iu_replies": [
        {
          "id": 225,
          "content_ko": "품절 아닌 곳 꽤 많았음!!",
          "content_zh": "没售罄的地方还挺多的！！",
          "image_count": 0,
          "image_urls": null,
          "local_image_paths": null,
          "replied_at": "2026-01-19 21:32:31"
        }
      ]
    },
    {
      "id": 53,
      "post_uuid": "019bd826-1545-2ff1-6616-bff9028e7128",
      "title_ko": null,
      "title_zh": null,
      "content_ko": "지은이는 알람 한개만 설정해 아님 분 간격으로 설정해?! ",
      "content_zh": "知恩只设一个闹钟还是间隔分钟设置的？！",
      "post_time": "2026-01-19 21:25:33",
      "image_count": 0,
      "image_urls": null,
      "local_image_paths": null,
      "likes": 0,
      "comments": 0,
      "views": 0,
      "board": "Dear. IU",
      "members_only": 0,
      "author_username": "쏘닉",
      "author_avatar": "https://dearimage.iu101.org/images/avatars/avatar_149.jpg",
      "author_local_avatar": "https://dearimage.iu101.org/images/avatars/avatar_149.jpg",
      "fan_comments": [],
      "direct_iu_replies": [
        {
          "id": 224,
          "content_ko": "한 개!",
          "content_zh": "一个！",
          "image_count": 0,
          "image_urls": null,
          "local_image_paths": null,
          "replied_at": "2026-01-19 21:33:03"
        }
      ]
    },
    {
      "id": 52,
      "post_uuid": "019bd826-0f6f-259b-6d36-284826060572",
      "title_ko": null,
      "title_zh": null,
      "content_ko": "언니, 1월이 거의 끝나가는데, 이번 달에 제일 좋았던 일이 뭔지 말해줄 수 있어?",
      "content_zh": "姐姐，一月快结束了，这个月最开心的事情是什么呢？",
      "post_time": "2026-01-19 21:25:31",
      "image_count": 0,
      "image_urls": null,
      "local_image_paths": null,
      "likes": 0,
      "comments": 0,
      "views": 0,
      "board": "Dear. IU",
      "members_only": 0,
      "author_username": "Damaris",
      "author_avatar": null,
      "author_local_avatar": null,
      "fan_comments": [],
      "direct_iu_replies": [
        {
          "id": 223,
          "content_ko": "이번 달에 좋은 일 너무 많았어서 못 꼽겠어 🥺",
          "content_zh": "这个月好事太多都没法一一列举 🥺",
          "image_count": 0,
          "image_urls": null,
          "local_image_paths": null,
          "replied_at": "2026-01-19 21:34:18"
        }
      ]
    },
    {
      "id": 51,
      "post_uuid": "019bd825-fdae-992b-24e0-5ff0792c57ac",
      "title_ko": null,
      "title_zh": null,
      "content_ko": "애들이 베리즈 답장 받으면 진짜 아이유 맞냐고 의심하는데 그 친구들에게 한 마디 해주세요!ㅋㅋㅋㅋ",
      "content_zh": "孩子们收到IU的回复后真的会怀疑是不是本人，跟那些朋友说句话吧！哈哈哈",
      "post_time": "2026-01-19 21:25:27",
      "image_count": 0,
      "image_urls": null,
      "local_image_paths": null,
      "likes": 0,
      "comments": 0,
      "views": 0,
      "board": "Dear. IU",
      "members_only": 0,
      "author_username": "윤주안",
      "author_avatar": "https://dearimage.iu101.org/images/avatars/avatar_37.jpeg",
      "author_local_avatar": "https://dearimage.iu101.org/images/avatars/avatar_37.jpeg",
      "fan_comments": [],
      "direct_iu_replies": [
        {
          "id": 222,
          "content_ko": "주안이 친구들아 주안이랑 같이 언제 한 번 같이 놀러 와~~~~~🥰",
          "content_zh": "珠安朋友们和珠安一起什么时候来玩一次~~~~~🥰",
          "image_count": 0,
          "image_urls": null,
          "local_image_paths": null,
          "replied_at": "2026-01-19 21:35:00"
        }
      ]
    },
    {
      "id": 50,
      "post_uuid": "019bd825-fd4c-6f2a-f9d5-9d78583148d9",
      "title_ko": null,
      "title_zh": null,
      "content_ko": "글 쓰다 막히면 보통 어떻게 하는 편이에요?",
      "content_zh": "写文章卡住的时候，你通常会怎么办？",
      "post_time": "2026-01-19 21:25:26",
      "image_count": 0,
      "image_urls": null,
      "local_image_paths": null,
      "likes": 0,
      "comments": 0,
      "views": 0,
      "board": "Dear. IU",
      "members_only": 0,
      "author_username": "0124",
      "author_avatar": null,
      "author_local_avatar": null,
      "fan_comments": [],
      "direct_iu_replies": [
        {
          "id": 221,
          "content_ko": "갑자기 다른 글을 쓴다..?",
          "content_zh": "突然写别的东西..？",
          "image_count": 0,
          "image_urls": null,
          "local_image_paths": null,
          "replied_at": "2026-01-19 21:35:41"
        }
      ]
    },
    {
      "id": 49,
      "post_uuid": "019bd825-e6f0-68c8-493d-32aa25bfec10",
      "title_ko": null,
      "title_zh": null,
      "content_ko": "전기장판 몇단계로 해놓고 주무세용??",
      "content_zh": "电热毯调到几档再睡呢？",
      "post_time": "2026-01-19 21:25:21",
      "image_count": 0,
      "image_urls": null,
      "local_image_paths": null,
      "likes": 0,
      "comments": 0,
      "views": 0,
      "board": "Dear. IU",
      "members_only": 0,
      "author_username": "뮈푀",
      "author_avatar": null,
      "author_local_avatar": null,
      "fan_comments": [],
      "direct_iu_replies": [
        {
          "id": 220,
          "content_ko": "최고 뜨시게",
          "content_zh": "最高温度",
          "image_count": 0,
          "image_urls": null,
          "local_image_paths": null,
          "replied_at": "2026-01-19 21:36:11"
        }
      ]
    },
    {
      "id": 48,
      "post_uuid": "019bd825-e08b-87d7-3920-0661a1deda2b",
      "title_ko": null,
      "title_zh": null,
      "content_ko": "6시밖에 안됐지만 점메추좀해쥬라아🫠",
      "content_zh": "才6点而已，但还是给我点个外卖吧🫠",
      "post_time": "2026-01-19 21:25:19",
      "image_count": 0,
      "image_urls": null,
      "local_image_paths": null,
      "likes": 0,
      "comments": 0,
      "views": 0,
      "board": "Dear. IU",
      "members_only": 0,
      "author_username": "임지",
      "author_avatar": null,
      "author_local_avatar": null,
      "fan_comments": [],
      "direct_iu_replies": [
        {
          "id": 219,
          "content_ko": "오늘 날이 정말 춥잖아.... 무조건 국물 있는 거...!! 라면이라든가 쌀국수, 국밥, 우동 등?!",
          "content_zh": "今天天气真的很冷....一定要有汤...！！比如拉面、米线、米肠汤、乌冬面什么的？！",
          "image_count": 0,
          "image_urls": null,
          "local_image_paths": null,
          "replied_at": "2026-01-19 21:37:07"
        }
      ]
    },
    {
      "id": 47,
      "post_uuid": "019bd825-cbfb-bced-97e3-2c4fc52ae14f",
      "title_ko": null,
      "title_zh": null,
      "content_ko": "언니, 사람들 사이에서 큰소리를 내기 두려울땐 어떻게 해야 할까요? 저는 그게 너무 긴장돼요🥺",
      "content_zh": "姐姐，当害怕在人群中大声说话的时候该怎么办呢？我对此感到非常紧张🥺",
      "post_time": "2026-01-19 21:25:14",
      "image_count": 0,
      "image_urls": null,
      "local_image_paths": null,
      "likes": 0,
      "comments": 0,
      "views": 0,
      "board": "Dear. IU",
      "members_only": 0,
      "author_username": "희징",
      "author_avatar": null,
      "author_local_avatar": null,
      "fan_comments": [],
      "direct_iu_replies": [
        {
          "id": 218,
          "content_ko": "작게 말해서 도대체 뭐라는 건지 궁금하게 만들어 보는 건 어떨까요..?",
          "content_zh": "小声说话让人好奇到底在说什么怎么样..？",
          "image_count": 0,
          "image_urls": null,
          "local_image_paths": null,
          "replied_at": "2026-01-19 21:38:05"
        }
      ]
    },
    {
      "id": 65,
      "post_uuid": "019bd823-1c2c-66a0-6c20-2f20f2a88fc7",
      "title_ko": null,
      "title_zh": null,
      "content_ko": "지은아, 오늘 몇 시에 일어났어?",
      "content_zh": "知恩啊，今天几点起床的？",
      "post_time": "2026-01-19 21:22:18",
      "image_count": 0,
      "image_urls": null,
      "local_image_paths": null,
      "likes": 0,
      "comments": 0,
      "views": 0,
      "board": "Dear. IU",
      "members_only": 0,
      "author_username": "파김치",
      "author_avatar": "https://dearimage.iu101.org/images/avatars/avatar_39.jpeg",
      "author_local_avatar": "https://dearimage.iu101.org/images/avatars/avatar_39.jpeg",
      "fan_comments": [],
      "direct_iu_replies": [
        {
          "id": 236,
          "content_ko": "6시! 40분 일찍 일어나 버렸어~~~~~!!",
          "content_zh": "6点了！提前40分钟就醒了~~~~~!!",
          "image_count": 0,
          "image_urls": null,
          "local_image_paths": null,
          "replied_at": "2026-01-19 21:23:11"
        }
      ]
    },
    {
      "id": 64,
      "post_uuid": "019bd823-0b28-14f6-52a8-462cec9f04b7",
      "title_ko": null,
      "title_zh": null,
      "content_ko": "언니 진짜 제발 이번년도 콘 시험기간만은 제발 안돼 !!!!!!!!!!!!!!!!!!!!!!!!!! 진짜 절대 안돼 !!!!!!!!!!!!!!!!!!!!!",
      "content_zh": "姐姐真的拜托了，这次考试期间绝对不行！绝对不行！",
      "post_time": "2026-01-19 21:22:13",
      "image_count": 0,
      "image_urls": null,
      "local_image_paths": null,
      "likes": 0,
      "comments": 0,
      "views": 0,
      "board": "Dear. IU",
      "members_only": 0,
      "author_username": "우리집알감자",
      "author_avatar": "https://dearimage.iu101.org/images/avatars/avatar_44.jpeg",
      "author_local_avatar": "https://dearimage.iu101.org/images/avatars/avatar_44.jpeg",
      "fan_comments": [],
      "direct_iu_replies": [
        {
          "id": 235,
          "content_ko": "몇 월인데 🥺",
          "content_zh": "现在是几月啊 🥺",
          "image_count": 0,
          "image_urls": null,
          "local_image_paths": null,
          "replied_at": "2026-01-19 21:23:48"
        }
      ]
    },
    {
      "id": 74,
      "post_uuid": "019bd7ec-6952-c5f6-6dd9-2767f9b7de0c",
      "title_ko": null,
      "title_zh": null,
      "content_ko": "언니 오늘도 화이팅! 사랑해요🤍",
      "content_zh": "姐姐今天也要加油！爱你🤍",
      "post_time": "2026-01-19 20:22:33",
      "image_count": 0,
      "image_urls": null,
      "local_image_paths": null,
      "likes": 0,
      "comments": 0,
      "views": 0,
      "board": "Dear. IU",
      "members_only": 0,
      "author_username": "꺄아",
      "author_avatar": null,
      "author_local_avatar": null,
      "fan_comments": [],
      "direct_iu_replies": [
        {
          "id": 245,
          "content_ko": "화이팅화이팅!!!! 가보자!!!!!",
          "content_zh": "加油加油！！出发吧！！！",
          "image_count": 0,
          "image_urls": null,
          "local_image_paths": null,
          "replied_at": "2026-01-19 21:06:03"
        }
      ]
    },
    {
      "id": 73,
      "post_uuid": "019bd7da-a786-31f2-f55a-4dda06e6dc3a",
      "title_ko": null,
      "title_zh": null,
      "content_ko": "징짱！내일은 제 음력 생일이에요. 어떻게 이 하루를 보낼지 고민 중이에요.언니는 음력 생일을 챙겨본 적 있어요?\n제 양력 생일은 크리스마스라서 기억하기 쉬워요. 그래서 보통은 친구들이랑 양력 생일을 보내고, 가족이랑은 음력 생일을 보내요.이렇게 하면 생일을 두 번이나 보낼 수 있거든요 🤤",
      "content_zh": "真棒！明天是我农历生日。正在考虑怎么度过这一天呢。姐姐你有过过农历生日吗？\n我的阳历生日是圣诞节，所以很好记。通常我会和朋友们一起过阳历生日，和家人一起过农历生日。这样我就能过两次生日了🤤",
      "post_time": "2026-01-19 20:03:09",
      "image_count": 0,
      "image_urls": null,
      "local_image_paths": null,
      "likes": 0,
      "comments": 0,
      "views": 0,
      "board": "Dear. IU",
      "members_only": 0,
      "author_username": "아이유의크레페૮᎔•⩊•᎔ა",
      "author_avatar": "https://dearimage.iu101.org/images/avatars/avatar_7.jpeg",
      "author_local_avatar": "https://dearimage.iu101.org/images/avatars/avatar_7.jpeg",
      "fan_comments": [],
      "direct_iu_replies": [
        {
          "id": 244,
          "content_ko": "음력생일은 잘 안 챙기게 되네? 생일!! 축하해!! ♥️ 맛난 거 먹고 축하 많이 받고 세상 눈 닿는 곳마다 예쁜 하루 보내!!",
          "content_zh": "农历生日总是不太在意？生日！！恭喜！！♥️吃好吃的，多收祝福，在所有目光所及之处度过美好的一天！！",
          "image_count": 0,
          "image_urls": null,
          "local_image_paths": null,
          "replied_at": "2026-01-19 21:07:41"
        }
      ]
    },
    {
      "id": 72,
      "post_uuid": "019bd79b-cd89-64c6-5819-2e0efbccb681",
      "title_ko": null,
      "title_zh": null,
      "content_ko": "언니 드라마 촬영 다 끝나셨어요??🫣￼",
      "content_zh": "姐姐电视剧拍摄结束了吗？🫣",
      "post_time": "2026-01-19 18:54:30",
      "image_count": 0,
      "image_urls": null,
      "local_image_paths": null,
      "likes": 0,
      "comments": 0,
      "views": 0,
      "board": "Dear. IU",
      "members_only": 0,
      "author_username": "징짱여친",
      "author_avatar": null,
      "author_local_avatar": null,
      "fan_comments": [],
      "direct_iu_replies": [
        {
          "id": 243,
          "content_ko": "아직🥰 거의 거의 거의 막바지긴 함!!! 원래 어느 현장이든 마지막 2주가 참 길어..",
          "content_zh": "还是🥰差不多快结束了！！不管哪个片场最后两周都特别长..",
          "image_count": 0,
          "image_urls": null,
          "local_image_paths": null,
          "replied_at": "2026-01-19 21:08:50"
        }
      ]
    },
    {
      "id": 71,
      "post_uuid": "019bd741-db4c-513d-8598-a3a43dec7479",
      "title_ko": null,
      "title_zh": null,
      "content_ko": "징니야!!! 나 내일 첫 출근인데 긴장돼서 잠이 안 와ㅠ",
      "content_zh": "知恩啊！！明天第一次上班好紧张睡不着ㅠ",
      "post_time": "2026-01-19 17:16:16",
      "image_count": 0,
      "image_urls": null,
      "local_image_paths": null,
      "likes": 0,
      "comments": 0,
      "views": 0,
      "board": "Dear. IU",
      "members_only": 0,
      "author_username": "새벽:",
      "author_avatar": null,
      "author_local_avatar": null,
      "fan_comments": [],
      "direct_iu_replies": [
        {
          "id": 242,
          "content_ko": "따뜻하게 입고 인사 잘 하고! 점심도 먹는둥마는둥 하지 말고 든든하게 먹어!! 잘 할 수 있을 거야!!! 파이팅♥️",
          "content_zh": "穿暖和点，好好打招呼！午餐也不要随便对付，好好吃一顿！！你一定可以的！！加油♥️",
          "image_count": 0,
          "image_urls": null,
          "local_image_paths": null,
          "replied_at": "2026-01-19 21:10:29"
        }
      ]
    },
    {
      "id": 70,
      "post_uuid": "019bd6e0-7c36-92cb-a072-9c7e4aad4dad",
      "title_ko": null,
      "title_zh": null,
      "content_ko": "나를 좋아하는 사람이 없어요..",
      "content_zh": "没有人喜欢我..",
      "post_time": "2026-01-19 15:29:54",
      "image_count": 0,
      "image_urls": null,
      "local_image_paths": null,
      "likes": 0,
      "comments": 0,
      "views": 0,
      "board": "Dear. IU",
      "members_only": 0,
      "author_username": "연우ㅜ",
      "author_avatar": null,
      "author_local_avatar": null,
      "fan_comments": [],
      "direct_iu_replies": [
        {
          "id": 241,
          "content_ko": "나 있잖아 연우야",
          "content_zh": "我有件事想跟你说，连우啊",
          "image_count": 0,
          "image_urls": null,
          "local_image_paths": null,
          "replied_at": "2026-01-19 21:11:58"
        }
      ]
    }
  ]
}