{
  "page": 39,
  "totalPages": 39,
  "total": 1904,
  "data": [
    {
      "id": 1903,
      "reply_uuid": "0196ceed-f016-84a4-c7d1-7e06de9c1b49",
      "content_ko": "눈물 겨웠던 과정",
      "content_zh": "泪流满面的过程",
      "replied_at": "2025-05-14 13:13:42",
      "board": "From. IU",
      "image_count": 1,
      "image_urls": "https://dearimage.iu101.org/images/replies/reply_1903_349615127.jpeg",
      "iu_local_image_paths": "https://dearimage.iu101.org/images/replies/reply_1903_349615127.jpeg",
      "is_reply_to_comment": 0,
      "reply_to_username": null,
      "post_id": 1067,
      "post_title_ko": null,
      "post_title_zh": null,
      "post_time": "2025-05-14 13:13:42",
      "post_image_count": 1,
      "post_image_urls": "https://dearimage.iu101.org/images/posts/post_1067_349615127.jpeg",
      "post_local_image_paths": "https://dearimage.iu101.org/images/posts/post_1067_349615127.jpeg",
      "fan_comment_ko": null,
      "fan_comment_zh": null,
      "fan_image_count": null,
      "fan_image_urls": null,
      "fan_local_image_paths": null,
      "fan_username": null,
      "fan_avatar": null,
      "fan_local_avatar": null
    },
    {
      "id": 1904,
      "reply_uuid": "169839",
      "content_ko": "일단 디어유로 피신!",
      "content_zh": "先逃到Dear U吧！",
      "replied_at": "2025-05-14 13:12:28",
      "board": "Dear. IU",
      "image_count": 0,
      "image_urls": null,
      "iu_local_image_paths": null,
      "is_reply_to_comment": 0,
      "reply_to_username": null,
      "post_id": 1068,
      "post_title_ko": null,
      "post_title_zh": null,
      "post_time": "2025-05-14 13:11:50",
      "post_image_count": 0,
      "post_image_urls": null,
      "post_local_image_paths": null,
      "fan_comment_ko": null,
      "fan_comment_zh": null,
      "fan_image_count": null,
      "fan_image_urls": null,
      "fan_local_image_paths": null,
      "fan_username": null,
      "fan_avatar": null,
      "fan_local_avatar": null
    },
    {
      "id": 1905,
      "reply_uuid": "166751",
      "content_ko": "대댓글이 안 돼………!!!!!!!!!!!! No!!!!!!!",
      "content_zh": "不能回复评论………！！！！！！ 不！！！！！",
      "replied_at": "2025-05-14 13:09:47",
      "board": "From. IU",
      "image_count": 0,
      "image_urls": null,
      "iu_local_image_paths": null,
      "is_reply_to_comment": 0,
      "reply_to_username": null,
      "post_id": 1069,
      "post_title_ko": null,
      "post_title_zh": null,
      "post_time": "2025-05-14 13:05:50",
      "post_image_count": 1,
      "post_image_urls": "https://dearimage.iu101.org/images/posts/post_1069_1440771977.jpeg",
      "post_local_image_paths": "https://dearimage.iu101.org/images/posts/post_1069_1440771977.jpeg",
      "fan_comment_ko": null,
      "fan_comment_zh": null,
      "fan_image_count": null,
      "fan_image_urls": null,
      "fan_local_image_paths": null,
      "fan_username": null,
      "fan_avatar": null,
      "fan_local_avatar": null
    },
    {
      "id": 1906,
      "reply_uuid": "0196cee6-bd6f-46ef-aa32-7fa1fcd5809f",
      "content_ko": "아무튼 무슨 챌린지",
      "content_zh": "总之是什么挑战",
      "replied_at": "2025-05-14 13:05:50",
      "board": "From. IU",
      "image_count": 1,
      "image_urls": "https://dearimage.iu101.org/images/replies/reply_1906_1440771977.jpeg",
      "iu_local_image_paths": "https://dearimage.iu101.org/images/replies/reply_1906_1440771977.jpeg",
      "is_reply_to_comment": 0,
      "reply_to_username": null,
      "post_id": 1069,
      "post_title_ko": null,
      "post_title_zh": null,
      "post_time": "2025-05-14 13:05:50",
      "post_image_count": 1,
      "post_image_urls": "https://dearimage.iu101.org/images/posts/post_1069_1440771977.jpeg",
      "post_local_image_paths": "https://dearimage.iu101.org/images/posts/post_1069_1440771977.jpeg",
      "fan_comment_ko": null,
      "fan_comment_zh": null,
      "fan_image_count": null,
      "fan_image_urls": null,
      "fan_local_image_paths": null,
      "fan_username": null,
      "fan_avatar": null,
      "fan_local_avatar": null
    }
  ]
}