{
  "page": 42,
  "totalPages": 42,
  "total": 2066,
  "data": [
    {
      "post_id": 1059,
      "post_title_ko": null,
      "post_title_zh": null,
      "post_time": "2025-05-14 16:55:01",
      "post_image_count": 0,
      "post_image_urls": null,
      "post_local_image_paths": null,
      "board": "From. IU",
      "id": -1059500000,
      "reply_uuid": "0196cfb8-8e8d-3e79-1c77-5199b116e725-direct-1893",
      "content_ko": "Dear. 개발자님🫶\n개발자님!! 디어유를 쭉쭉 내리면서 읽다가 특정 글을 클릭해서 댓글을 달고 뒤로가기 버튼을 누르면 방금 클릭한 그 글에서부터 다시 읽어 내려갈 수 있으면 좋겠는데 가장 상단 글로 올라가져요 🥹 \n나중에 시간 나실 때 업데이트 해주시면 감사하겠습니다 \n그 외에는 다 최고예요 베리즈 짱! 🫐🍓 안녕히 주무세용",
      "content_zh": "亲爱的开发者您好🫶\n开发者您好！！我在浏览DearU的时候，往下翻看帖子，点击某一篇帖子评论后，再按返回键，希望能继续从刚才点击的那篇帖子开始往下读，但现在却会跳回到最上面的帖子 🥹\n希望您以后有时间的时候能更新一下，谢谢您\n其他方面都很棒，Berryz最赞！🫐🍓 晚安",
      "replied_at": "2025-05-14 16:55:01",
      "image_count": 0,
      "image_urls": null,
      "iu_local_image_paths": null,
      "is_reply_to_comment": 0,
      "reply_to_username": null,
      "fan_comment_ko": null,
      "fan_comment_zh": null,
      "fan_image_count": null,
      "fan_image_urls": null,
      "fan_local_image_paths": null,
      "fan_username": null,
      "fan_avatar": null,
      "fan_local_avatar": null
    },
    {
      "id": 1894,
      "reply_uuid": "196321",
      "content_ko": "진달래 렛츠기릿!!",
      "content_zh": "杜鹃花lets go!!",
      "replied_at": "2025-05-14 16:43:34",
      "board": "Dear. IU",
      "image_count": 0,
      "image_urls": null,
      "iu_local_image_paths": null,
      "is_reply_to_comment": 0,
      "reply_to_username": null,
      "post_id": 1060,
      "post_title_ko": null,
      "post_title_zh": null,
      "post_time": "2025-05-14 15:36:05",
      "post_image_count": 1,
      "post_image_urls": "https://dearimage.iu101.org/images/posts/post_1060_596554565.jpg",
      "post_local_image_paths": "https://dearimage.iu101.org/images/posts/post_1060_596554565.jpg",
      "fan_comment_ko": "이 꽃은 복사꽃인가요 벚꽃인가요 아님 진달래?",
      "fan_comment_zh": "这花是杜鹃花还是樱花还是迎春花？",
      "fan_image_count": 1,
      "fan_image_urls": "https://dearimage.iu101.org/images/posts/post_1060_596554565.jpg",
      "fan_local_image_paths": "https://dearimage.iu101.org/images/posts/post_1060_596554565.jpg",
      "fan_username": "두새",
      "fan_avatar": null,
      "fan_local_avatar": null
    },
    {
      "id": 1895,
      "reply_uuid": "195807",
      "content_ko": "앗!!!",
      "content_zh": "啊!!!",
      "replied_at": "2025-05-14 16:40:25",
      "board": "Dear. IU",
      "image_count": 0,
      "image_urls": null,
      "iu_local_image_paths": null,
      "is_reply_to_comment": 0,
      "reply_to_username": null,
      "post_id": 1061,
      "post_title_ko": null,
      "post_title_zh": null,
      "post_time": "2025-05-14 16:07:24",
      "post_image_count": 0,
      "post_image_urls": null,
      "post_local_image_paths": null,
      "fan_comment_ko": "언니 그래서 3초 알람은 어디로 증발했어요? \n가사라두 적어줘요..📝",
      "fan_comment_zh": "姐姐所以3秒闹钟消失到哪里去了？",
      "fan_image_count": null,
      "fan_image_urls": null,
      "fan_local_image_paths": null,
      "fan_username": "현정•___________•",
      "fan_avatar": null,
      "fan_local_avatar": null
    },
    {
      "id": -1062,
      "reply_uuid": "0196cef7-6e1c-e345-343b-df1eed4fc7d9",
      "content_ko": "7분 후에 만나자",
      "content_zh": "7分钟后见",
      "replied_at": "2025-05-14 13:24:04",
      "board": "From. IU",
      "image_count": 0,
      "image_urls": null,
      "iu_local_image_paths": null,
      "is_reply_to_comment": 0,
      "reply_to_username": null,
      "post_id": 1062,
      "post_title_ko": null,
      "post_title_zh": null,
      "post_time": "2025-05-14 13:24:04",
      "post_image_count": 0,
      "post_image_urls": null,
      "post_local_image_paths": null,
      "fan_comment_ko": null,
      "fan_comment_zh": null,
      "fan_image_count": null,
      "fan_image_urls": null,
      "fan_local_image_paths": null,
      "fan_username": null,
      "fan_avatar": null,
      "fan_local_avatar": null
    },
    {
      "post_id": 1062,
      "post_title_ko": null,
      "post_title_zh": null,
      "post_time": "2025-05-14 13:24:04",
      "post_image_count": 0,
      "post_image_urls": null,
      "post_local_image_paths": null,
      "board": "From. IU",
      "id": -1062500000,
      "reply_uuid": "0196cef7-6e1c-e345-343b-df1eed4fc7d9-direct-1896",
      "content_ko": "7분 후에 만나자",
      "content_zh": "七分钟后见",
      "replied_at": "2025-05-14 13:24:04",
      "image_count": 0,
      "image_urls": null,
      "iu_local_image_paths": null,
      "is_reply_to_comment": 0,
      "reply_to_username": null,
      "fan_comment_ko": null,
      "fan_comment_zh": null,
      "fan_image_count": null,
      "fan_image_urls": null,
      "fan_local_image_paths": null,
      "fan_username": null,
      "fan_avatar": null,
      "fan_local_avatar": null
    },
    {
      "id": 1897,
      "reply_uuid": "181936",
      "content_ko": "옆구리에 담 왔어요",
      "content_zh": "腰侧疼起来了",
      "replied_at": "2025-05-14 13:21:55",
      "board": "Free",
      "image_count": 0,
      "image_urls": null,
      "iu_local_image_paths": null,
      "is_reply_to_comment": 0,
      "reply_to_username": null,
      "post_id": 1063,
      "post_title_ko": null,
      "post_title_zh": null,
      "post_time": "2025-05-14 13:21:17",
      "post_image_count": 0,
      "post_image_urls": null,
      "post_local_image_paths": null,
      "fan_comment_ko": "언니 솔직히 말해봐요 고양이 사진 찍는거 100장정도 찍었죠!!\nㅋㅋㅋㅋㅋㅋㅋㅋ",
      "fan_comment_zh": "姐姐说实话，拍猫照片拍了大概100张吧！！",
      "fan_image_count": null,
      "fan_image_urls": null,
      "fan_local_image_paths": null,
      "fan_username": "현정•___________•",
      "fan_avatar": null,
      "fan_local_avatar": null
    },
    {
      "post_id": 1064,
      "post_title_ko": null,
      "post_title_zh": null,
      "post_time": "2025-05-14 13:19:06",
      "post_image_count": 1,
      "post_image_urls": "https://dearimage.iu101.org/images/posts/post_1064_1879772688.jpeg",
      "post_local_image_paths": "https://dearimage.iu101.org/images/posts/post_1064_1879772688.jpeg",
      "board": "From. IU",
      "id": -1064500001,
      "reply_uuid": "0196cef2-e3c5-7897-fea0-ac8f8252f559-direct-1898",
      "content_ko": "아이패드 키보드 연결 이슈로 이모티콘을 못 씀 ㅜㅜ",
      "content_zh": "因iPad键盘连接问题无法打表情符号 ㅜㅜ",
      "replied_at": "2025-05-14 13:21:09",
      "image_count": 0,
      "image_urls": null,
      "iu_local_image_paths": null,
      "is_reply_to_comment": 0,
      "reply_to_username": null,
      "fan_comment_ko": null,
      "fan_comment_zh": null,
      "fan_image_count": null,
      "fan_image_urls": null,
      "fan_local_image_paths": null,
      "fan_username": null,
      "fan_avatar": null,
      "fan_local_avatar": null
    },
    {
      "id": -1064,
      "reply_uuid": "0196cef2-e3c5-7897-fea0-ac8f8252f559",
      "content_ko": "베리즈 챌린지",
      "content_zh": "Varsity Challenge",
      "replied_at": "2025-05-14 13:19:06",
      "board": "From. IU",
      "image_count": 1,
      "image_urls": "https://dearimage.iu101.org/images/posts/post_1064_1879772688.jpeg",
      "iu_local_image_paths": "https://dearimage.iu101.org/images/posts/post_1064_1879772688.jpeg",
      "is_reply_to_comment": 0,
      "reply_to_username": null,
      "post_id": 1064,
      "post_title_ko": null,
      "post_title_zh": null,
      "post_time": "2025-05-14 13:19:06",
      "post_image_count": 1,
      "post_image_urls": "https://dearimage.iu101.org/images/posts/post_1064_1879772688.jpeg",
      "post_local_image_paths": "https://dearimage.iu101.org/images/posts/post_1064_1879772688.jpeg",
      "fan_comment_ko": null,
      "fan_comment_zh": null,
      "fan_image_count": null,
      "fan_image_urls": null,
      "fan_local_image_paths": null,
      "fan_username": null,
      "fan_avatar": null,
      "fan_local_avatar": null
    },
    {
      "post_id": 1064,
      "post_title_ko": null,
      "post_title_zh": null,
      "post_time": "2025-05-14 13:19:06",
      "post_image_count": 1,
      "post_image_urls": "https://dearimage.iu101.org/images/posts/post_1064_1879772688.jpeg",
      "post_local_image_paths": "https://dearimage.iu101.org/images/posts/post_1064_1879772688.jpeg",
      "board": "From. IU",
      "id": -1064500000,
      "reply_uuid": "0196cef2-e3c5-7897-fea0-ac8f8252f559-direct-1899",
      "content_ko": "베리즈 챌린지",
      "content_zh": "Berryz挑战",
      "replied_at": "2025-05-14 13:19:06",
      "image_count": 1,
      "image_urls": "https://dearimage.iu101.org/images/replies/reply_1899_1879772688.jpeg",
      "iu_local_image_paths": "https://dearimage.iu101.org/images/replies/reply_1899_1879772688.jpeg",
      "is_reply_to_comment": 0,
      "reply_to_username": null,
      "fan_comment_ko": null,
      "fan_comment_zh": null,
      "fan_image_count": null,
      "fan_image_urls": null,
      "fan_local_image_paths": null,
      "fan_username": null,
      "fan_avatar": null,
      "fan_local_avatar": null
    },
    {
      "id": -1065,
      "reply_uuid": "0196cef2-63a9-8fd3-e206-6b3620dfd317",
      "content_ko": "앞모습",
      "content_zh": "正面照",
      "replied_at": "2025-05-14 13:18:33",
      "board": "From. IU",
      "image_count": 1,
      "image_urls": "https://dearimage.iu101.org/images/posts/post_1065_6291648.jpeg",
      "iu_local_image_paths": "https://dearimage.iu101.org/images/posts/post_1065_6291648.jpeg",
      "is_reply_to_comment": 0,
      "reply_to_username": null,
      "post_id": 1065,
      "post_title_ko": null,
      "post_title_zh": null,
      "post_time": "2025-05-14 13:18:33",
      "post_image_count": 1,
      "post_image_urls": "https://dearimage.iu101.org/images/posts/post_1065_6291648.jpeg",
      "post_local_image_paths": "https://dearimage.iu101.org/images/posts/post_1065_6291648.jpeg",
      "fan_comment_ko": null,
      "fan_comment_zh": null,
      "fan_image_count": null,
      "fan_image_urls": null,
      "fan_local_image_paths": null,
      "fan_username": null,
      "fan_avatar": null,
      "fan_local_avatar": null
    },
    {
      "post_id": 1066,
      "post_title_ko": null,
      "post_title_zh": null,
      "post_time": "2025-05-14 13:14:42",
      "post_image_count": 1,
      "post_image_urls": "https://dearimage.iu101.org/images/posts/post_1066_471004481.jpeg",
      "post_local_image_paths": "https://dearimage.iu101.org/images/posts/post_1066_471004481.jpeg",
      "board": "From. IU",
      "id": -1066500001,
      "reply_uuid": "0196ceee-dccf-33c0-1879-aa666f6593fd-direct-1901",
      "content_ko": "복어 느낌",
      "content_zh": "河豚的感觉",
      "replied_at": "2025-05-14 13:15:08",
      "image_count": 0,
      "image_urls": null,
      "iu_local_image_paths": null,
      "is_reply_to_comment": 0,
      "reply_to_username": null,
      "fan_comment_ko": null,
      "fan_comment_zh": null,
      "fan_image_count": null,
      "fan_image_urls": null,
      "fan_local_image_paths": null,
      "fan_username": null,
      "fan_avatar": null,
      "fan_local_avatar": null
    },
    {
      "id": -1066,
      "reply_uuid": "0196ceee-dccf-33c0-1879-aa666f6593fd",
      "content_ko": "쉬운 버젼",
      "content_zh": "简单版本",
      "replied_at": "2025-05-14 13:14:42",
      "board": "From. IU",
      "image_count": 1,
      "image_urls": "https://dearimage.iu101.org/images/posts/post_1066_471004481.jpeg",
      "iu_local_image_paths": "https://dearimage.iu101.org/images/posts/post_1066_471004481.jpeg",
      "is_reply_to_comment": 0,
      "reply_to_username": null,
      "post_id": 1066,
      "post_title_ko": null,
      "post_title_zh": null,
      "post_time": "2025-05-14 13:14:42",
      "post_image_count": 1,
      "post_image_urls": "https://dearimage.iu101.org/images/posts/post_1066_471004481.jpeg",
      "post_local_image_paths": "https://dearimage.iu101.org/images/posts/post_1066_471004481.jpeg",
      "fan_comment_ko": null,
      "fan_comment_zh": null,
      "fan_image_count": null,
      "fan_image_urls": null,
      "fan_local_image_paths": null,
      "fan_username": null,
      "fan_avatar": null,
      "fan_local_avatar": null
    },
    {
      "id": -1067,
      "reply_uuid": "0196ceed-f016-84a4-c7d1-7e06de9c1b49",
      "content_ko": "눈물 겨웠던 과정",
      "content_zh": "泪流满面的过程",
      "replied_at": "2025-05-14 13:13:42",
      "board": "From. IU",
      "image_count": 1,
      "image_urls": "https://dearimage.iu101.org/images/posts/post_1067_349615127.jpeg",
      "iu_local_image_paths": "https://dearimage.iu101.org/images/posts/post_1067_349615127.jpeg",
      "is_reply_to_comment": 0,
      "reply_to_username": null,
      "post_id": 1067,
      "post_title_ko": null,
      "post_title_zh": null,
      "post_time": "2025-05-14 13:13:42",
      "post_image_count": 1,
      "post_image_urls": "https://dearimage.iu101.org/images/posts/post_1067_349615127.jpeg",
      "post_local_image_paths": "https://dearimage.iu101.org/images/posts/post_1067_349615127.jpeg",
      "fan_comment_ko": null,
      "fan_comment_zh": null,
      "fan_image_count": null,
      "fan_image_urls": null,
      "fan_local_image_paths": null,
      "fan_username": null,
      "fan_avatar": null,
      "fan_local_avatar": null
    },
    {
      "id": 1904,
      "reply_uuid": "169839",
      "content_ko": "일단 디어유로 피신!",
      "content_zh": "先逃到Dear U吧！",
      "replied_at": "2025-05-14 13:12:28",
      "board": "Dear. IU",
      "image_count": 0,
      "image_urls": null,
      "iu_local_image_paths": null,
      "is_reply_to_comment": 0,
      "reply_to_username": null,
      "post_id": 1068,
      "post_title_ko": null,
      "post_title_zh": null,
      "post_time": "2025-05-14 13:11:50",
      "post_image_count": 0,
      "post_image_urls": null,
      "post_local_image_paths": null,
      "fan_comment_ko": "언니 디어유로 오셔~!~!",
      "fan_comment_zh": "姐姐来Dear U吧~!~!",
      "fan_image_count": null,
      "fan_image_urls": null,
      "fan_local_image_paths": null,
      "fan_username": "preciousnow",
      "fan_avatar": null,
      "fan_local_avatar": null
    },
    {
      "post_id": 1069,
      "post_title_ko": null,
      "post_title_zh": null,
      "post_time": "2025-05-14 13:05:50",
      "post_image_count": 1,
      "post_image_urls": "https://dearimage.iu101.org/images/posts/post_1069_1440771977.jpeg",
      "post_local_image_paths": "https://dearimage.iu101.org/images/posts/post_1069_1440771977.jpeg",
      "board": "From. IU",
      "id": -1069500001,
      "reply_uuid": "0196cee6-bd6f-46ef-aa32-7fa1fcd5809f-direct-1905",
      "content_ko": "대댓글이 안 돼………!!!!!!!!!!!! No!!!!!!!",
      "content_zh": "不能回复评论………！！！！！！ 不！！！！！",
      "replied_at": "2025-05-14 13:09:47",
      "image_count": 0,
      "image_urls": null,
      "iu_local_image_paths": null,
      "is_reply_to_comment": 0,
      "reply_to_username": null,
      "fan_comment_ko": null,
      "fan_comment_zh": null,
      "fan_image_count": null,
      "fan_image_urls": null,
      "fan_local_image_paths": null,
      "fan_username": null,
      "fan_avatar": null,
      "fan_local_avatar": null
    },
    {
      "id": -1069,
      "reply_uuid": "0196cee6-bd6f-46ef-aa32-7fa1fcd5809f",
      "content_ko": "아무튼 무슨 챌린지",
      "content_zh": "总之是什么挑战",
      "replied_at": "2025-05-14 13:05:50",
      "board": "From. IU",
      "image_count": 1,
      "image_urls": "https://dearimage.iu101.org/images/posts/post_1069_1440771977.jpeg",
      "iu_local_image_paths": "https://dearimage.iu101.org/images/posts/post_1069_1440771977.jpeg",
      "is_reply_to_comment": 0,
      "reply_to_username": null,
      "post_id": 1069,
      "post_title_ko": null,
      "post_title_zh": null,
      "post_time": "2025-05-14 13:05:50",
      "post_image_count": 1,
      "post_image_urls": "https://dearimage.iu101.org/images/posts/post_1069_1440771977.jpeg",
      "post_local_image_paths": "https://dearimage.iu101.org/images/posts/post_1069_1440771977.jpeg",
      "fan_comment_ko": null,
      "fan_comment_zh": null,
      "fan_image_count": null,
      "fan_image_urls": null,
      "fan_local_image_paths": null,
      "fan_username": null,
      "fan_avatar": null,
      "fan_local_avatar": null
    }
  ]
}