{
  "page": 4,
  "totalPages": 4,
  "total": 74,
  "data": [
    {
      "id": 765,
      "post_uuid": "01971ff1-5d3e-67eb-df59-5d9d693cb061",
      "title_ko": null,
      "title_zh": null,
      "content_ko": "이제 진짜 자러간다😴\n난 어제 사전투표를 했어 사전 투표는 오늘 6 시까지래!!!\n\n두 번째 사진은 울 에일이언들한테만 살짝 공개하는 \n희주야.. 쉿\n\n세 번째 사진은 아까 뉴발 사진 지워졌다고 한 에일이언이가 있어어서 넣음 🙂‍↕️ (파는 거 아님) \n\n나 죄금이라도 자고 올게 좀 이따가 올 수 있으면 또 올게?\n잘들 놀고 있어 🫶 ",
      "content_zh": "现在真的要去睡觉了😴\n我昨天已经提前投票了，听说提前投票到今天下午 6 点截止！！！\n\n第二张照片只偷偷给你们爱丽丝看下\n熙珠啊..嘘\n\n第三张是因为刚才有人说新百伦的照片被删了所以放上来的 🙂‍↕️（不是卖东西）\n\n我也去睡会儿，等会儿如果能上来的话再来看你们？\n大家玩得开心 🫶",
      "post_time": "2025-05-30 06:46:41",
      "image_count": 3,
      "image_urls": "https://dearimage.iu101.org/images/posts/post_765_808136269.jpeg",
      "local_image_paths": "https://dearimage.iu101.org/images/posts/post_765_1353421120.jpeg|https://dearimage.iu101.org/images/posts/post_765_808136269.jpeg|https://dearimage.iu101.org/images/posts/post_765_1574245323.jpeg",
      "likes": 0,
      "comments": 0,
      "views": 0,
      "board": "From. IU",
      "members_only": 0,
      "author_username": "아이유",
      "author_avatar": "https://dearimage.iu101.org/images/iu-avatar.jpg",
      "author_local_avatar": null,
      "fan_comments": [],
      "direct_iu_replies": [
        {
          "id": 1595,
          "content_ko": "이제 진짜 자러간다😴\n난 어제 사전투표를 했어 사전 투표는 오늘 6시까지래!!!\n\n두 번째 사진은 울 에일이언들한테만 살짝 공개하는 \n희주야.. 쉿\n\n세 번째 사진은 아까 뉴발 사진 지워졌다고 한 에일이언이가 있어어서 넣음 🙂‍↕️ (파는 거 아님) \n\n나 죄금이라도 자고 올게 좀 이따가 올 수 있으면 또 올게?\n잘들 놀고 있어 🫶 ",
          "content_zh": "现在真的要去睡觉了😴\n我昨天已经提前投票了，听说提前投票到今天下午6点截止！！！\n\n第二张照片是只给我们的艾伦们偷偷看的\n秀珠啊..嘘\n\n第三张照片是因为刚才有人说新百伦的照片被删了所以放上来的 🙂‍↕️（不是卖东西）\n\n我也稍微睡一会儿，等会儿如果能上来的话再上来？\n大家好好玩 🫶",
          "image_count": 3,
          "image_urls": "https://dearimage.iu101.org/images/replies/reply_1595_1353421120.jpeg",
          "local_image_paths": "https://dearimage.iu101.org/images/replies/reply_1595_1353421120.jpeg",
          "replied_at": "2025-05-30 06:46:41"
        }
      ]
    },
    {
      "id": 856,
      "post_uuid": "01971253-e749-52b6-ba92-3281ce0ddc5b",
      "title_ko": null,
      "title_zh": null,
      "content_ko": "내가 너무 늦었지!! 나 왔어!!! ",
      "content_zh": "我来得太晚了！！我来了！！",
      "post_time": "2025-05-27 15:19:38",
      "image_count": 2,
      "image_urls": "https://dearimage.iu101.org/images/posts/post_856_843267993.jpeg",
      "local_image_paths": "https://dearimage.iu101.org/images/posts/post_856_843267993.jpeg|https://dearimage.iu101.org/images/posts/post_856_414170931.jpeg",
      "likes": 0,
      "comments": 0,
      "views": 0,
      "board": "From. IU",
      "members_only": 0,
      "author_username": "아이유",
      "author_avatar": "https://dearimage.iu101.org/images/iu-avatar.jpg",
      "author_local_avatar": null,
      "fan_comments": [],
      "direct_iu_replies": [
        {
          "id": 1688,
          "content_ko": "내가 너무 늦었지!! 나 왔어!!! ",
          "content_zh": "无法连接...",
          "image_count": 2,
          "image_urls": "https://dearimage.iu101.org/images/replies/reply_1688_843267993.jpeg",
          "local_image_paths": "https://dearimage.iu101.org/images/replies/reply_1688_843267993.jpeg",
          "replied_at": "2025-05-27 15:19:38"
        }
      ]
    },
    {
      "id": 906,
      "post_uuid": "0196f28b-8028-6798-b178-d3ff4dd9220f",
      "title_ko": null,
      "title_zh": null,
      "content_ko": "5+2+1 은 8 이기 때문에 🙂‍↕️\n5 월 21 일 8 시 8 분 공개 🙂‍↕️\n우리 8LIEN 들 잘 지내 보자 🫶",
      "content_zh": "因为 5+2+1 等于 8 🙂‍↕️\n5 月 21 日 8 点 8 分公开 🙂‍↕️\n我们 8LIEN 成员们要好好相处哦 🫶",
      "post_time": "2025-05-21 11:12:30",
      "image_count": 1,
      "image_urls": "https://dearimage.iu101.org/images/posts/post_906_441765303.jpeg",
      "local_image_paths": "https://dearimage.iu101.org/images/posts/post_906_441765303.jpeg",
      "likes": 0,
      "comments": 0,
      "views": 0,
      "board": "From. IU",
      "members_only": 0,
      "author_username": "아이유",
      "author_avatar": "https://dearimage.iu101.org/images/iu-avatar.jpg",
      "author_local_avatar": null,
      "fan_comments": [],
      "direct_iu_replies": [
        {
          "id": 1738,
          "content_ko": "5+2+1은 8이기 때문에 🙂‍↕️\n5월 21일 8시 8분 공개 🙂‍↕️\n우리 8LIEN들 잘 지내 보자 🫶",
          "content_zh": "5+2+1은 8이기 때문에 🙂‍↕️ 5월 21일 8시 8분 공개 🙂‍↕️ 우리 8LIEN들 잘 지내 보자 🫶",
          "image_count": 1,
          "image_urls": "https://dearimage.iu101.org/images/replies/reply_1738_441765303.jpeg",
          "local_image_paths": "https://dearimage.iu101.org/images/replies/reply_1738_441765303.jpeg",
          "replied_at": "2025-05-21 11:12:30"
        }
      ]
    },
    {
      "id": 907,
      "post_uuid": "0196ebe7-16a5-0a67-0ed2-0f47ec717fd8",
      "title_ko": null,
      "title_zh": null,
      "content_ko": "다들 맛저(가 아니고) 맛점 했나! 나는 묵은지 참치 김밥 먹음\n오늘 컨디션 좋고!! 🤸🏻‍♂️\n새벽부터 내내 유애나랑 통화하느라 정신 없는 중~.~",
      "content_zh": "大家都好好吃了（不是随便吃）吧！我吃了泡菜金枪鱼紫菜包饭。\n今天状态不错！！🤸🏻‍♂️\n从凌晨开始一直和유애通话，忙得不可开交~.~",
      "post_time": "2025-05-20 04:15:12",
      "image_count": 1,
      "image_urls": "https://dearimage.iu101.org/images/posts/post_907_1536242724.jpeg",
      "local_image_paths": "https://dearimage.iu101.org/images/posts/post_907_1536242724.jpeg",
      "likes": 0,
      "comments": 0,
      "views": 0,
      "board": "From. IU",
      "members_only": 0,
      "author_username": "아이유",
      "author_avatar": "https://dearimage.iu101.org/images/iu-avatar.jpg",
      "author_local_avatar": null,
      "fan_comments": [],
      "direct_iu_replies": [
        {
          "id": 1739,
          "content_ko": "다들 맛저(가 아니고) 맛점 했나! 나는 묵은지 참치 김밥 먹음\n오늘 컨디션 좋고!! 🤸🏻‍♂️\n새벽부터 내내 유애나랑 통화하느라 정신 없는 중~.~",
          "content_zh": "大家都美味晚餐(不是)美味午餐了吗! 我吃了陈芥菜紫菜包饭 今天状态很好!! 🤸🏻‍♂️ 从凌晨开始一直跟尤爱娜通话到现在精神恍惚中~.~",
          "image_count": 1,
          "image_urls": "https://dearimage.iu101.org/images/replies/reply_1739_1536242724.jpeg",
          "local_image_paths": "https://dearimage.iu101.org/images/replies/reply_1739_1536242724.jpeg",
          "replied_at": "2025-05-20 04:15:12"
        }
      ]
    },
    {
      "id": 947,
      "post_uuid": "0196e448-1cbd-66d6-4f0b-ce37f8f353b3",
      "title_ko": null,
      "title_zh": null,
      "content_ko": "요즘 내가 밀고 있는 갬성짤(?) 하나 두고 오늘은 \n이만 총총🫶\n다들 월요일 힘내자!!!! 아자자자!! \n잘 자요🥰",
      "content_zh": "最近我特别喜欢的一张搞笑图片，今天就放一张 \n就此停笔啦🫶 \n大家周一加油！！！ Fighting！！！ \n晚安🥰",
      "post_time": "2025-05-18 16:44:13",
      "image_count": 1,
      "image_urls": "https://dearimage.iu101.org/images/posts/post_947_115073913.jpeg",
      "local_image_paths": "https://dearimage.iu101.org/images/posts/post_947_115073913.jpeg",
      "likes": 0,
      "comments": 0,
      "views": 0,
      "board": "From. IU",
      "members_only": 0,
      "author_username": "아이유",
      "author_avatar": "https://dearimage.iu101.org/images/iu-avatar.jpg",
      "author_local_avatar": null,
      "fan_comments": [],
      "direct_iu_replies": [
        {
          "id": 1779,
          "content_ko": "요즘 내가 밀고 있는 갬성짤(?) 하나 두고 오늘은 \n이만 총총🫶\n다들 월요일 힘내자!!!! 아자자자!! \n잘 자요🥰",
          "content_zh": "最近我超爱的一张表情包，今天就放这里啦～\n大家周一加油！！！一起冲冲冲！！\n晚安🥰",
          "image_count": 1,
          "image_urls": "https://dearimage.iu101.org/images/replies/reply_1779_115073913.jpeg",
          "local_image_paths": "https://dearimage.iu101.org/images/replies/reply_1779_115073913.jpeg",
          "replied_at": "2025-05-18 16:44:13"
        }
      ]
    },
    {
      "id": 1029,
      "post_uuid": "0196d48b-3d0d-6a29-c98d-49b49366bf98",
      "title_ko": null,
      "title_zh": null,
      "content_ko": "그리고 오늘은 애순이의 생일이기도 하죠\nHappy birthday 오애순이🌸💗🍊",
      "content_zh": "而且今天也是爱顺的生日呢\n生日快乐，欧爱顺🌸💗🍊",
      "post_time": "2025-05-15 15:23:37",
      "image_count": 1,
      "image_urls": "https://dearimage.iu101.org/images/posts/post_1029_1032796818.jpeg",
      "local_image_paths": "https://dearimage.iu101.org/images/posts/post_1029_1032796818.jpeg",
      "likes": 0,
      "comments": 0,
      "views": 0,
      "board": "From. IU",
      "members_only": 0,
      "author_username": "아이유",
      "author_avatar": "https://dearimage.iu101.org/images/iu-avatar.jpg",
      "author_local_avatar": null,
      "fan_comments": [],
      "direct_iu_replies": [
        {
          "id": 1863,
          "content_ko": "그리고 오늘은 애순이의 생일이기도 하죠\nHappy birthday 오애순이🌸💗🍊",
          "content_zh": "而且今天也是爱顺的生日呢\n生日快乐，欧爱顺🌸💗🍊",
          "image_count": 1,
          "image_urls": "https://dearimage.iu101.org/images/replies/reply_1863_1032796818.jpeg",
          "local_image_paths": "https://dearimage.iu101.org/images/replies/reply_1863_1032796818.jpeg",
          "replied_at": "2025-05-15 15:23:37"
        }
      ]
    },
    {
      "id": 1030,
      "post_uuid": "0196d476-926c-5fcc-f295-af57a6c0407d",
      "title_ko": null,
      "title_zh": null,
      "content_ko": "유애나의 지은이 That's me! 우우우우 💗\n생일 축하 미리 고마워요 ",
      "content_zh": "尤爱娜的知恩 That's me！呜呜呜呜 💗",
      "post_time": "2025-05-15 15:01:02",
      "image_count": 1,
      "image_urls": "https://dearimage.iu101.org/images/posts/post_1030_1496559522.jpeg",
      "local_image_paths": "https://dearimage.iu101.org/images/posts/post_1030_1496559522.jpeg",
      "likes": 0,
      "comments": 0,
      "views": 0,
      "board": "From. IU",
      "members_only": 0,
      "author_username": "아이유",
      "author_avatar": "https://dearimage.iu101.org/images/iu-avatar.jpg",
      "author_local_avatar": null,
      "fan_comments": [],
      "direct_iu_replies": [
        {
          "id": 1864,
          "content_ko": "유애나의 지은이 That's me! 우우우우 💗\n생일 축하 미리 고마워요 ",
          "content_zh": "由爱娜的知恩 That's me! 呜呜呜 💗",
          "image_count": 1,
          "image_urls": "https://dearimage.iu101.org/images/replies/reply_1864_1496559522.jpeg",
          "local_image_paths": "https://dearimage.iu101.org/images/replies/reply_1864_1496559522.jpeg",
          "replied_at": "2025-05-15 15:01:02"
        }
      ]
    },
    {
      "id": 1059,
      "post_uuid": "0196cfb8-8e8d-3e79-1c77-5199b116e725",
      "title_ko": null,
      "title_zh": null,
      "content_ko": "Dear. 개발자님🫶\n개발자님!! 디어유를 쭉쭉 내리면서 읽다가 특정 글을 클릭해서 댓글을 달고 뒤로가기 버튼을 누르면 방금 클릭한 그 글에서부터 다시 읽어 내려갈 수 있으면 좋겠는데 가장 상단 글로 올라가져요 🥹 \n나중에 시간 나실 때 업데이트 해주시면 감사하겠습니다 \n그 외에는 다 최고예요 베리즈 짱! 🫐🍓 안녕히 주무세용",
      "content_zh": "亲爱的开发者您好🫶\n开发者您好！！我在浏览 DearU 的时候，往下翻看文章，点击某篇文章评论后，再按返回键，希望能继续从刚才点击的文章开始往下读，但现在会跳回到最上面的文章 🥹\n希望您有时间的时候能更新一下，谢谢\n其他方面都很棒，Berryz 最赞！🫐🍓 晚安",
      "post_time": "2025-05-14 16:55:01",
      "image_count": 0,
      "image_urls": null,
      "local_image_paths": null,
      "likes": 0,
      "comments": 0,
      "views": 0,
      "board": "From. IU",
      "members_only": 0,
      "author_username": "아이유",
      "author_avatar": "https://dearimage.iu101.org/images/iu-avatar.jpg",
      "author_local_avatar": null,
      "fan_comments": [],
      "direct_iu_replies": [
        {
          "id": 1893,
          "content_ko": "Dear. 개발자님🫶\n개발자님!! 디어유를 쭉쭉 내리면서 읽다가 특정 글을 클릭해서 댓글을 달고 뒤로가기 버튼을 누르면 방금 클릭한 그 글에서부터 다시 읽어 내려갈 수 있으면 좋겠는데 가장 상단 글로 올라가져요 🥹 \n나중에 시간 나실 때 업데이트 해주시면 감사하겠습니다 \n그 외에는 다 최고예요 베리즈 짱! 🫐🍓 안녕히 주무세용",
          "content_zh": "亲爱的开发者您好🫶\n开发者您好！！我在浏览DearU的时候，往下翻看帖子，点击某一篇帖子评论后，再按返回键，希望能继续从刚才点击的那篇帖子开始往下读，但现在却会跳回到最上面的帖子 🥹\n希望您以后有时间的时候能更新一下，谢谢您\n其他方面都很棒，Berryz最赞！🫐🍓 晚安",
          "image_count": 0,
          "image_urls": null,
          "local_image_paths": null,
          "replied_at": "2025-05-14 16:55:01"
        }
      ]
    },
    {
      "id": 1062,
      "post_uuid": "0196cef7-6e1c-e345-343b-df1eed4fc7d9",
      "title_ko": null,
      "title_zh": null,
      "content_ko": "7 분 후에 만나자",
      "content_zh": "7 分钟后见",
      "post_time": "2025-05-14 13:24:04",
      "image_count": 0,
      "image_urls": null,
      "local_image_paths": null,
      "likes": 0,
      "comments": 0,
      "views": 0,
      "board": "From. IU",
      "members_only": 0,
      "author_username": "아이유",
      "author_avatar": "https://dearimage.iu101.org/images/iu-avatar.jpg",
      "author_local_avatar": null,
      "fan_comments": [],
      "direct_iu_replies": [
        {
          "id": 1896,
          "content_ko": "7분 후에 만나자",
          "content_zh": "七分钟后见",
          "image_count": 0,
          "image_urls": null,
          "local_image_paths": null,
          "replied_at": "2025-05-14 13:24:04"
        }
      ]
    },
    {
      "id": 1064,
      "post_uuid": "0196cef2-e3c5-7897-fea0-ac8f8252f559",
      "title_ko": null,
      "title_zh": null,
      "content_ko": "베리즈 챌린지",
      "content_zh": "Varsity Challenge",
      "post_time": "2025-05-14 13:19:06",
      "image_count": 1,
      "image_urls": "https://dearimage.iu101.org/images/posts/post_1064_1879772688.jpeg",
      "local_image_paths": "https://dearimage.iu101.org/images/posts/post_1064_1879772688.jpeg",
      "likes": 0,
      "comments": 0,
      "views": 0,
      "board": "From. IU",
      "members_only": 0,
      "author_username": "아이유",
      "author_avatar": "https://dearimage.iu101.org/images/iu-avatar.jpg",
      "author_local_avatar": null,
      "fan_comments": [],
      "direct_iu_replies": [
        {
          "id": 1899,
          "content_ko": "베리즈 챌린지",
          "content_zh": "Berryz挑战",
          "image_count": 1,
          "image_urls": "https://dearimage.iu101.org/images/replies/reply_1899_1879772688.jpeg",
          "local_image_paths": "https://dearimage.iu101.org/images/replies/reply_1899_1879772688.jpeg",
          "replied_at": "2025-05-14 13:19:06"
        },
        {
          "id": 1898,
          "content_ko": "아이패드 키보드 연결 이슈로 이모티콘을 못 씀 ㅜㅜ",
          "content_zh": "因iPad键盘连接问题无法打表情符号 ㅜㅜ",
          "image_count": 0,
          "image_urls": null,
          "local_image_paths": null,
          "replied_at": "2025-05-14 13:21:09"
        }
      ]
    },
    {
      "id": 1065,
      "post_uuid": "0196cef2-63a9-8fd3-e206-6b3620dfd317",
      "title_ko": null,
      "title_zh": null,
      "content_ko": "앞모습",
      "content_zh": "正面照",
      "post_time": "2025-05-14 13:18:33",
      "image_count": 1,
      "image_urls": "https://dearimage.iu101.org/images/posts/post_1065_6291648.jpeg",
      "local_image_paths": "https://dearimage.iu101.org/images/posts/post_1065_6291648.jpeg",
      "likes": 0,
      "comments": 0,
      "views": 0,
      "board": "From. IU",
      "members_only": 0,
      "author_username": "아이유",
      "author_avatar": "https://dearimage.iu101.org/images/iu-avatar.jpg",
      "author_local_avatar": null,
      "fan_comments": [],
      "direct_iu_replies": [
        {
          "id": 1900,
          "content_ko": "앞모습",
          "content_zh": "正面照",
          "image_count": 1,
          "image_urls": "https://dearimage.iu101.org/images/replies/reply_1900_6291648.jpeg",
          "local_image_paths": "https://dearimage.iu101.org/images/replies/reply_1900_6291648.jpeg",
          "replied_at": "2025-05-14 13:18:33"
        }
      ]
    },
    {
      "id": 1066,
      "post_uuid": "0196ceee-dccf-33c0-1879-aa666f6593fd",
      "title_ko": null,
      "title_zh": null,
      "content_ko": "쉬운 버젼",
      "content_zh": "简单版本",
      "post_time": "2025-05-14 13:14:42",
      "image_count": 1,
      "image_urls": "https://dearimage.iu101.org/images/posts/post_1066_471004481.jpeg",
      "local_image_paths": "https://dearimage.iu101.org/images/posts/post_1066_471004481.jpeg",
      "likes": 0,
      "comments": 0,
      "views": 0,
      "board": "From. IU",
      "members_only": 0,
      "author_username": "아이유",
      "author_avatar": "https://dearimage.iu101.org/images/iu-avatar.jpg",
      "author_local_avatar": null,
      "fan_comments": [],
      "direct_iu_replies": [
        {
          "id": 1902,
          "content_ko": "쉬운 버젼",
          "content_zh": "简单版本",
          "image_count": 1,
          "image_urls": "https://dearimage.iu101.org/images/replies/reply_1902_471004481.jpeg",
          "local_image_paths": "https://dearimage.iu101.org/images/replies/reply_1902_471004481.jpeg",
          "replied_at": "2025-05-14 13:14:42"
        },
        {
          "id": 1901,
          "content_ko": "복어 느낌",
          "content_zh": "河豚的感觉",
          "image_count": 0,
          "image_urls": null,
          "local_image_paths": null,
          "replied_at": "2025-05-14 13:15:08"
        }
      ]
    },
    {
      "id": 1067,
      "post_uuid": "0196ceed-f016-84a4-c7d1-7e06de9c1b49",
      "title_ko": null,
      "title_zh": null,
      "content_ko": "눈물 겨웠던 과정",
      "content_zh": "泪流满面的过程",
      "post_time": "2025-05-14 13:13:42",
      "image_count": 1,
      "image_urls": "https://dearimage.iu101.org/images/posts/post_1067_349615127.jpeg",
      "local_image_paths": "https://dearimage.iu101.org/images/posts/post_1067_349615127.jpeg",
      "likes": 0,
      "comments": 0,
      "views": 0,
      "board": "From. IU",
      "members_only": 0,
      "author_username": "아이유",
      "author_avatar": "https://dearimage.iu101.org/images/iu-avatar.jpg",
      "author_local_avatar": null,
      "fan_comments": [],
      "direct_iu_replies": [
        {
          "id": 1903,
          "content_ko": "눈물 겨웠던 과정",
          "content_zh": "泪流满面的过程",
          "image_count": 1,
          "image_urls": "https://dearimage.iu101.org/images/replies/reply_1903_349615127.jpeg",
          "local_image_paths": "https://dearimage.iu101.org/images/replies/reply_1903_349615127.jpeg",
          "replied_at": "2025-05-14 13:13:42"
        }
      ]
    },
    {
      "id": 1069,
      "post_uuid": "0196cee6-bd6f-46ef-aa32-7fa1fcd5809f",
      "title_ko": null,
      "title_zh": null,
      "content_ko": "아무튼 무슨 챌린지",
      "content_zh": "总之是什么挑战",
      "post_time": "2025-05-14 13:05:50",
      "image_count": 1,
      "image_urls": "https://dearimage.iu101.org/images/posts/post_1069_1440771977.jpeg",
      "local_image_paths": "https://dearimage.iu101.org/images/posts/post_1069_1440771977.jpeg",
      "likes": 0,
      "comments": 0,
      "views": 0,
      "board": "From. IU",
      "members_only": 0,
      "author_username": "아이유",
      "author_avatar": "https://dearimage.iu101.org/images/iu-avatar.jpg",
      "author_local_avatar": null,
      "fan_comments": [],
      "direct_iu_replies": [
        {
          "id": 1906,
          "content_ko": "아무튼 무슨 챌린지",
          "content_zh": "总之是什么挑战",
          "image_count": 1,
          "image_urls": "https://dearimage.iu101.org/images/replies/reply_1906_1440771977.jpeg",
          "local_image_paths": "https://dearimage.iu101.org/images/replies/reply_1906_1440771977.jpeg",
          "replied_at": "2025-05-14 13:05:50"
        },
        {
          "id": 1905,
          "content_ko": "대댓글이 안 돼………!!!!!!!!!!!! No!!!!!!!",
          "content_zh": "不能回复评论………！！！！！！ 不！！！！！",
          "image_count": 0,
          "image_urls": null,
          "local_image_paths": null,
          "replied_at": "2025-05-14 13:09:47"
        }
      ]
    }
  ]
}
